Error Metrics,Testing Scores
mean target,3.588536950659963
F1,0.7895615299586061
F2,0.8096300921120191
F05,0.7704637954299813
Precision,0.758237084776555
Recall,0.823585669196082
R2,0.31570097328166635
Adjusted R2,0.20165113549527747
RMSE,1.2032479331012345
MSE,1.4478055885123928
MAE,0.9339910429644078
MAPE,36.8628860356716
Accuracy,63.1371139643284
Pearson C.C.,0.633031713941005
Spearman C.C.,0.5549191558059534
Spatial Distance,0.3669682860589948
NMI,0.9842704856642819
AIC,122.11617754792115
BIC,122.11617754792115
Data Size train,1311.0
Data Size test,330.0
Training Time (seconds),29.934165477752686
Testing Time (seconds),0.5804672241210938
