Total Number of rare cases: 149 out of 1729
Percentage of Rare Cases: 8.62%

number of rare in train: 103/1200
==> 8.583333333333334%%
number of rare in test: 46/529
==> 8.695652173913043%%
Total Number of rare cases: 149 out of 1729
Percentage of Rare Cases: 8.62%

number of rare in train: 103/1200
==> 8.583333333333334%%
number of rare in test: 46/529
==> 8.695652173913043%%
