Error Metrics,NGBoost Validation Scores,NGBoost Validation Scores std, NGBoost Test Scores
mean target,5.415292339,5.415292339,5.415292339
F1,0.955037825,0.049893259,0.917273663
F2,0.955189606,0.028952411,0.906596363
F05,0.955037825,0.049893259,0.928205461
Precision,0.957459317,0.085110361,0.935639243
Recall,0.956034316,0.01873549,0.899615196
R2,0.526680647,0.072493124,0.51564672
Adjusted R2,0.423185816,0.088318699,0.472743632
RMSE,1.145241978,0.675584668,1.793366921
MSE,2.767993832,1.137423528,3.216164914
MAE,1.418492058,0.055816019,1.354888279
MAPE,31.61905059,2.377589091,34.44856169
Accuracy,68.38094941,2.377589091,65.55143831
Pearson C.C.,0.852213739,0.197369113,0.723604476
Spearman C.C.,0.841566404,0.204739137,0.729962784
Spatial Distance,0.147786261,0.197369113,0.276395524
NMI,0.995716925,0.001940226,0.998794841
AIC,-0.916842718,211.6554445,546.7127465
BIC,-0.916842718,211.6554445,546.7127465
Probabilistic RMSE,1.145241978,0.675584668,1.793366921
Probabilistic NLL,3.732197779,3.079556386,4.500529763
Data Size train,-,-,"(1060, 38)"
Data Size test,-,-,"(468, 39)"
Training Time (seconds),-,-,7.756263018
Testing Time (seconds),-,-,1.013674736
