For param {'n_trees': 100, 'max_depth': 7, 'learning_rate': 0.1}
 *************************FOLDS Average***************************** 

Utility Based Metrics Across All
F1:  0.5988167597141062
F2:  0.6016694280325279
F05: 0.5961365047904238
precision:  0.5944416139230118
recall: 0.7271160922811293

Regression Error Metrics Across All
R2: 0.49878857577167734
Adj-R2: 0.48085735637748417
RMSE: 1.4139076582297823
MSE: 2.0236986120380633
MAE: 1.0427159015281506
MAPE: 34.40245721445802

Correlations Across All
Pearson: 0.7275686586443537
Spearman: 0.7410494546312476
Distance: 0.27243134135564684
************************REPETITIONS Average*******************************

Utility Based Metrics Across All
F1:  0.5988167597141062
F2:  0.6016694280325279
F05: 0.5961365047904238
precision:  0.5944416139230118
recall: 0.7271160922811293

Regression Error Metrics Across All
R2: 0.49878857577167734
Adj-R2: 0.48085735637748417
RMSE: 1.4139076582297823
MSE: 2.0236986120380633
MAE: 1.0427159015281506
MAPE: 34.40245721445802

Correlations Across All
Pearson: 0.7275686586443537
Spearman: 0.7410494546312476
Distance: 0.27243134135564684
For param {'n_trees': 100, 'max_depth': 7, 'learning_rate': 0.1}
 *************************FOLDS Average***************************** 

Utility Based Metrics Across All
F1:  0.5988167597141062
F2:  0.6016694280325279
F05: 0.5961365047904238
precision:  0.5944416139230118
recall: 0.7271160922811293

Regression Error Metrics Across All
R2: 0.49878857577167734
Adj-R2: 0.48085735637748417
RMSE: 1.4139076582297823
MSE: 2.0236986120380633
MAE: 1.0427159015281506
MAPE: 34.40245721445802

Correlations Across All
Pearson: 0.7275686586443537
Spearman: 0.7410494546312476
Distance: 0.27243134135564684
************************REPETITIONS Average*******************************

Utility Based Metrics Across All
F1:  0.5988167597141062
F2:  0.6016694280325279
F05: 0.5961365047904238
precision:  0.5944416139230118
recall: 0.7271160922811293

Regression Error Metrics Across All
R2: 0.49878857577167734
Adj-R2: 0.48085735637748417
RMSE: 1.4139076582297823
MSE: 2.0236986120380633
MAE: 1.0427159015281506
MAPE: 34.40245721445802

Correlations Across All
Pearson: 0.7275686586443537
Spearman: 0.7410494546312476
Distance: 0.27243134135564684
For param {'n_trees': 100, 'max_depth': 6, 'learning_rate': 0.1}
 *************************FOLDS Average***************************** 

Utility Based Metrics Across All
F1:  0.6243582989009315
F2:  0.609921118779339
F05: 0.6403165041641409
precision:  0.6519187874017479
recall: 0.7248424052206164

Regression Error Metrics Across All
R2: 0.5188440237297186
Adj-R2: 0.5016304794864187
RMSE: 1.388891492743351
MSE: 1.9561061144763818
MAE: 1.0263747689067615
MAPE: 34.0386156278947

Correlations Across All
Pearson: 0.7384921048935085
Spearman: 0.7458594937624776
Distance: 0.2615078951064914
************************REPETITIONS Average*******************************

Utility Based Metrics Across All
F1:  0.6243582989009315
F2:  0.609921118779339
F05: 0.6403165041641409
precision:  0.6519187874017479
recall: 0.7248424052206164

Regression Error Metrics Across All
R2: 0.5188440237297186
Adj-R2: 0.5016304794864187
RMSE: 1.388891492743351
MSE: 1.9561061144763818
MAE: 1.0263747689067615
MAPE: 34.0386156278947

Correlations Across All
Pearson: 0.7384921048935085
Spearman: 0.7458594937624776
Distance: 0.2615078951064914
For param {'n_trees': 100, 'max_depth': 6, 'learning_rate': 0.1}
 *************************FOLDS Average***************************** 

Utility Based Metrics Across All
F1:  0.6243582989009315
F2:  0.609921118779339
F05: 0.6403165041641409
precision:  0.6519187874017479
recall: 0.7248424052206164

Regression Error Metrics Across All
R2: 0.5188440237297186
Adj-R2: 0.5016304794864187
RMSE: 1.388891492743351
MSE: 1.9561061144763818
MAE: 1.0263747689067615
MAPE: 34.0386156278947

Correlations Across All
Pearson: 0.7384921048935085
Spearman: 0.7458594937624776
Distance: 0.2615078951064914
************************REPETITIONS Average*******************************

Utility Based Metrics Across All
F1:  0.6243582989009315
F2:  0.609921118779339
F05: 0.6403165041641409
precision:  0.6519187874017479
recall: 0.7248424052206164

Regression Error Metrics Across All
R2: 0.5188440237297186
Adj-R2: 0.5016304794864187
RMSE: 1.388891492743351
MSE: 1.9561061144763818
MAE: 1.0263747689067615
MAPE: 34.0386156278947

Correlations Across All
Pearson: 0.7384921048935085
Spearman: 0.7458594937624776
Distance: 0.2615078951064914
