Total Number of rare cases: 377 out of 1847
Percentage of Rare Cases: 20.41%

number of rare in train: 301/1475
==> 20.406779661016948%%
number of rare in test: 76/372
==> 20.43010752688172%%
The size of the original data is (1475, 47)
The size of the oversampled data is (1529, 47)
Total Number of rare cases: 329 out of 1529
Percentage of Rare Cases: 21.52%

The percentage of rare values in dataset after smogn are 21.517331589274036
Total Number of rare cases: 377 out of 1847
Percentage of Rare Cases: 20.41%

number of rare in train: 301/1475
==> 20.406779661016948%%
number of rare in test: 76/372
==> 20.43010752688172%%
The size of the original data is (1475, 47)
The size of the oversampled data is (1529, 47)
Total Number of rare cases: 329 out of 1529
Percentage of Rare Cases: 21.52%

The percentage of rare values in dataset after smogn are 21.517331589274036
Total Number of rare cases: 377 out of 1847
Percentage of Rare Cases: 20.41%

number of rare in train: 301/1475
==> 20.406779661016948%%
number of rare in test: 76/372
==> 20.43010752688172%%
The size of the original data is (1475, 47)
The size of the oversampled data is (1529, 47)
Total Number of rare cases: 329 out of 1529
Percentage of Rare Cases: 21.52%

The percentage of rare values in dataset after smogn are 21.517331589274036
Total Number of rare cases: 377 out of 1847
Percentage of Rare Cases: 20.41%

number of rare in train: 301/1475
==> 20.406779661016948%%
number of rare in test: 76/372
==> 20.43010752688172%%
The size of the original data is (1475, 47)
The size of the oversampled data is (1529, 47)
Total Number of rare cases: 329 out of 1529
Percentage of Rare Cases: 21.52%

The percentage of rare values in dataset after smogn are 21.517331589274036
