Site,Date,Month_1,Month_2,Month_3,Month_4,Vegetation_1,Vegetation_2,Vegetation_3,WS,RH,TA,Eeflux_LST,Eeflux_LST-1,Eeflux_LST-2,Eeflux_LST-3,Eeflux_LST-4,Eeflux_LST-5,Eeflux_NDVI,Eeflux_NDVI-1,Eeflux_NDVI-2,Eeflux_NDVI-3,Eeflux_NDVI-4,Eeflux_NDVI-5,Eeflux_Albedo,Eeflux_Albedo-1,Eeflux_Albedo-2,Eeflux_Albedo-3,Eeflux_Albedo-4,Eeflux_Albedo-5,Climate_1,Climate_2,Climate_3,RH-1,RH-2,RH-3,RH-4,RH-5,TA-1,TA-2,TA-3,TA-4,TA-5,WS-1,WS-2,WS-3,WS-4,WS-5,Site_0,Site_1,Site_2,LE_bowen_corr_m,LE_bowen_corr_pred,Eeflux_ET
US-AR1,2/24/2012,0,0,1,0,0,1,0,3.411152174,51.09667391,4.666456522,288.78,292.04,289.18,301.82,302.22,318.88,0.242,0.253,0.279,0.348,0.359,0.344,0.174,0.171,0.166,0.173,0.17,0.172,1,0,0,45.12889583,50.39475,57.0234375,55.32654348,54.38971739,12.38483333,10.47502083,19.78502083,18.04576087,31.91982609,3.71275,4.144541667,3.904958333,1.857804348,2.940108696,0,0,1,1.073792155,1.316107138,1.283011913
US-AR1,3/27/2012,0,0,1,1,0,1,0,5.483744681,75.66212766,20.74340426,306.1,303.1,300.86,298.1,300.42,302.78,0.387,0.386,0.417,0.423,0.389,0.341,0.167,0.166,0.166,0.17,0.17,0.171,1,0,0,83.1205,77.30446809,77.79019565,87.52310417,79.9343617,19.42334783,16.96546809,11.99608696,20.31172917,20.25089362,4.413195652,2.984765957,1.970086957,8.468333333,5.712446809,0,0,1,2.979626618,1.785153599,0.054312106
US-AR1,9/3/2012,1,0,0,1,0,1,0,2.904291667,44.14310417,32.41527083,320.1,313.6,317,313.18,305.16,307.08,0.419,0.396,0.383,0.372,0.094,0.378,0.169,0.168,0.168,0.168,0.178,0.182,1,0,0,46.74656522,54.7506087,55.75367391,74.06040426,60.13519565,30.46856522,28.42347826,26.27615217,23.42042553,21.64132609,2.588434783,1.192826087,1.542,2.058170213,2.58526087,0,0,1,1.353831799,2.585685973,2.341912508