Date,Site,Month_1,Month_2,Month_3,Month_4,Vegetation_1,Vegetation_2,Vegetation_3,WS,RH,TA,Eeflux_LST,Eeflux_NDVI,Eeflux_Albedo,WS-1,WS-2,RH-1,RH-2,RH-3,TA-1,TA-2,TA-3,TA-4,TA-5,Eeflux_LST-1,Eeflux_LST-2,Eeflux_LST-3,Eeflux_LST-4,Eeflux_LST-5,Eeflux_Albedo-1,Eeflux_Albedo-2,Eeflux_NDVI-1,Eeflux_NDVI-2,Site_0,Site_1,Site_2,Site_3,Site_4,Site_5,LE_bowen_corr_mm,LE_bowen_corr_pred,Eeflux_ET
Date,Site,Month_1,Month_2,Month_3,Month_4,Vegetation_1,Vegetation_2,Vegetation_3,WS,RH,TA,Eeflux_LST,Eeflux_NDVI,Eeflux_Albedo,WS-1,WS-2,RH-1,RH-2,RH-3,TA-1,TA-2,TA-3,TA-4,TA-5,Eeflux_LST-1,Eeflux_LST-2,Eeflux_LST-3,Eeflux_LST-4,Eeflux_LST-5,Eeflux_Albedo-1,Eeflux_Albedo-2,Eeflux_NDVI-1,Eeflux_NDVI-2,Site_0,Site_1,Site_2,Site_3,Site_4,Site_5,LE_bowen_corr_mm,LE_bowen_corr_pred,Eeflux_ET
10/1/2005,US-Goo,1,0,1,0,0,1,0,1.69375,75.65416667,25.16666667,302.72,0.756,0.15,1.115294118,1.807826087,60.75294118,63.23913043,61.46666667,19.4,27.55652174,28.47777778,28.47777778,29.02596296,296.66,302.16,302.16,302.16,306.62,0.15,0.15,0.751,0.751,0,0,1,0,0,0,3.378460872,5.010346271,0
12/20/2002,US-Goo,1,1,0,0,0,1,0,3.705,49.845,9.84,284.14,0.446,0.151,2.7335,1.9785,70.46,77.07,84.24,12.40005,8.22,6.6,4.78,7.452380952,287.4,284.42,284.98,279.7,285.94,0.154,0.153,0.443,0.455,0,0,1,0,0,0,3.347738861,3.086244974,1.05458653
10/8/2002,US-Goo,1,0,1,0,0,1,0,1.135862069,74.7862069,18.33793103,294.14,0.666,0.151,1.999130435,1.74875,69.71304348,76.55,75.72666667,22.02608696,27.72916667,23.89666667,28.49285714,28.91878125,298.7,303.22,298.02,299.98,307.54,0.153,0.153,0.726,0.698,0,0,1,0,0,0,4.063980369,4.376868721,1.881924748
10/17/2005,US-Goo,1,0,1,0,0,1,0,1.241111111,39.75,22.38888889,300.6,0.687,0.152,0.975909091,2.252727273,58.25,58.34545455,66.73333333,22.51818182,23.00454545,23.75714286,20.06086957,17.87894737,301.96,299.64,300.46,298.12,295.76,0.151,0.151,0.702,0.697,0,0,1,0,0,0,3.283516204,4.819695555,2.073215961
6/3/2002,US-Goo,0,1,1,0,0,1,0,1.512666667,68.38333333,29.56,307.08,0.744,0.17,1.512666667,1.525384615,68.38333333,63.83080769,66.712,29.56,29.50773077,28.384,25.89230769,26.32916667,307.08,301.12,303.42,300.54,302.56,0.17,0.17,0.744,0.776,0,0,1,0,0,0,7.798956337,6.922619314,5.057304382
6/19/2002,US-Goo,0,1,1,0,0,1,0,2.030714286,69.24642857,28.075,304.16,0.482,0.164,1.277241379,1.013478261,61.59655172,66.25652174,58.22,26.34482759,25.19565217,23.78,29.33228571,24.34333333,301.6,301.72,302.06,306.66,302.46,0.164,0.164,0.787,0.771,0,0,1,0,0,0,7.485506637,6.337075605,4.811545849
5/18/2002,US-Goo,0,1,0,1,0,1,0,3.844375,68.278125,13.834375,294.58,0.741,0.165,2.381851852,2.303333333,83.4037037,72.42222222,74.22413793,23.92592593,22.2037037,18.9862069,9.684791667,12.3840625,296.08,299.56,298.6,288.78,291.08,0.165,0.168,0.455,0.744,0,0,1,0,0,0,6.150681534,4.566080793,2.215865374
7/24/2003,US-Goo,0,1,1,1,0,1,0,1.509090909,57.67272727,26.24090909,301.76,0.834,0.158,2.223448276,2.147096774,71.1137931,78.21612903,78.21612903,25.09310345,29.76129032,29.76129032,31.01831818,29.72857143,297.84,300.94,300.94,306.06,297.98,0.159,0.16,0.758,0.792,0,0,1,0,0,0,10.05311161,6.769077702,4.152947426
7/5/2002,US-Goo,0,1,1,1,0,1,0,1.338148148,65.75925926,30.47777778,308.1,0.747,0.163,1.338148148,1.4048,65.75925926,66.848,63.87037037,30.47777778,29.78804,30.02596296,25.46551724,27.23333333,308.1,302.98,304,303.62,304.2,0.163,0.164,0.747,0.751,0,0,1,0,0,0,4.910525081,7.035846092,4.052684784
10/16/2002,US-Goo,1,0,1,0,0,1,0,2.207272727,58.44095455,14.63640909,293.14,0.677,0.15,1.359090909,1.135862069,80.43640909,74.7862069,69.71304348,21.91818182,18.33793103,22.02608696,27.72916667,23.89666667,297.64,294.14,298.7,303.22,298.02,0.151,0.151,0.644,0.666,0,0,1,0,0,0,4.378063474,3.791608451,0.83439362
3/11/2004,US-Goo,0,0,1,1,0,1,0,2.931428571,49.26190476,14.60952381,295.5,0.434,0.15,1.855555556,4.994545455,48.61666667,46.55,30.74210526,8.377777778,12.62272727,14.10526316,16.12861905,14.81505,288.32,292.08,292.16,294.86,292.62,0.151,0.151,0.449,0.407,0,0,1,0,0,0,2.714906971,2.513267368,0
6/18/2005,US-Goo,0,1,1,0,0,1,0,1.672307692,61.63076923,26.40769231,304.44,0.111,0.176,1.853333333,2.076956522,50.44761905,68.10869565,67.956,28.38095238,29.42613043,26.036,23.84,24.068,308.16,305.2,299.66,305.2,302.74,0.176,0.17,0.61,0.573,0,0,1,0,0,0,5.867232923,5.82613024,0
8/14/2002,US-Goo,1,0,0,0,0,1,0,2.050625,86.28440625,25.59375,294.7,0.839,0.158,1.532068966,1.4475,67.81034483,70.57142857,56.30344828,27.79310345,28.62857143,27.07931034,29.38076923,30.04448148,303.46,302.7,298.88,305.08,300.16,0.166,0.166,0.678,0.825,0,0,1,0,0,0,5.074516754,5.572840634,2.394457579
4/28/2004,US-Goo,0,1,0,0,0,1,0,2.422413793,49.5,19.96206897,300.92,0.702,0.163,2.7624,2.608275862,43.644,67.61724138,57.87407407,19.552,18.35172414,22.88148148,21.56428571,19.62857143,296.88,298.64,300.24,298.44,298.6,0.163,0.163,0.705,0.704,0,0,1,0,0,0,6.327715961,5.064136605,0
8/5/2002,US-Goo,1,0,0,0,0,1,0,1.69,68.48518519,30.04448148,300.16,0.84,0.163,1.368076923,1.368076923,66.41923077,66.41923077,75.51153846,30.26161538,30.26161538,30.24619231,30.29619231,27.83666667,305.82,305.82,302.66,301.76,301.94,0.16,0.16,0.827,0.827,0,0,1,0,0,0,9.066151446,6.648376548,5.354084492
11/17/2002,US-Goo,1,0,1,1,0,1,0,1.711428571,70.59047619,7.452380952,285.94,0.552,0.147,4.007692308,2.6824,60.65769231,54.9,63.595,7.680769231,13.696,13.4601,10.8,15.68333333,282.92,290.26,290.16,288.26,292.04,0.147,0.145,0.569,0.558,0,0,1,0,0,0,2.510632449,1.618541669,2.386933088
7/24/2011,US-Twt,0,1,1,1,0,0,1,5.484906354,71.86116667,18.5894375,304.94,0.64,0.19,4.562470229,5.081422413,70.48570833,72.49873913,72.49873913,19.10102083,17.95971739,17.95971739,17.491125,21.38279167,301.72,306.26,306.26,298.32,306.7,0.189,0.189,0.714,0.65,0,0,1,0,1,1,7.912428307,5.219217365,8.136094093
6/1/2015,US-Twt,0,1,1,0,0,0,1,4.472934128,65.78974468,17.11823404,306.18,0.618,0.148,5.623786553,6.615643915,66.18776596,66.9346383,69.48878723,15.4252766,14.71817021,14.57101277,14.57101277,16.19131915,303.2,300.98,305.22,305.22,300.68,0.165,0.168,0.565,0.605,0,0,1,0,1,1,2.783900923,4.879547444,3.241706848
7/11/2015,US-Twt,0,1,1,1,0,0,1,4.407735191,64.90280851,19.11653191,300.04,0.731,0.172,6.850478891,4.721761413,71.21730435,58.46173913,66.54045652,17.1595,21.45193478,19.75969565,19.75969565,19.31217391,300.56,305.16,304.26,304.26,305.48,0.171,0.175,0.717,0.704,0,0,1,0,1,1,6.788318117,5.581047633,7.661966324
7/13/2010,US-Twt,0,1,1,1,0,0,1,5.46939213,72.12493478,19.2476087,300.68,0.648,0.189,6.449884532,5.66995287,70.00895745,66.0391087,56.65612766,20.32655319,20.50165217,21.40591489,19.8402766,20.76995652,302.5,308.44,305.3,305.08,307.9,0.191,0.18,0.669,0.638,0,0,1,0,1,1,7.070070249,5.391211347,8.247478485
8/25/2014,US-Twt,1,0,0,0,0,0,1,4.625465553,72.64506383,18.05402128,298.38,0.662,0.198,5.354187128,3.120008426,69.23008511,67.14434043,76.7858913,18.83985106,19.51346809,17.73626087,18.06357447,18.72026087,303.92,303.04,299.98,302.28,303.24,0.199,0.198,0.742,0.739,0,0,1,0,1,1,5.509815245,4.756956597,6.349031925
4/8/2014,FR-Gri,0,1,0,0,0,0,1,3.7564375,73.328125,8.999125,283.34,0.391,0.179,1.814916667,3.096104167,74.43479167,67.85104167,68.69791667,5.0993125,11.62079167,10.004375,9.612291667,4.330125,285.82,291.78,288.98,288.16,282.54,0.192,0.19,0.676,0.694,0,0,1,1,1,0,2.535946966,2.644096203,0
5/19/2014,FR-Gri,0,1,0,1,0,0,1,2.209645833,61.071875,17.428125,298.2,0.741,0.2,2.2979375,2.2936875,68.84833333,69.31645833,86.19979167,11.76635417,10.49091667,8.7005,10.03329167,8.805333333,294.4,292.7,290.06,291.4,288,0.199,0.199,0.623,0.636,0,0,1,1,1,0,6.203705558,4.105879104,3.867381811
4/17/2014,FR-Gri,0,1,0,0,0,0,1,1.5969375,52.78125,11.20214583,295.8,0.659,0.17,2.139583333,2.695916667,59.51416667,65.04604167,68.406875,8.650854167,7.78125,11.02166667,8.999125,5.0993125,293,289.92,294.7,283.34,285.82,0.171,0.171,0.536,0.521,0,0,1,1,1,0,4.21934262,2.660412759,0.80862999
3/23/2011,DE-Kli,0,0,1,1,0,0,1,2.712291667,68.568125,5.298958333,283.9,0.329,0.139,2.049166667,3.657916667,59.09479167,87.97479167,54.87541667,5.2975,7.152291667,7.996875,-1.337916667,-1.355833333,287.94,287.46,288.58,276.76,276.34,0.138,0.14,0.277,0.272,0,0,0,0,1,0,1.583630751,1.077892117,2.865376472
10/4/2004,DE-Kli,1,0,1,0,0,0,1,4.36,69.22645833,13.03791667,288.5,0.669,0.157,7.42,4.460416667,71.145,65.9125,65.9125,10.98125,17.32979167,17.32979167,17.41791667,19.65541667,285.28,292.62,292.62,298.72,298.52,0.171,0.175,0.402,0.399,0,0,0,0,1,0,1.429450251,2.820622907,0.046524961
6/8/2007,DE-Kli,0,1,1,0,0,0,1,2.150690208,56.38714,20.97986109,297.28,0.173,0.169,2.70862,1.989999792,63.55930003,82.46330635,57.40394015,19.86583329,16.85847225,20.44875004,18.64222221,14.70934728,297.44,297.68,302.56,292.7,297.36,0.169,0.159,0.61,0.576,0,0,0,0,1,0,2.487732289,4.870105075,0
4/3/2018,DE-Kli,0,1,0,0,0,0,1,4.25375,54.55145833,11.97104167,288.7,0.299,0.142,3.205416667,6.48375,67.26020833,80.619375,64.621875,4.741666667,-1.967291667,15.35375,14.50770833,13.2675,281.32,271.48,292.78,292.1,290.36,0.151,0.159,0.247,0.329,0,0,0,0,1,0,3.42968857,3.29461828,2.862204313
6/3/2017,DE-Kli,0,1,1,0,0,0,1,2.73,62.031875,18.53208333,297.06,0.667,0.174,1.543125,2.034791667,54.06083333,78.415,59.65208333,16.15854167,14.39041667,6.775416667,2.760416667,6.213333333,300.96,292.9,281.16,275.9,284.36,0.174,0.178,0.75,0.253,0,0,0,0,1,0,3.02019821,3.90217854,3.206347704
2/24/2007,DE-Kli,0,0,1,0,0,0,1,7.046545833,78.12895605,3.052708342,279.42,0.483,0.145,4.34074375,1.566041667,79.62880413,34.42729167,79.10708333,4.539250005,4.866041667,2.899791667,4.050833333,10.08041667,275.88,272.4,282.68,283.6,286.32,0.144,0.174,0.408,0.604,0,0,0,0,1,0,1.324671552,1.320142379,4.509937286
9/8/2009,DE-Kli,1,0,0,1,0,0,1,2.343221667,58.12159729,16.23534727,296.82,0.293,0.175,5.060941458,2.587485417,72.80347213,54.1766889,63.49719479,13.19069446,16.1598611,12.78360421,13.62909723,19.14458325,287.24,294.42,291.62,292.32,299.16,0.17,0.169,0.3,0.43,0,0,0,0,1,0,1.884215018,2.921429417,2.481332541
7/13/2014,DE-Kli,0,1,1,1,0,0,1,2.198125,74.66583333,15.56208333,296.18,0.509,0.159,2.771041667,1.796666667,45.98895833,58.658125,65.35770833,21.14104167,16.46875,13.88625,16.86916667,16.86916667,302.62,298.8,290.94,296.38,296.38,0.151,0.151,0.6,0.682,0,0,0,0,1,0,2.804172043,3.451630505,0
10/9/2014,DE-Kli,1,0,1,0,0,0,1,5.17625,70.88166667,16.68416667,291.42,0.619,0.161,3.545416667,2.928125,83.59645833,84.571875,88.16333333,11.20333333,10.403125,11.85458333,16.434375,12.84479167,287.82,289.8,292.42,293.86,287.92,0.16,0.16,0.487,0.588,0,0,0,0,1,0,1.967516983,3.602332551,0
2/27/2017,DE-Kli,0,0,1,0,0,0,1,5.284166667,60.710625,7.877083333,284.44,0.433,0.159,4.405625,2.374791667,76.41104167,87.37,85.12145833,1.250625,5.971666667,7.498541667,9.602708333,11.79895833,272.32,284.34,283.14,276.06,291.92,0.159,0.164,0.224,0.821,0,0,0,0,1,0,6.251850071,2.454827266,0.743035793
10/30/2010,DE-Kli,1,0,1,0,0,0,1,4.941084167,57.711451,8.403826333,286.74,0.384,0.161,5.011670208,4.988583958,65.13638044,92.30306917,82.30210552,3.286916729,3.50877775,4.633388896,11.21951381,11.37673617,278.2,275.76,283.16,290.8,289.66,0.17,0.172,0.248,0.175,0,0,0,0,1,0,1.740590248,1.63606547,1.297321081
6/9/2008,DE-Kli,0,1,1,0,0,0,1,1.30307875,57.14444448,18.63534722,301.2,0.732,0.198,2.439619375,2.439619375,58.22875015,58.22875015,62.62361095,16.94055554,16.94055554,16.89868053,15.28020837,15.16805548,302.76,302.76,296.84,299.3,300.46,0.195,0.195,0.71,0.71,0,0,0,0,1,0,2.560457428,4.6716238,3.237899065
4/13/2010,DE-Kli,0,1,0,0,0,0,1,3.093867083,71.77515002,7.020875,287.88,0.754,0.166,2.539141875,3.372134375,48.31091746,47.55559721,58.2435155,10.08279865,7.106180563,4.179854187,11.23319444,5.817756917,294.5,291.12,281.54,290.74,288.22,0.157,0.155,0.655,0.688,0,0,0,0,1,0,2.244609733,2.16801333,2.609826565
10/11/2015,DE-Kli,1,0,1,0,0,0,1,4.045416667,70.313125,1.970208333,282,0.372,0.139,3.257291667,1.914166667,82.00145833,75.25416667,80.52583333,5.561458333,9.364166667,11.62916667,21.46041667,19.82,283.16,288.74,284.36,302.18,299.92,0.146,0.177,0.357,0.603,0,0,0,0,1,0,1.737021553,1.116898614,1.54770422
7/3/2008,DE-Kli,0,1,1,1,0,0,1,2.596730417,53.47743056,22.62930548,300.64,0.251,0.207,2.311161875,2.569277292,43.65701383,60.8513888,71.98187478,22.46722221,18.59631942,16.81138889,15.32874999,19.52812502,305.12,301.04,297.12,292.22,298.1,0.194,0.194,0.427,0.783,0,0,0,0,1,0,2.872842554,4.719439202,1.699241161
10/6/2010,DE-Kli,1,0,1,0,0,0,1,4.208544583,85.39543121,11.21951381,290.8,0.245,0.165,5.440024583,2.256043542,68.2255584,59.16484567,72.29922758,11.37673617,15.81798608,13.95930554,13.13034721,10.24920831,289.66,296.16,294.84,288.88,292.08,0.179,0.176,0.505,0.589,0,0,0,0,1,0,1.025980483,1.825727996,0
9/14/2011,DE-Kli,1,0,0,1,0,0,1,3.766458333,64.78041667,13.083125,292.42,0.336,0.163,3.159375,3.159375,66.15895833,66.15895833,78.53541667,21.194375,21.194375,18.20125,19.36979167,15.19,299.02,299.02,293.32,302.96,300,0.164,0.164,0.384,0.384,0,0,0,0,1,0,1.717477117,2.833347037,0
5/26/2014,DE-Kli,0,1,0,1,0,0,1,2.402083333,74.07375,15.87791667,296.66,0.161,0.189,1.442083333,1.849166667,73.50583333,82.96270833,67.68854167,14.546875,17.03291667,19.949375,18.93125,18.93125,290.14,297.16,300.66,299.26,299.26,0.184,0.184,0.818,0.773,0,0,0,0,1,0,5.046043898,4.393560834,1.327189684
11/6/2013,DE-Kli,1,0,1,1,0,0,1,6.249583333,85.97375,5.2175,279.22,0.091,0.127,4.770416667,6.377083333,78.05125,85.65625,84.33541667,8.523541667,8.679375,7.000625,5.395416667,11.986875,284.82,285.16,282.3,286.04,283.04,0.143,0.143,0.442,0.443,0,0,0,0,1,0,1.407266124,1.128588983,2.736709356
5/14/2016,DE-Kli,0,1,0,1,0,0,1,3.271875,77.17291667,7.267083333,284.06,0.734,0.191,3.084375,3.084375,68.80458333,68.80458333,68.803125,14.39083333,14.39083333,13.850625,14.65916667,14.24666667,293.1,293.1,293.72,294.82,294.08,0.194,0.194,0.403,0.403,0,0,0,0,1,0,2.483727479,2.849790551,4.191156864
3/18/2015,DE-Kli,0,0,1,1,0,0,1,2.576875,63.10291667,6.711875,288.56,0.619,0.156,5.276458333,1.658333333,61.57354167,70.90666667,79.98916667,8.500416667,1.060625,1.483541667,-0.211875,0.095416667,274.5,279.76,277.82,270,274.44,0.156,0.164,0.404,0.636,0,0,0,0,1,0,1.535905173,1.582215182,0
10/16/2017,DE-Kli,1,0,1,0,0,0,1,2.648958333,64.621875,15.35375,292.78,0.749,0.157,1.843541667,2.886041667,79.471875,83.92833333,88.03083333,14.50770833,13.2675,7.804583333,13.53458333,14.735625,292.1,290.36,281.86,292.6,292.74,0.157,0.157,0.706,0.696,0,0,0,0,1,0,3.720660969,3.748619596,1.99990201
5/1/2011,DE-Kli,0,1,0,1,0,0,1,3.160208333,52.74729167,8.011458333,289.06,0.76,0.178,3.291875,2.349583333,68.6,44.24583333,49.77270833,11.020625,15.29979167,11.45125,8.712083333,7.300833333,292.62,295.98,294.04,293.42,283.56,0.178,0.179,0.709,0.589,0,0,0,0,1,0,3.132082047,2.817955235,4.481790066
6/11/2011,DE-Kli,0,1,1,0,0,0,1,1.846458333,67.22458333,15.043125,293.58,0.592,0.179,2.53,3.395625,73.96895833,61.954375,62.7025,18.87791667,20.373125,18.584375,15.15083333,19.40333333,295.86,300.36,293.44,296.92,303.3,0.175,0.175,0.745,0.833,0,0,0,0,1,0,3.619090203,4.571401332,0
3/27/2007,DE-Kli,0,0,1,1,0,0,1,3.052722292,49.18032879,7.400479163,287.76,0.543,0.152,3.51909,4.546888542,59.19512004,67.6617714,63.2085869,6.528916693,6.1206111,10.60084029,8.288763868,3.052708342,286.3,285.08,282.54,289.42,279.42,0.151,0.147,0.432,0.347,0,0,0,0,1,0,1.46565979,1.778156054,1.719044805
5/9/2017,DE-Kli,0,1,0,1,0,0,1,1.875208333,74.22,2.760416667,275.9,0.041,0.189,3.531041667,4.536458333,72.24770833,65.02166667,76.68854167,6.213333333,11.97020833,11.28645833,9.078541667,4.847708333,284.36,293.94,292,286.44,278.4,0.148,0.149,0.514,0.381,0,0,0,0,1,0,1.258389049,1.779831222,0
10/18/2012,DE-Kli,1,0,1,0,0,0,1,4.456666667,63.40854167,11.986875,283.04,0.281,0.168,3.984791667,3.514166667,66.81104167,64.3575,68.23375,9.008125,8.445625,7.734375,6.959166667,12.01104167,273.74,274.58,283.36,281.06,289.82,0.17,0.17,0.362,0.189,0,0,0,0,1,0,3.953886658,2.152498689,6.414458752
10/24/2014,DE-Kli,1,0,1,0,0,0,1,1.712291667,94.80104167,7.036875,286.26,0.768,0.168,4.17375,4.755416667,78.6825,77.548125,72.13395833,10.29083333,12.960625,15.874375,12.53583333,11.98395833,285.84,282.54,292.62,287.14,282.9,0.162,0.151,0.785,0.654,0,0,0,0,1,0,1.492690299,1.927503724,0
9/30/2017,DE-Kli,1,0,0,1,0,0,1,4.626666667,62.48979167,13.53458333,292.6,0.518,0.151,3.0625,2.7775,68.83583333,75.96708333,72.064375,14.735625,15.06291667,19.37125,18.83083333,16.29645833,292.74,284.96,298.1,287.88,298.46,0.15,0.148,0.622,0.532,0,0,0,0,1,0,2.261614625,2.937226302,1.176084161
5/9/2011,DE-Kli,0,1,0,1,0,0,1,2.964166667,48.81166667,13.36395833,296.96,0.726,0.182,3.166666667,2.957708333,55.530625,40.22833333,45.574375,11.33833333,13.22645833,10.423125,8.011458333,11.020625,292.5,296.08,293.38,289.06,292.62,0.182,0.182,0.778,0.703,0,0,0,0,1,0,4.058251766,3.408182656,4.668118
9/8/2007,US-Kon,1,0,0,1,0,1,0,2.126583333,69.60566667,23.48422917,304.04,0.624,0.179,2.687478261,3.0415625,52.00019565,55.40239583,42.152,25.06476087,27.23914583,26.6540625,25.64804255,24.58470833,301.04,306.8,308.86,308.76,308.78,0.179,0.182,0.646,0.581,0,0,0,1,1,0,3.115633645,3.231637437,0
8/20/2009,US-Kon,1,0,0,0,0,1,0,3.000534884,62.1227907,21.66032558,296.6,0.756,0.19,4.668,4.274813953,73.40280488,57.45495349,54.89221739,24.54985366,25.67813953,26.35482609,26.87102128,25.92388636,299.46,304.68,304.02,307.16,301.68,0.189,0.194,0.759,0.769,0,0,0,1,1,0,4.913193317,3.850010609,0
10/19/2008,US-Kon,1,0,1,0,0,1,0,6.291369565,62.89886957,17.74976087,295.4,0.441,0.169,3.706714286,3.335468085,71.43211429,67.6246383,56.09372727,14.39425714,12.65040426,10.21631818,19.19747917,18.066625,291.68,295.18,291.34,298.78,296.22,0.17,0.172,0.492,0.502,0,0,0,1,1,0,1.745366885,1.956064926,0
8/31/2007,US-Kon,1,0,0,0,0,1,0,2.133916667,57.4035625,24.16802083,304.88,0.684,0.181,2.147,4.837229167,68.32451163,52.78179167,55.70515217,23.83727907,30.36229167,31.03469565,28.7250625,30.51138298,303.24,309.94,307.48,304.52,302.94,0.182,0.183,0.504,0.633,0,0,0,1,1,0,3.837530531,3.708091769,0
10/1/2010,US-Kon,1,0,1,0,0,1,0,1.352210526,57.38589474,19.49731579,299.14,0.539,0.183,2.415692308,2.341166667,60.06269231,68.20911111,73.68257143,19.53671795,22.14825,20.47792857,18.38032143,16.06936842,299.74,300.82,297.22,290.74,295,0.18,0.18,0.519,0.549,0,0,0,1,1,0,2.006005122,2.58481618,2.830246687
8/14/2010,US-Kon,1,0,0,0,0,1,0,1.893314286,74.82754286,30.82597143,301.1,0.716,0.187,4.084342105,3.592020833,66.40513158,60.828125,62.82718605,32.11147368,33.65785417,33.21051163,33.95240426,33.85431111,310.18,308.02,309,305.2,308.8,0.188,0.188,0.68,0.688,0,0,0,1,1,0,7.004120622,5.21859235,6.644123077
7/17/2011,US-Kon,0,1,1,1,0,1,0,4.259893617,63.03621277,33.95429787,313.18,0.718,0.196,5.865522727,4.786057143,71.50568182,73.3814,82.05575,33.76440909,33.0232,30.064125,31.31130233,33.4222381,309.72,303.72,307.54,308.38,307.92,0.192,0.193,0.722,0.744,0,0,0,1,1,0,4.657915432,6.544445396,0
6/25/2009,US-Kon,0,1,1,0,0,1,0,2.424954545,76.7595,29.50206818,305.3,0.828,0.199,4.368078947,3.450787234,71.16497368,66.66685106,71.23984091,29.53357895,32.00557447,31.85634091,30.3986,30.75470455,302.56,308.8,305.06,304.44,297.26,0.199,0.196,0.829,0.837,0,0,0,1,1,0,5.874549695,5.773107311,0
5/27/2010,US-Kon,0,1,0,1,0,1,0,2.464318182,64.95093182,25.58738636,305.68,0.62,0.175,2.05755814,7.390553191,70.268,70.26759574,46.23018919,24.60090698,27.62006383,11.74627027,13.46811765,17.18060465,300.64,302.58,295.88,295.98,299.3,0.174,0.174,0.752,0.723,0,0,0,1,1,0,5.212930192,4.80010769,0
8/30/2007,US-Kon,1,0,0,0,0,1,0,2.147,68.32451163,23.83727907,303.24,0.504,0.182,4.837229167,5.937978261,52.78179167,55.70515217,64.44427083,30.36229167,31.03469565,28.7250625,30.51138298,30.99748837,309.94,307.48,304.52,302.94,308.74,0.183,0.183,0.633,0.631,0,0,0,1,1,0,3.169671696,3.514133607,0
9/23/2007,US-Kon,1,0,0,1,0,1,0,4.622104167,65.86691667,26.98670833,302.52,0.606,0.179,3.491083333,4.824958333,60.1035,67.7448125,72.63426087,22.93922917,27.22333333,23.50082609,27.51433333,21.77787234,303.98,302.56,300.5,303.54,303.72,0.176,0.171,0.584,0.543,0,0,0,1,1,0,3.070476222,3.990378524,3.487090588
8/28/2009,US-Kon,1,0,0,0,0,1,0,2.125264706,68.08288235,22.54,300.02,0.351,0.191,5.578170213,3.674765957,68.476,64.77521277,65.54219565,25.88912766,22.01661702,20.26732609,20.36106383,21.66032558,303.24,300.8,299.6,300.32,296.6,0.19,0.19,0.783,0.761,0,0,0,1,1,0,5.481749923,3.538786074,0
7/14/2010,US-Kon,0,1,1,1,0,1,0,5.993560976,71.83407317,33.659,308.22,0.751,0.194,4.830326087,3.826170213,80.1661087,73.9656383,65.12363043,29.79671739,29.08538298,27.14793478,27.54426087,27.02356522,301.12,302.18,303.24,296.72,301.64,0.194,0.193,0.798,0.793,0,0,0,1,1,0,7.121900143,6.198032217,0
8/23/2010,US-Kon,1,0,0,0,0,1,0,4.291044444,75.94946667,29.82306667,304.64,0.727,0.185,4.291044444,2.450045455,75.94946667,75.07440909,75.07440909,29.82306667,29.72686364,29.72686364,30.72619444,26.58315625,304.64,308.94,308.94,303.76,302.74,0.185,0.183,0.727,0.68,0,0,0,1,1,0,4.553933095,5.056735876,0
10/2/2010,US-Kon,1,0,1,0,0,1,0,3.3324,68.60488,14.89648,295.22,0.517,0.183,1.352210526,2.415692308,57.38589474,60.06269231,68.20911111,19.49731579,19.53671795,22.14825,20.47792857,18.38032143,299.14,299.74,300.82,297.22,290.74,0.183,0.18,0.539,0.519,0,0,0,1,1,0,2.302052364,1.560118397,0
6/24/2009,US-Kon,0,1,1,0,0,1,0,4.368078947,71.16497368,29.53357895,302.56,0.829,0.199,3.450787234,4.385931818,66.66685106,71.23984091,72.21008889,32.00557447,31.85634091,30.3986,30.75470455,30.06217778,308.8,305.06,304.44,297.26,302.48,0.196,0.196,0.837,0.828,0,0,0,1,1,0,7.300460032,5.81559823,6.281275272
6/30/2008,US-Kon,0,1,1,0,0,1,0,1.60835,58.473175,22.511875,299.72,0.751,0.191,3.444311111,3.600880952,61.80731111,67.97847619,66.4003125,22.0884,26.41519048,29.2268125,25.3778,24.40408333,302.82,301.04,304.12,297.4,305.66,0.184,0.184,0.759,0.727,0,0,0,1,1,0,5.285094348,4.647573225,0
9/9/2008,US-Kon,1,0,0,1,0,1,0,3.05697561,65.471,16.3084878,294.74,0.705,0.18,2.6711875,3.7959375,68.2585625,76.89539583,69.537625,17.68585417,23.12533333,27.3715,27.33295833,24.0209375,295.74,300.36,304.32,300.64,301.52,0.184,0.184,0.337,0.745,0,0,0,1,1,0,4.044486067,2.547114425,0
3/5/2009,US-Kon,0,0,1,1,0,1,0,6.294906977,47.58,19.97562791,301.86,0.266,0.213,4.336769231,5.143,46.83915385,55.82952778,59.50075,3.849307692,10.68897222,14.99278125,14.99278125,7.5906875,282.96,290.28,290.98,290.98,282.64,0.172,0.171,0.423,0.423,0,0,0,1,1,0,1.017512621,1.820225954,0
7/11/2009,US-Kon,0,1,1,1,0,1,0,4.135106383,76.50451064,29.02959574,303.98,0.818,0.181,4.555044444,3.194688889,73.62528889,69.01428889,66.57546667,26.82508889,24.60706667,24.96511111,24.64713333,25.72033333,300,300.58,301.4,301.04,305.04,0.201,0.199,0.829,0.83,0,0,0,1,1,0,4.182618224,5.615535718,0
9/29/2009,US-Kon,1,0,0,1,0,1,0,1.269731707,45.33868293,14.94117073,296.98,0.637,0.185,4.85964,4.884088235,30.95356,52.43264706,56.21216129,16.8608,21.26226471,19.51848387,16.92853488,16.26593617,294,299.66,294.76,293.82,295.8,0.185,0.185,0.631,0.645,0,0,0,1,1,0,2.772878584,1.610379001,0
9/20/2009,US-Kon,1,0,0,1,0,1,0,3.111893617,63.66474468,22.31806383,302.14,0.681,0.183,1.752869565,1.93027027,64.46506522,62.53910811,68.08288235,18.58606522,17.58402703,22.54,25.88912766,22.01661702,299.62,297.9,300.02,303.24,300.8,0.179,0.194,0.695,0.753,0,0,0,1,1,0,2.892920228,3.283922598,2.379404068
5/3/2010,US-Kon,0,1,0,1,0,1,0,2.915914894,50.33119149,17.24170213,301.98,0.514,0.157,2.617659091,2.617659091,51.46731818,51.46731818,56.35221739,18.29725,18.29725,15.25441304,17.85906667,24.43643478,306.14,306.14,296.62,296.82,303.66,0.157,0.157,0.453,0.453,0,0,0,1,1,0,2.759277467,2.682684288,0
3/23/2010,US-Kon,0,0,1,1,0,1,0,3.669044444,39.39517778,13.15791111,293.2,0.232,0.189,4.83034375,6.147655172,45.456,47.51848276,42.26725581,5.45184375,7.712931034,10.45309302,8.496666667,11.75715217,281.68,281.36,286.34,287.66,292.14,0.184,0.184,0.359,0.325,0,0,0,1,1,0,1.011404339,1.022887571,1.34613955
7/27/2009,US-Kon,0,1,1,1,0,1,0,3.066711111,67.68506667,25.80917778,306.18,0.708,0.197,1.580266667,1.580266667,65.04457778,65.04457778,57.56307317,25.58877778,25.58877778,26.32726829,28.73457778,25.50855556,299.98,299.98,301.28,303.74,302.88,0.197,0.197,0.802,0.802,0,0,0,1,1,0,3.739411931,4.656019443,0
9/24/2010,US-Kon,1,0,0,1,0,1,0,1.875586207,67.98051724,21.05903448,298.54,0.627,0.181,5.371361111,1.503944444,73.03233333,80.80538889,77.57879167,28.64355556,23.1755,29.22941667,28.0365,24.79557143,304.22,297.3,305.32,303.24,292.84,0.181,0.177,0.566,0.598,0,0,0,1,1,0,3.946659159,3.468377126,0
8/16/2008,US-Kon,1,0,0,0,0,1,0,2.4675,69.98884783,22.38073913,300.82,0.834,0.199,1.8645,1.879627907,65.59633333,66.53251163,54.60752174,25.59133333,24.10381395,25.87291304,33.38797368,32.6846087,303.24,301.34,302,308.16,307.66,0.203,0.202,0.775,0.799,0,0,0,1,1,0,4.691970065,3.675934624,0
6/8/2009,US-Kon,0,1,1,0,0,1,0,3.961543478,82.58341304,18.32269565,295.94,0.71,0.185,4.939432432,7.157045455,71.03164865,58.31056818,60.6595,27.44048649,27.10965909,23.04432609,27.06695349,25.64584783,300.5,302.38,303.98,308.14,307.44,0.177,0.178,0.729,0.768,0,0,0,1,1,0,4.702953048,3.926565644,4.770293236
8/14/2007,US-Kon,1,0,0,0,0,1,0,4.4169375,44.46852083,32.81458333,315.34,0.609,0.181,3.451276596,3.327319149,47.84957447,53.88702128,58.2473125,33.27329787,33.26789362,31.02597917,30.2497234,32.23262791,309.78,312.58,310.8,308.8,305.34,0.181,0.179,0.642,0.687,0,0,0,1,1,0,4.461665487,4.920159828,0
8/12/2009,US-Kon,1,0,0,0,0,1,0,2.765787234,58.76129787,26.87102128,307.16,0.774,0.198,1.54,1.54,68.44568182,68.44568182,65.77213953,25.92388636,25.92388636,29.11730233,32.02863043,32.02863043,301.68,301.68,304.2,307.68,307.68,0.198,0.198,0.794,0.794,0,0,0,1,1,0,5.167539324,4.596922048,0
6/16/2009,US-Kon,0,1,1,0,0,1,0,2.6668,72.6889,25.6796,301.22,0.21,0.184,3.760517241,3.800357143,69.71158621,77.22938095,82.58341304,27.19396552,23.02111905,18.32269565,27.44048649,27.10965909,299.72,301.16,295.94,300.5,302.38,0.184,0.18,0.821,0.803,0,0,0,1,1,0,6.114836563,4.914735977,0
8/3/2009,US-Kon,1,0,0,0,0,1,0,4.894851064,57.69476596,29.11825532,306.84,0.79,0.198,4.859574468,2.913673913,56.88191489,54.03871739,58.12365957,24.10748936,21.80941304,22.73157447,21.25221277,25.80917778,301.34,298.62,302.04,299.54,306.18,0.198,0.197,0.794,0.795,0,0,0,1,1,0,5.547107524,4.564907704,6.810905457
6/29/2008,US-Kon,0,1,1,0,0,1,0,3.444311111,61.80731111,22.0884,302.82,0.759,0.184,3.600880952,5.433854167,67.97847619,66.4003125,71.61135,26.41519048,29.2268125,25.3778,24.40408333,23.89613043,301.04,304.12,297.4,305.66,301.6,0.184,0.185,0.727,0.811,0,0,0,1,1,0,5.944439483,4.646334834,0.051376794
8/4/2009,US-Kon,1,0,0,0,0,1,0,3.08855,64.41075,27.75805,302.36,0.817,0.197,4.894851064,4.859574468,57.69476596,56.88191489,54.03871739,29.11825532,24.10748936,21.80941304,22.73157447,21.25221277,306.84,301.34,298.62,302.04,299.54,0.198,0.198,0.79,0.794,0,0,0,1,1,0,6.313314999,4.433008745,0
9/11/2011,US-Kon,1,0,0,1,0,1,0,1.814148936,68.05019149,24.36574468,305.04,0.621,0.182,2.550666667,2.497595238,67.07153333,62.20111905,60.73032609,24.6814,20.01802381,18.24747826,18.058,20.91673171,302.4,305.94,306.56,304.42,303.86,0.184,0.185,0.571,0.557,0,0,0,1,1,0,1.831351065,3.644373945,0
8/26/2011,US-Kon,1,0,0,0,0,1,0,2.8815,39.93920833,32.37916667,309.92,0.7,0.188,4.572521739,3.908354167,48.90621739,49.8745625,73.78002128,35.064,35.26758333,33.16778723,34.9323,32.22820833,316.72,309.34,313.74,310.06,308.7,0.182,0.181,0.65,0.691,0,0,0,1,1,0,4.638103884,5.406476243,0
9/4/2007,US-Skr,1,0,0,0,1,0,1,2.087433333,73.86226667,29.51966667,298.14,0.316,0.091,1.71030303,1.437966667,77.64978788,80.72213333,78.72375,28.47136364,28.15883333,28.53025,28.53025,28.9618,295.44,302.98,299.82,299.82,301.4,0.092,0.092,0.573,0.864,0,1,0,1,1,0,8.329496054,5.496779071,5.912825584
4/7/2008,US-Skr,0,0,1,1,1,0,1,2.915939394,84.34669697,24.10290909,296.74,0.829,0.111,2.860075,3.098682927,83.000025,77.98021951,80.65016667,25.308275,24.81670732,24.75622222,25.24116129,24.22934615,299.4,298.56,298.24,294.38,294.72,0.11,0.102,0.844,0.538,0,1,0,1,1,0,6.969082303,4.819596297,5.794416428
8/27/2007,US-Skr,0,1,1,1,1,0,1,2.197081081,77.48102703,29.03064865,294.18,0.705,0.094,1.479333333,1.576678571,67.90036667,84.25710714,79.26484211,28.8264,27.85364286,28.555,28.91980952,29.23739394,296.28,298,302.08,303.24,301.76,0.102,0.102,0.577,0.463,0,1,0,1,1,0,7.060627056,6.164796021,7.684081078
7/30/2010,DE-Seh,0,1,1,1,0,0,1,1.209574098,74.00895833,17.39354167,300.52,0.365,0.22,1.58982086,1.983045735,63.63125,50.35791667,52.59145833,22.33583333,23.24125,21.15791667,17.69104167,21.83979167,305.74,307.44,307.38,300.26,305.08,0.219,0.219,0.415,0.403,0,0,0,1,1,1,2.497144868,3.51778989,1.712411523
6/22/2002,US-Wlr,0,1,1,0,0,1,0,4.157083333,67.11041667,25.18125,307.22,0.692,0.174,3.574791667,5.178333333,71.65,76.44375,63.25208333,25.64583333,24.18541667,25.92916667,25.83541667,12.97083333,301.2,301.76,304.22,307.54,296.22,0.174,0.168,0.733,0.313,0,0,0,1,0,0,6.300119976,4.896853554,5.924204826
5/17/2004,US-Wlr,0,1,0,1,0,1,0,5.507291667,73.5875,21.54583333,302.42,0.64,0.181,5.752916667,5.793125,69.2625,66.35208333,66.35208333,22.82083333,23.15416667,23.15416667,20.68333333,5.94375,307.7,307.3,307.3,304.78,287.48,0.161,0.161,0.615,0.628,0,0,0,1,0,0,4.75358067,4.171983469,0
7/31/2002,US-Wlr,0,1,1,1,0,1,0,3.425,67.74791667,27.51875,311.02,0.599,0.18,3.425,2.470625,67.74791667,61.2375,53.55416667,27.51875,25.1,29.53958333,29.44791667,26.11666667,311.02,309.8,310.68,313.74,309.68,0.18,0.181,0.599,0.53,0,0,0,1,0,0,5.223452985,5.041501707,4.627296925
9/17/2002,US-Wlr,1,0,0,1,0,1,0,4.145833333,66.84791667,22.83541667,304.66,0.521,0.17,2.965625,3.982291667,52.95833333,57.27083333,62.52916667,26.87291667,27.42708333,26.02708333,27.77916667,27.91875,308.38,306.4,309.72,306.46,305.64,0.19,0.186,0.569,0.632,0,0,0,1,0,0,3.157520503,3.381121829,3.316910744
6/21/2012,IT-CA2,0,1,1,0,0,0,1,2.760839165,56.94,24.73770833,317.58,0.426,0.191,1.916501606,2.359697344,49.33208333,52.34958333,52.54729167,25.84208333,25.24,23.815,18.67520833,18.26708333,317.86,317.86,319.26,313,304.08,0.192,0.192,0.489,0.513,0,0,1,1,1,1,1.352516133,4.880981507,0
11/7/2002,US-SP2,1,0,1,1,0,1,1,1.135,74.8675,11.0975,290.1,0.783,0.128,1.396894737,0.92275,60.7,49.35,69.77788889,17.16263158,24.3325,27.94444444,29.194,21.30809524,293.18,295.28,300.16,299.76,297.64,0.125,0.125,0.76,0.788,0,0,1,0,0,1,5.507353693,3.568480681,3.135349751
12/22/2004,US-SP2,1,1,0,0,0,1,1,2.3974,60.441,20.188,293.38,0.668,0.118,1.625230769,1.833807692,52.90076923,40.06653846,57.83923077,16.07238462,4.329692308,16.65,2.936346154,6.836774194,290.18,279.72,290.12,282.42,284.42,0.118,0.118,0.769,0.719,0,0,1,0,0,1,4.291525914,5.264519298,2.476480961
12/12/2003,US-SP2,1,1,0,0,0,1,1,1.129166667,54.53333333,17.61333333,288.9,0.792,0.12,2.24424,2.782461538,68.854,80.86923077,47.7775,8.43572,15.44615385,16.7975,8.100384615,17.44281818,284.36,293,289.98,283.92,291.08,0.123,0.123,0.77,0.791,0,0,1,0,0,1,5.651551058,5.601572338,1.600972652
4/16/2003,US-SP2,0,1,0,0,0,1,1,1.456,59.33526316,23.75736842,300.92,0.63,0.134,1.78336,1.78336,46.2208,46.2208,34.78375,24.7392,24.7392,25.95875,20.43185185,12.71323529,302.86,302.86,301.26,299.2,291.5,0.141,0.141,0.724,0.724,0,0,1,0,0,1,5.164821953,6.19332614,5.195620537
9/17/2001,US-SP2,1,0,0,1,0,1,1,0.82,62.914,27.38066667,301.6,0.733,0.119,1.016666667,0.716,58.81291667,73.4464,67.32583333,31.52583333,30.542,30.223,30.93793103,27.42454545,303.12,304.02,304.54,303.82,305.42,0.122,0.123,0.663,0.692,0,0,1,0,0,1,4.681541423,6.768170944,4.02679491
12/14/2004,US-SP2,1,1,0,0,0,1,1,1.817193548,51.32064516,6.836774194,284.42,0.782,0.118,1.244428571,1.318111111,63.50761905,52.94222222,62.23928571,9.899571429,12.68777778,17.88857143,23.51,19.75,286.94,285.4,289.68,292.62,293.96,0.119,0.121,0.802,0.67,0,0,1,0,0,1,3.270429997,3.523548175,3.077824116
10/27/2004,US-SP2,1,0,1,0,0,1,1,1.3474375,60.38375,23.72875,298.78,0.804,0.123,1.197,1.260444444,60.52769231,58.90555556,63.301,25.24307692,24.15222222,22.1845,27.51333333,23.45363636,300,296.98,296.26,299.06,298.66,0.124,0.125,0.821,0.781,0,0,1,0,0,1,9.867431509,5.850310596,3.909767628
5/20/2004,US-SP2,0,1,0,1,0,1,1,1.767826087,47.94913043,28.43,304.22,0.774,0.134,1.964521739,1.391833333,56.18221739,40.93916667,39.97,26.54913043,29.49916667,28.88818182,23.9,18.75441176,300.54,305.58,306.32,300.22,301.96,0.136,0.123,0.284,0.82,0,0,1,0,0,1,4.070425616,7.205298274,0
8/8/2001,US-SP2,1,0,0,0,0,1,1,0.676,64.6596,31.08564,299.86,0.786,0.122,1.456,2.0825,73.105,62.4,41.15505,17.215,13.13214286,12.85005,9.480952381,8.565217391,293.12,290.12,290.8,288.24,284.8,0.144,0.146,0.608,0.501,0,0,1,0,0,1,6.282023727,6.700499621,3.63203311
10/23/2010,US-Ced,1,0,1,0,1,0,0,2.047958333,57.44104167,10.739125,290.12,0.695,0.11,2.053148936,2.104319149,59.79661702,76.22470213,46.983125,15.41387234,27.2012766,26.2985625,23.00361702,23.00361702,294.04,301.42,307.44,304.78,304.78,0.111,0.122,0.804,0.604,0,0,1,1,0,0,1.818136679,2.266813949,4.665928841
11/4/2014,US-Ced,1,0,1,1,1,0,0,1.8223125,43.63770833,13.75104167,289.38,0.65,0.116,2.13475,1.69923913,70.10625,81.08806522,64.91891304,15.643125,15.5776087,25.27173913,21.475,18.09502083,293.88,291.74,303.68,294.28,299.12,0.111,0.111,0.732,0.698,0,0,1,1,0,0,1.895061122,2.902618725,0
4/26/2014,US-Ced,0,1,0,0,1,0,0,2.52076087,75.34217391,11.78586957,292.64,0.497,0.126,3.209630435,4.065958333,31.90369565,51.07541667,53.88814583,9.135869565,10.80416667,5.276041667,1.396304348,6.600625,289.22,290.68,288.42,279.32,285.38,0.129,0.129,0.637,0.299,0,0,1,1,0,0,2.75343213,1.602155103,3.884228468
4/7/2018,DE-RuS,0,1,0,0,0,0,1,2.300339729,57.03487371,14.08159896,288.9,0.57,0.164,2.493253875,2.501234417,69.51692405,72.5605968,53.16415193,7.382752674,8.362234375,-0.562637276,-0.246480645,0.56002173,289,280.38,276.72,275.74,277.44,0.164,0.149,0.725,0.494,0,1,0,0,0,0,3.474724102,3.92707555,3.255389929
3/16/2016,DE-RuS,0,0,1,1,0,0,1,3.534823688,66.43389609,4.890670625,282.98,0.158,0.159,2.619872208,4.265275333,67.77320387,70.948029,79.51891726,4.094889579,3.631360833,2.87866924,5.78375,2.790416667,284.36,280.64,278.54,282.66,279.32,0.159,0.16,0.558,0.554,0,1,0,0,0,0,1.385444483,1.667059252,0
10/17/2016,US-A74,1,0,1,0,0,0,1,10.22626316,48.71052632,29.06368421,299.42,0.396,0.19,7.872515,5.391094444,55.443,67.76,50.21368421,28.787,21.14611111,25.29157895,21.17,25.80625,302.92,298.04,300.28,293.46,301.6,0.18,0.173,0.332,0.44,0,1,0,0,0,1,6.582772633,5.632228441,6.284348011
9/7/2016,US-A74,1,0,0,1,0,0,1,6.872647619,59.76333333,31.3852381,305.76,0.429,0.171,6.765733333,6.165652941,52.65944444,57.75176471,63.19625,31.855,29.62,23.8525,28.77764706,31.44166667,305.18,300.26,301.58,304.9,304.68,0.172,0.174,0.37,0.505,0,1,0,0,0,1,3.46054504,6.147167046,9.718521118
3/31/2016,US-A74,0,0,1,1,0,0,1,7.862247059,45.00823529,13.79152941,296.56,0.335,0.199,6.566953846,4.54935,26.29153846,62.96,35.94545455,17.71384615,6.406,9.346454545,14.16657143,2.375571429,293.84,287.94,293.26,291.92,290.58,0.199,0.197,0.538,0.566,0,1,0,0,0,1,2.595630695,2.678107563,2.68681097
4/24/2016,US-A74,0,1,0,0,0,0,1,10.30912174,58.34565217,22.99434783,298.34,0.58,0.161,7.16065,7.16065,47.061875,47.061875,50.204,23.54375,23.54375,10.226,24.28894737,20.24833333,300.4,300.4,297.2,305.22,305.3,0.159,0.159,0.387,0.387,0,1,0,0,0,1,8.518481591,5.418796968,6.348655701
4/25/2006,US-SO2,0,1,0,0,1,0,0,2.406923077,62.67807692,11.73830769,302.48,0.32,0.15,2.260625,2.447777778,66.80083333,43.11148148,31.07107143,11.52229167,14.68037037,17.7275,15.89814815,13.31253571,294.82,299.5,300.14,299.24,297.72,0.149,0.148,0.38,0.348,0,1,0,1,0,1,2.246105346,1.920888184,0.821206152
2/20/2006,US-SO2,0,0,1,0,1,0,0,1.838333333,50.01958333,3.39625,283.52,0.351,0.148,3.140833333,2.74,21.835,10.00166667,10.36176471,12.61708333,17.41,16.24588235,15.83125,17.30875,293.18,290.5,294.58,295.6,297.2,0.15,0.15,0.427,0.283,0,1,0,1,0,1,2.405774416,-0.349939702,1.354086995
1/28/2006,US-SO2,0,0,0,1,1,0,0,2.446136364,32.64009091,9.646954545,284.9,0.322,0.152,3.935,1.889545455,15.8625,11.90272727,75.23875,9.285833333,9.886590909,3.35175,12.28868182,7.3356875,286.4,287.9,284.94,290.1,287.08,0.15,0.149,0.382,0.358,0,1,0,1,0,1,1.265537258,1.110969939,0
4/17/2006,US-SO2,0,1,0,0,1,0,0,4.941851852,73.33081481,7.12662963,288.36,0.413,0.146,4.4268,2.403333333,77.1348,28.97962963,36.60913043,8.86156,20.45962963,15.43173913,10.23011111,10.29285185,293.34,303.68,298.46,290.56,297.14,0.146,0.143,0.337,0.336,0,1,0,1,0,1,2.309701006,1.472296344,2.004034996
5/28/2006,US-SO2,0,1,0,1,1,0,0,1.888,34.451,14.721,299.82,0.477,0.154,2.76125,2.76125,50.83791667,50.83791667,34.46007143,18.07375,18.07375,21.69357143,16.99963333,21.34866667,304.96,304.96,311.9,301.58,313.32,0.154,0.154,0.476,0.476,0,1,0,1,0,1,3.400525199,3.34151445,0
3/1/2006,US-SO2,0,0,1,1,1,0,0,2.958333333,55.99,7.509833333,288.86,0.368,0.151,2.577173913,2.42,19.46869565,18.191,17.31210526,13.02952174,12.2645,10.78157895,3.39625,12.61708333,294.56,292.02,289.56,283.52,293.18,0.15,0.15,0.358,0.385,0,1,0,1,0,1,3.912868564,-0.048288326,0
6/3/2016,US-A32,0,1,1,0,0,1,0,3.119877778,57.42555556,27.91,302.6,0.433,0.173,4.131594444,3.780281818,51.39388889,64.96818182,62.85777778,27.14722222,20.96181818,29.69962963,18.773,14.00777778,305,302.68,307.94,296.56,298.86,0.173,0.143,0.533,0.537,0,0,0,0,1,1,5.996947247,6.027380084,4.727902889
8/22/2016,US-A32,1,0,0,0,0,1,0,4.61216,39.428,28.94133333,316.22,0.312,0.177,3.1234,5.707725,29.47125,57.063125,54.93875,28.995,24.6575,30.98,28.6075,31.67473684,307.72,309.08,309.86,301.8,314.1,0.176,0.177,0.364,0.464,0,0,0,0,1,1,6.2713003,4.61742575,1.11167109
10/15/2015,US-A32,1,0,1,0,0,1,0,5.0159,30.50272727,27.79363636,309.94,0.401,0.189,4.140658824,3.4522375,29.52294118,17.3325,21.49428571,26.79529412,31.45625,25.8052381,29.67631579,23.1825,308.7,305.04,306.88,304.9,300.26,0.189,0.189,0.348,0.347,0,0,0,0,1,1,1.71625269,3.591042127,1.335338652
1/27/2016,US-A32,0,0,0,1,0,1,0,3.451814286,50.91,8.788357143,283.86,0.487,0.19,5.033441176,8.568776471,67.73764706,30.09941176,31.3715,23.33529412,23.89294118,21.8245,18.10647059,27.79363636,300.3,302.48,300.44,299.76,309.94,0.199,0.192,0.421,0.34,0,0,0,0,1,1,1.707026408,2.826612244,0.787299454
5/18/2016,US-A32,0,1,0,1,0,1,0,4.02872,53.821,18.773,296.56,0.614,0.166,3.1518,3.1518,44.01333333,44.01333333,45.48363636,14.00777778,14.00777778,25.85409091,19.99495833,18.39625,298.86,298.86,300.18,302.4,295.48,0.221,0.221,0.766,0.766,0,0,0,0,1,1,4.443735831,4.307526786,8.835337639
11/10/2016,US-A32,1,0,1,1,0,1,0,3.38028125,56.176875,18.2525,294.04,0.527,0.19,3.28115,5.44774375,81.1275,69.55875,61.20941176,8.402,16.24125,20.09294118,25.87421053,25.75666667,290.12,290.54,295.86,303.58,300.82,0.19,0.186,0.71,0.594,0,0,0,0,1,1,3.251030417,3.832029105,0.84443757
7/21/2016,US-A32,0,1,1,1,0,1,0,6.04542,40.5204,35.7556,321.96,0.366,0.196,6.106419231,5.251634783,44.73653846,48.2173913,48.2173913,34.89346154,33.55521739,33.55521739,34.15538462,34.15538462,307.74,314.48,314.48,311.14,311.14,0.196,0.196,0.35,0.381,0,0,0,0,1,1,7.697243435,6.412286953,1.083740234
3/10/2017,US-A32,0,0,1,1,0,1,0,5.63817,42.418,7.6285,287.78,0.756,0.197,3.484342857,4.716173333,58.13071429,18.77533333,18.77533333,20.74928571,13.5208,13.5208,15.0287619,13.55115385,300.98,295.58,295.58,292.88,290.78,0.192,0.187,0.744,0.788,0,0,0,0,1,1,1.850340539,1.850615897,6.678493023
5/13/2017,US-A32,0,1,0,1,0,1,0,4.278129412,47.64529412,24.14352941,300.14,0.73,0.16,4.690443478,4.420126087,47.98173913,56.1073913,48.30772727,20.59695652,25.33608696,26.57863636,26.57863636,22.786,298.38,303.12,302.26,302.26,302.04,0.16,0.164,0.729,0.791,0,0,0,0,1,1,9.582663713,5.593773185,2.413147926
6/18/2006,DK-Ris,0,1,1,0,0,0,1,1.46,80.46979167,16.74458333,292.64,0.803,0.201,1.888541667,1.392916667,74.55083333,73.64333333,88.86395833,19.10291667,16.43764583,13.421625,12.17202083,10.62875,301.38,299.36,297.22,292.5,290.9,0.201,0.201,0.866,0.878,0,0,1,1,0,1,3.593272778,5.305058641,3.88342762
5/23/2008,DK-Ris,0,1,0,1,0,0,1,1.486666667,69.74458333,11.327625,297.9,0.668,0.192,1.351666667,2.013333333,71.92020833,62.31208333,68.02083333,9.840395833,15.91839583,14.99760417,14.02452083,11.89064583,293.96,301.54,300.72,301.66,295.72,0.191,0.178,0.778,0.746,0,0,1,1,0,1,3.557805798,3.92367795,2.805195332
6/2/2006,DK-Ris,0,1,1,0,0,0,1,2.298125,79.9925,11.67872917,289.84,0.689,0.196,3.365625,2.86375,82.08583333,86.88458333,85.956875,10.705625,10.04585417,8.695895833,6.158291667,-0.651875,288.92,290.76,291.5,285.78,276.24,0.197,0.201,0.575,0.782,0,0,1,1,0,1,4.853454741,3.996574324,3.498914957
4/15/2006,DK-Ris,0,1,0,0,0,0,1,2.483125,79.60666667,6.158291667,285.78,0.39,0.152,2.129166667,2.530208333,80.87770833,83.62395833,82.76520833,-0.651875,-1.288,-1.842979167,-2.7310625,-7.3241875,276.24,273.58,274,273.98,272.24,0.125,0.126,0.368,0.055,0,0,1,1,0,1,1.445911239,2.176716267,1.039481878
7/4/2006,DK-Ris,0,1,1,1,0,0,1,1.582291667,76.67958333,17.52479167,299.5,0.761,0.198,1.99875,2.018125,82.13916667,82.035625,78.97104167,16.78958333,16.10125,17.36833333,14.62770833,16.74458333,298.78,298.06,296.5,288.5,292.64,0.2,0.2,0.788,0.739,0,0,1,1,0,1,3.315630316,4.948134148,6.154396057
5/31/2008,DK-Ris,0,1,0,1,0,0,1,2.300833333,70.82625,15.22,295.1,0.732,0.195,2.789166667,3.328125,70.86479167,71.67625,66.37645833,14.8325,12.67708333,11.91164583,10.54164583,11.279125,291.6,286.32,290.84,287.4,296.22,0.192,0.19,0.766,0.697,0,0,1,1,0,1,4.530451531,4.598524477,6.287763596
7/5/2006,DK-Ris,0,1,1,1,0,0,1,1.97,84.95791667,18.16541667,301.48,0.785,0.197,1.582291667,1.99875,76.67958333,82.13916667,82.035625,17.52479167,16.78958333,16.10125,17.36833333,14.62770833,299.5,298.78,298.06,296.5,288.5,0.198,0.2,0.761,0.788,0,0,1,1,0,1,2.768282681,4.867409972,6.102202892
4/20/2008,DK-Ris,0,1,0,0,0,0,1,1.688333333,77.995,4.338104167,290.96,0.635,0.16,2.101875,2.275833333,76.90375,69.02604167,96.35416667,4.459979167,5.732895833,5.210791667,-0.908645833,0.369270833,289.88,287.6,280.6,280.92,279.32,0.16,0.161,0.339,0.455,0,0,1,1,0,1,2.597807062,2.352102175,2.084807396
7/11/2001,FI-Jok,0,1,1,1,0,0,1,3.649645833,78.80989583,19.34729167,294.82,0.851,0.168,2.985895833,1.387833333,63.29377083,54.39454167,57.53402083,6.363458333,8.609145833,8.170979167,9.287708333,8.37875,283.66,295.3,283.9,287.92,290.06,0.119,0.114,0.706,0.559,0,0,0,0,0,1,5.269743577,4.747158814,1.517693043
4/2/2002,FI-Jok,0,1,0,0,0,0,1,1.8971875,67.0015625,2.031791667,278.98,0.367,0.136,3.439208333,2.955854167,87.82891667,82.1895,77.3180625,11.76891667,2.797729167,15.97922917,12.59125,16.38083333,286.3,280.84,285.22,287.8,294.44,0.174,0.176,0.533,0.528,0,0,0,0,0,1,1.198791739,3.364085525,0.080753327
5/11/2002,FI-Jok,0,1,0,1,0,0,1,2.419229167,52.80664583,9.588229167,285.7,0.462,0.125,1.414625,2.098979167,49.41166667,55.90783333,58.17260417,8.640541667,10.7288125,9.95275,8.887604167,13.77441667,294,296.34,295.28,291.54,291.1,0.125,0.128,0.538,0.536,0,0,0,0,0,1,1.739486824,3.591228091,1.750502229
7/12/2010,US-AR1,0,1,1,1,0,1,0,3.0420625,79.375,25.9829375,313.2,0.604,0.175,3.310543478,1.630978261,74.5776087,85.19108696,75.88978723,28.30086957,24.33717391,23.94959574,24.83941667,26.01608696,305.24,307.12,308.96,311.46,315.4,0.174,0.173,0.603,0.566,0,0,1,0,1,0,4.344748701,5.886286936,2.871659756
2/3/2013,US-Tw2,0,0,1,0,0,0,1,3.334782609,66.36052174,12.42417391,288.16,0.377,0.115,1.0556,1.405166667,65.312,53.52,55.57769231,13.666,16.28,13.86469231,8.560954545,7.803065217,290.52,286.96,289.66,287.48,285.1,0.112,0.112,0.381,0.352,0,1,0,1,1,1,2.755772455,2.318862649,1.856529236
6/24/2012,US-Tw2,0,1,1,0,0,0,1,5.137191489,53.70276596,16.20044681,302.08,0.413,0.132,5.648638298,5.648638298,59.34597872,59.34597872,61.26975,15.8412766,15.8412766,16.21388889,25.09808333,22.18236842,301.9,301.9,302.38,314.74,312.86,0.133,0.133,0.446,0.446,0,1,0,1,1,1,2.369107803,3.654441398,1.458150387
1/2/2013,US-Tw2,0,0,0,1,0,0,1,1.266583333,49.62,10.67158333,281.82,0.295,0.104,2.2460625,5.2225,73.669375,56.70133333,62.12333333,4.6405625,8.277333333,7.113,7.296576923,10.31917241,280.78,281.2,282.48,284.84,285.58,0.104,0.103,0.332,0.331,0,1,0,1,1,1,1.482103264,2.513496618,0.082038872
4/9/2013,US-Tw2,0,1,0,0,0,0,1,7.348021739,35.49891304,16.11673913,295.22,0.594,0.158,7.937761905,5.445,44.06,69.18566667,71.96377083,13.54621429,14.40720513,14.875625,16.5396087,16.6852381,290.82,294.08,295.02,299.14,292.14,0.154,0.154,0.665,0.407,0,1,0,1,1,1,4.888329492,3.925592302,7.467412472
7/10/2012,US-Tw2,0,1,1,1,0,0,1,2.167820513,45.83153846,24.65846154,311.84,0.534,0.152,5.316275,4.721315789,47.60675,45.905,40.82033333,21.86025,21.775,23.01236667,22.47833333,19.23590909,302.8,305.12,308.36,305.76,305.4,0.152,0.147,0.64,0.583,0,1,0,1,1,1,5.686684651,4.629989179,3.057384014
3/23/2013,US-Tw2,0,0,1,1,0,0,1,3.803621622,31.01840541,13.28872973,294.26,0.48,0.159,4.523128205,2.957446809,62.48820513,55.80342553,55.80342553,12.00661538,13.85468085,13.85468085,15.47957778,22.49666667,295.58,299.62,299.62,299.46,295.94,0.164,0.138,0.591,0.514,0,1,0,1,1,1,3.324058933,2.956192284,3.092366815
5/8/2018,US-Bi2,0,1,0,0,0,0,1,5.965555571,50.87228571,20.39171429,307.9,0.282,0.143,3.306517936,5.431512604,53.37021277,63.656875,60.02957447,19.03510638,15.29270833,17.50276596,14.01978261,15.04913636,304.52,303.98,309.16,300.6,304.82,0.143,0.141,0.313,0.32,0,1,1,0,0,0,3.414516648,4.884308862,3.267516375
8/28/2018,US-Bi2,0,1,1,1,0,0,1,3.216486729,72.42583333,16.91583333,300.56,0.784,0.19,2.475397396,2.704905556,72.698125,61.98388889,65.14025,16.95791667,18.86333333,19.24725,17.119375,17.4706383,295.76,301.26,298.88,298.6,299.02,0.19,0.19,0.766,0.808,0,1,1,0,0,0,3.042639369,4.971923389,4.184374809
8/21/2018,US-Bi2,0,1,1,1,0,0,1,3.773145167,76.56958333,16.11145833,300.5,0.776,0.194,1.67944859,1.995170205,48.47538462,58.62977273,68.616,23.88846154,21.68068182,18.81577778,19.832,23.08682927,306.62,302.36,301.8,301.88,301.24,0.195,0.195,0.826,0.805,0,1,1,0,0,0,2.994916207,4.56277249,4.14589119
7/3/2018,US-Bi2,0,1,1,0,0,0,1,3.463381333,68.62375,18.83125,303.06,0.675,0.141,4.876403708,5.679076687,70.795,59.05479167,38.77022222,18.76541667,21.9025,27.21955556,23.55291667,20.22914286,306.16,307.7,310.88,309.98,312.16,0.139,0.139,0.665,0.645,0,1,1,0,0,0,4.749474821,5.274035788,3.591257215
2/17/2018,US-Bi2,0,0,0,1,0,0,1,0.899526628,63.07418605,11.20748837,294.16,0.34,0.076,2.003493263,4.332136396,57.90026316,56.15625,52.65086957,10.28655263,9.0005,9.053630435,8.991270833,13.20844444,289.28,288.68,290.34,287.28,292.48,0.075,0.071,0.405,0.32,0,1,1,0,0,0,1.677887264,2.769156104,2.697110176
5/1/2018,US-Bi2,0,1,0,0,0,0,1,4.34851817,60.11042553,14.69212766,303.96,0.323,0.141,4.173971146,6.833070146,64.29041667,68.42833333,68.42833333,13.33041667,13.025625,13.025625,14.64270833,16.00375,302.76,299.18,299.18,302,304.02,0.142,0.142,0.311,0.348,0,1,1,0,0,0,2.547749957,4.111954881,0
6/18/2018,US-Bi2,0,1,0,1,0,0,1,5.183065167,61.68541667,19.404375,315.42,0.31,0.122,2.79177213,4.399573894,60.04826087,67.36042553,58.61571429,17.65695652,16.83361702,19.01452381,22.24974359,26.99,304.26,313.38,307.66,315.68,316.7,0.123,0.122,0.463,0.327,0,1,1,0,0,0,2.184322857,4.648405567,1.03443265