Date,Site,Month_1,Month_2,Month_3,Month_4,Vegetation_1,Vegetation_2,Vegetation_3,WS,RH,TA,Eeflux_LST,Eeflux_LST-1,Eeflux_LST-2,Eeflux_LST-3,Eeflux_LST-4,Eeflux_LST-5,Eeflux_NDVI,Eeflux_NDVI-1,Eeflux_NDVI-2,Eeflux_NDVI-3,Eeflux_NDVI-4,Eeflux_NDVI-5,Eeflux_Albedo,Eeflux_Albedo-1,Eeflux_Albedo-2,Eeflux_Albedo-3,Eeflux_Albedo-4,Eeflux_Albedo-5,RH-1,RH-2,RH-3,RH-4,RH-5,TA-1,TA-2,TA-3,TA-4,TA-5,WS-1,WS-2,WS-3,WS-4,WS-5,Site_0,Site_1,Site_2,Site_3,Site_4,Site_5,LE_bowen_corr_mm,LE_bowen_corr_pred,Eeflux_ET
Date,Site,Month_1,Month_2,Month_3,Month_4,Vegetation_1,Vegetation_2,Vegetation_3,WS,RH,TA,Eeflux_LST,Eeflux_LST-1,Eeflux_LST-2,Eeflux_LST-3,Eeflux_LST-4,Eeflux_LST-5,Eeflux_NDVI,Eeflux_NDVI-1,Eeflux_NDVI-2,Eeflux_NDVI-3,Eeflux_NDVI-4,Eeflux_NDVI-5,Eeflux_Albedo,Eeflux_Albedo-1,Eeflux_Albedo-2,Eeflux_Albedo-3,Eeflux_Albedo-4,Eeflux_Albedo-5,RH-1,RH-2,RH-3,RH-4,RH-5,TA-1,TA-2,TA-3,TA-4,TA-5,WS-1,WS-2,WS-3,WS-4,WS-5,Site_0,Site_1,Site_2,Site_3,Site_4,Site_5,LE_bowen_corr_mm,LE_bowen_corr_pred,Eeflux_ET
4/23/2008,US-Skr,0,0,1,1,1,0,1,3.857416667,54.84433333,28.54083333,296.6,299.12,297.48,297.94,298.86,295.38,0.851,0.702,0.741,0.818,0.805,0.711,0.113,0.106,0.106,0.108,0.108,0.106,65.10044444,74.46984615,70.59790909,66.53444444,54.84007692,28.60116667,26.42526923,24.82913636,22.62763889,22.99569231,3.663055556,2.634192308,2.209727273,2.303111111,3.671384615,0,1,0,1,0,1,10.62643997,8.115326268,8.032111168
8/27/2007,US-Skr,0,1,1,1,1,0,1,2.197081081,77.48102703,29.03064865,294.18,296.28,298,302.08,303.24,301.76,0.705,0.577,0.463,0.887,0.794,0.879,0.094,0.102,0.102,0.099,0.102,0.114,67.90036667,84.25710714,79.26484211,82.43461905,75.53945455,28.8264,27.85364286,28.555,28.91980952,29.23739394,1.479333333,1.576678571,1.643684211,1.794666667,1.53369697,0,1,0,1,0,1,7.060627056,8.958277189,7.684081078
3/14/2008,US-Skr,0,0,1,0,1,0,1,2.468047619,73.93604762,23.90461905,292.28,293.82,298.1,297.56,297.9,290.14,0.62,0.836,0.828,0.654,0.853,0.323,0.106,0.106,0.105,0.107,0.104,0.102,66.2294375,81.47897917,88.891,73.74635135,63.32408696,24.8998125,25.63408333,24.50588889,23.00891892,22.48556522,2.62625,3.472125,2.12225,3.143702703,1.967304348,0,1,0,1,0,1,5.698322704,7.599471117,0
5/16/2001,FI-Jok,0,1,0,1,0,0,1,1.387833333,54.39454167,8.609145833,295.3,283.9,287.92,290.06,287.48,287.48,0.559,0.108,0.451,0.542,0.091,0.091,0.114,0.114,0.113,0.113,0.11,0.11,57.53402083,54.46325,49.206,60.00245833,60.00245833,8.170979167,9.287708333,8.37875,8.488875,8.488875,2.230979167,2.883083333,2.567125,2.955,2.955,0,0,0,0,0,1,1.263446274,4.273946126,0
7/17/2003,FI-Jok,0,1,1,1,0,0,1,1.188875,59.99054167,22.51952083,303.92,286.16,291.3,292.74,288.38,287.4,0.82,0.242,0.767,0.475,0.657,0.633,0.152,0.146,0.146,0.151,0.151,0.123,69.50664583,69.4666875,78.62675,62.95389583,62.6139375,9.439854167,10.62745833,11.53029167,9.3898125,8.8108125,2.0851875,3.141666667,1.3834375,1.306395833,3.7105625,0,0,0,0,0,1,5.862500511,7.510830456,2.783199787
7/28/2001,FI-Jok,0,1,1,1,0,0,1,1.653770833,68.76233333,15.60825,295.16,294.46,294.82,283.66,295.3,283.9,0.839,0.502,0.851,0.706,0.559,0.108,0.175,0.174,0.168,0.119,0.114,0.114,68.34825,78.80989583,63.29377083,54.39454167,57.53402083,18.82995833,19.34729167,6.363458333,8.609145833,8.170979167,1.96775,3.649645833,2.985895833,1.387833333,2.230979167,0,0,0,0,0,1,4.16499821,6.545208838,3.241047621
6/13/2002,FI-Jok,0,1,1,0,0,0,1,1.964916667,80.71579167,14.14864583,291.88,295.94,295.94,302.46,297.5,298.94,0.61,0.684,0.684,0.707,0.707,0.592,0.141,0.141,0.141,0.141,0.141,0.141,64.91560417,64.91560417,55.659625,51.40725,58.77214583,15.85508333,15.85508333,16.88079167,12.6673125,13.22075,1.69375,1.69375,2.298979167,2.320729167,2.284041667,0,0,0,0,0,1,1.301795782,6.205685037,1.14479816
2/20/2006,US-SO2,0,0,1,0,1,0,0,1.838333333,50.01958333,3.39625,283.52,293.18,290.5,294.58,295.6,297.2,0.351,0.427,0.283,0.417,0.345,0.4,0.148,0.15,0.15,0.15,0.151,0.151,21.835,10.00166667,10.36176471,16.02541667,13.38208333,12.61708333,17.41,16.24588235,15.83125,17.30875,3.140833333,2.74,2.613529412,2.739166667,1.86,0,1,0,1,0,0,2.405774416,1.503547444,1.354086995
6/4/2006,US-SO2,0,1,1,0,1,0,0,2.452833333,14.07166667,29.64673333,312.04,317.56,312.62,313.9,312.48,308.32,0.465,0.356,0.446,0.383,0.389,0.443,0.152,0.153,0.153,0.152,0.152,0.152,14.78091304,17.55322581,20.7537931,17.056,24.3016129,26.4826087,26.04677419,25.3762069,24.083,21.58032258,1.626956522,2.357903226,2.133103448,2.044666667,1.648387097,0,1,0,1,0,0,4.178390779,7.042045705,2.067611933
3/1/2006,US-SO2,0,0,1,1,1,0,0,2.958333333,55.99,7.509833333,288.86,294.56,292.02,289.56,283.52,293.18,0.368,0.358,0.385,0.338,0.351,0.427,0.151,0.15,0.15,0.151,0.148,0.15,19.46869565,18.191,17.31210526,50.01958333,21.835,13.02952174,12.2645,10.78157895,3.39625,12.61708333,2.577173913,2.42,2.049473684,1.838333333,3.140833333,0,1,0,1,0,0,3.912868564,1.728783786,0
5/20/2006,US-SO2,0,1,0,1,1,0,0,2.3765,28.91266667,21.34866667,313.32,308.3,301.66,312.76,311.02,314.26,0.348,0.487,0.02,0.386,0.422,0.349,0.152,0.152,0.151,0.151,0.15,0.15,29,29.21034483,22.78551724,29.26896552,30.65522222,23.10933333,26.53241379,25.68172414,24.61965517,22.30703704,2.7615,2.01137931,2.275517241,1.971724138,2.243148148,0,1,0,1,0,0,3.755100878,5.27673665,0.030068479
5/11/2006,US-SO2,0,1,0,1,1,0,0,2.224482759,22.50793103,24.66206897,312.88,305.66,308.76,307.94,307.94,306.3,0.343,0.433,0.368,0.382,0.382,0.394,0.147,0.148,0.149,0.149,0.149,0.148,25.06896552,48.24413793,38.3762069,38.3762069,33.24555172,23.75586207,18.89137931,19.8837931,19.8837931,20.09586207,2.552068966,1.992931034,2.625,2.625,2.629137931,0,1,0,1,0,0,3.914180073,6.030667507,0
5/28/2006,US-SO2,0,1,0,1,1,0,0,1.888,34.451,14.721,299.82,304.96,304.96,311.9,301.58,313.32,0.477,0.476,0.476,0.377,0.415,0.348,0.154,0.154,0.154,0.154,0.153,0.152,50.83791667,50.83791667,34.46007143,39.68533333,28.91266667,18.07375,18.07375,21.69357143,16.99963333,21.34866667,2.76125,2.76125,2.96875,2.056,2.3765,0,1,0,1,0,0,3.400525199,5.103554591,0
8/27/2009,DE-Seh,1,0,0,0,0,0,1,2.357011042,67.4775,21.003125,300.2,298,301.94,306.72,295.22,299.36,0.427,0.497,0.427,0.441,0.462,0.462,0.184,0.174,0.17,0.185,0.195,0.197,71.11666667,72.82083333,52.674375,57.72770833,63.21583333,18.19958333,20.52083333,20.853125,21.09020833,17.97520833,1.662869658,2.150209677,1.443116948,2.375786325,2.451597708,0,0,0,1,1,1,2.628697443,5.605856071,1.463417053
7/2/2009,DE-Seh,0,1,1,1,0,0,1,0.901641529,72.30125,23.476875,302.76,298.7,297.28,297.28,299.5,297.72,0.721,0.72,0.764,0.764,0.677,0.809,0.185,0.201,0.202,0.202,0.201,0.201,65.17875,61.60583333,61.60583333,69.89916667,68.040625,16.26854167,15.40645833,15.40645833,19.156875,15.43339583,2.263921513,1.721557454,1.721557454,1.012667071,1.26439581,0,0,0,1,1,1,3.089109321,7.210840391,0
3/5/2018,US-Bi2,0,0,1,0,0,0,1,2.206239,71.03355556,6.724977778,290.12,288.3,292.54,287.16,289.42,288.12,0.349,0.348,0.36,0.267,0.333,0.378,0.104,0.106,0.089,0.087,0.084,0.08,72.24205882,62.89204545,68.79489362,61.10391304,54.95958333,6.639294118,7.664409091,5.792276596,5.535152174,4.2198125,1.937395,3.001387432,3.153976702,1.839293804,1.741211604,0,1,0,1,1,1,2.832106434,3.204437006,0.921378553
9/13/2018,US-Bi2,1,0,0,0,0,0,1,1.794714359,56.73461538,18.33435897,301.66,304.58,303.5,303.5,300.12,299.56,0.662,0.75,0.667,0.667,0.758,0.798,0.19,0.191,0.189,0.189,0.188,0.189,40.52829268,66.31076923,66.31076923,64.3025,68.46708333,21.8002439,18.8674359,18.8674359,18.84305556,17.71,2.91092178,2.212317692,2.212317692,1.888170222,2.896682917,0,1,0,1,1,1,2.940997247,5.560956722,2.439720392
2/1/2018,US-Bi2,0,0,0,1,0,0,1,1.311433826,73.22586957,12.40482609,287.12,282.94,286.22,286.1,287.14,288.78,0.215,0.331,0.341,0.266,0.296,0.264,0.046,0.054,0.056,0.056,0.077,0.079,60.18083333,61.20625,49.81978261,51.21105263,65.79651163,4.570875,7.47185,9.115195652,7.723263158,9.519534884,3.665148729,3.191388875,2.965596804,2.442732,2.964348233,0,1,0,1,1,1,1.743125613,3.893494067,1.438070655
7/27/2018,US-Bi2,0,1,1,0,0,0,1,2.9847315,55.62645833,21.93791667,305.62,305.26,303.56,307.42,301.08,305.4,0.817,0.847,0.843,0.775,0.824,0.826,0.193,0.19,0.191,0.186,0.183,0.179,46.22208333,50.69229167,55.46648649,51.38575,54.806,24.66666667,23.70291667,24.29216216,24.3975,22.276,3.277084292,3.848161667,2.974237784,3.055106525,3.604231822,0,1,0,1,1,1,6.983292748,6.751712293,5.47671175
3/29/2018,US-Bi2,0,0,1,0,0,0,1,1.838079184,58.45947368,18.03157895,298.82,301.68,292.6,290.7,294.62,290.22,0.39,0.341,0.367,0.101,0.264,0.313,0.118,0.118,0.119,0.119,0.117,0.102,60.92666667,54.46866667,72.15139535,64.75170213,76.41673913,16.59077778,13.65804444,8.451069767,9.194680851,7.103413043,1.629419361,2.711929556,2.79996,2.877935426,2.309743587,0,1,0,1,1,1,3.529451295,5.443600139,1.735111952
7/23/2003,US-Goo,0,1,1,1,0,1,0,2.223448276,71.1137931,25.09310345,297.84,300.94,300.94,306.06,297.98,304.86,0.758,0.792,0.792,0.669,0.785,0.78,0.159,0.16,0.16,0.174,0.174,0.169,78.21612903,78.21612903,74.70004545,74.3715,71.29666667,29.76129032,29.76129032,31.01831818,29.72857143,28.73,2.147096774,2.147096774,1.613636364,2.068571429,1.756,0,0,1,0,0,0,7.479496276,8.931460792,3.508743525
3/11/2004,US-Goo,0,0,1,1,0,1,0,2.931428571,49.26190476,14.60952381,295.5,288.32,292.16,294.86,292.62,289.54,0.434,0.449,0.422,0.452,0.464,0.418,0.15,0.151,0.151,0.151,0.151,0.155,48.61666667,30.74210526,46.06190476,73.595,70.54666667,8.377777778,14.10526316,16.12861905,14.81505,8.706666667,1.855555556,3.264736842,3.758571429,2.009,2.446,0,0,1,0,0,0,2.714906971,5.029778928,0
8/5/2002,US-Goo,1,0,0,0,0,1,0,1.69,68.48518519,30.04448148,300.16,305.82,305.82,302.66,301.76,301.94,0.84,0.827,0.827,0.868,0.401,0.793,0.163,0.16,0.16,0.159,0.159,0.159,66.41923077,66.41923077,75.51153846,75.45773077,82.76666667,30.26161538,30.26161538,30.24619231,30.29619231,27.83666667,1.368076923,1.368076923,0.858076923,1.313846154,1.181,0,0,1,0,0,0,9.066151446,9.187489351,5.354084492
8/29/2002,US-Goo,1,0,0,0,0,1,0,1.992962963,73.56666667,26.54444444,304.26,300.66,299.08,303.2,304.44,300.06,0.772,0.81,0.784,0.796,0.784,0.808,0.157,0.157,0.153,0.153,0.153,0.148,73.85925926,66.14782609,73.31111111,78.6962963,70.96153846,26.48148148,27.55217391,26.92592593,29.77407407,28.58465385,2.286666667,1.945652174,1.597407407,1.573703704,1.558076923,0,0,1,0,0,0,6.760757847,8.159314344,3.840248823
9/22/2002,US-Goo,1,0,0,1,0,1,0,2.733666667,75.72666667,23.89666667,298.02,299.98,307.54,304.04,301.76,302.76,0.541,0.78,0.735,0.803,0.796,0.678,0.14,0.165,0.165,0.162,0.159,0.159,69.13214286,68.625,68.69259259,77.33076923,71.99604,28.49285714,28.91878125,29.01118519,27.6,27.932,1.680357143,1.68125,1.166296296,1.402692308,1.3292,0,0,1,0,0,0,4.250023355,7.496236743,6.513502598
7/5/2002,US-Goo,0,1,1,1,0,1,0,1.338148148,65.75925926,30.47777778,308.1,302.98,304,303.62,304.2,306.06,0.747,0.751,0.703,0.509,0.762,0.742,0.163,0.164,0.164,0.163,0.162,0.162,66.848,63.87037037,83.29310345,62.43939394,62.03846154,29.78804,30.02596296,25.46551724,27.23333333,28.45769231,1.4048,1.58962963,1.502068966,1.264242424,1.811538462,0,0,1,0,0,0,4.910525081,9.54909591,4.052684784
10/16/2002,US-Goo,1,0,1,0,0,1,0,2.207272727,58.44095455,14.63640909,293.14,297.64,294.14,298.7,303.22,298.02,0.677,0.644,0.666,0.726,0.698,0.541,0.15,0.151,0.151,0.153,0.153,0.14,80.43640909,74.7862069,69.71304348,76.55,75.72666667,21.91818182,18.33793103,22.02608696,27.72916667,23.89666667,1.359090909,1.135862069,1.999130435,1.74875,2.733666667,0,0,1,0,0,0,4.378063474,6.163584752,0.83439362
1/5/2006,US-Goo,0,0,0,1,0,1,0,2.9885,59.34,9.85,286.96,288.4,286.5,285.24,288,275.66,0.469,0.414,0.463,0.466,0.45,0.488,0.16,0.157,0.152,0.146,0.137,0.139,66.65555556,72.2801,55.75,49.65714286,65.95263158,11.66111111,9.575,10.46111111,11.49047619,-2.631578947,1.480555556,1.842,2.893333333,2.546666667,1.744736842,0,0,1,0,0,0,1.351847578,4.722319496,0
10/17/2005,US-Goo,1,0,1,0,0,1,0,1.241111111,39.75,22.38888889,300.6,301.96,299.64,300.46,298.12,295.76,0.687,0.702,0.697,0.715,0.707,0.303,0.152,0.151,0.151,0.148,0.148,0.147,58.25,58.34545455,66.73333333,76.04782609,75.87894737,22.51818182,23.00454545,23.75714286,20.06086957,17.87894737,0.975909091,2.252727273,1.705714286,1.346956522,1.830526316,0,0,1,0,0,0,3.283516204,7.610813256,2.073215961
6/3/2002,US-Goo,0,1,1,0,0,1,0,1.512666667,68.38333333,29.56,307.08,307.08,301.12,303.42,300.54,302.56,0.744,0.744,0.776,0.607,0.781,0.74,0.17,0.17,0.17,0.17,0.173,0.169,68.38333333,63.83080769,66.712,72.77692308,69.175,29.56,29.50773077,28.384,25.89230769,26.32916667,1.512666667,1.525384615,1.1524,1.074615385,1.165,0,0,1,0,0,0,7.798956337,9.424358885,5.057304382
3/27/2004,US-Goo,0,0,1,1,0,1,0,3.125925926,55.8592963,22.51481481,296.26,296.06,291.92,290.7,295.5,288.32,0.458,0.478,0.458,0.468,0.434,0.449,0.15,0.149,0.151,0.15,0.15,0.151,40.684,70.99032258,39.66428571,49.26190476,48.61666667,19.08404,13.51935484,11.55714286,14.60952381,8.377777778,3.6696,3.523225806,2.374285714,2.931428571,1.855555556,0,0,1,0,0,0,3.657723929,6.356548029,4.276696205
7/10/2004,US-Goo,0,1,1,1,0,1,0,1.538888889,75.02962963,28.14814815,301.48,303.02,299.04,305.66,301.9,302.2,0.766,0.805,0.431,0.786,0.691,0.639,0.192,0.158,0.167,0.167,0.167,0.167,75.53571429,87.552,72.62258065,71.71078571,74.29,29.30357143,26.46,29.14519355,29.67857143,28.64333333,1.935,1.9336,2.126129032,1.873928571,1.844,0,0,1,0,0,0,8.849762014,9.240652415,0
8/6/2002,US-Goo,1,0,0,0,0,1,0,1.406538462,74.7385,29.38076923,305.08,300.16,300.16,305.82,305.82,302.66,0.831,0.84,0.84,0.827,0.827,0.868,0.164,0.163,0.163,0.16,0.16,0.159,68.48518519,68.48518519,66.41923077,66.41923077,75.51153846,30.04448148,30.04448148,30.26161538,30.26161538,30.24619231,1.69,1.69,1.368076923,1.368076923,0.858076923,0,0,1,0,0,0,8.166965583,8.826364469,4.405718803
5/18/2002,US-Goo,0,1,0,1,0,1,0,3.844375,68.278125,13.834375,294.58,296.08,299.56,298.6,288.78,291.08,0.741,0.455,0.744,0.769,0.541,0.522,0.165,0.165,0.168,0.164,0.152,0.152,83.4037037,72.42222222,74.22413793,71.27833333,69.17125,23.92592593,22.2037037,18.9862069,9.684791667,12.3840625,2.381851852,2.303333333,1.548965517,1.407025785,1.867455442,0,0,1,0,0,0,6.150681534,6.428392109,2.215865374
11/10/2011,IT-CA2,1,0,1,1,0,0,1,2.147152291,77.81333333,12.91895833,291,292.36,290.7,291.78,289.52,293.34,0.708,0.658,0.605,0.619,0.57,0.649,0.157,0.15,0.147,0.144,0.146,0.147,81.605625,78.36916667,79.48666667,84.37729167,83.28541667,13.56479167,13.47354167,13.5075,13.71354167,15.05145833,2.200662985,1.775444839,2.332586138,1.533953942,1.928405075,0,0,1,1,1,1,2.028767002,4.902714026,0
8/17/2012,IT-CA2,1,0,0,0,0,0,1,2.144286471,60.55645833,26.33375,320.04,311.3,319.62,319.62,318.46,312.2,0.304,0.336,0.308,0.308,0.317,0.324,0.213,0.213,0.214,0.214,0.217,0.216,71.25020833,69.49854167,69.49854167,32.09166667,50.21666667,24.615625,25.23458333,25.23458333,28.67479167,28.50375,2.328218089,2.268064006,2.268064006,3.860224574,3.019037896,0,0,1,1,1,1,1.798028713,6.28930478,0.568725228
7/10/2012,US-Tw2,0,1,1,1,0,0,1,2.167820513,45.83153846,24.65846154,311.84,308.36,305.76,305.18,307.74,303.6,0.534,0.502,0.603,0.452,0.53,0.375,0.152,0.148,0.143,0.136,0.128,0.128,40.82033333,47.49129167,48.859775,45.32295122,54.62045455,23.01236667,22.47833333,22.22125,21.13734146,17.79159091,3.414933333,3.860041667,3.625675,3.259707317,3.662931818,0,1,0,1,1,0,5.686684651,6.28594041,3.057384014
9/3/2012,US-AR1,1,0,0,1,0,1,0,2.904291667,44.14310417,32.41527083,320.1,313.6,317,313.18,305.16,307.08,0.419,0.396,0.383,0.372,0.094,0.378,0.169,0.168,0.168,0.168,0.178,0.182,46.74656522,54.7506087,55.75367391,74.06040426,60.13519565,30.46856522,28.42347826,26.27615217,23.42042553,21.64132609,2.588434783,1.192826087,1.542,2.058170213,2.58526087,0,0,1,0,1,0,1.353831799,7.210825097,2.341912508
7/25/2009,US-AR1,0,1,1,1,0,1,0,3.155916667,53.23395833,29.60895833,319.4,319.4,311.68,316.28,318.58,314.36,0.357,0.357,0.464,0.378,0.388,0.428,0.178,0.178,0.179,0.18,0.164,0.163,53.23395833,55.77895833,54.5704375,41.3806383,65.56638298,29.60895833,28.53625,25.24875,33.02238298,26.72917021,3.155916667,4.119875,3.092645833,3.872787234,3.731148936,0,0,1,0,1,0,1.515558199,7.846682988,2.357088327
7/1/2009,US-AR1,0,1,1,1,0,1,0,2.396478261,59.05630435,27.41195652,311.5,314.68,318.58,306.18,306.18,317.24,0.498,0.48,0.427,0.51,0.51,0.445,0.18,0.18,0.188,0.179,0.179,0.178,55.025625,50.7429375,51.633125,51.633125,51.01333333,27.87439583,31.25645833,30.38189583,30.38189583,30.57354167,2.173145833,3.989541667,2.996604167,2.996604167,3.288333333,0,0,1,0,1,0,2.986986256,7.616762388,2.118258476
5/7/2016,DE-Kli,0,1,0,1,0,0,1,3.789375,49.16666667,15.13416667,292.34,295.78,289.28,289.84,277.06,287.54,0.838,0.843,0.819,0.805,0.472,0.744,0.191,0.189,0.189,0.172,0.161,0.16,60.64229167,80.78666667,58.524375,84.08541667,68.185,13.66604167,9.223541667,5.832083333,0.953125,5.959166667,2.925416667,1.770416667,2.795416667,3.20875,1.994791667,0,0,0,0,1,0,5.298737773,5.900355094,5.818086147
7/23/2018,DE-Kli,0,1,1,1,0,0,1,1.452291667,64.065,19.61083333,302.94,298,300.84,295.96,303.98,307.18,0.655,0.353,0.68,0.697,0.68,0.763,0.193,0.177,0.168,0.168,0.174,0.174,68.80270833,68.974375,69.04833333,47.18541667,41.40125,17.36416667,17.50020833,17.97625,21.69395833,19.806875,1.665833333,1.351666667,1.970833333,1.928541667,0.985208333,0,0,0,0,1,0,3.34674357,6.426298219,4.818380356
10/25/2014,DE-Kli,1,0,1,0,0,0,1,3.271875,86.55041667,6.203333333,278.32,286.26,287.14,282.9,285.62,287.82,0.775,0.768,0.457,0.335,0.783,0.487,0.165,0.168,0.151,0.151,0.151,0.16,94.80104167,86.59291667,88.935,85.45854167,83.59645833,7.036875,12.53583333,11.98395833,12.6,11.20333333,1.712291667,2.91625,3.249166667,2.735,3.545416667,0,0,0,0,1,0,1.670721316,3.918281373,0
9/15/2014,DE-Kli,1,0,0,1,0,0,1,2.325416667,92.43104167,16.39395833,295.56,287.26,297.98,296.18,302.62,298.8,0.42,0.184,0.497,0.509,0.6,0.682,0.129,0.224,0.168,0.159,0.151,0.151,74.32416667,72.911875,74.66583333,45.98895833,58.658125,19.135,19.520625,15.56208333,21.14104167,16.46875,1.387916667,1.755833333,2.198125,2.771041667,1.796666667,0,0,0,0,1,0,2.216969027,4.592430089,1.686466575
5/14/2016,DE-Kli,0,1,0,1,0,0,1,3.271875,77.17291667,7.267083333,284.06,293.1,293.1,293.72,294.82,294.08,0.734,0.403,0.403,0.853,0.525,0.903,0.191,0.194,0.194,0.194,0.194,0.194,68.80458333,68.80458333,68.803125,64.05125,66.82229167,14.39083333,14.39083333,13.850625,14.65916667,14.24666667,3.084375,3.084375,3.521666667,3.141875,3.104791667,0,0,0,0,1,0,2.483727479,4.366919984,4.191156864
5/9/2017,DE-Kli,0,1,0,1,0,0,1,1.875208333,74.22,2.760416667,275.9,284.36,292,284.34,283.14,276.06,0.041,0.514,0.225,0.821,0.379,0.529,0.189,0.148,0.151,0.164,0.164,0.154,72.24770833,76.68854167,87.37,85.12145833,82.62333333,6.213333333,11.28645833,5.971666667,7.498541667,9.602708333,3.531041667,1.580833333,2.374791667,3.745416667,3.145833333,0,0,0,0,1,0,1.258389049,3.574145213,0
4/27/2015,DE-Kli,0,1,0,0,0,0,1,2.739166667,79.42166667,12.52229167,296.96,294.26,291.96,290.82,285.06,286.54,0.819,0.792,0.796,0.801,0.577,0.736,0.168,0.165,0.164,0.163,0.161,0.161,74.70604167,64.533125,62.7725,72.9725,63.70291667,7.527916667,7.731875,5.462708333,9.636666667,7.298333333,0.938541667,2.944791667,1.849583333,2.108541667,3.28875,0,0,0,0,1,0,2.92144982,5.344838506,0
8/8/2018,DE-Kli,1,0,0,0,0,0,1,1.75125,47.64458333,24.38208333,309.04,310.4,303.9,305.42,307.92,311.92,0.59,0.73,0.705,0.656,0.582,0.748,0.188,0.187,0.184,0.184,0.188,0.187,30.75791667,75.99208333,74.41041667,51.47479167,42.39604167,25.05708333,22.45,22.01458333,25.65145833,26.47041667,2.147291667,1.119583333,1.202291667,1.482916667,1.430416667,0,0,0,0,1,0,4.157318229,6.59573629,3.779826403
6/2/2014,DE-Kli,0,1,1,0,0,0,1,1.634166667,75.71708333,10.85166667,291.3,290.98,290.64,296.66,290.14,297.16,0.712,0.858,0.835,0.161,0.818,0.773,0.191,0.191,0.197,0.189,0.184,0.184,72.31583333,72.12979167,74.07375,73.50583333,82.96270833,10.620625,11.74604167,15.87791667,14.546875,17.03291667,1.7525,2.072708333,2.402083333,1.442083333,1.849166667,0,0,0,0,1,0,4.497597583,5.443140893,2.842937231
4/20/2016,DE-Kli,0,1,0,0,0,0,1,3.242291667,72.10604167,4.669375,284.14,283.32,285.74,283.28,285.88,279.72,0.864,0.86,0.69,0.649,0.618,0.063,0.162,0.163,0.135,0.13,0.13,0.13,72.99,75.444375,83.00666667,72.363125,82.63354167,5.679166667,13.675,2.512916667,3.536875,1.54625,1.747916667,1.63625,3.041041667,1.822083333,3.402708333,0,0,0,0,1,0,2.235509455,4.298846039,0
10/24/2014,DE-Kli,1,0,1,0,0,0,1,1.712291667,94.80104167,7.036875,286.26,287.14,282.9,285.62,287.82,289.8,0.768,0.457,0.335,0.783,0.487,0.588,0.168,0.151,0.151,0.151,0.16,0.16,86.59291667,88.935,85.45854167,83.59645833,84.571875,12.53583333,11.98395833,12.6,11.20333333,10.403125,2.91625,3.249166667,2.735,3.545416667,2.928125,0,0,0,0,1,0,1.492690299,3.719391458,0
8/5/2017,DE-Kli,1,0,0,0,0,0,1,2.266458333,68.62604167,18.95979167,298.76,301.14,302,295.62,291.92,302.58,0.588,0.558,0.467,0.191,0.226,0.564,0.171,0.172,0.174,0.174,0.175,0.17,61.25416667,58.66291667,72.29083333,86.721875,63.51145833,21.97395833,22.82458333,16.39041667,15.58666667,21.54729167,2.17875,3.161041667,3.040625,2.954166667,1.674791667,0,0,0,0,1,0,2.213202062,5.358375512,3.719380617
7/31/2015,DE-Kli,0,1,1,1,0,0,1,1.4875,67.6875,12.250625,290.24,290.44,290.3,296.42,303.12,298.34,0.606,0.453,0.461,0.3,0.524,0.723,0.186,0.182,0.198,0.152,0.144,0.158,65.56208333,58.13958333,75.95333333,64.65375,64.375,13.83333333,14.29375,18.18104167,22.80625,14.34895833,3.284166667,3.149791667,2.4475,2.176458333,0.870625,0,0,0,0,1,0,1.924987696,5.228467915,2.817924738
6/3/2017,DE-Kli,0,1,1,0,0,0,1,2.73,62.031875,18.53208333,297.06,300.96,292.9,281.16,275.9,284.36,0.667,0.75,0.253,0.304,0.041,0.514,0.174,0.174,0.178,0.19,0.189,0.148,54.06083333,78.415,59.65208333,74.22,72.24770833,16.15854167,14.39041667,6.775416667,2.760416667,6.213333333,1.543125,2.034791667,2.762291667,1.875208333,3.531041667,0,0,0,0,1,0,3.02019821,5.685464079,3.206347704
3/7/2014,DE-Kli,0,0,1,1,0,0,1,1.573333333,78.51895833,3.679583333,284.92,281.9,275.68,274.42,282.3,274.58,0.452,0.488,0.259,0.336,0.27,0.189,0.157,0.14,0.145,0.145,0.146,0.17,78.46791667,75.52458333,77.510625,84.33541667,64.3575,3.425625,3.252083333,3.45875,7.000625,8.445625,3.163958333,3.504375,3.2125,2.153333333,3.514166667,0,0,0,0,1,0,1.230552868,2.566131563,0.298235387
5/6/2016,DE-Kli,0,1,0,1,0,0,1,2.925416667,60.64229167,13.66604167,295.78,289.28,289.84,277.06,287.54,290.98,0.843,0.819,0.805,0.472,0.744,0.855,0.189,0.189,0.172,0.161,0.16,0.16,80.78666667,58.524375,84.08541667,68.185,66.10333333,9.223541667,5.832083333,0.953125,5.959166667,7.186666667,1.770416667,2.795416667,3.20875,1.994791667,1.161458333,0,0,0,0,1,0,4.574989093,5.794517697,0
8/31/2009,DE-Kli,1,0,0,0,0,0,1,2.587485417,54.1766889,16.1598611,294.42,291.62,292.32,299.16,292.8,298.1,0.43,0.378,0.469,0.486,0.791,0.825,0.169,0.169,0.169,0.172,0.169,0.182,63.49719479,65.28446988,75.39963477,73.25976425,67.2213984,12.78360421,13.62909723,19.14458325,11.74895838,16.62576396,2.785105625,3.791996458,2.072574583,1.837146042,1.078900208,0,0,0,0,1,0,1.707903419,5.302773827,0
6/20/2009,DE-Kli,0,1,1,0,0,0,1,1.837146042,73.25976425,11.74895838,292.8,298.1,298.32,290.5,297.62,305.78,0.791,0.825,0.875,0.186,0.326,0.459,0.169,0.182,0.181,0.181,0.172,0.174,67.2213984,63.10036275,72.61364444,63.71319437,38.89520827,16.62576396,16.29159717,10.73790971,19.50902772,23.17354165,1.078900208,2.247283125,2.440534583,2.91947875,3.937272708,0,0,0,0,1,0,2.56515366,5.174690427,1.643132091
7/27/2008,DE-Kli,0,1,1,1,0,0,1,2.199037292,53.26562524,21.18965279,297.72,301.1,292.36,300.64,305.12,301.04,0.596,0.486,0.008,0.251,0.427,0.783,0.175,0.175,0.175,0.207,0.194,0.194,65.65770806,85.02784737,53.47743056,43.65701383,60.8513888,21.52756943,17.9804167,22.62930548,22.46722221,18.59631942,2.031513542,1.475857708,2.596730417,2.311161875,2.569277292,0,0,0,0,1,0,3.926522954,6.562886926,4.684606552
7/30/2012,DE-Kli,0,1,1,1,0,0,1,1.722083333,62.44458333,14.746875,290.36,300.9,291.6,288.9,288.32,288.32,0.706,0.803,0.784,0.626,0.802,0.802,0.182,0.182,0.195,0.195,0.151,0.151,68.55916667,64.82458333,72.265625,75.51854167,75.51854167,21.26916667,14.35104167,11.57104167,11.92270833,11.92270833,1.420208333,1.244375,1.709791667,3.809583333,3.809583333,0,0,0,0,1,0,3.628930347,6.239828745,1.645185709
6/26/2008,DE-Kli,0,1,1,0,0,0,1,2.444969167,71.98187478,16.81138889,297.12,292.22,298.1,302.46,297.5,306.52,0.083,0.606,0.685,0.756,0.689,0.65,0.193,0.193,0.193,0.193,0.191,0.198,63.23756928,59.48493079,63.51312494,65.47354142,54.51090286,15.32874999,19.52812502,20.73881945,12.61314585,19.2495833,1.611128125,3.107150208,3.415612083,1.303748542,2.140559792,0,0,0,0,1,0,3.808366032,5.763971589,1.828808665
6/8/2007,DE-Kli,0,1,1,0,0,0,1,2.150690208,56.38714,20.97986109,297.28,297.44,297.68,302.56,292.7,297.36,0.173,0.61,0.576,0.248,0.415,0.463,0.169,0.169,0.159,0.21,0.209,0.209,63.55930003,82.46330635,57.40394015,46.54408868,54.43689561,19.86583329,16.85847225,20.44875004,18.64222221,14.70934728,2.70862,1.989999792,3.158380417,2.748977917,2.459962708,0,0,0,0,1,0,2.487732289,6.315335165,0
9/12/2016,DE-Kli,1,0,0,1,0,0,1,1.602291667,59.08166667,21.89020833,302.74,301.8,298.7,296.86,298.82,291.66,0.514,0.343,0.44,0.295,0.461,0.11,0.184,0.184,0.185,0.185,0.184,0.155,61.08083333,71.95,75.86333333,65.92645833,75.79479167,21.51625,20.11375,18.72083333,19.80395833,17.96458333,1.578125,2.351875,1.71375,3.076458333,1.642916667,0,0,0,0,1,0,1.464343346,5.877435753,1.640466809
4/13/2010,DE-Kli,0,1,0,0,0,0,1,3.093867083,71.77515002,7.020875,287.88,294.5,291.12,288.22,294.8,295.98,0.754,0.655,0.688,0.523,0.546,0.484,0.166,0.157,0.155,0.147,0.172,0.172,48.31091746,47.55559721,66.84195892,73.54448717,84.91540054,10.08279865,7.106180563,5.817756917,15.54187498,14.6366666,2.539141875,3.372134375,1.78910125,3.286856875,1.774329167,0,0,0,0,1,0,2.244609733,4.25569409,2.609826565
4/5/2016,DE-Kli,0,1,0,0,0,0,1,1.63625,75.444375,13.675,285.74,283.28,285.88,279.72,281.74,283.16,0.69,0.649,0.618,0.063,0.607,0.357,0.135,0.13,0.13,0.13,0.127,0.146,83.00666667,72.363125,82.63354167,81.57520833,82.00145833,2.512916667,3.536875,1.54625,0.812083333,5.561458333,3.041041667,1.822083333,3.402708333,3.041875,3.257291667,0,0,0,0,1,0,2.256727015,5.622262516,1.992715359
11/7/2002,US-SP2,1,0,1,1,0,1,1,1.135,74.8675,11.0975,290.1,293.18,295.28,300.16,299.76,297.64,0.783,0.76,0.788,0.765,0.806,0.703,0.128,0.125,0.125,0.126,0.126,0.116,60.7,49.35,69.77788889,62.78666667,88.04761905,17.16263158,24.3325,27.94444444,29.194,21.30809524,1.396894737,0.92275,1.537666667,1.800866667,1.619285714,0,0,1,0,0,1,5.507353693,5.792373545,3.135349751
2/11/2003,US-SP2,0,0,1,0,0,1,1,1.583888889,33.07,15.77788889,287.92,291.98,294.72,287.04,280.88,290.84,0.693,0.724,0.7,0.72,0.716,0.737,0.116,0.122,0.122,0.123,0.123,0.124,26.24777778,44.97166667,30.138,20.475,45.52333333,21.34888889,22.8225,12.47133333,11.98166667,17.32133333,1.852444444,1.848333333,2.488333333,1.164666667,2.614,0,0,1,0,0,1,5.768561031,6.488926656,3.487245321
7/7/2004,US-SP2,0,1,1,1,0,1,1,2.232833333,64.2925,30.45841667,307.06,304.5,306.78,303.36,304.88,302.2,0.742,0.811,0.735,0.76,0.735,0.697,0.112,0.113,0.115,0.135,0.134,0.134,71.29142857,53.78090909,62.14178261,58.271,44.84928571,29.01714286,30.91090909,29.05086957,30.83480952,32.56214286,2.026285714,1.356,1.75673913,2.20452381,1.571357143,0,0,1,0,0,1,9.216123805,9.466210266,5.091650486
12/14/2004,US-SP2,1,1,0,0,0,1,1,1.817193548,51.32064516,6.836774194,284.42,286.94,285.4,289.68,292.62,293.96,0.782,0.802,0.67,0.505,0.694,0.762,0.118,0.119,0.121,0.121,0.121,0.119,63.50761905,52.94222222,62.23928571,63.87833333,71.148,9.899571429,12.68777778,17.88857143,23.51,19.75,1.244428571,1.318111111,1.109071429,1.701666667,1.7914,0,0,1,0,0,1,3.270429997,5.540797311,3.077824116
10/27/2004,US-SP2,1,0,1,0,0,1,1,1.3474375,60.38375,23.72875,298.78,300,296.98,296.26,299.06,298.66,0.804,0.821,0.781,0.68,0.798,0.826,0.123,0.124,0.125,0.125,0.125,0.125,60.52769231,58.90555556,63.301,65.81425,59.69363636,25.24307692,24.15222222,22.1845,27.51333333,23.45363636,1.197,1.260444444,2.52455,2.373583333,2.357727273,0,0,1,0,0,1,9.867431509,7.94053395,3.909767628
8/19/2002,US-SP2,1,0,0,0,0,1,1,1.30525,68.04,30.455,302.6,301.98,303.34,290.66,287.52,284.28,0.784,0.278,0.563,0.362,0.665,0.666,0.118,0.114,0.113,0.113,0.113,0.113,57.60666667,56.56,71.48555556,62.58809524,57.2265,32.27,31.875125,15.92874074,15.82528571,5.944,0.964666667,1.793,1.466666667,1.480952381,1.842857143,0,0,1,0,0,1,12.72668462,8.754280686,4.218037605
10/19/2001,US-SP2,1,0,1,0,0,1,1,2.172222222,70.325,25.84888889,300.36,288.42,301.18,301.18,303.46,297.94,0.696,0.672,0.764,0.764,0.727,0.216,0.124,0.125,0.125,0.125,0.122,0.122,56.63888235,69.51947368,69.51947368,58.7595,61.91461538,16.19176471,20.79789474,20.79789474,27.5645,25.79461538,1.864705882,1.736842105,1.736842105,0.685,1.073076923,0,0,1,0,0,1,3.329977905,7.716828182,3.988393784
4/16/2003,US-SP2,0,1,0,0,0,1,1,1.456,59.33526316,23.75736842,300.92,302.86,302.86,301.26,299.2,291.5,0.63,0.724,0.724,0.728,0.795,0.737,0.134,0.141,0.141,0.141,0.141,0.141,46.2208,46.2208,34.78375,49.22,70.04911765,24.7392,24.7392,25.95875,20.43185185,12.71323529,1.78336,1.78336,1.4491875,1.667074074,2.192617647,0,0,1,0,0,1,5.164821953,8.386719506,5.195620537
8/15/2010,US-Kon,1,0,0,0,0,1,0,2.015041667,70.2641875,25.88427083,303.42,301.1,308.02,302.86,298.26,307.94,0.672,0.716,0.688,0.782,0.702,0.749,0.187,0.187,0.188,0.197,0.197,0.199,74.82754286,60.828125,75.02525532,74.71079167,56.97259091,30.82597143,33.65785417,28.03823404,28.31622917,33.41854545,1.893314286,3.592020833,2.356978723,1.866833333,3.695022727,0,0,0,1,1,0,3.706978036,7.046642154,0
5/27/2010,US-Kon,0,1,0,1,0,1,0,2.464318182,64.95093182,25.58738636,305.68,300.64,295.88,305.1,301.98,306.14,0.62,0.752,0.557,0.571,0.514,0.453,0.175,0.174,0.16,0.157,0.157,0.157,70.268,46.23018919,40.11453846,50.33119149,51.46731818,24.60090698,11.74627027,18.20107692,17.24170213,18.29725,2.05755814,3.678810811,2.930358974,2.915914894,2.617659091,0,0,0,1,1,0,5.212930192,6.843798452,0
9/7/2010,US-Kon,1,0,0,1,0,1,0,1.371289474,56.32647368,22.455,304.28,301.56,299.26,304.9,303.36,302.34,0.566,0.642,0.673,0.709,0.677,0.724,0.177,0.18,0.185,0.185,0.185,0.185,55.81265,60.950025,59.17627083,61.11604167,53.75341026,21.476275,19.423475,24.38464583,23.66775,24.1275641,3.24,2.9809,3.726895833,2.473479167,1.605948718,0,0,0,1,1,0,2.865908967,5.819602783,3.633714437
7/26/2009,US-Kon,0,1,1,1,0,1,0,1.580266667,65.04457778,25.58877778,299.98,299.98,301.28,302.88,302.08,300.1,0.802,0.802,0.814,0.844,0.813,0.819,0.197,0.197,0.194,0.194,0.193,0.186,65.04457778,57.56307317,59.29262222,63.12929787,76.66915217,25.58877778,26.32726829,25.50855556,23.71053191,26.48915217,1.580266667,1.910609756,2.272711111,1.855808511,3.440586957,0,0,0,1,1,0,5.553043564,7.82050918,5.144994259
10/2/2010,US-Kon,1,0,1,0,0,1,0,3.3324,68.60488,14.89648,295.22,299.14,299.74,300.82,297.22,290.74,0.517,0.539,0.519,0.549,0.405,0.488,0.183,0.183,0.18,0.18,0.182,0.179,57.38589474,60.06269231,68.20911111,73.68257143,73.02607143,19.49731579,19.53671795,22.14825,20.47792857,18.38032143,1.352210526,2.415692308,2.341166667,2.424357143,2.778,0,0,0,1,1,0,2.302052364,4.131109686,0
8/22/2010,US-Kon,1,0,0,0,0,1,0,2.450045455,75.07440909,29.72686364,308.94,308.94,303.76,302.74,303.42,301.1,0.68,0.68,0.662,0.732,0.672,0.716,0.183,0.183,0.183,0.185,0.187,0.187,75.07440909,75.282,78.7706875,70.2641875,74.82754286,29.72686364,30.72619444,26.58315625,25.88427083,30.82597143,2.450045455,1.90675,1.7250625,2.015041667,1.893314286,0,0,0,1,1,0,4.7456829,7.549653274,5.108096123
7/31/2002,US-Wlr,0,1,1,1,0,1,0,3.425,67.74791667,27.51875,311.02,309.8,313.74,309.68,308.66,301.2,0.599,0.53,0.63,0.666,0.732,0.733,0.18,0.181,0.183,0.18,0.174,0.174,61.2375,58.54375,69.39583333,66.71666667,71.65,25.1,29.44791667,26.11666667,24.55208333,25.64583333,2.470625,3.92625,3.414583333,2.80375,3.574791667,0,0,0,1,0,0,5.223452985,7.761431902,4.627296925
8/14/2004,US-Wlr,1,0,0,0,0,1,0,1.705833333,67.22291667,18.4375,303.98,308.92,300.54,306.42,304.4,300.04,0.69,0.729,0.677,0.722,0.666,0.766,0.184,0.174,0.174,0.17,0.171,0.171,68.06458333,74.42291667,75.7375,68.64791667,73.90625,28.8125,28.12083333,26.70625,20.425,18.61875,3.960416667,3.594791667,3.750833333,2.767291667,3.21875,0,0,0,1,0,0,5.341447001,6.22239225,2.492971659
6/29/2002,US-Wlr,0,1,1,0,0,1,0,3.414583333,69.39583333,26.11666667,309.68,308.66,301.2,300.84,304.72,301.1,0.666,0.732,0.733,0.571,0.597,0.565,0.18,0.174,0.174,0.179,0.179,0.179,66.71666667,71.65,58.74166667,57.75208333,58.95833333,24.55208333,25.64583333,16.41666667,18.10416667,17.8375,2.80375,3.574791667,2.96625,2.558958333,3.320416667,0,0,0,1,0,0,5.0692518,7.642628206,5.24316597
7/24/2002,US-Wlr,0,1,1,1,0,1,0,2.470625,61.2375,25.1,309.8,313.74,309.68,308.66,301.2,300.84,0.53,0.63,0.666,0.732,0.733,0.571,0.181,0.183,0.18,0.174,0.174,0.179,58.54375,69.39583333,66.71666667,71.65,58.74166667,29.44791667,26.11666667,24.55208333,25.64583333,16.41666667,3.92625,3.414583333,2.80375,3.574791667,2.96625,0,0,0,1,0,0,5.197513564,7.436367866,5.442691803
7/20/2004,US-Wlr,0,1,1,1,0,1,0,3.191458333,62.10625,28.43125,311.8,307.96,306.8,297.34,298.34,298.34,0.667,0.654,0.747,0.69,0.739,0.739,0.182,0.176,0.172,0.171,0.164,0.164,71.35208333,73.58541667,78.70833333,62.62083333,62.62083333,27.69791667,27.0625,25.37291667,19.83958333,19.83958333,2.750208333,3.962083333,3.544375,2.744583333,2.744583333,0,0,0,1,0,0,6.575818392,8.113507412,4.579813957
10/18/2014,US-Ced,1,0,1,0,1,0,0,2.13475,70.10625,15.643125,293.88,291.74,303.68,294.28,299.12,292.64,0.732,0.698,0.773,0.811,0.748,0.497,0.111,0.111,0.113,0.114,0.109,0.126,81.08806522,64.91891304,62.97166667,56.24729167,75.34217391,15.5776087,25.27173913,21.475,18.09502083,11.78586957,1.69923913,2.597673913,2.137958333,1.985395833,2.52076087,0,0,1,1,0,0,2.035301393,5.499595049,2.951735258
7/24/2012,US-Ced,0,1,1,1,1,0,0,2.541934783,62.62830435,27.54632609,305.96,304.78,303.14,302.26,294.3,298.22,0.808,0.787,0.757,0.789,0.515,0.241,0.105,0.109,0.133,0.118,0.122,0.123,58.13541667,68.76666667,79.16086957,76.12083333,57.81086957,29.09625,25.454625,21.82369565,15.536875,19.51456522,1.766145833,1.8225,1.892826087,3.051395833,2.593043478,0,0,1,1,0,0,5.37019727,7.798483575,9.705223083
9/18/2017,US-A74,1,0,0,1,0,0,1,2.280413333,63.396,26.60866667,300.78,302.78,308.28,296.22,294.14,297.94,0.656,0.627,0.622,0.626,0.57,0.447,0.186,0.183,0.184,0.155,0.178,0.184,28.085,32.015,32.35,39.955,71.21666667,30.265,28.8975,20.06,16.675,23.07555556,1.89805,2.025625,1.5935,3.6761,3.171822222,0,1,0,0,0,1,9.77138787,6.744181551,4.164859772
5/19/2014,FR-Gri,0,1,0,1,0,0,1,2.209645833,61.071875,17.428125,298.2,294.4,292.7,290.06,291.4,288,0.741,0.623,0.636,0.751,0.673,0.749,0.2,0.199,0.199,0.201,0.186,0.186,68.84833333,69.31645833,86.19979167,66.10333333,68.52645833,11.76635417,10.49091667,8.7005,10.03329167,8.805333333,2.2979375,2.2936875,2.156729167,1.241,3.288875,0,0,1,1,1,0,6.203705558,6.282158975,3.867381811
6/6/2015,FR-Gri,0,1,1,0,0,0,1,2.21453425,63.88291667,14.87635417,300.78,301.98,297,285.66,291.2,292.8,0.538,0.67,0.613,0.66,0.58,0.556,0.192,0.189,0.201,0.188,0.187,0.19,62.6,68.56770833,74.90395833,70.62416667,57.9084375,17.63427083,14.03691667,8.705447917,11.40516667,10.027875,1.981796304,1.211558464,2.721666625,2.025812516,1.703209481,0,0,1,1,1,0,1.107340779,5.274426169,0.787284791
4/17/2014,FR-Gri,0,1,0,0,0,0,1,1.5969375,52.78125,11.20214583,295.8,293,289.92,294.7,283.34,285.82,0.659,0.536,0.521,0.68,0.391,0.676,0.17,0.171,0.171,0.173,0.179,0.192,59.51416667,65.04604167,68.406875,73.328125,74.43479167,8.650854167,7.78125,11.02166667,8.999125,5.0993125,2.139583333,2.695916667,1.011333333,3.7564375,1.814916667,0,0,1,1,1,0,4.21934262,5.104626151,0.80862999
3/20/2008,DK-Ris,0,0,1,1,0,0,1,2.910208333,79.17395833,0.369270833,279.32,274.58,283.42,275.56,280.7,288.76,0.424,0.344,0.434,0.251,0.194,0.522,0.153,0.162,0.144,0.131,0.12,0.135,85.41770833,95.70208333,82.90729167,100.4916667,93.484375,-0.734208333,1.9628125,5.153979167,4.9060625,11.41166667,2.819791667,1.01,2.121041667,1.831458333,2.377083333,0,0,1,1,0,1,1.449326986,2.882153398,1.483781815
7/12/2006,DK-Ris,0,1,1,1,0,0,1,1.006458333,75.970625,15.32270833,298.68,297.1,302.24,301.48,299.5,298.78,0.718,0.732,0.795,0.785,0.761,0.788,0.197,0.196,0.197,0.197,0.198,0.2,82.10645833,77.62395833,84.95791667,76.67958333,82.13916667,19.104375,21.96541667,18.16541667,17.52479167,16.78958333,2.44,1.632708333,1.97,1.582291667,1.99875,0,0,1,1,0,1,2.897421489,7.121072994,4.117475986
7/5/2006,DK-Ris,0,1,1,1,0,0,1,1.97,84.95791667,18.16541667,301.48,299.5,298.78,298.06,296.5,288.5,0.785,0.761,0.788,0.739,0.788,0.163,0.197,0.198,0.2,0.2,0.205,0.202,76.67958333,82.13916667,82.035625,78.97104167,80.15208333,17.52479167,16.78958333,16.10125,17.36833333,14.62770833,1.582291667,1.99875,2.018125,2.045,3.567708333,0,0,1,1,0,1,2.768282681,6.853089038,6.102202892
4/21/2008,DK-Ris,0,1,0,0,0,0,1,2.670208333,73.31,5.344458333,289.32,290.96,289.88,287.6,280.6,280.92,0.346,0.635,0.339,0.455,0.341,0.385,0.161,0.16,0.16,0.161,0.138,0.139,77.995,76.90375,69.02604167,96.35416667,81.96291667,4.338104167,4.459979167,5.732895833,5.210791667,-0.908645833,1.688333333,2.101875,2.275833333,3.264791667,1.066041667,0,0,1,1,0,1,3.472264081,4.311962016,0
5/31/2008,DK-Ris,0,1,0,1,0,0,1,2.300833333,70.82625,15.22,295.1,291.6,286.32,290.84,287.4,296.22,0.732,0.766,0.697,0.76,0.747,0.757,0.195,0.192,0.19,0.188,0.187,0.187,70.86479167,71.67625,66.37645833,75.67041667,59.593125,14.8325,12.67708333,11.91164583,10.54164583,11.279125,2.789166667,3.328125,3.820833333,1.3275,2.638125,0,0,1,1,0,1,4.530451531,6.377915414,6.287763596
4/15/2006,DK-Ris,0,1,0,0,0,0,1,2.483125,79.60666667,6.158291667,285.78,276.24,273.58,274,273.98,272.24,0.39,0.368,0.055,0.385,0.062,0.032,0.152,0.125,0.126,0.126,0.548,0.602,80.87770833,83.62395833,82.76520833,94.10833333,82.17979167,-0.651875,-1.288,-1.842979167,-2.7310625,-7.3241875,2.129166667,2.530208333,2.03625,2.074583333,0.834583333,0,0,1,1,0,1,1.445911239,3.961839492,1.039481878
9/8/2016,DE-RuS,1,0,0,1,0,0,1,1.465779354,65.91514294,21.32070729,303.24,296.24,291.54,292.68,291.58,286.4,0.487,0.732,0.596,0.645,0.637,0.632,0.176,0.175,0.212,0.195,0.195,0.176,75.2942818,64.80759104,61.62408844,65.6281554,81.47495129,15.45627917,15.62539156,13.18228854,10.93224625,7.2094325,1.350190779,2.217380604,3.751021833,2.06017166,2.399742729,0,1,0,0,0,0,1.965507635,6.458214296,0
5/14/2017,DE-RuS,0,1,0,1,0,0,1,1.488340021,74.01757498,15.36528719,298.8,295.9,288,274.2,275.06,277.8,0.634,0.739,0.481,0.516,0.71,0.524,0.18,0.179,0.145,0.126,0.12,0.11,66.92662996,76.60614319,85.70632671,94.02919674,88.54317987,10.09403176,10.03648302,0.038167354,0.226791444,5.135722604,0.899112304,1.788577521,1.897145854,0.928869417,2.060688958,0,1,0,0,0,0,1.365650334,6.29650906,0.596097946
1/5/2017,DE-RuS,0,0,0,1,0,0,1,1.897145854,85.70632671,0.038167354,274.2,275.06,277.8,285.82,291.64,301.88,0.516,0.71,0.524,0.544,0.53,0.498,0.126,0.12,0.11,0.137,0.182,0.188,94.02919674,88.54317987,92.22551487,62.15561541,66.46595413,0.226791444,5.135722604,8.782731979,18.36037813,17.46214281,0.928869417,2.060688958,0.880529313,1.579612937,1.623864838,0,1,0,0,0,0,3.531745346,4.095313043,0.072278612
6/6/2017,US-A32,0,1,1,0,0,1,0,3.32305,43.97642857,30.62357143,308.36,306.24,306.48,305.74,300.98,302.04,0.432,0.387,0.5,0.486,0.632,0.764,0.179,0.174,0.174,0.176,0.167,0.166,57.78857143,35.09166667,49.44625,44.27,47.998,23.73285714,28.16333333,23.814375,23.01,22.786,3.095442857,2.866141667,3.46965625,1.94095,3.05878,0,0,0,0,1,1,8.177079128,8.076875932,8.636237621
6/3/2016,US-A32,0,1,1,0,0,1,0,3.119877778,57.42555556,27.91,302.6,302.68,298.86,298.86,293.98,293.98,0.433,0.537,0.766,0.766,0.707,0.707,0.173,0.143,0.221,0.221,0.198,0.198,64.96818182,44.01333333,44.01333333,28.88333333,28.88333333,20.96181818,14.00777778,14.00777778,18.84666667,18.84666667,3.780281818,3.1518,3.1518,2.443166667,2.443166667,0,0,0,0,1,1,5.996947247,7.442318296,4.727902889
4/11/2017,US-A32,0,1,0,0,0,1,0,3.010185714,50.25428571,17.08571429,296.16,294.32,294.48,307.44,300.98,297.06,0.793,0.845,0.764,0.692,0.744,0.643,0.177,0.173,0.171,0.198,0.192,0.188,49.83375,63.73055556,55.68,58.13071429,51.02076923,14.91,18.18,22.81833333,20.74928571,18.96492308,3.2586875,3.536122222,1.983416667,3.484342857,2.930461538,0,0,0,0,1,1,3.49610519,6.596272629,2.01513052
5/21/2017,US-A32,0,1,0,1,0,1,0,1.94095,44.27,23.01,300.98,302.04,299.6,296.34,296.16,294.32,0.632,0.764,0.787,0.799,0.793,0.845,0.167,0.166,0.166,0.169,0.177,0.173,47.998,72.045,39.714,50.25428571,49.83375,22.786,14.14,19.156,17.08571429,14.91,3.05878,2.156075,2.33386,3.010185714,3.2586875,0,0,0,0,1,1,7.135255216,7.341759384,4.462000847
12/20/2016,US-A32,1,1,0,0,0,1,0,1.7718,53.88,-1.795,284.32,298.18,291.32,292.8,294.04,290.12,0.628,0.669,0.624,0.754,0.527,0.71,0.183,0.192,0.192,0.192,0.19,0.19,59.745,55.14933333,86.15,56.176875,81.1275,15.8925,18.37533333,3.9885,18.2525,8.402,2.18875,3.23946,2.14085,3.38028125,3.28115,0,0,0,0,1,1,1.00838469,3.736360458,0.532512247