Date,Site,Month_1,Month_2,Month_3,Month_4,Vegetation_1,Vegetation_2,Vegetation_3,WS,RH,TA,Eeflux_LST,Eeflux_NDVI,Eeflux_Albedo,WS-1,WS-2,RH-1,RH-2,RH-3,TA-1,TA-2,TA-3,TA-4,TA-5,Eeflux_LST-1,Eeflux_LST-2,Eeflux_LST-3,Eeflux_LST-4,Eeflux_LST-5,Eeflux_Albedo-1,Eeflux_Albedo-2,Eeflux_NDVI-1,Eeflux_NDVI-2,Site_0,Site_1,Site_2,Site_3,Site_4,Site_5,LE_bowen_corr_mm,LE_bowen_corr_pred,Eeflux_ET
Date,Site,Month_1,Month_2,Month_3,Month_4,Vegetation_1,Vegetation_2,Vegetation_3,WS,RH,TA,Eeflux_LST,Eeflux_NDVI,Eeflux_Albedo,WS-1,WS-2,RH-1,RH-2,RH-3,TA-1,TA-2,TA-3,TA-4,TA-5,Eeflux_LST-1,Eeflux_LST-2,Eeflux_LST-3,Eeflux_LST-4,Eeflux_LST-5,Eeflux_Albedo-1,Eeflux_Albedo-2,Eeflux_NDVI-1,Eeflux_NDVI-2,Site_0,Site_1,Site_2,Site_3,Site_4,Site_5,LE_bowen_corr_mm,LE_bowen_corr_pred,Eeflux_ET
10/27/2004,US-SP2,1,0,1,0,0,1,1,1.3474375,60.38375,23.72875,298.78,0.804,0.123,1.197,1.260444444,60.52769231,58.90555556,63.301,25.24307692,24.15222222,22.1845,27.51333333,23.45363636,300,296.98,296.26,299.06,298.66,0.124,0.125,0.821,0.781,0,0,1,0,0,1,9.867431509,5.607151003,3.909767628
12/14/2004,US-SP2,1,1,0,0,0,1,1,1.817193548,51.32064516,6.836774194,284.42,0.782,0.118,1.244428571,1.318111111,63.50761905,52.94222222,62.23928571,9.899571429,12.68777778,17.88857143,23.51,19.75,286.94,285.4,289.68,292.62,293.96,0.119,0.121,0.802,0.67,0,0,1,0,0,1,3.270429997,3.247436907,3.077824116
10/22/2002,US-SP2,1,0,1,0,0,1,1,1.124833333,67.97722222,26.66277778,301.1,0.759,0.116,1.029,1.6385,52.15,44.25214286,50.58916667,24.39333333,20.95642857,21.76416667,29.312,27.92210526,290.78,295.96,296.18,300.86,302.78,0.119,0.119,0.632,0.822,0,0,1,0,0,1,5.566637346,5.345971427,2.594618797
8/8/2001,US-SP2,1,0,0,0,0,1,1,0.676,64.6596,31.08564,299.86,0.786,0.122,1.456,2.0825,73.105,62.4,41.15505,17.215,13.13214286,12.85005,9.480952381,8.565217391,293.12,290.12,290.8,288.24,284.8,0.144,0.146,0.608,0.501,0,0,1,0,0,1,6.282023727,6.460992793,3.63203311
12/22/2004,US-SP2,1,1,0,0,0,1,1,2.3974,60.441,20.188,293.38,0.668,0.118,1.625230769,1.833807692,52.90076923,40.06653846,57.83923077,16.07238462,4.329692308,16.65,2.936346154,6.836774194,290.18,279.72,290.12,282.42,284.42,0.118,0.118,0.769,0.719,0,0,1,0,0,1,4.291525914,4.356656145,2.476480961
5/18/2002,US-Goo,0,1,0,1,0,1,0,3.844375,68.278125,13.834375,294.58,0.741,0.165,2.381851852,2.303333333,83.4037037,72.42222222,74.22413793,23.92592593,22.2037037,18.9862069,9.684791667,12.3840625,296.08,299.56,298.6,288.78,291.08,0.165,0.168,0.455,0.744,0,0,1,0,0,0,6.150681534,4.065424849,2.215865374
8/14/2002,US-Goo,1,0,0,0,0,1,0,2.050625,86.28440625,25.59375,294.7,0.839,0.158,1.532068966,1.4475,67.81034483,70.57142857,56.30344828,27.79310345,28.62857143,27.07931034,29.38076923,30.04448148,303.46,302.7,298.88,305.08,300.16,0.166,0.166,0.678,0.825,0,0,1,0,0,0,5.074516754,5.387389897,2.394457579
4/18/2003,US-Goo,0,1,0,0,0,1,0,1.962592593,64.51485185,22.17407407,297.88,0.689,0.163,2.753448276,2.449444444,72.43793103,65.74444444,61.73684211,19.48965517,19.73333333,12.32105263,8.815,7.769565217,297.74,302.48,292.4,282.24,285.36,0.163,0.162,0.547,0.634,0,0,1,0,0,0,5.153318381,5.590604197,2.5033741
6/3/2002,US-Goo,0,1,1,0,0,1,0,1.512666667,68.38333333,29.56,307.08,0.744,0.17,1.512666667,1.525384615,68.38333333,63.83080769,66.712,29.56,29.50773077,28.384,25.89230769,26.32916667,307.08,301.12,303.42,300.54,302.56,0.17,0.17,0.744,0.776,0,0,1,0,0,0,7.798956337,6.907445478,5.057304382
9/28/2004,US-Goo,1,0,0,1,0,1,0,1.746153846,61.35384615,22.56153846,302.86,0.728,0.152,2.707916667,2,60.8375,67.576,67.22608696,23.63333333,24.644,23.67391304,22.70004,23.35384615,298.72,299.78,301.38,299.48,302.52,0.152,0.152,0.738,0.658,0,0,1,0,0,0,5.279541184,4.804034741,3.971240044
4/28/2004,US-Goo,0,1,0,0,0,1,0,2.422413793,49.5,19.96206897,300.92,0.702,0.163,2.7624,2.608275862,43.644,67.61724138,57.87407407,19.552,18.35172414,22.88148148,21.56428571,19.62857143,296.88,298.64,300.24,298.44,298.6,0.163,0.163,0.705,0.704,0,0,1,0,0,0,6.327715961,4.836997482,0
10/8/2002,US-Goo,1,0,1,0,0,1,0,1.135862069,74.7862069,18.33793103,294.14,0.666,0.151,1.999130435,1.74875,69.71304348,76.55,75.72666667,22.02608696,27.72916667,23.89666667,28.49285714,28.91878125,298.7,303.22,298.02,299.98,307.54,0.153,0.153,0.726,0.698,0,0,1,0,0,0,4.063980369,4.706123908,1.881924748
5/28/2003,US-Goo,0,1,0,1,0,1,0,2.583333333,50.21481481,24.52592593,303.76,0.755,0.17,1.932307692,2.226296296,58.98846154,68.12966667,60.63333333,21.86923077,20.32592593,21.38148148,20.27586207,20.27586207,298.16,298.94,301.34,296.44,296.44,0.17,0.17,0.762,0.734,0,0,1,0,0,0,7.748466344,5.76477025,4.095631123
6/18/2002,US-Goo,0,1,1,0,0,1,0,1.277241379,61.59655172,26.34482759,301.6,0.787,0.164,1.013478261,1.6036,66.25652174,58.22,67.33571429,25.19565217,23.78,29.33228571,24.34333333,26.865625,301.72,302.06,306.66,302.46,303.88,0.164,0.165,0.771,0.71,0,0,1,0,0,0,7.992707308,6.509267877,4.810120106
10/1/2005,US-Goo,1,0,1,0,0,1,0,1.69375,75.65416667,25.16666667,302.72,0.756,0.15,1.115294118,1.807826087,60.75294118,63.23913043,61.46666667,19.4,27.55652174,28.47777778,28.47777778,29.02596296,296.66,302.16,302.16,302.16,306.62,0.15,0.15,0.751,0.751,0,0,1,0,0,0,3.378460872,5.0126593,0
6/23/2009,US-AR1,0,1,1,0,0,1,0,3.288333333,51.01333333,30.57354167,317.24,0.445,0.178,3.768520833,1.8760625,57.43710417,81.63770833,59.48,30.35145833,23.22166667,26.99666667,29.35538462,27.13727273,313.28,311.06,306.14,308.1,307.68,0.177,0.178,0.518,0.581,0,0,1,0,1,0,2.630688349,5.925313606,6.845760822
7/25/2009,US-AR1,0,1,1,1,0,1,0,3.155916667,53.23395833,29.60895833,319.4,0.357,0.178,4.119875,3.092645833,55.77895833,54.5704375,41.3806383,28.53625,25.24875,33.02238298,26.72917021,28.36021739,311.68,316.28,318.58,314.36,317.08,0.179,0.18,0.464,0.378,0,0,1,0,1,0,1.515558199,5.021308969,2.357088327
6/16/2009,US-Kon,0,1,1,0,0,1,0,2.6668,72.6889,25.6796,301.22,0.21,0.184,3.760517241,3.800357143,69.71158621,77.22938095,82.58341304,27.19396552,23.02111905,18.32269565,23.04432609,25.64584783,299.72,301.16,295.94,303.98,307.44,0.184,0.18,0.821,0.803,0,0,0,1,1,0,6.114836563,5.115472351,0
10/20/2008,US-Kon,1,0,1,0,0,1,0,3.22887234,77.99351064,14.28959574,290.04,0.377,0.166,3.706714286,3.335468085,71.43211429,67.6246383,56.09372727,14.39425714,12.65040426,10.21631818,16.14379167,17.19647917,291.68,295.18,291.34,298.98,300.2,0.17,0.172,0.492,0.502,0,0,0,1,1,0,1.042400985,1.698744519,3.694603205
10/2/2010,US-Kon,1,0,1,0,0,1,0,3.3324,68.60488,14.89648,295.22,0.517,0.183,1.352210526,2.415692308,57.38589474,60.06269231,68.20911111,19.49731579,19.53671795,22.14825,20.47792857,18.38032143,299.14,299.74,300.82,297.22,290.74,0.183,0.18,0.539,0.519,0,0,0,1,1,0,2.302052364,1.691954434,0
9/29/2009,US-Kon,1,0,0,1,0,1,0,1.269731707,45.33868293,14.94117073,296.98,0.637,0.185,2.813548387,2.206697674,56.21216129,64.1992093,63.33170213,19.51848387,16.92853488,16.26593617,22.31806383,22.31806383,294.76,293.82,295.8,302.14,302.14,0.184,0.183,0.652,0.586,0,0,0,1,1,0,2.772878584,2.686625678,0
8/22/2010,US-Kon,1,0,0,0,0,1,0,2.450045455,75.07440909,29.72686364,308.94,0.68,0.183,1.90675,1.7250625,75.282,78.7706875,70.2641875,30.72619444,26.58315625,25.88427083,30.82597143,33.65785417,303.76,302.74,303.42,301.1,308.02,0.183,0.185,0.662,0.732,0,0,0,1,1,0,4.7456829,5.120491594,5.108096123
5/27/2010,US-Kon,0,1,0,1,0,1,0,2.464318182,64.95093182,25.58738636,305.68,0.62,0.175,2.05755814,3.678810811,70.268,46.23018919,40.11453846,24.60090698,11.74627027,18.20107692,17.24170213,18.29725,300.64,295.88,305.1,301.98,306.14,0.174,0.16,0.752,0.557,0,0,0,1,1,0,5.212930192,4.403207189,0
8/31/2007,US-Kon,1,0,0,0,0,1,0,2.133916667,57.4035625,24.16802083,304.88,0.684,0.181,2.147,3.787860465,68.32451163,62.44790698,70.43782979,23.83727907,30.99748837,28.43995745,30.99183333,31.70885417,303.24,308.74,306.28,310.66,314.1,0.182,0.182,0.504,0.596,0,0,0,1,1,0,3.837530531,4.313624624,0
8/7/2007,US-Kon,1,0,0,0,0,1,0,3.795888889,62.93922222,31.82842222,305.8,0.351,0.18,3.9344375,3.183934783,57.48622917,72.31193478,72.22867391,28.65639583,28.12393478,27.10726087,27.37870833,26.06025,306.02,306.42,295.68,301.34,304.4,0.184,0.183,0.697,0.675,0,0,0,1,1,0,5.314472015,4.94826763,0
6/30/2008,US-Kon,0,1,1,0,0,1,0,1.60835,58.473175,22.511875,299.72,0.751,0.191,3.444311111,3.600880952,61.80731111,67.97847619,64.81660417,22.0884,26.41519048,24.40408333,23.89613043,25.46236364,302.82,301.04,305.66,301.6,302.68,0.184,0.184,0.759,0.727,0,0,0,1,1,0,5.285094348,4.821076662,0
8/8/2008,US-Kon,1,0,0,0,0,1,0,1.698434783,54.60752174,25.87291304,302,0.783,0.198,3.770047619,3.770047619,60.61138095,60.61138095,64.23991667,32.61909524,32.61909524,29.85858333,30.7075,28.8039375,307.78,307.78,306.38,302.5,310.26,0.186,0.186,0.759,0.759,0,0,0,1,1,0,5.845072238,4.904599154,3.591543674
9/25/2008,US-Kon,1,0,0,1,0,1,0,3.083895833,71.85941667,23.23416667,300.96,0.651,0.175,1.887340426,2.337914894,69.19376596,73.94559574,63.81455319,21.52993617,19.95242553,19.74565957,18.70989362,17.33777143,300.74,297.62,301.6,298.52,297.28,0.18,0.179,0.558,0.275,0,0,0,1,1,0,3.160953151,3.384044379,2.952241898
6/3/2010,US-Kon,0,1,1,0,0,1,0,2.474957447,71.52797872,24.60755319,307.5,0.723,0.175,3.260688889,1.8339375,75.02146667,78.59908333,60.72077083,24.01682222,22.29752083,25.7,25.58738636,24.60090698,297.74,300.92,305.64,305.68,300.64,0.175,0.176,0.761,0.754,0,0,0,1,1,0,4.898094478,4.721099237,3.838148117
8/4/2009,US-Kon,1,0,0,0,0,1,0,3.08855,64.41075,27.75805,302.36,0.817,0.197,2.913673913,3.514595745,54.03871739,58.12365957,63.87914894,21.80941304,22.73157447,21.25221277,25.80917778,25.58877778,298.62,302.04,299.54,306.18,299.98,0.197,0.197,0.795,0.798,0,0,0,1,1,0,6.313314999,4.248284306,0
6/8/2009,US-Kon,0,1,1,0,0,1,0,3.961543478,82.58341304,18.32269565,295.94,0.71,0.185,3.826152174,3.679586957,60.6595,45.72336957,48.21123913,23.04432609,25.64584783,23.93815217,23.1407907,23.16682979,303.98,307.44,310.52,308.22,307.18,0.177,0.173,0.784,0.769,0,0,0,1,1,0,4.702953048,3.03353883,4.770293236
10/10/2007,US-Kon,1,0,1,0,0,1,0,2.650136364,64.57245455,14.07315909,295.9,0.492,0.172,2.288933333,2.953285714,54.01191111,44.67811429,50.81540476,19.96991111,17.26891429,19.611,19.611,19.9459375,301.64,297.04,301.08,301.08,305.1,0.172,0.174,0.532,0.535,0,0,0,1,1,0,1.686368766,1.561399092,0
8/6/2010,US-Kon,1,0,0,0,0,1,0,2.356978723,75.02525532,28.03823404,302.86,0.782,0.197,1.866833333,3.695022727,74.71079167,56.97259091,78.70147917,28.31622917,33.41854545,29.59264583,31.03222727,30.57133333,298.26,307.94,297.86,305.42,306.38,0.197,0.199,0.702,0.749,0,0,0,1,1,0,4.943327711,4.914317712,5.12844944
9/7/2007,US-Kon,1,0,0,1,0,1,0,2.687478261,52.00019565,25.06476087,301.04,0.646,0.179,3.0415625,2.9909375,55.40239583,42.152,46.04938298,27.23914583,26.6540625,25.64804255,24.58470833,24.16802083,306.8,308.86,308.76,308.78,304.88,0.182,0.181,0.581,0.609,0,0,0,1,1,0,3.703615853,3.729555198,3.11806798
6/21/2008,US-Kon,0,1,1,0,0,1,0,1.889913043,61.93021739,23.89613043,301.6,0.788,0.182,1.537090909,2.427645833,56.99090909,60.03522917,48.60008333,25.46236364,25.78339583,26.30522917,22.70387179,18.6172,302.68,305.68,305.6,303.02,309,0.183,0.164,0.755,0.713,0,0,0,1,1,0,5.992955081,4.831862231,5.801305294
5/20/2006,US-SO2,0,1,0,1,1,0,0,2.3765,28.91266667,21.34866667,313.32,0.348,0.152,2.7615,2.01137931,29,29.21034483,22.78551724,23.10933333,26.53241379,25.68172414,24.61965517,22.30703704,308.3,301.66,312.76,311.02,314.26,0.152,0.151,0.487,0.02,0,1,0,1,0,0,3.755100878,2.965547672,0.030068479
6/4/2006,US-SO2,0,1,1,0,1,0,0,2.452833333,14.07166667,29.64673333,312.04,0.465,0.152,1.626956522,2.357903226,14.78091304,17.55322581,20.7537931,26.4826087,26.04677419,25.3762069,24.083,21.58032258,317.56,312.62,313.9,312.48,308.32,0.153,0.153,0.356,0.446,0,1,0,1,0,0,4.178390779,4.486461086,2.067611933
5/3/2006,US-SO2,0,1,0,1,1,0,0,2.346551724,58.72206897,15.14310345,301.22,0.447,0.15,2.373793103,2.306034483,38.44931034,32.34896552,37.52413793,18.91310345,22.01896552,20.67968966,19.64103448,13.49544828,310.06,306.84,308.5,306.5,301.04,0.15,0.15,0.327,0.404,0,1,0,1,0,0,2.564563719,2.153580821,0
2/4/2006,US-SO2,0,0,1,0,1,0,0,2.088958333,31.35254167,16.3025,288.46,0.307,0.153,2.643333333,2.350588235,31.30291667,38.67294118,36.82590909,16.72041667,13.46764706,14.05054545,11.08890909,9.646954545,293.06,290.84,293.62,285.94,284.9,0.153,0.152,0.39,0.404,0,1,0,1,0,0,1.515612427,2.233703328,1.020228028
4/25/2006,US-SO2,0,1,0,0,1,0,0,2.406923077,62.67807692,11.73830769,302.48,0.32,0.15,2.260625,2.447777778,66.80083333,43.11148148,31.07107143,11.52229167,14.68037037,17.7275,15.89814815,13.31253571,294.82,299.5,300.14,299.24,297.72,0.149,0.148,0.38,0.348,0,1,0,1,0,0,2.246105346,1.651789742,0.821206152
5/28/2006,US-SO2,0,1,0,1,1,0,0,1.888,34.451,14.721,299.82,0.477,0.154,2.76125,2.76125,50.83791667,50.83791667,34.46007143,18.07375,18.07375,21.69357143,16.99963333,21.34866667,304.96,304.96,311.9,301.58,313.32,0.154,0.154,0.476,0.476,0,1,0,1,0,0,3.400525199,3.094187144,0
9/8/2009,DE-Kli,1,0,0,1,0,0,1,2.343221667,58.12159729,16.23534727,296.82,0.293,0.175,2.587485417,2.785105625,54.1766889,63.49719479,65.28446988,16.1598611,12.78360421,13.62909723,19.14458325,11.74895838,294.42,291.62,292.32,299.16,292.8,0.169,0.169,0.43,0.378,0,0,0,0,1,0,1.884215018,2.242139423,2.481332541
5/28/2015,DE-Kli,0,1,0,1,0,0,1,2.0525,62.94895833,11.54291667,289.7,0.684,0.188,2.4875,2.27375,78.38125,59.48020833,59.48020833,9.533541667,12.63375,12.63375,8.795833333,10.40020833,285.74,292.98,292.98,287.34,279.82,0.225,0.167,0.621,0.583,0,0,0,0,1,0,3.547390076,2.808978803,1.064328194
6/20/2009,DE-Kli,0,1,1,0,0,0,1,1.837146042,73.25976425,11.74895838,292.8,0.791,0.169,1.078900208,2.247283125,67.2213984,63.10036275,72.61364444,16.62576396,16.29159717,10.73790971,19.50902772,23.17354165,298.1,298.32,290.5,297.62,305.78,0.182,0.181,0.825,0.875,0,0,0,0,1,0,2.56515366,3.453313108,1.643132091
7/9/2010,DE-Kli,0,1,1,1,0,0,1,1.135788333,57.57951396,21.91708325,302.84,0.742,0.186,1.031634167,1.421769792,63.28034698,72.89944446,80.09048619,17.74986117,14.00416663,19.90638896,21.54409725,21.76777769,298.4,291.66,297.88,297.52,302.84,0.185,0.186,0.75,0.396,0,0,0,0,1,0,4.702986677,4.955960832,3.089289904
4/29/2016,DE-Kli,0,1,0,0,0,0,1,2.795416667,58.524375,5.832083333,289.84,0.805,0.172,3.20875,1.994791667,84.08541667,68.185,66.10333333,0.953125,5.959166667,7.186666667,4.669375,5.679166667,277.06,287.54,290.98,284.14,283.32,0.161,0.16,0.472,0.744,0,0,0,0,1,0,3.163462413,2.060792066,2.799290419
6/9/2008,DE-Kli,0,1,1,0,0,0,1,1.30307875,57.14444448,18.63534722,301.2,0.732,0.198,2.439619375,2.439619375,58.22875015,58.22875015,62.62361095,16.94055554,16.94055554,16.89868053,15.28020837,15.16805548,302.76,302.76,296.84,299.3,300.46,0.195,0.195,0.71,0.71,0,0,0,0,1,0,2.560457428,4.268330132,3.237899065
3/30/2014,DE-Kli,0,0,1,1,0,0,1,2.095625,62.05583333,11.01916667,292.7,0.635,0.167,2.411041667,3.539375,74.51875,71.32416667,50.32104167,9.218333333,5.765208333,8.077291667,7.627708333,3.679583333,290.06,286.22,289.1,289.96,284.92,0.173,0.152,0.672,0.628,0,0,0,0,1,0,1.776430231,2.148159774,1.481732488
5/9/2011,DE-Kli,0,1,0,1,0,0,1,2.964166667,48.81166667,13.36395833,296.96,0.726,0.182,3.166666667,2.957708333,55.530625,40.22833333,45.574375,11.33833333,13.22645833,10.423125,8.011458333,11.020625,292.5,296.08,293.38,289.06,292.62,0.182,0.182,0.778,0.703,0,0,0,0,1,0,4.058251766,2.626675545,4.668118
5/25/2008,DE-Kli,0,1,0,1,0,0,1,2.982295625,63.40493054,13.8976667,301.2,0.409,0.164,1.80887,2.66430125,61.48249997,51.95527776,48.8143056,14.04166667,15.37972222,15.27243052,14.24347221,14.06277778,299.86,299,300.44,298.6,296.42,0.166,0.166,0.566,0.395,0,0,0,0,1,0,1.759483269,2.386583135,0
6/11/2014,DE-Kli,0,1,1,0,0,0,1,2.047708333,82.943125,20.29145833,298.44,0.139,0.183,2.024375,2.130833333,56.37083333,55.06666667,54.66895833,23.50020833,23.115,20.39958333,14.77375,14.74208333,303.24,302.98,299.92,296.38,297.52,0.186,0.187,0.853,0.83,0,0,0,0,1,0,3.081823162,3.792204473,0.980799317
9/11/2016,DE-Kli,1,0,0,1,0,0,1,1.578125,61.08083333,21.51625,301.8,0.343,0.184,2.351875,1.71375,71.95,75.86333333,65.92645833,20.11375,18.72083333,19.80395833,17.96458333,19.98208333,298.7,296.86,298.82,291.66,296.42,0.185,0.185,0.44,0.295,0,0,0,0,1,0,1.275053232,3.696045284,1.079455376
10/13/2013,DE-Kli,1,0,1,0,0,0,1,2.153333333,84.33541667,7.000625,282.3,0.27,0.146,3.514166667,3.65375,64.3575,68.23375,64.63833333,8.445625,7.734375,15.665625,13.955,9.535833333,274.58,283.36,282.68,291.58,284.2,0.17,0.171,0.189,0.416,0,0,0,0,1,0,1.647677223,0.27932059,3.185420275
6/10/2008,DE-Kli,0,1,1,0,0,0,1,2.140559792,54.51090286,19.2495833,306.52,0.65,0.198,1.30307875,2.439619375,57.14444448,58.22875015,58.22875015,18.63534722,16.94055554,16.94055554,16.89868053,15.28020837,301.2,302.76,302.76,296.84,299.3,0.198,0.195,0.732,0.71,0,0,0,0,1,0,2.978764445,3.953654269,1.252823949
4/7/2014,DE-Kli,0,1,0,0,0,0,1,2.201041667,69.46916667,13.336875,289.78,0.742,0.163,2.589166667,1.947083333,82.346875,59.05083333,58.97916667,11.28854167,14.06,12.50291667,11.01916667,9.218333333,290.94,295.6,282.84,292.7,290.06,0.165,0.166,0.658,0.677,0,0,0,0,1,0,2.520710513,3.527712436,2.579414129
7/31/2015,DE-Kli,0,1,1,1,0,0,1,1.4875,67.6875,12.250625,290.24,0.606,0.186,3.284166667,3.149791667,65.56208333,58.13958333,75.95333333,13.83333333,14.29375,18.18104167,22.80625,14.34895833,290.44,290.3,296.42,303.12,298.34,0.182,0.198,0.453,0.461,0,0,0,0,1,0,1.924987696,2.951185688,2.817924738
4/13/2010,DE-Kli,0,1,0,0,0,0,1,3.093867083,71.77515002,7.020875,287.88,0.754,0.166,2.539141875,3.372134375,48.31091746,47.55559721,66.84195892,10.08279865,7.106180563,5.817756917,15.54187498,14.6366666,294.5,291.12,288.22,294.8,295.98,0.157,0.155,0.655,0.688,0,0,0,0,1,0,2.244609733,1.674861368,2.609826565
7/10/2016,DE-Kli,0,1,1,1,0,0,1,2.243958333,67.705625,19.98208333,296.42,0.697,0.155,3.057083333,1.777708333,54.74875,64.95208333,69.98104167,18.711875,14.96270833,13.33458333,7.267083333,14.39083333,300,289.38,293.9,284.06,293.1,0.207,0.208,0.884,0.663,0,0,0,0,1,0,5.248066244,4.10463145,5.57045269
5/7/2016,DE-Kli,0,1,0,1,0,0,1,3.789375,49.16666667,15.13416667,292.34,0.838,0.191,2.925416667,1.770416667,60.64229167,80.78666667,58.524375,13.66604167,9.223541667,5.832083333,0.953125,5.959166667,295.78,289.28,289.84,277.06,287.54,0.189,0.189,0.843,0.819,0,0,0,0,1,0,5.298737773,3.629036692,5.818086147
7/26/2010,DE-Kli,0,1,1,1,0,0,1,1.047234583,64.51361115,14.95326394,294.34,0.606,0.163,1.797982083,1.66727375,62.66937508,72.51583323,50.50881933,22.38756948,17.44340271,24.2792361,24.2792361,24.24569446,299.14,299.4,304.4,304.4,303.6,0.171,0.176,0.476,0.546,0,0,0,0,1,0,2.399074466,3.500713581,3.421728373
3/18/2015,DE-Kli,0,0,1,1,0,0,1,2.576875,63.10291667,6.711875,288.56,0.619,0.156,1.658333333,2.20375,70.90666667,87.21854167,86.13395833,1.060625,0.095416667,9.661666667,7.057083333,12.49395833,279.76,274.44,284.22,283.22,283.14,0.164,0.156,0.636,0.721,0,0,0,0,1,0,1.535905173,1.601150582,0
7/26/2007,DE-Kli,0,1,1,1,0,0,1,1.616419792,58.87402882,17.6947222,298.68,0.755,0.183,1.1959975,1.263888333,79.68777344,69.2537241,54.66712239,19.04902779,19.17597222,23.41756944,21.08215278,18.08333331,301.4,301.62,301.76,294.96,293.42,0.184,0.183,0.754,0.72,0,0,0,0,1,0,5.136966694,4.330772964,0
3/30/2018,DE-RuS,0,0,1,1,0,0,1,2.501234417,72.5605968,8.362234375,280.38,0.494,0.149,3.33983125,3.201744167,53.16415193,61.13566989,70.49029587,-0.562637276,-0.246480645,0.56002173,6.510540833,10.65638427,276.72,275.74,277.44,280.78,284.76,0.164,0.164,0.639,0.537,0,1,0,0,0,0,2.980444922,1.688188226,0.88712126
5/14/2017,DE-RuS,0,1,0,1,0,0,1,1.488340021,74.01757498,15.36528719,298.8,0.634,0.18,0.899112304,1.788577521,66.92662996,76.60614319,85.70632671,10.09403176,10.03648302,0.038167354,0.226791444,5.135722604,295.9,288,274.2,275.06,277.8,0.179,0.145,0.739,0.481,0,1,0,0,0,0,1.365650334,3.977243609,0.596097946
10/23/2010,US-Ced,1,0,1,0,1,0,0,2.047958333,57.44104167,10.739125,290.12,0.695,0.11,2.053148936,2.104319149,59.79661702,76.22470213,46.983125,15.41387234,27.2012766,26.2985625,23.00361702,23.00361702,294.04,301.42,307.44,304.78,304.78,0.111,0.122,0.804,0.604,0,0,1,1,0,0,1.818136679,2.200751702,4.665928841
10/18/2014,US-Ced,1,0,1,0,1,0,0,2.13475,70.10625,15.643125,293.88,0.732,0.111,1.69923913,2.597673913,81.08806522,64.91891304,62.97166667,15.5776087,25.27173913,21.475,18.09502083,11.78586957,291.74,303.68,294.28,299.12,292.64,0.111,0.113,0.698,0.773,0,0,1,1,0,0,2.035301393,3.037047887,2.951735258
2/1/2018,US-Bi2,0,0,0,1,0,0,1,1.311433826,73.22586957,12.40482609,287.12,0.215,0.046,3.665148729,3.191388875,60.18083333,61.20625,49.81978261,4.570875,7.47185,9.115195652,7.723263158,9.519534884,282.94,286.22,286.1,287.14,288.78,0.054,0.056,0.331,0.341,0,1,0,1,1,1,1.743125613,1.778065433,1.438070655
7/27/2018,US-Bi2,0,1,1,0,0,0,1,2.9847315,55.62645833,21.93791667,305.62,0.817,0.193,3.277084292,3.848161667,46.22208333,50.69229167,55.46648649,24.66666667,23.70291667,24.29216216,24.3975,22.276,305.26,303.56,307.42,301.08,305.4,0.19,0.191,0.847,0.843,0,1,0,1,1,1,6.983292748,4.092763844,5.47671175
9/28/2012,US-Tw2,1,0,0,1,0,0,1,3.177333333,60.91291667,18.89875,298.66,0.589,0.207,1.676717391,1.588395349,58.10369565,61.31209302,57.14632609,21.59282609,19.49188372,20.18195652,18.97622222,22.22722222,301.1,299.72,299.6,299.82,301.88,0.207,0.207,0.574,0.616,0,1,0,1,1,0,2.155196319,2.639168028,0
7/10/2012,US-Tw2,0,1,1,1,0,0,1,2.167820513,45.83153846,24.65846154,311.84,0.534,0.152,3.414933333,3.860041667,40.82033333,47.49129167,48.859775,23.01236667,22.47833333,22.22125,21.13734146,17.79159091,308.36,305.76,305.18,307.74,303.6,0.148,0.143,0.502,0.603,0,1,0,1,1,0,5.686684651,3.856779188,3.057384014
9/22/2001,US-Wlr,1,0,0,1,0,1,0,3.441666667,75.42083333,21.6125,299.7,0.6,0.177,2.871041667,2.553333333,63.84166667,60.07916667,45.33222222,21.84375,25.35,25.51777778,25.51777778,30.62357143,309.12,307.84,303.88,303.88,308.36,0.178,0.181,0.53,0.275,0,0,0,1,0,0,2.827384065,3.198153659,0.306898773
8/14/2004,US-Wlr,1,0,0,0,0,1,0,1.705833333,67.22291667,18.4375,303.98,0.69,0.184,3.960416667,3.594791667,68.06458333,74.42291667,75.7375,28.8125,28.12083333,26.70625,20.425,18.61875,308.92,300.54,306.42,304.4,300.04,0.174,0.174,0.729,0.677,0,0,0,1,0,0,5.341447001,3.778495597,2.492971659
6/29/2002,US-Wlr,0,1,1,0,0,1,0,3.414583333,69.39583333,26.11666667,309.68,0.666,0.18,2.80375,3.574791667,66.71666667,71.65,58.74166667,24.55208333,25.64583333,16.41666667,18.10416667,17.8375,308.66,301.2,300.84,304.72,301.1,0.174,0.174,0.732,0.733,0,0,0,1,0,0,5.0692518,5.026541204,5.24316597
7/24/2002,US-Wlr,0,1,1,1,0,1,0,2.470625,61.2375,25.1,309.8,0.53,0.181,3.92625,3.414583333,58.54375,69.39583333,66.71666667,29.44791667,26.11666667,24.55208333,25.64583333,16.41666667,313.74,309.68,308.66,301.2,300.84,0.183,0.18,0.63,0.666,0,0,0,1,0,0,5.197513564,5.057695168,5.442691803
7/31/2002,US-Wlr,0,1,1,1,0,1,0,3.425,67.74791667,27.51875,311.02,0.599,0.18,2.470625,3.92625,61.2375,58.54375,69.39583333,25.1,29.44791667,26.11666667,24.55208333,25.64583333,309.8,313.74,309.68,308.66,301.2,0.181,0.183,0.53,0.63,0,0,0,1,0,0,5.223452985,4.90289808,4.627296925
8/1/2012,IT-CA2,1,0,0,0,0,0,1,2.66572429,41.1625,28.034375,321.04,0.392,0.212,3.01923524,2.298959218,40.80270833,50.23416667,38.75270833,26.84145833,26.52520833,27.466875,27.31270833,24.51916667,314.78,320.46,315.82,319.64,312.9,0.212,0.211,0.389,0.35,0,0,1,1,1,1,1.980723848,3.877107162,0.650696754
7/16/2012,IT-CA2,0,1,1,1,0,0,1,3.940714835,41.2925,25.160625,317.48,0.398,0.208,3.405030345,3.405030345,52.04,52.04,60.09125,26.89645833,26.89645833,24.51708333,25.85354167,25.85354167,313.58,313.58,314.74,318.06,318.06,0.208,0.208,0.426,0.426,0,0,1,1,1,1,1.860322495,4.292209389,0.104192622
11/3/2011,IT-CA2,1,0,1,1,0,0,1,2.200662985,81.605625,13.56479167,292.36,0.658,0.15,1.775444839,2.332586138,78.36916667,79.48666667,84.37729167,13.47354167,13.5075,13.71354167,15.05145833,10.80604167,290.7,291.78,289.52,293.34,292.7,0.147,0.144,0.605,0.619,0,0,1,1,1,1,2.193657668,2.581403226,2.291644812
8/17/2012,IT-CA2,1,0,0,0,0,0,1,2.144286471,60.55645833,26.33375,320.04,0.304,0.213,2.328218089,2.268064006,71.25020833,69.49854167,69.49854167,24.615625,25.23458333,25.23458333,28.67479167,28.50375,311.3,319.62,319.62,318.46,312.2,0.213,0.214,0.336,0.308,0,0,1,1,1,1,1.798028713,4.297084724,0.568725228
11/10/2011,IT-CA2,1,0,1,1,0,0,1,2.147152291,77.81333333,12.91895833,291,0.708,0.157,2.200662985,1.775444839,81.605625,78.36916667,79.48666667,13.56479167,13.47354167,13.5075,13.71354167,15.05145833,292.36,290.7,291.78,289.52,293.34,0.15,0.147,0.658,0.605,0,0,1,1,1,1,2.028767002,2.630968548,0
10/9/2010,DE-Seh,1,0,1,0,0,0,1,2.260291867,79.10354167,13.50541667,291.6,0.535,0.146,2.643705465,0.776255056,79.561875,76.91479167,67.63708333,17.70895833,14.84085417,15.11041667,13.896,22.204375,293.76,296.82,278.56,293.52,302.66,0.143,0.163,0.615,0.551,0,0,0,1,1,1,1.601292086,2.426247907,0
7/30/2010,DE-Seh,0,1,1,1,0,0,1,1.209574098,74.00895833,17.39354167,300.52,0.365,0.22,1.58982086,1.983045735,63.63125,50.35791667,52.59145833,22.33583333,23.24125,21.15791667,17.69104167,21.83979167,305.74,307.44,307.38,300.26,305.08,0.219,0.219,0.415,0.403,0,0,0,1,1,1,2.497144868,3.216948001,1.712411523
9/18/2017,US-A74,1,0,0,1,0,0,1,2.280413333,63.396,26.60866667,300.78,0.656,0.186,1.89805,2.025625,28.085,32.015,32.35,30.265,28.8975,20.06,16.675,23.07555556,302.78,308.28,296.22,294.14,297.94,0.183,0.184,0.627,0.622,0,1,0,0,0,1,9.77138787,4.056067322,4.164859772
1/27/2016,US-A32,0,0,0,1,0,1,0,3.451814286,50.91,8.788357143,283.86,0.487,0.19,3.4522375,3.1105,17.3325,54.12714286,61.876,31.45625,16.42,22.034,29.72,29.72,305.04,303.76,304.68,313.32,313.32,0.189,0.169,0.347,0.357,0,0,0,0,1,1,1.707026408,1.68212368,0.787299454
6/6/2017,US-A32,0,1,1,0,0,1,0,3.32305,43.97642857,30.62357143,308.36,0.432,0.179,3.095442857,2.866141667,57.78857143,35.09166667,49.44625,23.73285714,28.16333333,23.814375,23.01,22.786,306.24,306.48,305.74,300.98,302.04,0.174,0.174,0.387,0.5,0,0,0,0,1,1,8.177079128,5.533919173,8.636237621
12/20/2016,US-A32,1,1,0,0,0,1,0,1.7718,53.88,-1.795,284.32,0.628,0.183,2.18875,3.23946,59.745,55.14933333,86.15,15.8925,18.37533333,3.9885,18.2525,8.402,298.18,291.32,292.8,294.04,290.12,0.192,0.192,0.669,0.624,0,0,0,0,1,1,1.00838469,1.175263509,0.532512247
11/10/2016,US-A32,1,0,1,1,0,1,0,3.38028125,56.176875,18.2525,294.04,0.527,0.19,3.28115,2.9931,81.1275,61.20941176,48.23333333,8.402,20.09294118,25.75666667,23.03666667,22.89071429,290.12,295.86,300.82,299.22,298.84,0.19,0.19,0.71,0.592,0,0,0,0,1,1,3.251030417,3.131153064,0.84443757
3/14/2008,US-Skr,0,0,1,0,1,0,1,2.468047619,73.93604762,23.90461905,292.28,0.62,0.106,2.62625,3.472125,66.2294375,81.47897917,88.891,24.8998125,25.63408333,24.50588889,23.00891892,22.48556522,293.82,298.1,297.56,297.9,290.14,0.106,0.105,0.836,0.828,0,1,0,1,0,1,5.698322704,5.120748208,0
9/12/2007,US-Skr,1,0,0,0,1,0,1,1.523322581,83.68183871,27.59483871,292.76,0.487,0.096,1.855,1.857027027,81.63183871,86.34572973,90.79726087,28.35529032,25.20454054,25.96308696,27.953,29.51966667,301.74,299.54,300.28,301.48,298.14,0.091,0.083,0.749,0.856,0,1,0,1,0,1,5.452549017,5.97456102,0.60109669
9/4/2007,US-Skr,1,0,0,0,1,0,1,2.087433333,73.86226667,29.51966667,298.14,0.316,0.091,1.71030303,1.437966667,77.64978788,80.72213333,78.72375,28.47136364,28.15883333,28.53025,28.53025,28.9618,295.44,302.98,299.82,299.82,301.4,0.092,0.092,0.573,0.864,0,1,0,1,0,1,8.329496054,5.823190823,5.912825584
8/27/2007,US-Skr,0,1,1,1,1,0,1,2.197081081,77.48102703,29.03064865,294.18,0.705,0.094,1.479333333,1.576678571,67.90036667,84.25710714,79.26484211,28.8264,27.85364286,28.555,28.91980952,29.23739394,296.28,298,302.08,303.24,301.76,0.102,0.102,0.577,0.463,0,1,0,1,0,1,7.060627056,6.234819227,7.684081078
5/22/2008,DK-Ris,0,1,0,1,0,0,1,1.351666667,71.92020833,9.840395833,293.96,0.778,0.191,2.013333333,0.908958333,62.31208333,68.02083333,67.23104167,15.91839583,14.99760417,14.02452083,11.89064583,12.11239583,301.54,300.72,301.66,295.72,292.32,0.178,0.179,0.746,0.619,0,0,1,1,0,1,2.806143214,3.339840764,2.898472548
3/27/2008,DK-Ris,0,0,1,1,0,0,1,1.066041667,81.96291667,-0.908645833,280.92,0.385,0.139,2.910208333,2.819791667,79.17395833,85.41770833,95.70208333,0.369270833,-0.734208333,1.9628125,5.153979167,4.9060625,279.32,274.58,283.42,275.56,280.7,0.153,0.162,0.424,0.344,0,0,1,1,0,1,1.587817599,0.977779815,0
7/4/2006,DK-Ris,0,1,1,1,0,0,1,1.582291667,76.67958333,17.52479167,299.5,0.761,0.198,1.99875,2.018125,82.13916667,82.035625,78.97104167,16.78958333,16.10125,17.36833333,14.62770833,16.74458333,298.78,298.06,296.5,288.5,292.64,0.2,0.2,0.788,0.739,0,0,1,1,0,1,3.315630316,4.773807355,6.154396057
4/15/2006,DK-Ris,0,1,0,0,0,0,1,2.483125,79.60666667,6.158291667,285.78,0.39,0.152,2.129166667,2.530208333,80.87770833,83.62395833,82.76520833,-0.651875,-1.288,-1.842979167,-2.7310625,-7.3241875,276.24,273.58,274,273.98,272.24,0.125,0.126,0.368,0.055,0,0,1,1,0,1,1.445911239,2.003899291,1.039481878
3/20/2008,DK-Ris,0,0,1,1,0,0,1,2.910208333,79.17395833,0.369270833,279.32,0.424,0.153,2.819791667,1.01,85.41770833,95.70208333,82.90729167,-0.734208333,1.9628125,5.153979167,4.9060625,11.41166667,274.58,283.42,275.56,280.7,288.76,0.162,0.144,0.344,0.434,0,0,1,1,0,1,1.449326986,1.095321282,1.483781815
7/11/2001,FI-Jok,0,1,1,1,0,0,1,3.649645833,78.80989583,19.34729167,294.82,0.851,0.168,2.985895833,1.387833333,63.29377083,54.39454167,57.53402083,6.363458333,8.609145833,8.170979167,9.287708333,8.37875,283.66,295.3,283.9,287.92,290.06,0.119,0.114,0.706,0.559,0,0,0,0,0,1,5.269743577,3.821865597,1.517693043
4/2/2002,FI-Jok,0,1,0,0,0,0,1,1.8971875,67.0015625,2.031791667,278.98,0.367,0.136,3.439208333,2.955854167,87.82891667,82.1895,77.3180625,11.76891667,2.797729167,15.97922917,12.59125,16.38083333,286.3,280.84,285.22,287.8,294.44,0.174,0.176,0.533,0.528,0,0,0,0,0,1,1.198791739,2.55314811,0.080753327
6/12/2014,FR-Gri,0,1,1,0,0,0,1,1.9071875,66.76770833,18.183125,298.9,0.586,0.201,1.328520833,1.6135625,81.141875,72.92395833,68.561875,19.57270833,21.103125,17.80916667,12.74979167,13.51270833,300.06,298.46,298.72,288.4,289.7,0.202,0.202,0.681,0.616,0,0,1,1,1,0,5.896100714,4.208382352,2.815031052
5/19/2014,FR-Gri,0,1,0,1,0,0,1,2.209645833,61.071875,17.428125,298.2,0.741,0.2,2.2979375,2.2936875,68.84833333,69.31645833,86.19979167,11.76635417,10.49091667,8.7005,10.03329167,8.805333333,294.4,292.7,290.06,291.4,288,0.199,0.199,0.623,0.636,0,0,1,1,1,0,6.203705558,3.952670224,3.867381811