For param {'n_estimators': 35, 'random_state': 10, 'min_samples_split': 90, 'min_samples_leaf': 60, 'max_features': 0.5, 'max_depth': 4, 'learning_rate': 0.1, 'subsample': 0.6}
 *************************FOLDS Average***************************** 

Utility Based Metrics Across All
F1:  0.8381509573112653
F2:  0.809189574188556
F05: 0.8693970546006777
precision:  0.8916414463444537
recall: 0.7910254380703431

Regression Error Metrics Across All
R2: 0.5786613724757351
Adj-R2: 0.4463800979457028
RMSE: 1.0917023639069403
MSE: 1.2044043472831343
MAE: 0.8066959209722931
MAPE: 30.59755953678441
Accuracy: 69.4024404632156
AIC: 36.27932139310647
BIC: 36.27932139310647
NMI: 0.9986811343622921

Correlations Across All
Pearson: 0.7660346029366278
Spearman: 0.722567669922236
Distance: 0.23396539706337216
************************REPETITIONS Average*******************************

Utility Based Metrics Across All
F1:  0.8381509573112653
F2:  0.809189574188556
F05: 0.8693970546006777
precision:  0.8916414463444537
recall: 0.7910254380703431

Regression Error Metrics Across All
R2: 0.5786613724757351
Adj-R2: 0.4463800979457028
RMSE: 1.0917023639069403
MSE: 1.2044043472831343
MAE: 0.8066959209722931
MAPE: 30.59755953678441
Accuracy: 69.4024404632156
AIC: 36.27932139310647
BIC: 36.27932139310647
NMI: 0.9986811343622921

Correlations Across All
Pearson: 0.7660346029366278
Spearman: 0.722567669922236
Distance: 0.23396539706337216

Utility Based Metrics Across All Std
F1:  0.025244801646273525
F2:  0.02803522955164759
F05: 0.023793665597633865
precision:  0.024164080079711887
recall: 0.030199298817761667

Regression Error Metrics Across All Std
R2: 0.06974901508074761
Adj-R2: 0.09147722322277235
RMSE: 0.11220648788342379
MSE: 0.2653186727405297
MAE: 0.05370579132414284
MAPE: 2.2279946812471363
Accuracy: 2.2279946812471367
AIC: 42.00050247285339
BIC: 42.00050247285339
NMI: 0.0009827815701746725

Correlations Across All Std
Pearson: 0.05238296473013993
Spearman: 0.04260883894889373
Distance: 0.05238296473014003
