For param {'C': 0.1}
 *************************FOLDS Average***************************** 

Utility Based Metrics Across All
F1:  0.9284795615233618
F2:  0.8872471846797477
F05: 0.974086308320944
precision:  1.007304617673085
recall: 0.861871272334193

Regression Error Metrics Across All
R2: 0.36124582053816073
Adj-R2: 0.3232915475776422
RMSE: 1.7926151199938736
MSE: 3.2157353725257303
MAE: 1.354386610835205
MAPE: 45.74227337925364
Accuracy: 54.25772662074636
AIC: 417.19923852030325
BIC: 417.19923852030325
NMI: 0.9993737442382145

Correlations Across All
Pearson: 0.6131591652118467
Spearman: 0.5933318853539756
Distance: 0.38684083478815323
************************REPETITIONS Average*******************************

Utility Based Metrics Across All
F1:  0.9284795615233618
F2:  0.8872471846797477
F05: 0.974086308320944
precision:  1.007304617673085
recall: 0.861871272334193

Regression Error Metrics Across All
R2: 0.36124582053816073
Adj-R2: 0.3232915475776422
RMSE: 1.7926151199938736
MSE: 3.2157353725257303
MAE: 1.354386610835205
MAPE: 45.74227337925364
Accuracy: 54.25772662074636
AIC: 417.19923852030325
BIC: 417.19923852030325
NMI: 0.9993737442382145

Correlations Across All
Pearson: 0.6131591652118467
Spearman: 0.5933318853539756
Distance: 0.38684083478815323

Utility Based Metrics Across All Std
F1:  0.01342764468217545
F2:  0.0080488918570086
F05: 0.026027877975107052
precision:  0.03658594027929575
recall: 0.010961083228585763

Regression Error Metrics Across All Std
R2: 0.04701078597364332
Adj-R2: 0.04981650284508221
RMSE: 0.04760676522386501
MSE: 0.1701872915212623
MAE: 0.05140412898357173
MAPE: 5.00144825863986
Accuracy: 5.00144825863986
AIC: 19.2511944515144
BIC: 19.2511944515144
NMI: 0.0005590771482432752

Correlations Across All Std
Pearson: 0.04082092609700107
Spearman: 0.0397614869489845
Distance: 0.0408209260970011
