For param {'n_trees': 100, 'max_depth': 7, 'learning_rate': 0.1}
 *************************FOLDS Average***************************** 

Utility Based Metrics Across All
F1:  0.6152198987258618
F2:  0.5954565138546258
F05: 0.6370114130632076
precision:  0.6528306707079906
recall: 0.7241174270418955

Regression Error Metrics Across All
R2: 0.388275068488533
Adj-R2: 0.3344608465063753
RMSE: 1.5104793690094116
MSE: 2.381269195521383
MAE: 1.17150695183108
MAPE: 40.341842352468895
Accuracy: 59.65815764753112
AIC: 474.4791548315402
BIC: 474.4791548315402
NMI: 0.9937668514445575

Correlations Across All
Pearson: 0.6438632901126536
Spearman: 0.6388003876057381
Distance: 0.3561367098873464
************************REPETITIONS Average*******************************

Utility Based Metrics Across All
F1:  0.6152198987258618
F2:  0.5954565138546258
F05: 0.6370114130632076
precision:  0.6528306707079906
recall: 0.7241174270418955

Regression Error Metrics Across All
R2: 0.388275068488533
Adj-R2: 0.3344608465063753
RMSE: 1.5104793690094116
MSE: 2.381269195521383
MAE: 1.17150695183108
MAPE: 40.341842352468895
Accuracy: 59.65815764753112
AIC: 474.4791548315402
BIC: 474.4791548315402
NMI: 0.9937668514445575

Correlations Across All
Pearson: 0.6438632901126536
Spearman: 0.6388003876057381
Distance: 0.3561367098873464
For param {'n_trees': 100, 'max_depth': 6, 'learning_rate': 0.1}
 *************************FOLDS Average***************************** 

Utility Based Metrics Across All
F1:  0.7705163178213682
F2:  0.741156654658096
F05: 0.8039361547868864
precision:  0.8289513190899818
recall: 0.7234658119558096

Regression Error Metrics Across All
R2: 0.41472098659116324
Adj-R2: 0.3632332457347306
RMSE: 1.4740818711282482
MSE: 2.2601874231903456
MAE: 1.1474706249488853
MAPE: 39.61072315141452
Accuracy: 60.38927684858548
AIC: 446.3235234596953
BIC: 446.3235234596953
NMI: 0.9896532756016286

Correlations Across All
Pearson: 0.6637213934084645
Spearman: 0.6621509575873186
Distance: 0.3362786065915357
************************REPETITIONS Average*******************************

Utility Based Metrics Across All
F1:  0.7705163178213682
F2:  0.741156654658096
F05: 0.8039361547868864
precision:  0.8289513190899818
recall: 0.7234658119558096

Regression Error Metrics Across All
R2: 0.41472098659116324
Adj-R2: 0.3632332457347306
RMSE: 1.4740818711282482
MSE: 2.2601874231903456
MAE: 1.1474706249488853
MAPE: 39.61072315141452
Accuracy: 60.38927684858548
AIC: 446.3235234596953
BIC: 446.3235234596953
NMI: 0.9896532756016286

Correlations Across All
Pearson: 0.6637213934084645
Spearman: 0.6621509575873186
Distance: 0.3362786065915357
