Error Metrics,Validation Scores,Testing Scores
mean target,3.781547833544993,3.781547833544993
F1,0.7705163178213682,0.7904238344685159
F2,0.741156654658096,0.7439398515772858
F05,0.8039361547868864,0.8431039388993148
Precision,0.8289513190899818,0.8823065358007729
Recall,0.7234658119558096,0.7158733525497237
R2,0.41472098659116324,0.3816817288932832
Adjusted R2,0.3632332457347306,0.3397763412249165
RMSE,1.4740818711282482,1.4274754919066739
MSE,2.2601874231903456,2.0376862799942006
MAE,1.1474706249488853,1.074477142953698
MAPE,39.61072315141452,38.424615414140476
Accuracy,60.38927684858548,61.575384585859524
Pearson C.C.,0.6637213934084645,0.6403180395939903
Spearman C.C.,0.6621509575873186,0.6691968719264615
Spatial Distance,0.3362786065915357,0.3596819604060095
NMI,0.9896532756016286,0.9955305222174663
AIC,446.3235234596953,550.2329855058788
BIC,446.3235234596953,550.2329855058788
Data Size train,-,3035.0
Data Size test,-,773.0
Training Time (seconds),-,17.600449800491333
Testing Time (seconds),-,0.6843898296356201
