Total Number of rare cases: 600 out of 4253
Percentage of Rare Cases: 14.11%

number of rare in train: 479/3392
==> 14.121462264150944%%
number of rare in test: 121/861
==> 14.0534262485482%%
Total Number of rare cases: 600 out of 4253
Percentage of Rare Cases: 14.11%

number of rare in train: 479/3392
==> 14.121462264150944%%
number of rare in test: 121/861
==> 14.0534262485482%%
The size of the original data is (3392, 49)
The size of the oversampled data is (3497, 49)
Total Number of rare cases: 634 out of 3497
Percentage of Rare Cases: 18.13%

The percentage of rare values in dataset after smogn are 18.129825564769803
Total Number of rare cases: 219 out of 4253
Percentage of Rare Cases: 5.15%

number of rare in train: 175/3392
==> 5.159198113207547%%
number of rare in test: 44/861
==> 5.1103368176538915%%
Total Number of rare cases: 219 out of 4253
Percentage of Rare Cases: 5.15%

number of rare in train: 175/3392
==> 5.159198113207547%%
number of rare in test: 44/861
==> 5.1103368176538915%%
The size of the original data is (3392, 49)
The size of the oversampled data is (3428, 49)
Total Number of rare cases: 221 out of 3428
Percentage of Rare Cases: 6.45%

The percentage of rare values in dataset after smogn are 6.446907817969662
