Error Metrics,Validation Scores,Testing Scores
mean target,2.1901957190458714,2.1901957190458714
F1,0.24199469455326944,0.42538055943311714
F2,0.24660188570177324,0.42264180717925776
F05,0.23837928514633266,0.42815503785671993
Precision,0.23643693864546425,0.4300248847312285
Recall,0.47084978112924303,0.4208354809046273
R2,-0.09559446250686414,-0.020263804107685912
Adjusted R2,-8.088581006193774,-2.3158573633499793
RMSE,0.9808891107447566,0.9411298504496617
MSE,0.9713664264138137,0.8857253954074025
MAE,0.7694161543487297,0.5920796197124283
MAPE,38.139062414745105,30.276759684003036
Accuracy,61.860937585254895,69.72324031599696
Pearson C.C.,0.33496755038959164,0.15419895694884656
Spearman C.C.,0.18411552785142743,0.20809152059514197
Spatial Distance,0.6650324496104083,0.8458010430511534
NMI,0.9891241670690356,0.9847301050603684
AIC,-2.512421023050347,-8.008988716147764
BIC,-2.512421023050347,-8.008988716147764
Data Size train,-,261.0
Data Size test,-,66.0
Training Time (seconds),-,6.951867341995239
Testing Time (seconds),-,0.563652515411377
