Error Metrics,Validation Scores,Testing Scores
mean target,3.9985015893250573,3.9985015893250573
F1,0.7400444779211754,0.8154798948914542
F2,0.7313079828082566,0.8076433444152575
F05,0.750242826351619,0.8234700112633929
Precision,0.7579984548981462,0.8288843136608842
Recall,0.7261807145143473,0.8025021194703872
R2,0.4261162430140297,0.5090217214494037
Adjusted R2,0.37225056470983126,0.4729314345115345
RMSE,1.4892080716297271,1.138498058827447
MSE,2.25625466502397,1.2961778299538649
MAE,1.1168178894119296,0.8895046239069693
MAPE,34.01386294513459,34.06488559155248
Accuracy,65.98613705486541,65.93511440844752
Pearson C.C.,0.6739946599082753,0.749157530419704
Spearman C.C.,0.6694266149735708,0.7331459575806509
Spatial Distance,0.3260053400917248,0.25084246958029577
NMI,0.9930064631343735,0.9968261835426018
AIC,436.35460403089127,182.11270169730454
BIC,436.35460403089127,182.11270169730454
Data Size train,-,2802.0
Data Size test,-,702.0
Training Time (seconds),-,17.15307879447937
Testing Time (seconds),-,0.5721917152404785
