Total Number of rare cases: 165 out of 1652
Percentage of Rare Cases: 9.99%

number of rare in train: 131/1310
==> 10.0%%
number of rare in test: 34/342
==> 9.941520467836257%%
Total Number of rare cases: 165 out of 1652
Percentage of Rare Cases: 9.99%

number of rare in train: 131/1310
==> 10.0%%
number of rare in test: 34/342
==> 9.941520467836257%%
Total Number of rare cases: 165 out of 1652
Percentage of Rare Cases: 9.99%

number of rare in train: 131/1310
==> 10.0%%
number of rare in test: 34/342
==> 9.941520467836257%%
