Error Metrics,Testing Scores
mean target,3.774925690055469
F1,0.7160987639888619
F2,0.7340621572760673
F05,0.6989935423373119
Precision,0.6880369305830721
Recall,0.7465469495387319
R2,0.5484559804081799
Adjusted R2,0.5351272713961321
RMSE,1.296802875111947
MSE,1.681697696898612
MAE,0.9870863006003714
MAPE,36.698400614942614
Accuracy,63.301599385057386
Pearson C.C.,0.7544235161295489
Spearman C.C.,0.7663245124920991
Spatial Distance,0.24557648387045106
NMI,0.9893053496743331
AIC,888.8645271345655
BIC,888.8645271345655
Data Size train,6787.0
Data Size test,1710.0
Training Time (seconds),45.592365026474
Testing Time (seconds),0.6792647838592529
