Error Metrics,NGBoost Validation Scores,NGBoost Validation Scores std, NGBoost Test Scores
mean target,3.7450975657634475,3.7450975657634475,3.7450975657634475
F1,0.7818273233530035,0.391150460687675,0.9160232770262282
F2,0.7716664656353739,0.38582872914278116,0.8757500121360136
F05,0.7818273233530035,0.391150460687675,0.9601792014165766
Precision,0.8002563464164067,0.40185020660420706,0.9920599969634744
Recall,0.76524054103565,0.38271340525654085,0.8508125107452982
R2,0.683299930535396,0.30998253256692027,0.5387682399246233
Adjusted R2,0.6235876449063359,0.36826496779011497,0.5029992462861247
RMSE,0.760318797650816,0.14765095504381678,1.5858033395193403
MSE,0.5998854785865337,0.20814421402033684,2.514772231630692
MAE,0.5948642462561718,0.12214762727781181,1.056406011605406
MAPE,20.80159951636319,5.950201602217625,36.166816501579156
Accuracy,79.19840048363682,5.950201602217624,63.833183498420844
Pearson C.C.,0.8216174797359038,0.20229688736227622,0.7341398696903211
Spearman C.C.,0.7943553636557332,0.21945324064782532,0.7042029276948122
Spatial Distance,0.17838252026409623,0.20229688736227616,0.2658601303096788
NMI,0.9939989751796604,0.0016589742578232802,0.9964415890819777
AIC,-141.70689170702707,102.97479475227145,487.8344025724112
BIC,-141.70689170702707,102.97479475227145,487.8344025724112
Probabilistic RMSE,0.760318797650816,0.14765095504381678,1.5858033395193403
Probabilistic NLL,2.396589809398266,1.6030675146655615,4.887243337870909
Data Size train,-,-,"(1200, 38)"
Data Size test,-,-,"(529, 39)"
Training Time (seconds),-,-,7.9820592403411865
Testing Time (seconds),-,-,1.1620841026306152
