For param {'n_trees': 100, 'max_depth': 7, 'learning_rate': 0.1}
 *************************FOLDS Average***************************** 

Utility Based Metrics Across All
F1:  0.43219464656319106
F2:  0.44364725453782156
F05: 0.42181567265665737
precision:  0.41541977919508055
recall: 0.6909935375883821

Regression Error Metrics Across All
R2: 0.28256789575799757
Adj-R2: 0.21326103752456502
RMSE: 1.7926633302797914
MSE: 3.24889052422224
MAE: 1.3077494748660299
MAPE: 44.26006591897761
Accuracy: 55.7399340810224
AIC: 644.2416635531469
BIC: 644.2416635531469
NMI: 0.9963047447686885

Correlations Across All
Pearson: 0.6167166771019309
Spearman: 0.6222924289387992
Distance: 0.38328332289806905
************************REPETITIONS Average*******************************

Utility Based Metrics Across All
F1:  0.43219464656319106
F2:  0.44364725453782156
F05: 0.42181567265665737
precision:  0.41541977919508055
recall: 0.6909935375883821

Regression Error Metrics Across All
R2: 0.28256789575799757
Adj-R2: 0.21326103752456502
RMSE: 1.7926633302797914
MSE: 3.24889052422224
MAE: 1.3077494748660299
MAPE: 44.26006591897761
Accuracy: 55.7399340810224
AIC: 644.2416635531469
BIC: 644.2416635531469
NMI: 0.9963047447686885

Correlations Across All
Pearson: 0.6167166771019309
Spearman: 0.6222924289387992
Distance: 0.38328332289806905
For param {'n_trees': 100, 'max_depth': 6, 'learning_rate': 0.1}
 *************************FOLDS Average***************************** 

Utility Based Metrics Across All
F1:  0.44570929089096706
F2:  0.45789504125770675
F05: 0.434327850646958
precision:  0.42714013036681936
recall: 0.706938646853463

Regression Error Metrics Across All
R2: 0.2756058609037909
Adj-R2: 0.2056244138877429
RMSE: 1.8003363758334683
MSE: 3.273453431604202
MAE: 1.3107142835836538
MAPE: 44.16076651790652
Accuracy: 55.83923348209348
AIC: 649.5763757210965
BIC: 649.5763757210965
NMI: 0.9923343334995364

Correlations Across All
Pearson: 0.6282918925894986
Spearman: 0.6335678817106409
Distance: 0.3717081074105013
************************REPETITIONS Average*******************************

Utility Based Metrics Across All
F1:  0.44570929089096706
F2:  0.45789504125770675
F05: 0.434327850646958
precision:  0.42714013036681936
recall: 0.706938646853463

Regression Error Metrics Across All
R2: 0.2756058609037909
Adj-R2: 0.2056244138877429
RMSE: 1.8003363758334683
MSE: 3.273453431604202
MAE: 1.3107142835836538
MAPE: 44.16076651790652
Accuracy: 55.83923348209348
AIC: 649.5763757210965
BIC: 649.5763757210965
NMI: 0.9923343334995364

Correlations Across All
Pearson: 0.6282918925894986
Spearman: 0.6335678817106409
Distance: 0.3717081074105013
