Error Metrics,Validation Scores,Testing Scores
mean target,2.331383554998426,2.331383554998426
F1,0.6844764548401854,0.6394243267730687
F2,0.6616484457400273,0.6208040657012462
F05,0.7114649946213814,0.6591961104189535
Precision,0.7324028313785035,0.6730708949249458
Recall,0.648275979966181,0.6089815610105372
R2,0.2226975409453992,0.2955628490043103
Adjusted R2,0.07632871501879843,0.19777978838451193
RMSE,1.0224952267089735,1.1437023473049848
MSE,1.0683935476813997,1.3080550592309321
MAE,0.7355108642783633,0.7852237139888666
MAPE,34.56352212490258,35.22715144765171
Accuracy,65.43647787509742,64.7728485523483
Pearson C.C.,0.5101013347512964,0.5454588696056202
Spearman C.C.,0.5126282134661473,0.5713851055785526
Spatial Distance,0.4898986652487035,0.45454113039437993
NMI,0.9977233842289295,0.9978803134388825
AIC,6.5537103125913205,108.22216258401548
BIC,6.5537103125913205,108.22216258401548
Data Size train,-,1551.0
Data Size test,-,403.0
Training Time (seconds),-,15.469335794448853
Testing Time (seconds),-,0.6481790542602539
