,RH,TA,Eeflux_LST,RH-1,RH-2,RH-3,TA-1,TA-2,TA-3,TA-4,TA-5,Eeflux_LST-1,Eeflux_LST-2,Eeflux_LST-3,Eeflux_LST-4,Eeflux_LST-5,LE_bowen_corr_mm
0,73.86399999999999,18.30760417,300.12,71.25247917,71.25247917,69.27539583,18.99616667,18.99616667,19.77608333,19.77608333,21.04602128,297.24,297.24,300.26,300.26,301.86,2.061671471
1,73.90791489,19.60661702,302.82,73.01060417,64.83364,72.80091489,18.4639375,20.45416,17.73444681,16.87272917,19.07295833,299.74,297.9,299.1,296.12,301.48,3.637801718
2,69.43268182,17.02629545,294.18,69.43268182,65.83797143,72.8067561,17.02629545,19.33908571,18.82929268,17.520209299999998,17.45225,294.18,305.0,300.22,300.12,303.26,3.794083548
3,67.21180435,19.97595652,301.1,69.00466667,68.90220833,65.74441667,18.94752083,19.412,21.10520833,26.31384615,22.50946809,297.68,300.76,297.7,305.24,296.96,1.7863894219999998
4,76.03710417,18.3804375,296.84,75.44,65.95110638,56.881,18.88212766,21.55208511,22.52164583,21.07280851,21.07280851,301.42,303.54,299.6,303.96,303.96,2.75413903
5,46.278361700000005,24.71304255,302.52,66.78795652,67.2776875,71.4083125,21.91084783,20.42727083,19.03522917,19.72247917,20.13052083,299.74,300.3,295.3,299.48,299.78,4.515724745
6,69.763375,19.72247917,299.48,72.80020833,72.80020833,76.42185417,20.13052083,20.13052083,18.72372917,19.01216667,19.26120833,299.78,299.78,295.54,300.14,299.14,3.6232159360000002
7,55.92087805,17.31441463,287.8,55.92087805,58.6387,67.37460714,17.31441463,18.59483333,12.37389286,12.37389286,14.82085106,287.8,292.54,284.44,284.44,292.04,3.9411455039999996
8,58.63989583,15.24227083,297.46,51.05608333,52.51929787,60.8445,20.0565625,22.07861702,22.860875,16.00908696,14.46102174,303.0,298.92,305.6,299.32,297.96,3.464401154
9,55.4764375,18.0905,301.06,37.97048889,57.54229167,64.11097917,18.97451111,15.77189583,16.817375,16.416375,15.68225,299.68,298.42,297.08,299.6,292.36,2.781866742
10,76.56244444,17.9125,303.54,74.61519565,77.04391667,74.38308333,17.95080435,17.6525,19.274125,17.60189583,17.411625,299.94,299.96,299.32,298.42,294.2,3.637978439
11,71.14153571,15.37735714,290.14,21.38431915,29.63921875,73.67775556,18.29795745,17.3825625,15.55168889,18.28678125,17.168,292.56,296.32,293.94,294.34,295.18,1.192792206
12,71.10125,19.07295833,301.48,55.43889583,49.34811364,49.34811364,21.179375,20.86284091,20.86284091,21.28808511,21.99645714,300.48,308.4,308.4,301.98,301.58,3.168117744
13,72.67495833,16.83929167,300.5,66.69006383,31.18487179,47.62355814,17.1697234,21.79817949,17.52381395,17.52381395,14.86282979,294.98,296.22,299.28,299.28,295.82,3.2603960969999997
14,75.60248936,19.1562766,298.88,62.87814815,67.30960870000001,69.53238298,21.34755556,19.87463043,18.82614894,18.82614894,18.30760417,300.82,301.28,295.98,295.98,300.12,2.187559836
15,69.07210417,18.951,300.24,71.0824375,69.76889362,66.46804167,19.48460417,21.15614894,19.70010417,22.47870833,22.47870833,297.48,303.48,299.42,306.66,306.66,2.4891205419999998
16,68.39061905,14.31333333,294.04,43.96620513,43.96620513,67.99266667,18.51,18.51,9.186454545,9.975883721,22.63958333,294.38,294.38,287.84,286.24,305.48,3.07712258
17,65.74441667,21.10520833,297.7,51.24405128,60.26412766,63.769625,26.31384615,22.50946809,23.81179167,23.97413636,22.62219048,305.24,296.96,303.6,300.4,304.2,1.69387318
18,74.258875,19.440375,297.64,73.90791489,73.01060417,64.83364,19.60661702,18.4639375,20.45416,17.73444681,16.87272917,302.82,299.74,297.9,299.1,296.12,3.567823645
19,29.63921875,17.3825625,296.32,73.67775556,75.89809375,75.37010417,15.55168889,18.28678125,17.168,17.168,21.45163636,293.94,294.34,295.18,295.18,297.52,2.61405068
20,54.11087179,18.89551282,297.74,38.65809302,55.9838,55.9838,18.197,16.90595556,16.90595556,19.79259091,19.70734783,298.34,297.14,297.14,297.44,299.72,1.907407749
21,61.296625,21.07272917,298.72,61.296625,63.90597917,64.492,21.07272917,21.70716667,22.51575,17.51547917,17.51547917,298.72,300.52,300.04,295.74,295.74,3.2293253980000003
22,67.69333333,20.38808333,302.28,69.159375,50.5954,63.82134783,20.60952083,22.70528889,21.54365217,21.03918605,20.16816667,298.82,302.82,302.8,300.8,301.8,2.443595798
23,27.31102632,13.53323684,287.38,40.98981081,31.21955263,24.06422222,12.30362162,16.28589474,20.30969444,18.30902273,18.89551282,286.22,292.28,294.86,294.32,297.74,3.585887285
24,48.56425,22.56829167,304.88,52.6455,58.109375,52.17285417,21.69927083,21.5891875,23.28239583,20.21577083,18.81729167,299.9,303.9,304.54,298.8,302.04,4.022666684
25,71.97295833,17.44264583,300.04,71.21672917,63.05142857,64.89825,19.57170833,20.83,19.2085,19.2085,22.95927083,303.5,302.24,301.94,301.94,306.2,2.71825699
26,65.56444681,14.86282979,295.82,59.74597917,63.51667391,62.76233333,16.16579167,19.62667391,18.01210417,21.02071429,18.34975,292.7,302.34,299.7,299.04,298.78,3.5080372860000004
27,53.01595833,14.12483333,296.98,59.55053191,75.62248936,72.38275,11.47217021,16.13514894,16.28095833,15.4466875,16.93676744,295.84,289.12,295.2,293.24,297.52,3.084803828
28,59.91197917,20.61277083,299.56,60.75560417,52.833125,63.18508333,21.17520833,23.20470833,20.69729167,19.63514583,21.12802083,303.5,302.56,300.92,302.9,298.12,3.129737707
29,63.3815625,20.18585417,299.84,55.4764375,37.97048889,57.54229167,18.0905,18.97451111,15.77189583,16.817375,16.416375,301.06,299.68,298.42,297.08,299.6,3.2881875160000003
30,63.13114583,19.1028125,302.08,53.5460625,65.94753659,73.94238298,21.273000000000003,21.17468293,17.92859574,14.44727083,13.89870968,300.12,302.1,299.12,291.16,297.66,4.034651298
31,63.72458621,13.21903448,288.88,68.1122,75.82183333,68.03443243,12.16194286,14.15153333,11.15194595,10.49172222,9.969761905,290.46,287.56,281.34,284.0,287.26,3.605490567
32,62.53364583,17.0866875,291.0,53.94775,57.77789129999999,58.32408889,14.63172917,13.74847826,16.26244444,21.04814286,14.62607143,295.12,295.82,295.38,298.76,295.92,3.307627215
33,53.94775,14.63172917,295.12,57.77789129999999,58.32408889,48.55838095,13.74847826,16.26244444,21.04814286,14.62607143,13.53323684,295.82,295.38,298.76,295.92,287.38,2.8498190269999997
34,70.86747826,22.01030435,298.0,66.23261702,59.04021277,59.04021277,22.26025532,21.97959574,21.97959574,20.20384091,21.5279375,303.04,302.04,302.04,300.78,302.96,1.8016103980000002
35,67.24733333,15.69641667,302.54,27.92313043,30.65047059,45.59784615,20.45206522,24.67314706,20.35592308,15.18689744,15.18689744,296.62,301.76,300.42,295.26,295.26,2.846094149
36,51.5764,23.386,303.2,59.9303125,67.44804167,65.56566667,21.15629167,20.1445625,19.89320833,19.89320833,24.06270833,298.42,299.56,299.72,299.72,303.56,3.040804244
37,68.1122,12.16194286,290.46,75.82183333,68.03443243,65.13872222,14.15153333,11.15194595,10.49172222,9.969761905,12.389375,287.56,281.34,284.0,287.26,285.84,3.205635084
38,36.08627273,18.30902273,294.32,54.11087179,38.65809302,55.9838,18.89551282,18.197,16.90595556,16.90595556,19.79259091,297.74,298.34,297.14,297.14,297.44,2.1859028080000003
39,63.90597917,21.70716667,300.52,64.492,69.979875,69.979875,22.51575,17.51547917,17.51547917,18.76695745,19.19357447,300.04,295.74,295.74,299.48,297.7,3.521307709
40,34.8085,22.95884615,304.9,41.83426087,61.80241667,54.45193182,21.57508696,17.51575,19.46936364,20.21572917,21.70597917,296.62,300.76,298.46,301.58,302.74,6.233376151
41,58.83214894,20.36189362,302.58,62.18595833,58.37547917,62.16495833,16.659875,16.113125,16.112625,15.70591667,16.9578125,297.08,300.82,295.74,298.76,298.02,3.3276117889999997
42,71.08387234,15.63419149,288.42,80.888725,69.459325,75.911625,15.386175,16.41525,18.713,18.713,17.52755263,294.26,297.88,296.52,296.52,296.08,1.84443066
43,72.8067561,18.82929268,300.22,67.61625581,72.468775,75.7491875,17.520209299999998,17.45225,17.9084375,17.9125,17.95080435,300.12,303.26,300.42,303.54,299.94,3.924121431
44,67.99266667,9.186454545,287.84,70.08274419,58.81875,47.59791667,9.975883721,22.63958333,23.075,24.49791667,25.98333333,286.24,305.48,302.28,303.68,301.98,3.6940787389999996
45,59.7773125,11.67689583,290.78,50.12477778,55.5516,70.57677143,11.29738889,15.15905,12.41277143,9.989125,12.38596154,291.26,289.9,288.02,287.32,286.38,1.118004161
46,69.979875,17.51547917,295.74,69.979875,69.25795745,69.97782979,17.51547917,18.76695745,19.19357447,19.65238298,20.41014583,295.74,299.48,297.7,298.4,300.28,2.890298959
47,40.5837234,24.17997872,303.24,47.90148936,58.61802174,71.931375,22.65308511,18.54276087,18.073,20.604375,20.36791667,304.14,300.0,297.88,302.18,301.44,4.032537478
48,56.11575,23.051,300.38,67.21180435,69.00466667,68.90220833,19.97595652,18.94752083,19.412,21.10520833,26.31384615,301.1,297.68,300.76,297.7,305.24,2.371436177
49,70.74036364,15.88172727,292.5,62.46039583,38.92806452,65.84244118,15.116375,15.02858065,14.58702941,16.00267857,14.31333333,296.36,295.52,290.92,291.36,294.04,3.3552885710000004
50,64.28735417,18.80754167,297.58,66.478625,70.54660417,63.54793617,18.37241667,18.06425,20.09961702,22.59073913,18.24974419,297.46,300.38,298.98,302.88,295.04,1.817842877
51,67.20961702,21.04602128,301.86,69.07210417,71.0824375,69.76889362,18.951,19.48460417,21.15614894,19.70010417,22.47870833,300.24,297.48,303.48,299.42,306.66,2.801919279
52,60.92333333,21.2024359,301.8,53.07095556,62.0778125,63.13114583,21.32584444,22.57147917,19.1028125,21.273000000000003,21.17468293,301.2,305.18,302.08,300.12,302.1,4.760329281000001
53,64.45838298,21.74859574,305.82,64.630875,67.97158333,68.96072917,21.6226875,19.83539583,18.7783125,17.61472917,18.65883333,302.16,302.4,297.22,299.0,297.12,2.818141097
54,62.9078125,18.37627083,295.14,65.69877273,69.75233333,69.75233333,17.85322727,16.49320833,16.49320833,17.02864583,18.7871875,298.68,293.7,293.7,295.2,296.5,1.5389488169999999
55,60.75560417,21.17520833,303.5,52.833125,63.18508333,71.7591875,23.20470833,20.69729167,19.63514583,21.12802083,19.74675,302.56,300.92,302.9,298.12,302.04,3.2524579719999998
56,54.12293478,21.74095652,301.32,58.88954545,58.88954545,70.86747826,24.66363636,24.66363636,22.01030435,22.26025532,21.97959574,304.5,304.5,298.0,303.04,302.04,1.967646257
57,56.12325,18.342625,300.6,56.12325,59.74275556,72.67495833,18.342625,17.4694,16.83929167,17.1697234,21.79817949,300.6,295.72,300.5,294.98,296.22,4.006866155
58,71.29502083,19.39991667,298.02,58.417125,65.3456875,64.22395745,21.81308333,21.04266667,19.7137234,20.67097917,24.17997872,304.38,297.84,301.76,302.26,303.24,2.678693768
59,76.42031111,18.49084444,296.26,67.54591429,67.95911905,55.34124,20.19128571,19.42428571,21.69196,20.69106897,19.418,298.34,298.96,297.7,298.28,297.32,1.145649921
60,52.51654286,17.89197143,295.96,48.21636842,53.284625,46.43604167,17.42436842,15.20260417,14.50129167,18.26585417,20.59766667,303.06,297.26,298.36,299.22,302.88,3.422752547
61,38.92806452,15.02858065,295.52,65.84244118,40.63125,68.39061905,14.58702941,16.00267857,14.31333333,18.51,18.51,290.92,291.36,294.04,294.38,294.38,5.721891226
62,58.417125,21.81308333,304.38,65.3456875,64.22395745,62.52877083,21.04266667,19.7137234,20.67097917,24.17997872,22.65308511,297.84,301.76,302.26,303.24,304.14,3.4527717460000003
63,31.46567442,7.533186047,282.98,42.37624242,48.76294444,46.38456667,7.528484848,9.724972222,11.32173333,24.78397059,18.98195833,282.26,285.76,285.46,300.2,296.26,2.7254359939999997
64,48.76294444,9.724972222,285.76,46.38456667,27.43714706,68.86091667,11.32173333,24.78397059,18.98195833,20.4596,23.72790323,285.46,300.2,296.26,299.56,298.38,2.431695324
65,75.911625,18.713,296.52,65.54676316,65.54676316,77.65958696,17.52755263,17.52755263,19.34080435,20.21154762,18.63714583,296.08,296.08,299.66,302.42,296.64,3.3219927360000003
66,75.37010417,17.168,295.18,75.37010417,66.07672727,76.42031111,17.168,21.45163636,18.49084444,20.19128571,19.42428571,295.18,297.52,296.26,298.34,298.96,1.073666119
67,65.69877273,17.85322727,298.68,69.75233333,69.75233333,70.93233333,16.49320833,16.49320833,17.02864583,18.7871875,19.12454167,293.7,293.7,295.2,296.5,297.18,1.593121379
68,58.12019048,12.297761900000001,290.78,62.23968889,66.74541026,63.51483333,11.15808889,13.42646154,13.10775,10.41958621,12.02476923,287.06,285.14,292.62,287.76,290.98,3.086363591
69,48.55838095,21.04814286,298.76,56.87117857,27.31102632,40.98981081,14.62607143,13.53323684,12.30362162,16.28589474,20.30969444,295.92,287.38,286.22,292.28,294.86,2.403499034
70,73.86399999999999,18.30760417,300.12,73.86399999999999,71.25247917,71.25247917,18.30760417,18.99616667,18.99616667,19.77608333,19.77608333,300.12,297.24,297.24,300.26,300.26,2.061671471
71,68.9954375,19.4484375,295.16,64.45838298,64.630875,67.97158333,21.74859574,21.6226875,19.83539583,18.7783125,17.61472917,305.82,302.16,302.4,297.22,299.0,2.38332247
72,56.881,22.52164583,299.6,60.89655319,60.89655319,63.89147917,21.07280851,21.07280851,21.04008333,21.04008333,20.23722222,303.96,303.96,300.74,300.74,302.96,3.715999568
73,49.34811364,20.86284091,308.4,49.34811364,47.41344681,55.41982857,20.86284091,21.28808511,21.99645714,19.592175,19.86708571,308.4,301.98,301.58,301.62,296.22,4.154750718
74,64.74197917,19.74675,302.04,58.83214894,62.18595833,58.37547917,20.36189362,16.659875,16.113125,16.112625,15.70591667,302.58,297.08,300.82,295.74,298.76,3.151610825
75,69.02058333,20.255375,302.0,64.60069565,65.62406522,71.06710638,21.34830435,21.49221739,20.03931915,19.07585106,20.59604255,300.62,302.1,298.06,292.88,300.72,3.931653269
76,72.07897872,19.07585106,292.88,69.15097872,67.80710417,72.94914894,20.59604255,21.6071875,20.40642553,23.8029375,22.44963043,300.72,297.86,297.9,304.34,298.4,3.6554979739999998
77,74.52783333,18.33989583,297.6,68.7260625,73.70308333,66.36455556,20.00222917,19.06877083,20.55680556,20.89284091,20.39902128,300.84,297.1,300.22,301.68,300.26,1.8735571
78,72.5455,12.10433333,288.28,63.97492,63.72458621,68.1122,11.744639999999999,13.21903448,12.16194286,14.15153333,11.15194595,283.18,288.88,290.46,287.56,281.34,5.127880966
79,53.66414583,14.71202083,295.34,61.10710417,60.0039375,43.07742105,16.892125,17.04454167,22.05344737,17.77116667,13.79623913,297.92,295.14,301.32,292.64,291.48,2.976107368
80,61.7408125,21.27779167,305.04,68.79679167,68.79679167,69.15621277,19.2459375,19.2459375,18.57538298,21.400625,23.2473125,298.2,298.2,302.1,301.68,306.26,2.914213265
81,59.008,16.81755263,299.98,57.0805,65.41034043,34.8085,18.6528913,20.60789362,22.95884615,21.57508696,17.51575,298.82,304.1,304.9,296.62,300.76,4.041721955
82,59.063125,22.079375,303.92,66.2130625,73.63835417,68.9954375,19.92127083,18.88522917,19.4484375,21.74859574,21.6226875,301.38,297.58,295.16,305.82,302.16,2.95753281
83,67.15395833,20.604375,302.18,64.98014583,69.02541667,69.02541667,20.36791667,18.55183333,18.55183333,20.46593617,20.46593617,301.44,297.48,297.48,301.32,301.32,3.085035978
84,85.27541667,10.33766667,286.76,71.14153571,21.38431915,29.63921875,15.37735714,18.29795745,17.3825625,15.55168889,18.28678125,290.14,292.56,296.32,293.94,294.34,1.413429382
85,71.09445833,19.61114583,298.56,72.16317778,75.60248936,62.87814815,19.40504444,19.1562766,21.34755556,19.87463043,18.82614894,299.46,298.88,300.82,301.28,295.98,2.400810222
86,69.97782979,19.19357447,297.7,71.26557447,70.0825,72.1461875,19.65238298,20.41014583,20.33054167,20.8347234,24.71304255,298.4,300.28,298.34,300.8,302.52,3.188252051
87,77.23597917,17.60189583,298.42,76.46733333,74.93789362,72.71706667,17.411625,18.5682766,19.44153333,16.71435417,17.02420833,294.2,300.36,298.08,299.12,298.6,3.674834335
88,63.31419048,9.969761905,287.26,31.7895625,44.49225,38.36517391,12.389375,17.1471,13.34952174,6.320818182000001,9.189769231,285.84,289.48,287.16,283.16,282.74,2.6812608730000003
89,69.43691667,19.68877083,300.56,69.43691667,71.89216667,76.03710417,19.68877083,18.87041667,18.3804375,18.3804375,18.88212766,300.56,300.2,296.84,296.84,301.42,3.180594343
90,76.42185417,18.72372917,295.54,76.51372917,75.6249375,75.6249375,19.01216667,19.26120833,19.26120833,20.255375,21.34830435,300.14,299.14,299.14,302.0,300.62,3.049417975
91,68.847,21.5279375,302.96,68.847,56.11575,67.21180435,21.5279375,23.051,19.97595652,18.94752083,19.412,302.96,300.38,301.1,297.68,300.76,1.8468516940000002
92,40.455999999999996,8.097263157999999,284.48,71.08387234,80.888725,69.459325,15.63419149,15.386175,16.41525,18.713,18.713,288.42,294.26,297.88,296.52,296.52,2.864632131
93,60.90084444,21.8304,298.96,66.02039583,69.429125,73.241125,20.41179167,20.1418125,18.98054167,18.42861702,18.44420833,302.7,299.34,300.1,299.22,297.06,2.470653345
94,71.0824375,19.48460417,297.48,69.76889362,66.46804167,65.54322917,21.15614894,19.70010417,22.47870833,22.47870833,21.82993617,303.48,299.42,306.66,306.66,298.56,2.464536446
95,71.53057447,18.42861702,299.22,72.65422917,71.11252083,74.58729167,18.44420833,17.84133333,17.22654167,21.65161905,21.9319375,297.06,299.94,292.74,301.02,301.6,1.771748735
96,71.24025,19.6681875,295.12,55.79761702,62.0803125,62.0803125,24.9527234,22.6586875,22.6586875,19.68877083,19.68877083,307.56,301.24,301.24,300.56,300.56,3.278344113
97,69.57479167,21.74372917,303.24,73.73329167,68.2911875,53.01595833,20.0053125,17.80325,14.12483333,11.47217021,16.13514894,286.88,287.58,296.98,295.84,289.12,3.8722429710000004
98,63.88555319,22.44544681,303.24,72.08322917,71.21477083,72.42266667,18.1020625,16.9431875,16.53297917,18.08264583,22.398125,300.5,297.82,299.5,295.96,306.44,3.5661894710000004
99,70.972175,19.592175,301.62,66.72828571,62.18072727,64.98722222,19.86708571,18.92322727,20.40508889,20.794,16.81755263,296.22,299.98,302.5,303.78,299.98,3.2475439930000003
100,37.97048889,18.97451111,299.68,57.54229167,64.11097917,53.5986875,15.77189583,16.817375,16.416375,15.68225,15.68225,298.42,297.08,299.6,292.36,292.36,4.0520715339999995
101,72.95839583,18.65820833,300.24,74.790875,71.81213333,75.9645,18.4041875,18.43237778,16.17622917,18.33957447,19.43466667,302.3,295.34,296.8,298.58,298.6,3.930184207
102,67.95911905,19.42428571,298.96,55.34124,59.80165517,72.64115556,21.69196,20.69106897,19.418,20.0798125,22.49622581,297.7,298.28,297.32,298.06,299.98,2.203413276
103,59.4585625,15.4466875,293.24,48.02032558,28.7,28.7,16.93676744,16.55146154,16.55146154,15.75002083,17.44744681,297.52,296.18,296.18,296.16,296.46,2.805328585
104,72.97256818,18.58263636,298.24,73.66979167,71.41038298,64.93514583,17.37877083,18.98653191,21.03029167,21.03029167,19.78791892,301.22,298.68,305.0,305.0,302.86,4.160178701
105,54.51685106,14.32168085,297.28,65.42916667,55.92087805,55.92087805,11.43341667,17.31441463,17.31441463,18.59483333,12.37389286,293.16,287.8,287.8,292.54,284.44,3.7616900639999997
106,63.70865957,20.794,303.78,59.008,57.0805,65.41034043,16.81755263,18.6528913,20.60789362,22.95884615,21.57508696,299.98,298.82,304.1,304.9,296.62,3.924331795
107,64.89825,19.2085,301.94,60.21147917,59.91197917,59.91197917,22.95927083,20.61277083,20.61277083,21.17520833,23.20470833,306.2,299.56,299.56,303.5,302.56,2.901662635
108,71.291375,16.56852083,294.9,64.87839583,40.12969048,21.03216279,17.87741667,22.99616667,22.221418600000003,21.9288125,16.399,296.34,303.68,300.0,298.24,299.14,2.489854805
109,57.36991304,22.59073913,302.88,61.48876744,73.7855625,66.91520833,18.24974419,17.26202083,19.49504167,19.03343478,19.93095833,295.04,297.78,299.5,298.52,301.48,2.680017025
110,66.74541026,13.42646154,285.14,63.51483333,58.50465517,79.0325,13.10775,10.41958621,12.02476923,12.10433333,11.744639999999999,292.62,287.76,290.98,288.28,283.18,3.2174857460000004
111,41.51917021,23.17361702,302.78,41.51917021,46.4498125,54.2270625,23.17361702,23.1326875,22.202125,20.18585417,20.18585417,302.78,305.18,291.68,299.84,299.84,4.133043365
112,76.51372917,19.01216667,300.14,75.6249375,75.6249375,69.02058333,19.26120833,19.26120833,20.255375,21.34830435,21.49221739,299.14,299.14,302.0,300.62,302.1,3.280796857
113,60.22754167,19.4246875,297.72,61.15977083,56.12325,56.12325,18.72129167,18.342625,18.342625,17.4694,16.83929167,298.8,300.6,300.6,295.72,300.5,3.818846614
114,73.70308333,19.06877083,297.1,66.36455556,68.88720455,71.66331915,20.55680556,20.89284091,20.39902128,20.29410638,20.92695745,300.22,301.68,300.26,299.48,297.76,2.089624328
115,55.92087805,17.31441463,287.8,58.6387,67.37460714,67.37460714,18.59483333,12.37389286,12.37389286,14.82085106,15.88172727,292.54,284.44,284.44,292.04,292.5,3.9411455039999996
116,60.89655319,21.07280851,303.96,60.89655319,63.89147917,63.89147917,21.07280851,21.04008333,21.04008333,20.23722222,19.39991667,303.96,300.74,300.74,302.96,298.02,3.587509271
117,75.9645,16.17622917,296.8,68.48814894,70.76010417,72.816375,18.33957447,19.43466667,19.18766667,18.58263636,17.37877083,298.58,298.6,300.86,298.24,301.22,3.185901228
118,70.42423404,20.60955319,297.78,70.42423404,70.376375,70.74246809,20.60955319,20.70133333,19.78687234,19.6681875,24.9527234,297.78,298.32,300.3,295.12,307.56,3.7033155730000002
119,67.35219149,20.86887234,299.42,75.0949375,58.401612899999996,54.12293478,20.251375,22.51777419,21.74095652,24.66363636,24.66363636,299.02,300.56,301.32,304.5,304.5,1.69858968
120,57.54229167,15.77189583,298.42,64.11097917,53.5986875,58.95958333,16.817375,16.416375,15.68225,15.68225,16.3920625,297.08,299.6,292.36,292.36,293.56,3.061019494
121,31.21955263,16.28589474,292.28,24.06422222,36.08627273,54.11087179,20.30969444,18.30902273,18.89551282,18.197,16.90595556,294.86,294.32,297.74,298.34,297.14,1.1078593970000001
122,75.82183333,14.15153333,287.56,68.03443243,65.13872222,63.31419048,11.15194595,10.49172222,9.969761905,12.389375,17.1471,281.34,284.0,287.26,285.84,289.48,3.610040592
123,65.54322917,22.47870833,306.66,61.42336170000001,49.254875,63.47616667,21.82993617,24.262625,19.97916667,21.2024359,21.32584444,298.56,305.38,301.92,301.8,301.2,4.026265931
124,71.81213333,18.43237778,295.34,75.9645,68.48814894,70.76010417,16.17622917,18.33957447,19.43466667,19.18766667,18.58263636,296.8,298.58,298.6,300.86,298.24,3.915245852
125,52.833125,23.20470833,302.56,63.18508333,71.7591875,67.15899999999999,20.69729167,19.63514583,21.12802083,19.74675,20.36189362,300.92,302.9,298.12,302.04,302.58,3.71175483
126,55.85214583,24.20454167,301.9,59.063125,66.2130625,73.63835417,22.079375,19.92127083,18.88522917,19.4484375,21.74859574,303.92,301.38,297.58,295.16,305.82,3.158284229
127,71.58539583,16.399,299.14,73.31293478,67.24733333,27.92313043,15.353,15.69641667,20.45206522,24.67314706,20.35592308,296.82,302.54,296.62,301.76,300.42,2.888377353
128,74.34097917,18.17575,299.28,74.258875,74.258875,73.90791489,19.440375,19.440375,19.60661702,18.4639375,20.45416,297.64,297.64,302.82,299.74,297.9,3.277372073
129,29.28275,15.74525,284.14,25.52297368,39.10924,39.10924,15.38642105,14.70924,14.70924,10.33766667,15.37735714,291.8,287.56,287.56,286.76,290.14,1.8746842609999999
130,61.32572917,24.11529167,305.96,74.13610417,45.50579167,49.45625,22.23075,23.130125,21.38735417,19.940625,18.25297917,299.92,306.04,303.02,302.88,296.48,3.363390701
131,67.37460714,12.37389286,284.44,73.16142553,70.74036364,62.46039583,14.82085106,15.88172727,15.116375,15.02858065,14.58702941,292.04,292.5,296.36,295.52,290.92,3.3874124119999998
132,41.51917021,23.17361702,302.78,46.4498125,54.2270625,63.3815625,23.1326875,22.202125,20.18585417,20.18585417,18.0905,305.18,291.68,299.84,299.84,301.06,4.133043365
133,65.60283333,19.82654167,304.64,49.915375,46.33675,61.5240625,22.54839583,28.45102083,24.99335417,25.2621875,26.459,301.32,305.52,302.2,297.08,307.06,2.426450043
134,53.284625,15.20260417,297.26,46.43604167,46.87260417,47.81714583,14.50129167,18.26585417,20.59766667,18.4005625,16.1908125,298.36,299.22,302.88,297.36,300.5,2.7093078439999996
135,43.07742105,22.05344737,301.32,31.0379375,49.07947826,70.08025,17.77116667,13.79623913,14.7533,19.30946809,17.69175,292.64,291.48,292.18,297.96,296.32,4.825246196
136,47.60795652,20.08217391,305.74,47.06985714,67.65226190000001,77.966375,21.0902381,18.67640476,16.8275,24.15640426,22.44544681,298.88,303.32,299.0,304.98,303.24,3.7404161160000005
137,58.21129167,21.400625,301.68,60.45952083,64.15379167,66.71641667,23.2473125,20.28014583,19.596375,19.82654167,22.54839583,306.26,300.0,301.84,304.64,301.32,2.6681013630000003
138,65.56566667,19.89320833,299.72,65.56566667,52.8623125,55.85214583,19.89320833,24.06270833,24.20454167,24.20454167,22.079375,299.72,303.56,301.9,301.9,303.92,2.210116066
139,59.88165517,20.90462069,300.74,69.38191892,72.61583333,74.34097917,19.32210811,18.75452083,18.17575,19.440375,19.440375,305.1,295.64,299.28,297.64,297.64,1.792977732
140,69.0187619,20.21154762,302.42,69.28027083,73.57278723,73.83592683,18.63714583,17.01285106,17.30558537,17.02629545,17.02629545,296.64,299.58,299.9,294.18,294.18,3.013732521
141,59.91197917,20.61277083,299.56,59.91197917,60.75560417,52.833125,20.61277083,21.17520833,23.20470833,20.69729167,19.63514583,299.56,303.5,302.56,300.92,302.9,3.129737707
142,66.02039583,20.41179167,302.7,69.429125,73.241125,71.53057447,20.1418125,18.98054167,18.42861702,18.44420833,17.84133333,299.34,300.1,299.22,297.06,299.94,1.8490613130000002
143,75.0741,19.460825,301.16,69.13467568,69.13467568,59.88165517,20.68686486,20.68686486,20.90462069,19.32210811,18.75452083,302.2,302.2,300.74,305.1,295.64,3.522353742
144,73.7855625,17.26202083,297.78,66.91520833,73.70417391,68.63541667,19.49504167,19.03343478,19.93095833,20.62445652,20.29841667,299.5,298.52,301.48,299.58,302.0,1.663889884
145,78.39741304,17.75293478,296.28,75.73708333,76.20706383,74.92870833,18.26197917,17.99187234,17.240375,18.12429787,17.963,300.36,302.14,298.1,299.66,300.54,3.904767322
146,59.68997917,23.653125,305.86,70.5246875,66.79385417,68.12495833,18.55152083,18.3065,16.90625,17.44264583,19.57170833,295.08,295.8,297.34,300.04,303.5,3.337714175
147,67.41325,20.83404167,302.64,67.0553125,66.4294375,68.16441667,21.0638125,20.68966667,19.77379167,17.44883333,17.34697917,300.28,302.6,301.38,298.02,301.48,2.278047523
148,49.45625,21.38735417,303.02,49.68091667,53.62035417,56.39470833,19.940625,18.25297917,17.96308333,21.31672917,19.6470625,302.88,296.48,301.54,301.9,300.0,3.482153346
149,61.10710417,16.892125,297.92,60.0039375,43.07742105,31.0379375,17.04454167,22.05344737,17.77116667,13.79623913,14.7533,295.14,301.32,292.64,291.48,292.18,3.324482572
150,39.10924,14.70924,287.56,85.27541667,71.14153571,21.38431915,10.33766667,15.37735714,18.29795745,17.3825625,15.55168889,286.76,290.14,292.56,296.32,293.94,1.751320129
151,44.49225,17.1471,289.48,38.36517391,61.41139394,66.79753846,13.34952174,6.320818182000001,9.189769231,8.097263157999999,15.63419149,287.16,283.16,282.74,284.48,288.42,1.025263796
152,64.61620833,18.7871875,296.5,66.22641667,69.48985417,69.93920833,19.12454167,19.23727083,19.383375,19.79221277,19.19852083,297.18,298.24,297.72,297.98,295.12,1.7026994519999998
153,64.22395745,19.7137234,301.76,62.52877083,40.5837234,47.90148936,20.67097917,24.17997872,22.65308511,18.54276087,18.073,302.26,303.24,304.14,300.0,297.88,2.994107793
154,21.38431915,18.29795745,292.56,29.63921875,73.67775556,75.89809375,17.3825625,15.55168889,18.28678125,17.168,17.168,296.32,293.94,294.34,295.18,295.18,2.608252787
155,64.15379167,20.28014583,300.0,66.71641667,65.60283333,49.915375,19.596375,19.82654167,22.54839583,28.45102083,24.99335417,301.84,304.64,301.32,305.52,302.2,2.5202017480000003
156,75.0949375,20.251375,299.02,58.401612899999996,54.12293478,58.88954545,22.51777419,21.74095652,24.66363636,24.66363636,22.01030435,300.56,301.32,304.5,304.5,298.0,1.485001805
157,61.296625,21.07272917,298.72,63.90597917,64.492,69.979875,21.70716667,22.51575,17.51547917,17.51547917,18.76695745,300.52,300.04,295.74,295.74,299.48,3.2293253980000003
158,75.98406383,18.32151064,298.06,75.98406383,76.18241304,67.69333333,18.32151064,17.8168913,20.38808333,20.38808333,20.60952083,298.06,299.2,302.28,302.28,298.82,2.016325358
159,55.43889583,21.179375,300.48,49.34811364,49.34811364,47.41344681,20.86284091,20.86284091,21.28808511,21.99645714,19.592175,308.4,308.4,301.98,301.58,301.62,3.910285357
160,52.17285417,23.28239583,304.54,34.62577083,51.81991667,52.94865957,20.21577083,18.81729167,19.6097234,15.24227083,20.0565625,298.8,302.04,296.8,297.46,303.0,4.211655432
161,27.92313043,20.45206522,296.62,30.65047059,45.59784615,31.35115385,24.67314706,20.35592308,15.18689744,15.18689744,13.48541667,301.76,300.42,295.26,295.26,290.34,4.24436648
162,65.47397826,20.24582609,301.62,66.59804255,67.35219149,75.0949375,20.04151064,20.86887234,20.251375,22.51777419,21.74095652,297.42,299.42,299.02,300.56,301.32,1.655304915
163,73.83592683,17.30558537,299.9,69.43268182,69.43268182,65.83797143,17.02629545,17.02629545,19.33908571,18.82929268,17.520209299999998,294.18,294.18,305.0,300.22,300.12,3.862588795
164,68.6207234,19.30946809,297.96,74.01708333,69.246875,70.90639583,17.69175,18.59520833,18.82541667,18.51433333,18.37627083,296.32,299.94,296.66,298.36,295.14,1.5322336019999998
165,66.35164583,18.36839583,298.58,55.17893182,48.56425,52.6455,22.92995455,22.56829167,21.69927083,21.5891875,23.28239583,305.48,304.88,299.9,303.9,304.54,2.9429989589999996
166,69.53238298,18.82614894,295.98,69.53238298,73.86399999999999,73.86399999999999,18.82614894,18.30760417,18.30760417,18.99616667,18.99616667,295.98,300.12,300.12,297.24,297.24,2.345638891
167,72.80091489,17.73444681,299.1,75.5238125,71.10125,71.10125,16.87272917,19.07295833,19.07295833,21.179375,20.86284091,296.12,301.48,301.48,300.48,308.4,3.21057796
168,67.1078125,22.87047917,301.6,61.26841304,62.6535625,66.61934091,23.40306522,21.80964583,21.89211364,20.60955319,20.60955319,301.28,294.56,302.3,297.78,297.78,4.126961058
169,68.63541667,19.93095833,301.48,61.66410870000001,64.84954167,59.64622917,20.62445652,20.29841667,21.11620833,23.386,21.15629167,299.58,302.0,300.12,303.2,298.42,2.1420255569999997
170,59.67264583,19.6470625,300.0,47.60795652,47.06985714,67.65226190000001,20.08217391,21.0902381,18.67640476,16.8275,24.15640426,305.74,298.88,303.32,299.0,304.98,3.281582991
171,60.43411364,11.10545455,289.1,63.8943125,59.7773125,50.12477778,11.29777083,11.67689583,11.29738889,15.15905,12.41277143,293.28,290.78,291.26,289.9,288.02,2.9651233319999997
172,72.816375,19.18766667,300.86,72.97256818,73.66979167,71.41038298,18.58263636,17.37877083,18.98653191,21.03029167,21.03029167,298.24,301.22,298.68,305.0,305.0,4.018496533
173,70.19589362,20.29410638,299.48,70.85740426,71.94104348,54.55254762,20.92695745,21.515,24.04214286,19.5829,18.32151064,297.76,302.56,300.48,298.24,298.06,2.544212782
174,57.23797917,19.04589583,299.16,69.77871739,52.51654286,48.21636842,18.20273913,17.89197143,17.42436842,15.20260417,14.50129167,299.44,295.96,303.06,297.26,298.36,2.767826545
175,46.33675,28.45102083,305.52,61.5240625,58.25579167,55.7406875,24.99335417,25.2621875,26.459,27.0265,24.11529167,302.2,297.08,307.06,304.78,305.96,3.5386350139999996
176,69.76889362,21.15614894,303.48,66.46804167,65.54322917,65.54322917,19.70010417,22.47870833,22.47870833,21.82993617,24.262625,299.42,306.66,306.66,298.56,305.38,2.847429637
177,68.96072917,18.7783125,297.22,71.44733333,70.02054167,69.03539583,17.61472917,18.65883333,18.93970833,19.4466875,23.653125,299.0,297.12,301.34,301.18,305.86,2.489836475
178,36.263875,24.130375,309.3,37.92452083,45.5870625,54.16027083,24.290375,23.07114583,20.89420833,12.53774167,20.19912766,310.12,299.58,306.48,295.26,302.4,2.701999087
179,71.48315217,16.70391304,298.44,55.796276600000006,50.51525532,64.43554348,21.13931915,22.22780851,18.8538913,19.47697917,19.47697917,302.02,307.42,307.6,305.86,305.86,4.685965862
180,70.48570833,19.10102083,301.72,72.49873913,72.49873913,78.25345833,17.95971739,17.95971739,17.491125,21.38279167,21.38279167,306.26,306.26,298.32,306.7,306.7,7.439059802999999
181,58.46173913,21.45193478,305.16,66.54045652,66.54045652,57.80726087,19.75969565,19.75969565,17.89941304,17.44654348,20.9141087,304.26,304.26,303.82,304.62,309.8,7.545387524
182,66.20052083,20.7368125,306.84,68.59451064,68.59451064,68.59451064,19.66921277,19.66921277,19.66921277,17.82325532,19.24328261,305.4,305.4,305.4,306.14,301.02,7.260851575
183,66.54045652,19.75969565,304.26,57.80726087,64.14158696,58.82126087,17.89941304,17.44654348,20.9141087,18.85466667,18.85466667,303.82,304.62,309.8,307.18,307.18,6.751951588
184,61.87114894,22.29176596,311.92,67.30425,43.68239583,50.2402766,24.5733125,11.93341667,16.275,21.5645,24.20320833,304.76,293.9,298.54,298.96,309.62,7.019151186
185,65.78974468,17.11823404,306.18,66.18776596,66.93463829999999,69.48878723,15.4252766,14.71817021,14.57101277,14.57101277,16.19131915,303.2,300.98,305.22,305.22,300.68,2.783900923
186,51.91746809,10.59590426,288.38,70.66282979,75.83333333,69.66664583,7.588195745,16.896125,16.248875,16.70391304,21.13931915,286.24,296.8,296.28,298.44,302.02,2.8675228410000004
187,55.40854348,23.96880435,308.86,72.12493478,72.12493478,70.00895745,19.2476087,19.2476087,20.32655319,20.50165217,21.40591489,300.68,300.68,302.5,308.44,305.3,9.541737942000001
188,55.796276600000006,21.13931915,302.02,50.51525532,64.43554348,75.16825,22.22780851,18.8538913,19.47697917,19.47697917,20.18329787,307.42,307.6,305.86,305.86,302.04,7.233982912999999
189,64.43554348,18.8538913,307.6,75.16825,75.16825,73.01165957,19.47697917,19.47697917,20.18329787,20.4126383,16.1586383,305.86,305.86,302.04,307.0,301.58,6.359285207999999
190,76.78589129999999,17.73626087,299.98,75.48959574,71.22441667,67.07891667,18.06357447,18.65670833,19.11229167,23.16858333,17.42558696,302.28,298.48,301.06,304.5,305.98,5.30682803
191,46.7316087,21.05895652,310.18,43.73289583,57.99858333,57.99858333,19.69322917,18.22195833,18.22195833,18.12875,13.10645208,306.96,301.74,301.74,306.48,298.6,1.58898266
192,67.8797234,13.306823399999999,296.94,68.53215217,71.45189583,84.13358333,14.11014565,11.2620125,10.75581458,18.7543913,21.388,308.74,293.74,289.14,300.76,303.5,5.084178818
193,70.50660417,17.42683333,302.76,57.68414894,52.5229375,56.6713125,21.60757447,22.09254167,19.75395833,22.82934043,21.67878723,306.88,311.2,302.38,313.08,310.16,6.180855118999999
194,66.1438125,13.10645208,298.6,57.18308511,57.18308511,67.3818125,10.36705957,10.36705957,14.079375,14.079375,18.27391667,291.6,291.6,296.8,296.8,301.42,4.6796598860000005
195,42.85467391,21.80308696,307.2,39.51536957,55.0843125,46.7316087,23.10565217,18.30483333,21.05895652,19.69322917,18.22195833,306.26,301.8,310.18,306.96,301.74,3.6702475389999996
196,39.51536957,23.10565217,306.26,55.0843125,46.7316087,43.73289583,18.30483333,21.05895652,19.69322917,18.22195833,18.22195833,301.8,310.18,306.96,301.74,301.74,2.785716308
197,56.6713125,19.75395833,302.38,43.52591489,34.90810638,36.263875,22.82934043,21.67878723,24.130375,24.290375,23.07114583,313.08,310.16,309.3,310.12,299.58,2.292451406
198,68.59451064,19.66921277,305.4,68.59451064,68.59451064,71.80268085,19.66921277,19.66921277,17.82325532,19.24328261,23.96880435,305.4,305.4,306.14,301.02,308.86,7.476239217000001
199,68.6323913,17.07232609,299.56,67.47454348,72.64506383,69.23008511,19.61215217,18.05402128,18.83985106,17.73626087,18.06357447,302.84,298.38,303.92,299.98,302.28,4.0080494810000005
200,75.48959574,18.06357447,302.28,71.22441667,67.07891667,46.99939583,18.65670833,19.11229167,23.16858333,17.42558696,17.42683333,298.48,301.06,304.5,305.98,302.76,5.542137837
201,71.21730435,17.1595,300.56,58.46173913,66.54045652,66.54045652,21.45193478,19.75969565,19.75969565,17.89941304,17.44654348,305.16,304.26,304.26,303.82,304.62,6.733544652999999
202,67.07891667,19.11229167,301.06,46.99939583,61.77352174,70.50660417,23.16858333,17.42558696,17.42683333,21.60757447,22.09254167,304.5,305.98,302.76,306.88,311.2,6.170672347000001
203,57.99858333,18.22195833,301.74,57.99858333,66.05316667,66.1438125,18.22195833,18.12875,13.10645208,10.36705957,10.36705957,301.74,306.48,298.6,291.6,291.6,1.1349579440000002
204,65.66387234,20.19912766,302.4,61.851108700000005,61.851108700000005,46.26263043,20.95704348,20.95704348,14.16554348,17.47334783,16.32234783,299.7,299.7,303.54,306.78,308.28,4.928347469
205,64.14158696,17.44654348,304.62,58.82126087,63.87395833,63.87395833,20.9141087,18.85466667,18.85466667,18.85466667,21.05665957,309.8,307.18,307.18,307.18,303.64,6.842642726
206,67.06561702,16.1586383,301.58,68.74064583,76.93375,77.69989583,18.8295,18.20408333,17.5214375,19.31663043,19.31663043,302.62,304.34,301.94,304.74,304.74,6.061697657000001
207,43.52591489,22.82934043,313.08,34.90810638,36.263875,37.92452083,21.67878723,24.130375,24.290375,23.07114583,20.89420833,310.16,309.3,310.12,299.58,306.48,2.429678751
208,64.90280851,19.11653191,300.04,71.21730435,58.46173913,66.54045652,17.1595,21.45193478,19.75969565,19.75969565,17.89941304,300.56,305.16,304.26,304.26,303.82,6.788318117
209,63.87395833,18.85466667,307.18,63.87395833,54.33382979,60.14726087,18.85466667,21.05665957,18.69971739,17.11823404,15.4252766,307.18,303.64,302.5,306.18,303.2,4.145586538
210,73.55532609,18.55367391,302.62,69.33593478,66.20439583,66.20439583,19.49173913,18.799625,18.799625,21.10458333,20.7368125,303.82,303.76,303.76,306.02,306.84,6.689366962
211,61.851108700000005,20.95704348,299.7,61.851108700000005,46.26263043,51.21997826,20.95704348,14.16554348,17.47334783,16.32234783,21.06358696,299.7,303.54,306.78,308.28,307.54,6.3768529439999995
212,50.794125,21.38279167,306.7,50.794125,59.3819375,65.381875,21.38279167,19.75764583,18.68975,14.802025,14.73216667,306.7,308.94,302.44,302.78,304.22,7.896376845
213,31.03491667,21.97916667,299.4,51.91746809,70.66282979,75.83333333,10.59590426,7.588195745,16.896125,16.248875,16.70391304,288.38,286.24,296.8,296.28,298.44,2.430041159
214,63.87395833,18.85466667,307.18,54.33382979,60.14726087,65.78974468,21.05665957,18.69971739,17.11823404,15.4252766,14.71817021,303.64,302.5,306.18,303.2,300.98,4.145586538
215,72.12493478,19.2476087,300.68,70.00895745,66.0391087,56.65612766,20.32655319,20.50165217,21.40591489,19.8402766,20.76995652,302.5,308.44,305.3,305.08,307.9,7.070070249
216,69.66664583,16.248875,296.28,71.48315217,55.796276600000006,50.51525532,16.70391304,21.13931915,22.22780851,18.8538913,19.47697917,298.44,302.02,307.42,307.6,305.86,5.069171583999999
217,66.93463829999999,14.71817021,300.98,69.48878723,69.48878723,63.05659574,14.57101277,14.57101277,16.19131915,13.306823399999999,14.11014565,305.22,305.22,300.68,296.94,308.74,2.675627219
218,77.69989583,17.5214375,301.94,72.87026087,72.87026087,70.73275,19.31663043,19.31663043,18.57914583,17.83339583,18.4066875,304.74,304.74,301.54,303.42,300.12,5.956379438
219,58.82126087,20.9141087,309.8,63.87395833,63.87395833,63.87395833,18.85466667,18.85466667,18.85466667,21.05665957,18.69971739,307.18,307.18,307.18,303.64,302.5,7.365852534
220,59.66958333,14.24979167,293.1,51.780625,61.61625,59.79625,15.90645833,7.300833333,5.625833332999999,12.12374996,8.403826333,296.92,283.56,280.28,284.22,286.74,4.736862448
221,76.3975,9.722708333,287.08,45.628125,51.58354167,71.52375,14.35645833,11.68770833,5.058125,5.105416667,3.019375,292.14,290.48,281.6,281.36,278.26,4.298266762
222,74.30879158,2.733034731,276.32,71.92771543,72.81479775,76.41809985,15.98354167,14.52944445,12.56694445,15.06631946,7.651756957000001,295.88,291.42,289.58,288.52,287.28,1.505836142
223,78.05125,8.523541667,284.82,85.65625,61.60854167,63.40854167,8.679375,5.395416667,11.986875,9.008125,6.959166667000001,285.16,286.04,283.04,273.74,281.06,1.4827815969999998
224,71.52375,5.058125,281.6,59.31583333,70.64270833,70.64270833,5.105416667,3.019375,3.019375,1.64125,4.013333333,281.36,278.26,278.26,274.7,275.94,1.337852086
225,67.874375,8.083333332999999,285.2,78.496875,52.90041667,67.220625,12.12666667,10.103125,9.310208333,1.9702083330000002,9.511041667,284.64,286.84,285.82,282.0,292.4,2.280227408
226,80.619375,-1.9672916669999998,271.48,88.03083333,62.48979167,85.72666667,7.804583332999999,13.53458333,14.23916667,11.97020833,9.078541667,281.86,292.6,290.76,293.94,286.44,1.25494317
227,70.64270833,3.019375,278.26,70.64270833,79.799375,81.120625,3.019375,1.64125,4.013333333,7.071041667,7.071041667,278.26,274.7,275.94,280.18,280.18,1.77300846
228,74.353125,6.959166667000001,281.06,73.625625,57.16458333,57.16458333,12.01104167,16.60583333,16.60583333,20.38645833,14.37541667,289.82,294.24,294.24,300.5,292.5,1.4284746380000002
229,63.57833333,9.086666667000001,290.3,65.23416667,72.7575,82.418125,4.7925,1.1129166670000001,6.261458332999999,13.86166667,17.681875,279.32,276.36,284.26,291.96,300.58,1.3774455419999998
230,76.41809985,12.56694445,289.58,74.82173816,56.6494,64.16483333,15.06631946,7.651756957000001,5.760048599999999,6.1206111,3.052708342,288.52,287.28,279.04,285.08,279.42,4.121538392
231,65.13638044,3.2869167289999996,278.2,92.30306917,85.39543121,68.2255584,3.50877775,11.21951381,11.37673617,10.24920831,9.773055521,275.76,290.8,289.66,292.08,283.28,1.182765158
232,83.62284433,2.3889513890000003,276.54,74.30879158,71.92771543,72.81479775,2.733034731,15.98354167,14.52944445,12.56694445,15.06631946,276.32,295.88,291.42,289.58,288.52,1.1262253979999999
233,53.73281317,-4.942562562,268.96,80.91193083,90.03681942,72.80347213,17.42944448,10.74508348,13.19069446,17.03118061,11.19423612,292.6,284.32,287.24,293.34,293.36,1.3663017880000001
234,59.31583333,5.105416667,281.36,70.64270833,70.64270833,79.799375,3.019375,3.019375,1.64125,4.013333333,7.071041667,278.26,278.26,274.7,275.94,280.18,1.605059845
235,60.49333333,7.971458332999999,281.26,78.6825,77.548125,72.13395833,10.29083333,12.960625,15.874375,16.68416667,9.722708333,285.84,282.54,292.62,291.42,287.08,3.677972823
236,68.2255584,11.37673617,289.66,66.70090994,90.84250002,48.44722221,10.24920831,9.773055521,16.73736108,16.73736108,4.179854187,292.08,283.28,292.88,292.88,281.54,1.649291225
237,78.496875,12.12666667,284.64,52.90041667,67.220625,70.313125,10.103125,9.310208333,1.9702083330000002,9.511041667,6.950416667000001,286.84,285.82,282.0,292.4,278.58,1.218231861
238,92.30306917,3.50877775,275.76,85.39543121,68.2255584,66.70090994,11.21951381,11.37673617,10.24920831,9.773055521,16.73736108,290.8,289.66,292.08,283.28,292.88,1.51634014
239,85.97375,5.2175,279.22,78.05125,85.65625,61.60854167,8.523541667,8.679375,5.395416667,11.986875,9.008125,284.82,285.16,286.04,283.04,273.74,1.407266124
240,65.9125,17.32979167,292.62,65.9125,70.18,64.4328125,17.32979167,13.00635417,10.94797917,10.94797917,13.36170833,292.62,290.16,291.46,291.46,294.06,1.912320107
241,67.220625,9.310208333,285.82,70.313125,56.3875,65.47583333,1.9702083330000002,9.511041667,6.950416667000001,12.64520833,8.500416667,282.0,292.4,278.58,278.72,274.5,1.064791718
242,81.120625,4.013333333,275.94,50.58104167,50.58104167,85.97375,7.071041667,7.071041667,5.2175,8.523541667,8.679375,280.18,280.18,279.22,284.82,285.16,1.512625682
243,63.283125,4.847708333,278.4,60.710625,76.41104167,57.43583333,7.877083333,1.250625,17.285,7.273125,8.083333332999999,284.44,272.32,291.78,283.62,285.2,5.7629181460000005
244,82.418125,6.261458332999999,284.26,68.48541667,60.60375,59.66958333,13.86166667,17.681875,14.24979167,15.90645833,7.300833333,291.96,300.58,293.1,296.92,283.56,5.158839544
245,71.92771543,15.98354167,295.88,72.81479775,76.41809985,74.82173816,14.52944445,12.56694445,15.06631946,7.651756957000001,5.760048599999999,291.42,289.58,288.52,287.28,279.04,5.368312138
246,51.58354167,11.68770833,290.48,71.52375,59.31583333,70.64270833,5.058125,5.105416667,3.019375,3.019375,1.64125,281.6,281.36,278.26,278.26,274.7,3.0634688530000003
247,78.12895605,3.052708342,279.42,79.62880413,69.22645833,71.145,4.539250005,13.03791667,10.98125,17.32979167,17.32979167,275.88,288.5,285.28,292.62,292.62,1.324671552
248,72.7575,1.1129166670000001,276.36,82.418125,68.48541667,60.60375,6.261458332999999,13.86166667,17.681875,14.24979167,15.90645833,284.26,291.96,300.58,293.1,296.92,1.3683625019999999
249,33.9580625,18.5750625,304.26,33.9580625,40.3235625,40.48620833,18.5750625,14.7485625,21.52414583,15.150625,15.1598125,304.26,302.1,304.02,303.18,303.96,2.2186568540000002
250,42.81034043,24.91229787,313.28,60.2431875,72.50778723,41.76219149,19.49502083,4.369957447,18.61965957,18.61965957,25.116875,303.96,287.92,291.04,291.04,306.94,1.157801543
251,35.153125,35.2449375,320.2,41.88510417,42.39452083,44.89525,30.88616667,31.78991667,31.90064583,31.767875,28.77104167,320.02,315.44,318.98,314.72,317.16,2.019271309
252,42.91808333,28.77104167,317.16,43.20802083,45.56,54.24889362,32.00545833,30.91008333,30.60595745,32.14658333,23.75176596,315.16,316.46,312.8,314.6,310.16,1.036003351
253,50.39475,10.47502083,289.18,52.38226087,35.153125,41.88510417,30.25721739,35.2449375,30.88616667,31.78991667,31.90064583,316.54,320.2,320.02,315.44,318.98,6.454089038999999
254,43.20802083,32.00545833,315.16,45.56,54.24889362,33.170125,30.91008333,30.60595745,32.14658333,23.75176596,28.5253125,316.46,312.8,314.6,310.16,316.3,1.686194716
255,61.74460417,10.80995833,290.54,69.6979375,43.27416667,51.13170213,6.79275,16.44458333,25.20191489,28.80191489,30.48895833,287.88,297.02,311.56,314.38,317.18,1.500053263
256,75.66212766,20.74340426,306.1,83.1205,87.52310417,79.93436170000001,19.42334783,20.31172917,20.25089362,20.25089362,19.85964583,303.1,300.42,302.78,302.78,303.48,2.979626618
257,77.718125,25.116875,306.94,66.73151064,42.34541667,42.98416667,25.63340426,27.054375,28.1785625,26.11625,29.70041667,305.0,313.82,312.36,306.86,312.8,2.412129819
258,75.6260625,25.38770833,307.3,83.13229167,84.06208333,47.90219565,24.78083333,24.94708333,16.54673913,15.95597872,21.0042766,302.5,304.1,304.98,301.9,307.34,3.5263430039999997
259,51.13170213,25.20191489,311.56,67.5487234,50.0404375,37.01042553,28.80191489,30.48895833,33.59831915,33.11689583,34.23958333,314.38,317.18,319.1,319.72,320.64,1.1671175440000001
260,50.55087234,6.817042552999999,292.32,33.46466667,37.85859574,39.43897917,14.307375,11.21895745,9.400708332999999,10.47502083,30.25721739,295.78,297.32,293.32,289.18,316.54,1.21554813
261,70.87426087,21.5645,298.96,54.25977083,62.27210638,75.66212766,24.20320833,24.12189362,20.74340426,19.42334783,20.31172917,309.62,306.9,306.1,303.1,300.42,1.671198096
262,66.8965,28.8225,307.66,69.80814583,78.54342553,76.70597872,27.96397917,27.65255319,27.47723404,28.61257447,23.31354167,310.52,308.84,310.58,309.46,308.82,4.937059098
263,69.80814583,27.96397917,310.52,78.54342553,76.70597872,69.89319149,27.65255319,27.47723404,28.61257447,23.31354167,25.38770833,308.84,310.58,309.46,308.82,307.3,4.967390453999999
264,44.89525,31.90064583,318.98,39.34122917,42.91808333,42.91808333,31.767875,28.77104167,28.77104167,32.00545833,30.91008333,314.72,317.16,317.16,315.16,316.46,1.052903445
265,69.6979375,6.79275,287.88,43.27416667,51.13170213,67.5487234,16.44458333,25.20191489,28.80191489,30.48895833,33.59831915,297.02,311.56,314.38,317.18,319.1,1.493675156
266,47.90219565,16.54673913,304.98,58.29191489,56.36468085,35.96746809,15.95597872,21.0042766,19.23297872,12.91682979,24.05127083,301.9,307.34,304.7,300.0,311.96,1.280228176
267,39.43897917,9.400708332999999,293.32,50.39475,52.38226087,35.153125,10.47502083,30.25721739,35.2449375,30.88616667,31.78991667,289.18,316.54,320.2,320.02,315.44,1.259057783
268,42.95195745,15.11176596,302.48,65.76597872,61.74460417,69.6979375,8.589085106,10.80995833,6.79275,16.44458333,25.20191489,290.62,290.54,287.88,297.02,311.56,1.7847943990000001
269,79.93436170000001,20.25089362,302.78,79.93436170000001,85.227,50.55087234,20.25089362,19.85964583,6.817042552999999,14.307375,11.21895745,302.78,303.48,292.32,295.78,297.32,1.750527021
270,41.88510417,30.88616667,320.02,42.39452083,44.89525,39.34122917,31.78991667,31.90064583,31.767875,28.77104167,28.77104167,315.44,318.98,314.72,317.16,317.16,1.222219685
271,54.25977083,24.20320833,309.62,62.27210638,75.66212766,83.1205,24.12189362,20.74340426,19.42334783,20.31172917,20.25089362,306.9,306.1,303.1,300.42,302.78,1.681644739
272,63.14295745,25.46110638,306.18,37.405625,42.81034043,60.2431875,17.62122917,24.91229787,19.49502083,4.369957447,18.61965957,305.22,313.28,303.96,287.92,291.04,1.397267426
273,43.27416667,16.44458333,297.02,51.13170213,67.5487234,50.0404375,25.20191489,28.80191489,30.48895833,33.59831915,33.11689583,311.56,314.38,317.18,319.1,319.72,1.4124330369999998
274,42.91808333,28.77104167,317.16,42.91808333,43.20802083,45.56,28.77104167,32.00545833,30.91008333,30.60595745,32.14658333,317.16,315.16,316.46,312.8,314.6,1.036003351
275,60.92625,29.97625,313.58,61.41333333,68.4298125,69.939375,29.161875,28.869375,29.09020833,29.09020833,28.8225,312.38,309.8,314.16,314.16,307.66,3.492360989
276,35.96746809,19.23297872,304.7,49.23874468,24.3066875,42.95195745,12.91682979,24.05127083,15.11176596,8.589085106,10.80995833,300.0,311.96,302.48,290.62,290.54,2.6335192480000003
277,37.405625,17.62122917,305.22,42.81034043,60.2431875,72.50778723,24.91229787,19.49502083,4.369957447,18.61965957,18.61965957,313.28,303.96,287.92,291.04,291.04,1.2184645490000001
278,42.62380851,33.01676596,309.18,32.39490244,48.90621739,48.537075,35.91626829,35.064,34.9323,35.64844681,35.64844681,314.84,316.72,310.06,309.5,309.5,1.967276755
279,52.72565909,34.63540909,310.0,52.44334043,58.25125,61.83306522,34.33019149,33.37585417,34.04,33.95429787,33.76440909,310.3,314.06,308.28,313.18,309.72,3.0320398739999996
280,65.06448276,31.75448276,307.2,80.97928571,65.97368889,67.52115385,27.57275,30.39866667,29.94779487,30.17088636,29.57191489,303.22,307.96,304.02,309.06,303.94,8.726468335
281,56.56517778,30.64233333,309.28,56.56517778,54.86378261,58.04129787,30.64233333,29.90332609,29.27642553,28.14841667,25.88087805,309.28,308.96,308.16,304.8,295.02,5.619718877
282,38.66569767,33.2257907,314.2,38.66569767,44.46852083,58.2473125,33.2257907,32.81458333,31.02597917,32.23262791,30.97602174,314.2,315.34,310.8,305.34,303.14,4.341244813
283,52.57672917,25.93504167,303.74,75.94946667,75.94946667,66.40513158,29.82306667,29.82306667,32.11147368,33.21051163,33.95240426,304.64,304.64,310.18,309.0,305.2,4.692134311
284,52.23337209,17.18060465,299.3,52.23337209,45.64263043,60.5245,17.18060465,21.92073913,17.85906667,24.43643478,17.11,299.3,305.88,296.82,303.66,298.08,2.689211203
285,73.3814,33.0232,303.72,80.45952083,56.81684444,56.81684444,29.95772917,32.78308889,32.78308889,33.28359574,29.80952083,302.76,313.94,313.94,310.1,311.3,7.442900689
286,47.56202174,17.11,298.08,47.56202174,55.52038462,41.7345,17.11,12.72105128,17.9029,17.9029,8.958093023,298.08,297.04,295.12,295.12,288.62,2.079167037
287,63.46091667,27.51433333,303.54,52.78179167,55.70515217,64.44427083,30.36229167,31.03469565,28.7250625,30.51138298,33.2257907,309.94,307.48,304.52,302.94,314.2,3.506424758
288,58.25125,33.37585417,314.06,61.83306522,63.03621277,71.50568182,34.04,33.95429787,33.76440909,33.0232,29.95772917,308.28,313.18,309.72,303.72,302.76,3.528522694
289,65.86691667,26.98670833,302.52,67.7448125,63.46091667,52.78179167,27.22333333,27.51433333,30.36229167,31.03469565,28.7250625,302.56,303.54,309.94,307.48,304.52,3.070476222
290,72.87708333,31.61179167,304.28,78.58911364,72.91497917,74.47004348,28.419,31.14072917,29.7418913,29.78015217,26.15930435,300.84,302.5,304.76,304.94,307.08,6.196070944
291,56.97906667,26.46637778,304.74,66.4003125,71.61135,60.81352381,29.2268125,25.3778,27.7412381,26.46844444,19.89890476,304.12,297.4,304.06,298.14,300.82,7.103970841000001
292,38.66569767,33.2257907,314.2,44.46852083,58.2473125,60.57174419,32.81458333,31.02597917,32.23262791,30.97602174,30.64233333,315.34,310.8,305.34,303.14,309.28,4.341244813
293,77.76457143,30.26814286,301.18,71.83407317,80.16610870000001,70.42358696,33.659,29.79671739,27.02356522,25.73013043,31.49466667,308.22,301.12,301.64,304.8,306.98,4.416451894
294,48.90621739,35.064,316.72,48.537075,48.51461702,48.51461702,34.9323,35.64844681,35.64844681,34.91157447,34.63540909,310.06,309.5,309.5,314.86,310.0,3.977195407
295,58.013000000000005,11.37455882,288.74,56.343,56.343,65.41631915,12.6492,12.6492,15.35944681,21.81095455,25.29054348,289.9,289.9,296.38,301.06,302.84,1.258481537
296,68.1755,27.33295833,300.64,67.30364583,70.09641304,45.43163158,27.8788125,28.98436957,33.38797368,32.6846087,28.06519444,302.68,302.72,308.16,307.66,298.78,4.794735623999999
297,61.83306522,34.04,308.28,63.03621277,71.50568182,73.3814,33.95429787,33.76440909,33.0232,29.95772917,32.78308889,313.18,309.72,303.72,302.76,313.94,4.168662599
298,52.43264706,21.26226471,299.66,68.476,73.40280488,57.45495349,25.88912766,24.54985366,25.67813953,29.11730233,32.02863043,303.24,299.46,304.68,304.2,307.68,4.188553817
299,55.52038462,12.72105128,297.04,41.7345,41.7345,55.78565116,17.9029,17.9029,8.958093023,5.45184375,7.7129310339999995,295.12,295.12,288.62,281.68,281.36,3.701818835
300,71.16497368,29.53357895,302.56,71.23984091,72.21008889,66.14097727,31.85634091,30.3986,30.75470455,30.06217778,27.44048649,305.06,304.44,297.26,302.48,300.5,7.300460032
301,52.78179167,30.36229167,309.94,55.70515217,64.44427083,55.07504255,31.03469565,28.7250625,30.51138298,33.2257907,33.2257907,307.48,304.52,302.94,314.2,314.2,5.105445152
302,59.97593617,23.71157447,304.46,51.80417021,57.00192683,57.00192683,27.58202128,20.91673171,20.91673171,33.01676596,35.91626829,308.52,303.86,303.86,309.18,314.84,1.281081315
303,70.26759574,27.62006383,302.58,59.80417647,52.23337209,52.23337209,13.46811765,17.18060465,17.18060465,21.92073913,17.85906667,295.98,299.3,299.3,305.88,296.82,4.952113731
304,72.72136111,28.06519444,298.78,56.57329787,63.64870833,63.64870833,30.752276600000002,28.74929167,28.74929167,28.74929167,27.46527083,306.34,304.04,304.04,304.04,302.98,6.99834025
305,86.98335294,-8.516470587999999,265.1,63.66619444,73.03233333,77.61735714,16.61138889,28.64355556,24.79557143,24.31542857,26.1324878,299.22,304.22,292.84,306.48,306.4,2.153612098
306,76.67788235,28.07617647,301.46,75.77664516,65.06448276,80.97928571,30.88345161,31.75448276,27.57275,30.39866667,29.94779487,301.7,307.2,303.22,307.96,304.02,5.962903252
307,56.343,12.6492,289.9,65.41631915,42.01506818,68.76980435,15.35944681,21.81095455,25.29054348,22.2099375,27.453125,296.38,301.06,302.84,303.48,303.4,1.1906672090000001
308,55.58304167,28.14841667,304.8,56.40465854,31.46567442,42.37624242,25.88087805,7.533186047,7.528484848,9.724972222,11.32173333,295.02,282.98,282.26,285.76,285.46,6.462243334
309,64.44427083,28.7250625,304.52,55.07504255,38.66569767,38.66569767,30.51138298,33.2257907,33.2257907,32.81458333,31.02597917,302.94,314.2,314.2,315.34,310.8,4.213569464
310,54.86378261,29.90332609,308.96,58.04129787,55.58304167,56.40465854,29.27642553,28.14841667,25.88087805,7.533186047,7.528484848,308.16,304.8,295.02,282.98,282.26,6.092205382
311,73.76095833,29.80952083,311.3,85.40409677,80.90904545,75.62921212,28.68216129,26.12022727,21.80954545,28.07617647,30.88345161,302.8,302.08,301.86,301.46,301.7,4.860038205
312,67.4732,30.17495,302.74,76.50451064,73.62528889,71.16497368,29.02959574,26.82508889,29.53357895,31.85634091,30.3986,303.98,300.0,302.56,305.06,304.44,6.982548453
313,41.7345,17.9029,295.12,55.78565116,45.456,47.51848276,8.958093023,5.45184375,7.7129310339999995,11.75715217,12.632525,288.62,281.68,281.36,292.14,295.28,1.757841391
314,30.953559999999996,16.8608,294.0,52.43264706,68.476,73.40280488,21.26226471,25.88912766,24.54985366,25.67813953,29.11730233,299.66,303.24,299.46,304.68,304.2,5.013517668
315,74.36604167,26.94979167,303.96,59.60693478,56.97906667,66.4003125,29.51536957,26.46637778,29.2268125,25.3778,27.7412381,302.24,304.74,304.12,297.4,304.06,5.711322664
316,67.7448125,27.22333333,302.56,63.46091667,52.78179167,55.70515217,27.51433333,30.36229167,31.03469565,28.7250625,30.51138298,303.54,309.94,307.48,304.52,302.94,3.220836897
317,55.82952778,10.68897222,290.28,59.50075,59.50075,62.89886957,14.99278125,14.99278125,17.74976087,19.19747917,18.066625,290.98,290.98,295.4,298.78,296.22,1.440656691
318,65.21197826,25.73013043,304.8,73.58033333,71.45617391,72.87708333,31.49466667,29.74554348,31.61179167,28.419,31.14072917,306.98,302.16,304.28,300.84,302.5,5.653033023
319,51.80417021,27.58202128,308.52,57.00192683,57.00192683,42.62380851,20.91673171,20.91673171,33.01676596,35.91626829,35.064,303.86,303.86,309.18,314.84,316.72,1.352136407
320,61.5915625,27.453125,303.4,65.86691667,67.7448125,63.46091667,26.98670833,27.22333333,27.51433333,30.36229167,31.03469565,302.52,302.56,303.54,309.94,307.48,3.163364548
321,45.15860417,24.87789583,308.16,43.06558537,51.92572917,41.72634783,22.49902439,17.65070833,15.95047826,10.04743902,7.593152174,312.32,302.42,304.58,301.96,288.4,3.9245939410000004
322,56.81684444,32.78308889,313.94,61.28557447,73.76095833,85.40409677,33.28359574,29.80952083,28.68216129,26.12022727,21.80954545,310.1,311.3,302.8,302.08,301.86,5.712045302999999
323,58.31056818,27.10965909,302.38,55.47337209,55.73108511,51.58453333,27.06695349,21.73531915,21.83131111,19.5056,15.32889362,308.14,305.56,307.1,302.46,304.24,7.12518936
324,60.57174419,32.23262791,305.34,60.43723913,56.56517778,56.56517778,30.97602174,30.64233333,30.64233333,29.90332609,29.27642553,303.14,309.28,309.28,308.96,308.16,5.453176105
325,73.40280488,24.54985366,299.46,57.45495349,65.77213953,55.09065217,25.67813953,29.11730233,32.02863043,32.02863043,30.56606383,304.68,304.2,307.68,307.68,303.98,4.405633297
326,63.64870833,28.74929167,304.04,63.64870833,63.64870833,65.24422917,28.74929167,28.74929167,27.46527083,27.46527083,27.2020625,304.04,304.04,302.98,302.98,304.02,6.446965232999999
327,65.97368889,30.39866667,307.96,67.52115385,60.02263636,56.46265957,29.94779487,30.17088636,29.57191489,27.60905128,10.26920833,304.02,309.06,303.94,303.84,291.2,5.0712664610000004
328,45.456,5.45184375,281.68,47.51848276,57.57330435,56.709025,7.7129310339999995,11.75715217,12.632525,13.37532143,13.10302381,281.36,292.14,295.28,283.9,292.16,1.172767342
329,70.09641304,28.98436957,302.72,45.43163158,50.65693478,72.72136111,33.38797368,32.6846087,28.06519444,30.752276600000002,28.74929167,308.16,307.66,298.78,306.34,304.04,5.50214204
330,68.76980435,25.29054348,302.84,45.34877083,61.5915625,65.86691667,22.2099375,27.453125,26.98670833,27.22333333,27.51433333,303.48,303.4,302.52,302.56,303.54,2.369362136
331,65.47608696,29.76995652,303.64,74.36604167,59.60693478,56.97906667,26.94979167,29.51536957,26.46637778,29.2268125,25.3778,303.96,302.24,304.74,304.12,297.4,6.769057061
332,67.21942222,33.85431111,308.8,66.38878571,70.01687805,76.01297727,32.98878571,31.943243900000002,29.22511364,30.26814286,33.659,309.26,303.76,296.18,301.18,308.22,6.256922165
333,56.46265957,29.57191489,303.94,72.5544359,58.06785417,52.14337037,27.60905128,10.26920833,15.03603704,23.44213793,21.20470968,303.84,291.2,296.58,301.68,295.1,6.051400204
334,61.28557447,33.28359574,310.1,73.76095833,85.40409677,80.90904545,29.80952083,28.68216129,26.12022727,21.80954545,28.07617647,311.3,302.8,302.08,301.86,301.46,5.1613282069999995
335,72.6148125,30.630625,316.46,60.12397917,64.784375,58.58416667,29.62,29.231875,29.53272917,29.16064583,29.15583333,318.38,307.78,312.88,310.28,314.94,1.28072868
336,54.85875,25.17375,309.14,60.18083333,53.90270833,60.51958333,21.3166875,20.97666667,19.320625,14.49145833,24.484,305.2,306.6,307.42,296.1,294.0,1.205743117
337,68.41272917,28.13645833,308.54,57.53770833,49.59520833,60.32479167,29.02395833,27.874375,23.19270833,25.17375,21.3166875,305.4,310.12,311.82,309.14,305.2,4.197141793
338,72.718125,16.91229167,300.34,59.97770833,72.6148125,60.12397917,29.42833333,30.630625,29.62,29.231875,29.53272917,317.98,316.46,318.38,307.78,312.88,1.082093707
339,44.08645833,30.284375,314.56,68.41272917,57.53770833,49.59520833,28.13645833,29.02395833,27.874375,23.19270833,25.17375,308.54,305.4,310.12,311.82,309.14,2.278069757
340,77.610125,7.1094166670000005,287.84,70.22233333,72.7384375,36.68054167,13.00420833,5.8654375,33.11379167,30.49160417,30.05958333,290.82,285.8,322.02,317.66,308.46,1.117062614
341,72.7384375,5.8654375,285.8,36.68054167,49.97489583,56.34933333,33.11379167,30.49160417,30.05958333,28.48325,34.73402083,322.02,317.66,308.46,313.86,322.9,1.402461525
342,68.04354167,29.15583333,314.94,65.14354167,66.82645833,62.186875,28.75833333,28.24691667,28.94041667,28.50170833,29.023125,308.06,310.38,307.98,314.28,316.84,5.14170632
343,73.70002083,25.44916667,309.82,73.70002083,80.14775,49.3573125,25.44916667,25.393125,13.80022917,22.4654375,17.97645833,309.82,298.86,306.8,309.52,310.34,4.377689921
344,30.28825,18.81079167,305.1,38.60827083,37.91304167,36.464375,14.25164583,21.85652083,17.28141667,19.72670833,20.82295833,303.48,304.72,305.12,300.54,300.26,1.284052719
345,64.784375,29.231875,307.78,58.58416667,65.491875,68.04354167,29.53272917,29.16064583,29.15583333,28.75833333,28.24691667,312.88,310.28,314.94,308.06,310.38,3.830696647
346,80.17291667,19.705625,303.52,62.93220833,62.93220833,77.610125,17.32835417,17.32835417,7.1094166670000005,13.00420833,5.8654375,303.2,303.2,287.84,290.82,285.8,1.167318982
347,58.58416667,29.53272917,312.88,65.491875,68.04354167,65.14354167,29.16064583,29.15583333,28.75833333,28.24691667,28.94041667,310.28,314.94,308.06,310.38,307.98,4.316650074
348,60.18083333,21.3166875,305.2,53.90270833,60.51958333,65.05354167,20.97666667,19.320625,14.49145833,24.484,22.57578947,306.6,307.42,296.1,294.0,294.06,1.223662204
349,38.60827083,14.25164583,303.48,37.91304167,36.464375,53.92689583,21.85652083,17.28141667,19.72670833,20.82295833,4.31275,304.72,305.12,300.54,300.26,287.18,1.744612122
350,49.3573125,13.80022917,306.8,51.03797917,37.32729167,41.72666667,22.4654375,17.97645833,21.1366875,24.41416667,20.73375,309.52,310.34,314.12,307.02,306.96,1.112420813
351,53.92689583,19.72670833,300.54,69.01041667,70.33122917,59.45379167,20.82295833,4.31275,11.31058333,16.91229167,29.42833333,300.26,287.18,289.54,300.34,317.98,1.273696581
352,49.59520833,27.874375,310.12,60.32479167,54.85875,60.18083333,23.19270833,25.17375,21.3166875,20.97666667,19.320625,311.82,309.14,305.2,306.6,307.42,1.1998816079999999
353,52.79383333,28.48325,313.86,35.3031875,39.96547917,55.7830625,34.73402083,28.91964583,17.90433333,23.6311875,18.81079167,322.9,314.18,307.32,314.88,305.1,1.503412529
354,48.9365,23.6311875,314.88,30.28825,38.60827083,37.91304167,18.81079167,14.25164583,21.85652083,17.28141667,19.72670833,305.1,303.48,304.72,305.12,300.54,1.331882007
355,37.91304167,21.85652083,304.72,36.464375,53.92689583,69.01041667,17.28141667,19.72670833,20.82295833,4.31275,11.31058333,305.12,300.54,300.26,287.18,289.54,2.151654751
356,66.62027778,16.11336111,298.48,60.66545455,62.48820513,59.36488889,13.63431818,12.00661538,15.47957778,12.17073684,11.58932432,299.22,295.58,299.46,293.84,291.58,2.53635281
357,70.66958333,18.90710417,299.62,62.87775,67.0610625,64.55229167,19.055,17.62041667,19.0910625,19.0910625,19.51541667,300.18,298.94,299.7,299.7,301.62,4.642328109
358,53.39025532,14.14595745,301.02,54.55467442,54.66317073,44.70725,17.19744186,16.82292683,20.67361111,16.11673913,13.54621429,305.38,298.42,305.72,295.22,290.82,4.181534909
359,53.70276596,16.20044681,302.08,59.34597872,59.34597872,61.26975,15.8412766,15.8412766,16.21388889,25.09808333,22.18236842,301.9,301.9,302.38,314.74,312.86,2.369107803
360,41.18675676,11.58932432,291.58,37.27605263,49.2329375,50.87873913,10.15734211,10.5955,11.3316087,17.52333333,13.065,289.94,288.34,288.46,291.22,287.48,3.928818969
361,65.05208333,16.8954375,298.36,70.01479167,59.14608696,47.60675,16.83708333,19.1996087,21.86025,21.775,19.23590909,299.82,303.24,302.8,305.12,305.4,3.169557587
362,49.06229167,22.17020833,312.96,42.46106383,22.73911765,33.67435897,24.01489362,24.45823529,19.08028205,18.55744681,18.89777778,316.36,314.34,304.16,311.02,304.42,1.885642899
363,56.49547619,22.21285714,302.94,56.49547619,68.26208333,65.9375,22.21285714,19.63085417,20.59608333,20.59608333,19.1519375,302.94,301.2,303.5,303.5,303.18,3.3915555160000004
364,70.01479167,16.83708333,299.82,59.14608696,47.60675,45.905,19.1996087,21.86025,21.775,19.23590909,23.98532353,303.24,302.8,305.12,305.4,307.14,3.515444726
365,45.10928571,4.115607143,280.7,56.70133333,75.54807692,68.695,8.277333333,12.98115385,17.2335625,24.212,22.50619048,281.2,285.0,295.26,297.32,301.06,1.5373434780000002
366,69.18566667,14.40720513,294.08,66.62027778,66.62027778,60.66545455,16.11336111,16.11336111,13.63431818,12.00661538,15.47957778,298.48,298.48,299.22,295.58,299.46,3.6489043139999997
367,37.27605263,10.15734211,289.94,49.2329375,50.87873913,33.74666667,10.5955,11.3316087,17.52333333,13.065,12.76166667,288.34,288.46,291.22,287.48,285.2,3.3893923939999997
368,59.34597872,15.8412766,301.9,61.26975,36.34558333,45.82818421,16.21388889,25.09808333,22.18236842,18.77337778,25.0225,302.38,314.74,312.86,305.8,314.1,2.209093722
369,41.19066667,25.0225,314.1,37.69297297,37.24613636,43.56145833,26.58945946,23.43479545,22.3266875,22.17020833,24.01489362,311.54,314.62,303.94,312.96,316.36,2.536102241
370,52.87238095,22.50619048,301.06,70.66958333,62.87775,67.0610625,18.90710417,19.055,17.62041667,19.0910625,19.0910625,299.62,300.18,298.94,299.7,299.7,6.158112302
371,64.55229167,19.0910625,299.7,64.55229167,63.41835417,64.86416667,19.0910625,19.51541667,18.9685625,16.8954375,16.83708333,299.7,301.62,300.84,298.36,299.82,4.981701676
372,41.18675676,11.58932432,291.58,41.18675676,37.27605263,49.2329375,11.58932432,10.15734211,10.5955,11.3316087,17.52333333,291.58,289.94,288.34,288.46,291.22,3.928818969
373,50.87873913,11.3316087,288.46,33.74666667,45.174,31.66166667,17.52333333,13.065,12.76166667,11.36423077,11.00746875,291.22,287.48,285.2,284.4,285.8,3.768466782
374,59.34597872,15.8412766,301.9,59.34597872,61.26975,36.34558333,15.8412766,16.21388889,25.09808333,22.18236842,18.77337778,301.9,302.38,314.74,312.86,305.8,2.209093722
375,62.87775,19.055,300.18,67.0610625,64.55229167,64.55229167,17.62041667,19.0910625,19.0910625,19.51541667,18.9685625,298.94,299.7,299.7,301.62,300.84,5.092852872
376,45.3665,23.98532353,307.14,56.49547619,56.49547619,68.26208333,22.21285714,22.21285714,19.63085417,20.59608333,20.59608333,302.94,302.94,301.2,303.5,303.5,4.742170891000001
377,45.905,21.775,305.12,57.20431818,45.3665,56.49547619,19.23590909,23.98532353,22.21285714,22.21285714,19.63085417,305.4,307.14,302.94,302.94,301.2,3.609613247
378,22.73911765,24.45823529,314.34,33.67435897,47.55555319,48.41111111,19.08028205,18.55744681,18.89777778,17.65333333,17.65333333,304.16,311.02,304.42,311.16,311.16,2.837057597
379,64.86416667,18.9685625,300.84,65.05208333,70.01479167,59.14608696,16.8954375,16.83708333,19.1996087,21.86025,21.775,298.36,299.82,303.24,302.8,305.12,4.017663392
380,35.4547619,14.16657143,291.92,57.39,57.39,31.67076923,2.375571429,2.375571429,8.621076923,17.69857143,25.45083333,290.58,290.58,294.18,295.48,294.48,2.324686873
381,56.29,26.41,300.64,62.5125,56.705,56.705,23.8875,26.99,26.99,20.47,20.91,295.7,299.36,299.36,296.54,295.16,8.620296835
382,37.685,16.43,291.28,37.685,54.912,46.51,16.43,20.168,18.45,29.7,7.699,291.28,293.72,296.88,304.26,285.28,9.290204761
383,56.206,5.8728,285.38,42.65363636,48.06571429,70.948029,5.329,2.409714286,3.631360833,2.857916667,11.44916667,281.16,279.1,280.64,277.92,287.58,1.151472314
384,30.435,20.435,293.46,62.135,56.29,62.5125,23.725,26.41,23.8875,26.99,26.99,298.74,300.64,295.7,299.36,299.36,13.20514614
385,49.578,14.9635,293.26,56.32833333,59.46052632,55.801,29.15333333,27.72315789,23.7285,24.131,27.0447619,302.64,302.32,299.2,298.54,299.78,4.991731794
386,40.69,21.69,293.24,37.685,37.685,54.912,16.43,16.43,20.168,18.45,29.7,291.28,291.28,293.72,296.88,304.26,13.21644291
387,40.67473684,22.57578947,294.06,44.2545,49.578,56.32833333,19.9745,14.9635,29.15333333,27.72315789,23.7285,297.18,293.26,302.64,302.32,299.2,4.519146222
388,34.42888889,22.88777778,301.46,34.42888889,48.71052632,55.443000000000005,22.88777778,29.06368421,28.787,21.14611111,25.29157895,301.46,299.42,302.92,298.04,300.28,2.9842566880000003
389,42.89666667,10.06477778,300.7,41.83111111,45.00823529,26.29153846,10.93033333,13.79152941,17.71384615,6.406000000000001,9.346454545,289.96,296.56,293.84,287.94,293.26,2.647330496
390,58.08142857,31.97,306.78,37.38181818,43.24,43.24,30.39954545,27.69,27.69,29.3,19.5,309.5,303.04,303.04,303.0,292.4,10.75440628
391,54.8375,31.44166667,304.68,38.48681818,36.45238095,62.95115385,34.835,34.64333333,29.99653846,34.1984,34.1984,316.86,321.08,312.36,318.78,318.78,14.45886073
392,45.00823529,13.79152941,296.56,26.29153846,62.96,35.94545455,17.71384615,6.406000000000001,9.346454545,14.16657143,2.375571429,293.84,287.94,293.26,291.92,290.58,2.595630695
393,57.72541667,29.67375,316.44,35.06333333,35.06333333,34.1775,14.91,14.91,30.6175,23.24125,23.59863636,296.42,296.42,306.8,298.3,299.54,8.733863397999999
394,39.59,22.79,294.4,30.435,62.135,56.29,20.435,23.725,26.41,23.8875,26.99,293.46,298.74,300.64,295.7,299.36,14.82217494
395,44.7795,24.131,298.54,57.11190476,53.48526316,53.13857143,27.0447619,23.07736842,29.64285714,30.1047619,31.97,299.78,298.48,303.9,302.98,306.78,8.215290006
396,39.83642857,34.89785714,306.54,48.992,59.76333333,52.65944444,25.175,31.3852381,31.855,29.62,31.44166667,299.96,305.76,305.18,300.26,304.68,4.890132517
397,36.3915,18.2241,296.52,32.89736842,26.88444444,38.53,18.91578947,19.67222222,3.63175,5.8728,5.329,297.04,293.14,281.84,285.38,281.16,2.061874939
398,41.83111111,10.93033333,289.96,45.00823529,26.29153846,62.96,13.79152941,17.71384615,6.406000000000001,9.346454545,14.16657143,296.56,293.84,287.94,293.26,291.92,1.774428614
399,35.06333333,14.91,296.42,35.06333333,34.1775,64.575,14.91,30.6175,23.24125,23.59863636,27.355,296.42,306.8,298.3,299.54,303.02,1.362742621
400,47.061875,23.54375,300.4,47.061875,50.20399999999999,49.64157895,23.54375,10.226,24.28894737,20.24833333,24.46227273,300.4,297.2,305.22,305.3,305.66,12.3102883
401,40.9375,25.45083333,294.48,50.63416667,51.87333333,16.985,16.14583333,15.57733333,21.23666667,6.345272727,18.2241,288.96,291.8,296.02,290.16,296.52,6.0359938060000005
402,36.45238095,34.64333333,321.08,62.95115385,50.571999999999996,50.571999999999996,29.99653846,34.1984,34.1984,34.0216,34.69666667,312.36,318.78,318.78,315.32,315.42,14.24387743
403,58.08142857,31.97,306.78,58.08142857,37.38181818,43.24,31.97,30.39954545,27.69,27.69,29.3,306.78,309.5,303.04,303.04,303.0,10.75440628
404,64.575,23.24125,298.3,48.69909091,31.11,48.34473684,23.59863636,27.355,19.39,22.99434783,23.54375,299.54,303.02,301.32,298.34,300.4,5.04173011
405,25.99166667,20.24833333,305.3,31.86454545,31.35083333,19.99333333,24.46227273,20.74583333,25.0725,10.06477778,10.93033333,305.66,303.88,304.32,300.7,289.96,2.617297138
406,35.94545455,9.346454545,293.26,35.4547619,57.39,57.39,14.16657143,2.375571429,2.375571429,8.621076923,17.69857143,291.92,290.58,290.58,294.18,295.48,1.509367771
407,49.64157895,24.28894737,305.22,25.99166667,31.86454545,31.35083333,20.24833333,24.46227273,20.74583333,25.0725,10.06477778,305.3,305.66,303.88,304.32,300.7,1.7008065190000001
408,48.508,25.9385,301.1,48.508,47.67842105,50.86571429,25.9385,23.65263158,29.93714286,30.8995,32.58315789,301.1,300.62,302.24,303.32,309.1,4.976261429
409,57.39,2.375571429,290.58,31.67076923,36.67,40.9375,8.621076923,17.69857143,25.45083333,16.14583333,15.57733333,294.18,295.48,294.48,288.96,291.8,1.496324604
410,83.35,7.699,285.28,38.448,41.404375,53.57736842,23.331,17.993125,16.92578947,22.88777778,22.88777778,299.3,297.16,297.5,301.46,301.46,3.675662268
411,62.95115385,29.99653846,312.36,50.571999999999996,50.571999999999996,48.688,34.1984,34.1984,34.0216,34.69666667,32.5795,318.78,318.78,315.32,315.42,315.76,10.11501014
412,33.3088,37.1764,312.9,40.5204,44.73653846,48.217391299999996,35.7556,34.89346154,33.55521739,33.55521739,34.15538462,321.96,307.74,314.48,314.48,311.14,7.670462053
413,50.8755,25.7005,299.12,59.045238100000006,46.98904762,46.98904762,14.52690476,26.30904762,26.30904762,24.50380952,24.50380952,292.94,302.96,302.96,301.3,301.3,6.234291977000001
414,45.52210526,8.025105263,284.54,33.64,42.40647059,40.31764706,14.2394375,8.540823528999999,5.790058824,3.619588235,11.71242857,286.76,282.34,280.62,279.54,285.72,1.147707768
415,25.19166667,23.90166667,303.22,33.86222222,39.08052632,44.69727273,14.60055556,12.67247368,14.61022727,18.19444444,4.73225,298.86,292.84,295.7,293.1,287.9,5.461182396
416,67.96615385,9.933538462000001,283.96,62.71631579,58.24263158,69.55875,14.98578947,14.88421053,16.24125,25.87421053,23.4025,285.5,291.32,290.54,303.58,299.2,3.0351732869999997
417,57.665,3.238,289.2,39.69375,67.928,30.08944444,7.9925625,2.1972,6.5190555560000005,5.167736842,2.9523157889999996,291.58,291.42,282.36,282.18,278.8,2.317101381
418,42.40647059,8.540823528999999,282.34,40.31764706,53.47176471,51.04142857,5.790058824,3.619588235,11.71242857,11.45557143,12.23714286,280.62,279.54,285.72,285.24,285.28,1.89808881
419,47.4135,34.0565,298.8,49.90375,46.37,60.55888889,31.80125,32.74285714,30.3,11.97104167,-1.9672916669999998,310.28,315.48,310.26,288.7,271.48,13.81684295
420,62.71631579,14.98578947,285.5,58.24263158,69.55875,52.05473684,14.88421053,16.24125,25.87421053,23.4025,18.60529412,291.32,290.54,303.58,299.2,296.82,2.6193829180000003
421,68.15100000000001,21.273000000000003,298.12,50.8755,59.045238100000006,46.98904762,25.7005,14.52690476,26.30904762,26.30904762,24.50380952,299.12,292.94,302.96,302.96,301.3,4.041982282
422,55.32416667,10.52683333,281.54,43.59533333,67.96615385,62.71631579,-2.929933333,9.933538462000001,14.98578947,14.88421053,16.24125,275.82,283.96,285.5,291.32,290.54,2.093080042
423,47.88958333,34.56291667,306.92,54.11600000000001,55.75153846,61.56142857,32.2476,30.85230769,30.63,36.38958333,34.73217391,312.02,314.2,311.98,318.5,312.88,7.029761477999999
424,39.28296296,31.14777778,311.66,34.25916667,51.39388889,62.85777778,29.1075,27.14722222,29.69962963,18.773,25.85409091,305.38,305.0,307.94,296.56,300.18,9.415731922
425,39.45434783,17.90521739,296.86,59.27791667,46.42272727,50.28208333,22.68,18.65059091,14.46558333,14.46558333,26.49727273,298.42,293.44,290.92,290.92,304.04,5.299572671
426,39.45434783,17.90521739,296.86,39.45434783,59.27791667,46.42272727,17.90521739,22.68,18.65059091,14.46558333,14.46558333,296.86,298.42,293.44,290.92,290.92,5.299572671
427,46.243125,19.32125,296.16,58.6972,47.5452381,70.8295,16.1836,23.82904762,24.6685,27.49875,25.63826087,293.38,297.0,300.32,303.44,303.52,7.026508395
428,33.64,14.2394375,286.76,42.40647059,40.31764706,53.47176471,8.540823528999999,5.790058824,3.619588235,11.71242857,11.45557143,282.34,280.62,279.54,285.72,285.24,1.853328265
429,71.9888,23.0464,296.94,67.33090909,39.45434783,39.45434783,22.83318182,17.90521739,17.90521739,22.68,18.65059091,295.78,296.86,296.86,298.42,293.44,6.560638833
430,29.98666667,18.39625,295.48,32.53375,30.60086957,25.19166667,25.05833333,22.37,23.90166667,14.60055556,12.67247368,304.16,302.9,303.22,298.86,292.84,4.104471736
431,51.7148,33.6216,309.94,47.4135,49.90375,46.37,34.0565,31.80125,32.74285714,30.3,11.97104167,298.8,310.28,315.48,310.26,288.7,12.96554041
432,53.82647059,21.94823529,294.16,53.82647059,61.08636364,50.44894737,21.94823529,18.64540909,7.846842105,7.6285,13.5208,294.16,295.04,285.8,287.78,295.58,2.255408994
433,47.5452381,23.82904762,297.0,70.8295,63.4925,58.73,24.6685,27.49875,25.63826087,24.14352941,20.59695652,300.32,303.44,303.52,300.14,298.38,10.80615888
434,50.80428571,30.59333333,309.6,44.18590909,51.17347826,49.40545455,31.34409091,32.47478261,25.09863636,25.09863636,22.29545455,304.24,311.4,300.62,300.62,300.02,5.505749282000001
435,32.48571429,15.028761900000001,292.88,24.67153846,24.67153846,27.3475,13.55115385,13.55115385,10.99855,10.99855,20.75107143,290.78,290.78,290.16,290.16,294.42,4.0144493919999995
436,53.82647059,21.94823529,294.16,61.08636364,50.44894737,42.418,18.64540909,7.846842105,7.6285,13.5208,13.5208,295.04,285.8,287.78,295.58,295.58,2.255408994
437,55.83846154,27.09153846,307.1,54.91583333,46.243125,46.243125,16.73583333,19.32125,19.32125,16.1836,23.82904762,296.32,296.16,296.16,293.38,297.0,6.636279634
438,43.16705882,18.60529412,296.82,54.74,35.59052632,45.2935,16.97894737,23.00947368,29.9525,28.9695,21.273000000000003,297.02,301.42,297.98,302.24,298.12,3.812902288
439,74.035,27.745,316.98,47.677,62.44785714,48.97,32.008,30.4675,34.74346154,33.70130435,36.06083333,315.76,308.0,316.76,312.5,312.04,1.7819681969999999
440,54.44111111,27.796296299999998,306.02,55.83846154,54.91583333,46.243125,27.09153846,16.73583333,19.32125,19.32125,16.1836,307.1,296.32,296.16,296.16,293.38,6.537577527000001
441,55.83785714,11.45557143,285.24,22.65571429,25.94571429,43.90133333,12.23714286,8.758071429,7.770466667000001,10.52683333,-2.929933333,285.28,285.44,283.86,281.54,275.82,3.537470808
442,46.05346154,34.15538462,311.14,43.30192308,47.91,47.88958333,34.27384615,32.2,34.56291667,32.2476,30.85230769,312.56,308.78,306.92,312.02,314.2,8.300068237
443,43.30192308,34.27384615,312.56,47.91,47.88958333,54.11600000000001,32.2,34.56291667,32.2476,30.85230769,30.63,308.78,306.92,312.02,314.2,311.98,9.342262961
444,47.34166667,32.88833333,318.02,56.21909091,56.21909091,52.8925,30.80454545,30.80454545,30.35,34.345,31.45882353,310.08,310.08,308.38,312.46,303.62,3.483382715
445,61.08636364,18.64540909,295.04,50.44894737,42.418,18.77533333,7.846842105,7.6285,13.5208,13.5208,15.028761900000001,285.8,287.78,295.58,295.58,292.88,3.056786676
446,39.428000000000004,28.94133333,316.22,57.063125,54.93875,45.04210526,24.6575,30.98,31.67473684,31.67473684,29.44869565,309.08,309.86,314.1,314.1,310.9,6.2713003
447,30.70894737,15.96626316,296.46,32.78,57.665,39.69375,10.26063636,3.238,7.9925625,2.1972,6.5190555560000005,291.2,289.2,291.58,291.42,282.36,3.360411763
448,50.28208333,14.46558333,290.92,52.82227273,36.12818182,53.82647059,26.49727273,19.44772727,21.94823529,21.94823529,18.64540909,304.04,298.04,294.16,294.16,295.04,6.333635857999999
449,46.52666667,30.92958333,301.08,39.28296296,34.25916667,51.39388889,31.14777778,29.1075,27.14722222,29.69962963,18.773,311.66,305.38,305.0,307.94,296.56,7.8410331079999995
450,42.57380952,24.50380952,301.3,50.80428571,50.80428571,44.18590909,30.59333333,30.59333333,31.34409091,32.47478261,25.09863636,309.6,309.6,304.24,311.4,300.62,5.996501785
451,52.66466667,21.38933333,295.32,53.53454545,63.912,43.19428571,30.92545455,28.451999999999998,28.75285714,29.34058824,26.495,311.04,305.02,308.36,304.64,304.24,4.580983194
452,32.89375,19.85375,291.06,50.16555556,45.52210526,33.64,1.780611111,8.025105263,14.2394375,8.540823528999999,5.790058824,281.1,284.54,286.76,282.34,280.62,2.447612104
453,59.045238100000006,14.52690476,292.94,46.98904762,46.98904762,42.57380952,26.30904762,26.30904762,24.50380952,24.50380952,30.59333333,302.96,302.96,301.3,301.3,309.6,4.599876939
454,30.09941176,23.89294118,302.48,31.3715,30.10176471,30.50272727,21.8245,18.10647059,27.79363636,26.79529412,25.805238100000004,300.44,299.76,309.94,308.7,306.88,1.373088267
455,29.52294118,26.79529412,308.7,21.49428571,45.42210526,51.6975,25.805238100000004,29.67631579,23.1825,21.38933333,30.92545455,306.88,304.9,300.26,295.32,311.04,1.645362649
456,30.70894737,15.96626316,296.46,30.70894737,32.78,57.665,15.96626316,10.26063636,3.238,7.9925625,2.1972,296.46,291.2,289.2,291.58,291.42,3.360411763
457,60.55888889,30.3,310.26,54.55145833,80.619375,88.03083333,11.97104167,-1.9672916669999998,7.804583332999999,13.53458333,14.23916667,288.7,271.48,281.86,292.6,290.76,3.696794034
458,30.08944444,6.5190555560000005,282.36,45.55684211,49.74368421,46.24894737,5.167736842,2.9523157889999996,11.44631579,11.44631579,17.63458824,282.18,278.8,286.66,286.66,289.76,1.98037414
459,36.01176471,36.61294118,314.8,31.846,33.3088,40.5204,37.31,37.1764,35.7556,34.89346154,33.55521739,320.2,312.9,321.96,307.74,314.48,6.404510742
460,54.58217391,31.48130435,308.68,39.428000000000004,57.063125,54.93875,28.94133333,24.6575,30.98,31.67473684,31.67473684,316.22,309.08,309.86,314.1,314.1,9.182610511
461,59.1725,29.77625,307.02,59.1725,62.73130435,51.7148,29.77625,30.30695652,33.6216,34.0565,31.80125,307.02,306.26,309.94,298.8,310.28,10.70157127
462,27.3475,10.99855,290.16,52.22571429,51.81333333,39.98,20.75107143,16.2815,16.45770588,10.91466667,10.91466667,294.42,292.6,291.12,285.38,285.38,2.773053852
463,52.8925,30.35,308.38,34.72833333,55.34235294,37.235,34.345,31.45882353,36.88142857,33.9835,31.46083333,312.46,303.62,312.36,312.04,309.36,4.296123099
464,54.44111111,27.796296299999998,306.02,54.44111111,55.83846154,54.91583333,27.796296299999998,27.09153846,16.73583333,19.32125,19.32125,306.02,307.1,296.32,296.16,296.16,6.537577527000001
465,51.81333333,16.2815,292.6,39.98,41.93,41.93,16.45770588,10.91466667,10.91466667,19.85375,1.780611111,291.12,285.38,285.38,291.06,281.1,2.713810456
466,51.04142857,11.71242857,285.72,55.83785714,22.65571429,25.94571429,11.45557143,12.23714286,8.758071429,7.770466667000001,10.52683333,285.24,285.28,285.44,283.86,281.54,2.9042152060000004
467,39.98,16.45770588,291.12,41.93,41.93,32.89375,10.91466667,10.91466667,19.85375,1.780611111,8.025105263,285.38,285.38,291.06,281.1,284.54,3.3223123080000003
468,62.85777778,29.69962963,307.94,53.821000000000005,45.48363636,28.73375,18.773,25.85409091,19.99495833,18.39625,18.39625,296.56,300.18,302.4,295.48,295.48,8.637064871
469,59.34645833,7.255875,289.5,68.47354167,83.93333333,78.15291667,0.5299166670000001,4.1308125,0.651979167,1.65825,1.8906041669999998,279.1,277.16,274.58,274.08,276.8,2.57063869
470,78.15291667,0.651979167,274.58,74.74,75.64229167,83.93583333,1.65825,1.8906041669999998,13.15020833,13.15020833,9.965416667000001,274.08,276.8,290.22,290.22,287.54,1.137725877
471,83.93333333,4.1308125,277.16,78.15291667,74.74,75.64229167,0.651979167,1.65825,1.8906041669999998,13.15020833,13.15020833,274.58,274.08,276.8,290.22,290.22,2.316247224
472,68.98,11.08,287.84,80.9125,46.55,66.3173913,17.36875,12.62272727,9.139130435,23.0,2.34137931,293.38,292.08,284.2,291.46,279.44,2.118221781
473,47.47586207,2.34137931,279.44,60.65769231,67.76166667,63.545,7.680769231,10.72314583,0.809854167,7.3688125,7.858541667000001,282.92,289.94,277.88,278.56,280.06,1.850835835
474,40.95608,11.564,286.88,44.21005,68.98,80.9125,7.38,11.08,17.36875,12.62272727,9.139130435,283.84,287.84,293.38,292.08,284.2,3.9921515939999996
475,56.38186364,4.909090909,281.84,56.38186364,57.65714286,43.372,4.909090909,14.56190476,9.892000000000001,20.29583333,11.564,281.84,288.68,291.9,297.04,286.88,2.819543482
476,60.65769231,7.680769231,282.92,67.76166667,63.545,74.84729167,10.72314583,0.809854167,7.3688125,7.858541667000001,23.71157447,289.94,277.88,278.56,280.06,304.46,2.50754035
477,60.47291667,17.30833333,293.44,57.42916667,51.1375,51.31458333,12.6,21.28125,18.775,31.1,29.64166667,294.46,303.86,304.84,308.26,318.82,2.11346682
478,66.99791667,6.091666667,282.44,38.5875,55.05208333,53.89583333,6.202083332999999,29.63333333,27.84166667,29.58541667,20.79166667,280.44,307.28,311.54,309.96,304.18,1.954316283
479,49.6125,20.74791667,301.9,33.47291667,60.06041667,57.04375,18.64166667,16.54375,16.36458333,-4.220833333,5.764583332999999,299.74,299.1,298.94,277.92,292.46,1.865847425
480,52.74375,9.535416667,290.7,66.99791667,38.5875,55.05208333,6.091666667,6.202083332999999,29.63333333,27.84166667,29.58541667,282.44,280.44,307.28,311.54,309.96,1.289911789
481,68.925,6.5875,284.84,71.06875,47.98541667,60.47291667,19.82291667,12.05416667,17.30833333,12.6,21.28125,301.7,294.76,293.44,294.46,303.86,1.79968773
482,58.15208333,24.9125,305.84,59.3625,67.71041667,67.71041667,24.62083333,28.60416667,28.60416667,24.7625,21.54583333,302.4,307.74,307.74,302.38,302.42,3.2341858439999998
483,60.06041667,16.54375,299.1,57.04375,58.13125,72.73333333,16.36458333,-4.220833333,5.764583332999999,24.225,24.16041667,298.94,277.92,292.46,303.76,303.94,1.787016996
484,67.71041667,28.60416667,307.74,67.71041667,76.5,73.5875,28.60416667,24.7625,21.54583333,22.82083333,23.15416667,307.74,302.38,302.42,307.7,307.3,6.0180886010000005
485,60.11041667,16.12291667,291.28,46.0875,38.91666667,38.91666667,14.22083333,7.152083332999999,7.152083332999999,10.68958333,9.495833333,298.0,289.38,289.38,295.14,286.68,3.247535006
486,51.1375,21.28125,303.86,51.31458333,37.19791667,39.87291667,18.775,31.1,29.64166667,31.2676,31.67428571,304.84,308.26,318.82,309.86,306.0,2.1425537930000003
487,67.86875,3.74375,290.28,49.6125,33.47291667,60.06041667,20.74791667,18.64166667,16.54375,16.36458333,-4.220833333,301.9,299.74,299.1,298.94,277.92,1.601112301
488,38.5875,6.202083332999999,280.44,55.05208333,53.89583333,64.04166667,29.63333333,27.84166667,29.58541667,20.79166667,18.38125,307.28,311.54,309.96,304.18,299.28,1.88268052
489,33.47291667,18.64166667,299.74,60.06041667,57.04375,58.13125,16.54375,16.36458333,-4.220833333,5.764583332999999,24.225,299.1,298.94,277.92,292.46,303.76,2.21635126
490,55.05208333,29.63333333,307.28,53.89583333,64.04166667,70.975,27.84166667,29.58541667,20.79166667,18.38125,22.54375,311.54,309.96,304.18,299.28,304.16,3.40652584
491,64.9625,25.98333333,301.98,58.15208333,59.3625,67.71041667,24.9125,24.62083333,28.60416667,28.60416667,24.7625,305.84,302.4,307.74,307.74,302.38,2.706013342
492,39.87291667,29.64166667,318.82,52.1688,50.255,51.20444444,31.2676,31.67428571,30.78851852,29.9964,27.796296299999998,309.86,306.0,308.24,304.4,306.02,2.3190840109999997
493,50.40833333,15.73333333,298.02,44.05208333,54.86875,52.74375,7.402083332999999,15.73125,9.535416667,6.091666667,6.202083332999999,291.94,293.24,290.7,282.44,280.44,1.31608126
494,66.35208333,23.15416667,307.3,65.0125,50.40833333,44.05208333,20.68333333,15.73333333,7.402083332999999,15.73125,9.535416667,304.78,298.02,291.94,293.24,290.7,4.704665872
495,80.34395833,7.858541667000001,280.06,59.97593617,51.80417021,57.00192683,23.71157447,27.58202128,20.91673171,20.91673171,33.01676596,304.46,308.52,303.86,303.86,309.18,2.009880381
496,74.84729167,7.3688125,278.56,80.34395833,59.97593617,51.80417021,7.858541667000001,23.71157447,27.58202128,20.91673171,20.91673171,280.06,304.46,308.52,303.86,303.86,3.4614339430000003
497,75.23875,3.35175,284.94,30.9,31.0,49.9,18.71,21.21,8.21,8.21,17.3,295.72,295.28,287.88,287.88,292.7,1.008381169
498,77.1348,8.86156,293.34,15.8625,75.23875,30.9,9.285833333,3.35175,18.71,21.21,8.21,286.4,284.94,295.72,295.28,287.88,3.6086469610000003
499,74.51708333,11.44916667,287.58,74.51708333,87.816875,53.43666667,11.44916667,17.98270833,7.998958332999999,16.475,10.39333333,287.58,291.68,291.78,297.86,290.8,1.741457442
500,58.794375,9.147083333,289.3,63.64541667,71.23645833,73.61958333,7.94125,8.109166667,11.68541667,15.13427083,7.255875,278.8,285.48,288.3,293.74,289.5,1.897955181
501,43.71520833,16.475,297.86,41.18479167,45.57604167,46.30645833,10.39333333,9.758958332999999,10.07708333,7.1577083329999995,9.147083333,290.8,290.7,290.76,286.6,289.3,3.790701478
502,73.61958333,11.68541667,288.3,70.2446875,59.34645833,68.47354167,15.13427083,7.255875,0.5299166670000001,4.1308125,0.651979167,293.74,289.5,279.1,277.16,274.58,4.819920048
503,71.23645833,8.109166667,285.48,73.61958333,70.2446875,59.34645833,11.68541667,15.13427083,7.255875,0.5299166670000001,4.1308125,288.3,293.74,289.5,279.1,277.16,2.0210575769999997
504,63.87204545,15.04913636,304.82,60.11042553,64.29041667,68.42833333,14.69212766,13.33041667,13.025625,13.025625,14.64270833,303.96,302.76,299.18,299.18,302.0,2.648324331
505,33.29357143,28.69952381,315.0,54.09604167,57.70434783,61.68541667,19.50229167,20.7423913,19.404375,16.83361702,26.99,311.9,305.48,315.42,313.38,316.7,5.8138276289999995
506,54.09604167,19.50229167,311.9,57.70434783,61.68541667,67.36042553,20.7423913,19.404375,16.83361702,26.99,21.66,305.48,315.42,313.38,316.7,314.9,2.695980637
507,67.20625,9.922041667,292.68,55.35083333,55.35083333,44.56863636,10.38329167,10.38329167,6.842636364,4.468416667,5.987954545,292.78,292.78,287.54,284.84,290.28,3.246278105
508,70.61847826,14.01978261,300.6,63.87204545,63.87204545,60.11042553,15.04913636,15.04913636,14.69212766,13.33041667,13.025625,304.82,304.82,303.96,302.76,299.18,2.133126231
509,64.29041667,13.33041667,302.76,68.42833333,68.42833333,67.09729167,13.025625,13.025625,14.64270833,12.216,13.16047619,299.18,299.18,302.0,296.12,297.14,2.296765511
510,45.63083333,21.66,314.9,44.71145833,47.33680851,58.828,17.75125,20.51319149,18.32488889,19.42181818,22.14458333,308.0,310.36,314.26,312.02,314.74,1.446911518
511,47.43565217,8.655782609,286.38,75.16522727,29.40965517,29.40965517,20.00113636,17.80931034,17.80931034,14.1165,13.08421951,300.44,303.72,303.72,298.18,294.58,1.07275703
512,68.42833333,13.025625,299.18,68.42833333,67.09729167,64.2006383,13.025625,14.64270833,12.216,13.16047619,9.922041667,299.18,302.0,296.12,297.14,292.68,2.8032983280000003
513,52.88729167,22.89333333,299.8,70.795,59.05479167,65.27511111,18.76541667,21.9025,19.50888889,21.309375,28.69952381,306.16,307.7,313.08,304.72,315.0,6.377877007
514,67.09729167,14.64270833,302.0,64.2006383,62.61595238,67.20625,12.216,13.16047619,9.922041667,10.38329167,10.38329167,296.12,297.14,292.68,292.78,292.78,2.834679739
515,47.33680851,20.51319149,310.36,58.828,47.42545455,40.935625,18.32488889,19.42181818,22.14458333,22.14458333,20.56076923,314.26,312.02,314.74,314.74,310.34,1.3334509829999999
516,50.87228571,20.39171429,307.9,63.656875,70.61847826,63.87204545,15.29270833,14.01978261,15.04913636,15.04913636,14.69212766,303.98,300.6,304.82,304.82,303.96,3.414516648
517,55.35083333,10.38329167,292.78,44.56863636,54.35520833,70.07045455,6.842636364,4.468416667,5.987954545,9.4005625,9.0005,287.54,284.84,290.28,289.4,288.68,4.627511487
518,57.70434783,20.7423913,305.48,61.68541667,67.36042553,39.02028571,19.404375,16.83361702,26.99,21.66,17.75125,315.42,313.38,316.7,314.9,308.0,2.9041677089999998
519,59.93729167,22.27458333,303.04,54.14041667,56.59260870000001,52.88729167,22.63979167,21.435,22.89333333,22.89333333,18.76541667,302.36,303.48,299.8,299.8,306.16,6.5462200489999995
520,54.35520833,4.468416667,284.84,70.07045455,67.55541667,56.15625,5.987954545,9.4005625,9.0005,8.991270833,13.20844444,290.28,289.4,288.68,287.28,292.48,2.893212908
521,49.9,8.21,287.88,49.9,35.1,58.38416667,8.21,17.3,24.12733333,22.0960625,22.0960625,287.88,292.7,308.94,306.28,306.28,1.176754308
522,31.0,21.21,295.28,49.9,49.9,35.1,8.21,8.21,17.3,24.12733333,22.0960625,287.88,287.88,292.7,308.94,306.28,3.7968359169999997
523,70.22672917,13.36170833,294.06,52.6573125,52.6573125,55.50716667,13.77441667,13.77441667,0.5440625,3.7595416669999997,5.012729167,291.1,291.1,278.8,280.74,280.06,2.847928403
524,64.4328125,10.94797917,291.46,70.22672917,52.6573125,52.6573125,13.36170833,13.77441667,13.77441667,0.5440625,3.7595416669999997,294.06,291.1,291.1,278.8,280.74,2.279251855
525,52.6573125,13.77441667,291.1,52.6573125,55.50716667,80.1524375,13.77441667,0.5440625,3.7595416669999997,5.012729167,10.27360417,291.1,278.8,280.74,280.06,283.82,1.424591723
526,86.20363636,25.47409091,291.5,86.20363636,73.33081481,77.1348,25.47409091,7.12662963,8.86156,9.285833333,3.35175,291.5,288.36,293.34,286.4,284.94,1.535185695
527,70.948029,3.631360833,280.64,55.98958333,74.51708333,74.51708333,2.857916667,11.44916667,11.44916667,17.98270833,7.998958332999999,277.92,287.58,287.58,291.68,291.78,1.923411945
528,51.07541667,10.80416667,290.68,39.73891304,54.45291667,42.85467391,17.64567391,7.8125625,21.80308696,23.10565217,18.30483333,297.24,285.44,307.2,306.26,301.8,1.819504447
529,70.2446875,15.13427083,293.74,59.34645833,68.47354167,83.93333333,7.255875,0.5299166670000001,4.1308125,0.651979167,1.65825,289.5,279.1,277.16,274.58,274.08,1.506894046
