For param {'n_trees': 100, 'max_depth': 7, 'learning_rate': 0.1}
 *************************FOLDS Average***************************** 

Utility Based Metrics Across All
F1:  0.7538841406645073
F2:  0.7317007474478738
F05: 0.7842499676862852
precision:  0.810777084043736
recall: 0.7203647390913661

Regression Error Metrics Across All
R2: 0.3055698402157544
Adj-R2: 0.25752137262371766
RMSE: 1.7510804915978073
MSE: 3.0742197541555787
MAE: 1.2875478378203655
MAPE: 44.08861644009629
Accuracy: 55.91138355990371
AIC: 847.6123469679278
BIC: 847.6123469679278
NMI: 0.988192733623668

Correlations Across All
Pearson: 0.6352784743363394
Spearman: 0.6259744326433252
Distance: 0.36472152566366056
************************REPETITIONS Average*******************************

Utility Based Metrics Across All
F1:  0.7538841406645073
F2:  0.7317007474478738
F05: 0.7842499676862852
precision:  0.810777084043736
recall: 0.7203647390913661

Regression Error Metrics Across All
R2: 0.3055698402157544
Adj-R2: 0.25752137262371766
RMSE: 1.7510804915978073
MSE: 3.0742197541555787
MAE: 1.2875478378203655
MAPE: 44.08861644009629
Accuracy: 55.91138355990371
AIC: 847.6123469679278
BIC: 847.6123469679278
NMI: 0.988192733623668

Correlations Across All
Pearson: 0.6352784743363394
Spearman: 0.6259744326433252
Distance: 0.36472152566366056
For param {'n_trees': 100, 'max_depth': 6, 'learning_rate': 0.1}
 *************************FOLDS Average***************************** 

Utility Based Metrics Across All
F1:  0.6165533479033607
F2:  0.6028846314641987
F05: 0.6324790488438933
precision:  0.644640529990255
recall: 0.7168578926241309

Regression Error Metrics Across All
R2: 0.32140814460433687
Adj-R2: 0.2744552981798063
RMSE: 1.7341559966463975
MSE: 3.0212829037169495
MAE: 1.282057618552654
MAPE: 44.058502060958645
Accuracy: 55.941497939041355
AIC: 831.3235813257855
BIC: 831.3235813257855
NMI: 0.9825015823611443

Correlations Across All
Pearson: 0.6371846372654489
Spearman: 0.6259890775220043
Distance: 0.3628153627345512
************************REPETITIONS Average*******************************

Utility Based Metrics Across All
F1:  0.6165533479033607
F2:  0.6028846314641987
F05: 0.6324790488438933
precision:  0.644640529990255
recall: 0.7168578926241309

Regression Error Metrics Across All
R2: 0.32140814460433687
Adj-R2: 0.2744552981798063
RMSE: 1.7341559966463975
MSE: 3.0212829037169495
MAE: 1.282057618552654
MAPE: 44.058502060958645
Accuracy: 55.941497939041355
AIC: 831.3235813257855
BIC: 831.3235813257855
NMI: 0.9825015823611443

Correlations Across All
Pearson: 0.6371846372654489
Spearman: 0.6259890775220043
Distance: 0.3628153627345512
