,Month_1,Month_2,Month_3,Month_4,Vegetation_1,Vegetation_2,Vegetation_3,TA,TA-1,TA-2,TA-3,TA-4,TA-5,Site_0,Site_1,Site_2,Site_3,Site_4,Site_5,LE_bowen_corr_mm
0,0,1,1,1,0,1,0,29.22511364,30.26814286,33.659,29.79671739,27.02356522,25.73013043,0,0,0,1,1,0,5.415296349
1,1,0,0,1,0,1,0,27.51433333,30.36229167,31.03469565,28.7250625,30.51138298,33.2257907,0,0,0,1,1,0,3.506424758
2,0,1,1,0,0,1,0,33.28359574,29.80952083,28.68216129,26.12022727,21.80954545,28.07617647,0,0,0,1,1,0,5.1613282069999995
3,1,0,1,0,0,1,0,3.849307692,10.68897222,14.99278125,14.99278125,17.74976087,19.19747917,0,0,0,1,1,0,1.317698067
4,0,1,1,0,0,1,0,31.85634091,30.3986,30.75470455,30.06217778,27.44048649,27.10965909,0,0,0,1,1,0,6.669219302999999
5,1,0,0,1,0,1,0,27.22333333,27.51433333,30.36229167,31.03469565,28.7250625,30.51138298,0,0,0,1,1,0,3.220836897
6,0,0,1,1,0,1,0,19.97562791,3.849307692,10.68897222,14.99278125,14.99278125,17.74976087,0,0,0,1,1,0,1.0175126209999998
7,0,1,0,1,0,1,0,26.46844444,19.89890476,24.87789583,22.49902439,17.65070833,15.95047826,0,0,0,1,1,0,5.316999459
8,1,0,0,0,0,1,0,30.51138298,33.2257907,33.2257907,32.81458333,31.02597917,32.23262791,0,0,0,1,1,0,3.9354671469999998
9,1,0,1,0,0,1,0,12.632525,13.37532143,13.10302381,16.8608,21.26226471,25.88912766,0,0,0,1,1,0,2.445171396
10,0,1,1,1,0,1,0,30.64233333,30.64233333,29.90332609,29.27642553,28.14841667,25.88087805,0,0,0,1,1,0,5.619718877
11,0,1,1,1,0,1,0,27.02356522,25.73013043,31.49466667,29.74554348,31.61179167,28.419,0,0,0,1,1,0,5.516954489
12,1,0,0,0,0,1,0,32.23262791,30.97602174,30.64233333,30.64233333,29.90332609,29.27642553,0,0,0,1,1,0,5.453176105
13,0,1,1,1,0,1,0,34.33019149,33.37585417,34.04,33.95429787,33.76440909,33.0232,0,0,0,1,1,0,3.561968273
14,1,0,0,1,0,1,0,27.453125,26.98670833,27.22333333,27.51433333,30.36229167,31.03469565,0,0,0,1,1,0,3.163364548
15,0,1,1,0,0,1,0,30.17088636,29.57191489,27.60905128,10.26920833,15.03603704,23.44213793,0,0,0,1,1,0,5.198583181
16,1,0,0,0,0,1,0,33.21051163,33.95240426,33.85431111,32.98878571,31.943243900000002,29.22511364,0,0,0,1,1,0,6.346537249
17,0,1,1,1,0,1,0,34.63540909,34.33019149,33.37585417,34.04,33.95429787,33.76440909,0,0,0,1,1,0,3.0320398739999996
18,1,0,0,1,0,1,0,24.31542857,26.1324878,29.33465789,28.14395833,25.93504167,29.82306667,0,0,0,1,1,0,3.350701859
19,1,0,0,0,0,1,0,32.02863043,32.02863043,30.56606383,29.11825532,24.10748936,28.73457778,0,0,0,1,1,0,7.990891942999999
20,1,0,1,1,0,1,0,7.593152174,11.37455882,12.6492,12.6492,15.35944681,21.81095455,0,0,0,1,1,0,1.134538283
21,1,0,0,0,0,1,0,29.11825532,24.10748936,28.73457778,30.17495,29.02959574,26.82508889,0,0,0,1,1,0,5.547107523999999
22,0,1,0,1,0,1,0,21.73531915,21.83131111,19.5056,15.32889362,21.1481,24.21615789,0,0,0,1,1,0,3.573786296
23,0,1,0,1,0,1,0,10.04743902,7.593152174,11.37455882,12.6492,12.6492,15.35944681,0,0,0,1,1,0,2.9124727439999996
24,1,0,1,0,0,1,0,16.69793939,23.04378261,27.3715,27.33295833,27.8788125,28.98436957,0,0,0,1,1,0,3.775147291
25,1,0,1,0,0,1,0,13.37532143,13.10302381,16.8608,21.26226471,25.88912766,24.54985366,0,0,0,1,1,0,3.5977584680000003
26,0,1,0,0,0,1,0,10.26920833,15.03603704,23.44213793,21.20470968,20.90709375,10.304,0,0,0,1,1,0,1.9018343119999999
27,0,1,1,0,0,1,0,27.10965909,27.06695349,21.73531915,21.83131111,19.5056,15.32889362,0,0,0,1,1,0,7.12518936
28,0,1,1,0,0,1,0,29.78015217,26.15930435,27.62006383,13.46811765,17.18060465,17.18060465,0,0,0,1,1,0,5.584165839
29,1,0,1,0,0,1,0,14.99278125,14.99278125,17.74976087,19.19747917,18.066625,16.69793939,0,0,0,1,1,0,1.97293904
30,0,1,1,0,0,1,0,31.14072917,29.7418913,29.78015217,26.15930435,27.62006383,13.46811765,0,0,0,1,1,0,6.029642608
31,0,1,0,1,0,1,0,15.95047826,10.04743902,7.593152174,11.37455882,12.6492,12.6492,0,0,0,1,1,0,1.7267821909999999
32,0,1,1,1,0,1,0,33.37585417,34.04,33.95429787,33.76440909,33.0232,29.95772917,0,0,0,1,1,0,3.528522694
33,0,1,0,0,0,1,0,17.11,12.72105128,17.9029,17.9029,8.958093023,5.45184375,0,0,0,1,1,0,2.079167037
34,0,1,1,1,0,1,0,27.46527083,27.2020625,24.6684375,29.76995652,26.94979167,29.51536957,0,0,0,1,1,0,6.156765668999999
35,0,1,0,0,0,1,0,13.21593023,11.62835556,19.97562791,3.849307692,10.68897222,14.99278125,0,0,0,1,1,0,1.79826056
36,1,0,0,0,0,1,0,32.02863043,30.56606383,29.11825532,24.10748936,28.73457778,30.17495,0,0,0,1,1,0,7.990891942999999
37,1,0,0,1,0,1,0,26.1324878,29.33465789,28.14395833,25.93504167,29.82306667,29.82306667,0,0,0,1,1,0,4.162516415
38,0,1,1,0,0,1,0,29.2268125,25.3778,27.7412381,26.46844444,19.89890476,24.87789583,0,0,0,1,1,0,7.056761347
39,1,0,1,0,0,1,0,10.68897222,14.99278125,14.99278125,17.74976087,19.19747917,18.066625,0,0,0,1,1,0,1.440656691
40,0,1,1,1,0,1,0,30.64233333,29.90332609,29.27642553,28.14841667,25.88087805,7.533186047,0,0,0,1,1,0,5.619718877
41,1,0,0,0,0,1,0,33.95240426,33.85431111,32.98878571,31.943243900000002,29.22511364,30.26814286,0,0,0,1,1,0,6.053006702999999
42,1,0,0,0,0,1,0,33.2257907,32.81458333,31.02597917,32.23262791,30.97602174,30.64233333,0,0,0,1,1,0,4.341244813
43,0,1,1,1,0,1,0,28.74929167,28.74929167,28.74929167,27.46527083,27.46527083,27.2020625,0,0,0,1,1,0,6.446965232999999
44,0,0,1,1,0,1,0,21.20470968,20.90709375,10.304,-8.516470587999999,16.61138889,28.64355556,0,0,0,1,1,0,1.3527791319999998
45,0,1,1,0,0,1,0,28.419,31.14072917,29.7418913,29.78015217,26.15930435,27.62006383,0,0,0,1,1,0,5.801505855
46,1,0,0,0,0,1,0,28.14395833,25.93504167,29.82306667,29.82306667,32.11147368,33.21051163,0,0,0,1,1,0,4.215640563
47,1,0,0,0,0,1,0,33.38797368,32.6846087,28.06519444,30.752276600000002,28.74929167,28.74929167,0,0,0,1,1,0,8.840559075
48,0,1,0,0,0,1,0,24.43643478,17.11,17.11,12.72105128,17.9029,17.9029,0,0,0,1,1,0,2.1545036509999997
49,0,1,0,1,0,1,0,21.83131111,19.5056,15.32889362,21.1481,24.21615789,13.21593023,0,0,0,1,1,0,3.633438317
50,1,0,0,0,0,1,0,25.67813953,29.11730233,32.02863043,32.02863043,30.56606383,29.11825532,0,0,0,1,1,0,4.357095203
51,0,1,1,0,0,1,0,25.88087805,7.533186047,7.528484848,9.724972222,11.32173333,24.78397059,0,0,0,1,1,0,4.732079869
52,0,1,1,0,0,1,0,30.06217778,27.44048649,27.10965909,27.06695349,21.73531915,21.83131111,0,0,0,1,1,0,5.064159025
53,1,0,1,0,0,1,0,15.35944681,21.81095455,25.29054348,22.2099375,27.453125,26.98670833,0,0,0,1,1,0,1.22722681
54,0,1,1,1,0,1,0,28.73457778,30.17495,29.02959574,26.82508889,29.53357895,31.85634091,0,0,0,1,1,0,5.770409216
55,0,1,1,1,0,1,0,28.74929167,28.74929167,27.46527083,27.46527083,27.2020625,24.6684375,0,0,0,1,1,0,6.446965232999999
56,0,1,0,0,0,1,0,17.11,17.11,12.72105128,17.9029,17.9029,8.958093023,0,0,0,1,1,0,2.079167037
57,1,0,0,0,0,1,0,19.40504444,19.1562766,21.34755556,19.87463043,18.82614894,18.82614894,0,0,0,1,0,1,2.480148689
58,0,1,0,0,0,1,0,22.05344737,17.77116667,13.79623913,14.7533,19.30946809,17.69175,0,0,0,1,0,1,4.825246196
59,0,1,0,0,0,1,0,13.45655556,12.297761900000001,11.15808889,13.42646154,13.10775,10.41958621,0,0,0,1,0,1,2.5414018919999997
60,1,0,1,1,0,1,0,14.70924,14.70924,10.33766667,15.37735714,18.29795745,17.3825625,0,0,0,1,0,1,1.751320129
61,0,1,0,0,0,1,0,21.9288125,16.399,15.353,15.69641667,20.45206522,24.67314706,0,0,0,1,0,1,4.474700681
62,0,1,1,1,0,1,0,19.70010417,22.47870833,22.47870833,21.82993617,24.262625,19.97916667,0,0,0,1,0,1,3.2014936310000004
63,0,1,1,1,0,1,0,19.78791892,19.460825,20.68686486,20.68686486,20.90462069,19.32210811,0,0,0,1,0,1,3.36257988
64,1,0,0,1,0,1,0,18.37627083,17.85322727,16.49320833,16.49320833,17.02864583,18.7871875,0,0,0,1,0,1,1.5389488169999999
65,0,1,1,1,0,1,0,18.99616667,19.77608333,19.77608333,21.04602128,18.951,19.48460417,0,0,0,1,0,1,2.179740233
66,1,0,0,1,0,1,0,18.80754167,18.37241667,18.06425,20.09961702,22.59073913,18.24974419,0,0,0,1,0,1,1.817842877
67,0,1,1,0,0,1,0,18.55183333,18.55183333,20.46593617,20.46593617,21.00116667,17.5425625,0,0,0,1,0,1,2.7569862119999997
68,0,1,1,0,0,1,0,21.57508696,17.51575,19.46936364,20.21572917,21.70597917,21.74372917,0,0,0,1,0,1,4.839512828
69,0,1,1,1,0,1,0,24.9527234,22.6586875,22.6586875,19.68877083,19.68877083,18.87041667,0,0,0,1,0,1,4.5124151889999995
70,0,1,1,0,0,1,0,22.95884615,21.57508696,17.51575,19.46936364,20.21572917,21.70597917,0,0,0,1,0,1,6.233376151
71,1,0,0,0,0,1,0,19.87463043,18.82614894,18.82614894,18.30760417,18.30760417,18.99616667,0,0,0,1,0,1,2.676679573
72,0,1,1,0,0,1,0,21.28808511,21.99645714,19.592175,19.86708571,18.92322727,20.40508889,0,0,0,1,0,1,4.191510107
73,1,0,0,0,0,1,0,21.8304,20.41179167,20.1418125,18.98054167,18.42861702,18.44420833,0,0,0,1,0,1,2.470653345
74,0,1,1,1,0,1,0,17.73444681,16.87272917,19.07295833,19.07295833,21.179375,20.86284091,0,0,0,1,0,1,3.21057796
75,1,0,0,0,0,1,0,22.079375,19.92127083,18.88522917,19.4484375,21.74859574,21.6226875,0,0,0,1,0,1,2.95753281
76,0,1,1,1,0,1,0,20.60955319,20.60955319,20.70133333,19.78687234,19.6681875,24.9527234,0,0,0,1,0,1,3.7033155730000002
77,1,0,0,0,0,1,0,23.97413636,22.62219048,21.8304,20.41179167,20.1418125,18.98054167,0,0,0,1,0,1,2.063192209
78,0,1,0,1,0,1,0,14.44727083,13.89870968,13.89870968,12.05410345,11.61236842,13.936320000000002,0,0,0,1,0,1,4.211132118
79,1,0,0,1,0,1,0,21.92853846,20.24582609,20.04151064,20.86887234,20.251375,22.51777419,0,0,0,1,0,1,1.9944484340000002
80,1,0,0,0,0,1,0,24.71304255,21.91084783,20.42727083,19.03522917,19.72247917,20.13052083,0,0,0,1,0,1,4.515724745
81,0,1,0,0,0,1,0,15.69641667,20.45206522,24.67314706,20.35592308,15.18689744,15.18689744,0,0,0,1,0,1,2.846094149
82,1,0,0,0,0,1,0,19.01216667,19.26120833,19.26120833,20.255375,21.34830435,21.49221739,0,0,0,1,0,1,3.280796857
83,0,1,1,1,0,1,0,23.653125,18.55152083,18.3065,16.90625,17.44264583,19.57170833,0,0,0,1,0,1,3.337714175
84,0,1,0,0,0,1,0,13.79623913,14.7533,19.30946809,17.69175,18.59520833,18.82541667,0,0,0,1,0,1,4.548480072
85,0,1,0,0,0,1,0,20.35592308,15.18689744,15.18689744,13.48541667,11.923,14.71202083,0,0,0,1,0,1,4.64648464
86,0,1,0,1,0,1,0,17.4694,16.83929167,17.1697234,21.79817949,17.52381395,17.52381395,0,0,0,1,0,1,3.806790056
87,0,1,1,0,0,1,0,24.15640426,22.44544681,18.1020625,16.9431875,16.53297917,18.08264583,0,0,0,1,0,1,4.120710181000001
88,1,0,0,0,0,1,0,20.55680556,20.89284091,20.39902128,20.29410638,20.92695745,21.515,0,0,0,1,0,1,2.9567193030000003
89,0,1,1,1,0,1,0,28.45102083,24.99335417,25.2621875,26.459,27.0265,24.11529167,0,0,0,1,0,1,3.5386350139999996
90,0,1,1,0,0,1,0,19.7137234,20.67097917,24.17997872,22.65308511,18.54276087,18.073,0,0,0,1,0,1,2.994107793
91,0,1,1,1,0,1,0,22.6586875,19.68877083,19.68877083,18.87041667,18.3804375,18.3804375,0,0,0,1,0,1,3.7556789569999998
92,0,1,1,1,0,1,0,17.34697917,19.86760417,21.27779167,19.2459375,19.2459375,18.57538298,0,0,0,1,0,1,2.2028342469999997
93,0,1,0,1,0,1,0,18.0905,18.97451111,15.77189583,16.817375,16.416375,15.68225,0,0,0,1,0,1,2.781866742
94,0,1,0,0,0,1,0,20.45206522,24.67314706,20.35592308,15.18689744,15.18689744,13.48541667,0,0,0,1,0,1,4.24436648
95,1,0,0,1,0,1,0,17.52755263,17.52755263,19.34080435,20.21154762,18.63714583,17.01285106,0,0,0,1,0,1,3.7611347060000004
96,1,0,1,0,0,1,0,15.55168889,18.28678125,17.168,17.168,21.45163636,18.49084444,0,0,0,1,0,1,1.239429965
97,0,1,1,1,0,1,0,18.93970833,19.4466875,23.653125,18.55152083,18.3065,16.90625,0,0,0,1,0,1,2.656657516
98,0,0,1,0,0,1,0,9.969761905,12.389375,17.1471,13.34952174,6.320818182000001,9.189769231,0,0,0,1,0,1,2.6812608730000003
99,0,1,1,0,0,1,0,22.398125,22.03158333,18.91970833,19.04589583,18.20273913,17.89197143,0,0,0,1,0,1,3.286795402
100,1,0,0,1,0,1,0,17.02629545,17.02629545,19.33908571,18.82929268,17.520209299999998,17.45225,0,0,0,1,0,1,3.794083548
101,0,1,0,1,0,1,0,16.55146154,16.55146154,15.75002083,17.44744681,19.2377,16.96123404,0,0,0,1,0,1,4.961468725
102,0,1,0,1,0,1,0,14.86282979,16.16579167,19.62667391,18.01210417,21.02071429,18.34975,0,0,0,1,0,1,3.5080372860000004
103,0,1,0,1,0,1,0,17.52381395,14.86282979,16.16579167,19.62667391,18.01210417,21.02071429,0,0,0,1,0,1,5.155402906
104,1,0,0,0,0,1,0,20.13052083,18.72372917,19.01216667,19.26120833,19.26120833,20.255375,0,0,0,1,0,1,3.48836803
105,1,0,1,1,0,1,0,15.37735714,18.29795745,17.3825625,15.55168889,18.28678125,17.168,0,0,0,1,0,1,1.192792206
106,1,0,0,0,0,1,0,24.06270833,24.20454167,24.20454167,22.079375,19.92127083,18.88522917,0,0,0,1,0,1,3.0400946010000003
107,1,0,0,1,0,1,0,22.51575,17.51547917,17.51547917,18.76695745,19.19357447,19.65238298,0,0,0,1,0,1,3.467792256
108,0,1,1,1,0,1,0,21.15614894,19.70010417,22.47870833,22.47870833,21.82993617,24.262625,0,0,0,1,0,1,2.847429637
109,0,1,0,1,0,1,0,16.1908125,18.26522727,20.7266875,20.62666667,20.62666667,20.323125,0,0,0,1,0,1,2.631110094
110,1,0,1,0,0,1,0,15.386175,16.41525,18.713,18.713,17.52755263,17.52755263,0,0,0,1,0,1,2.032074076
111,0,1,1,0,0,1,0,23.130125,21.38735417,19.940625,18.25297917,17.96308333,21.31672917,0,0,0,1,0,1,3.7473426830000003
112,0,1,0,1,0,1,0,13.89870968,13.89870968,12.05410345,11.61236842,13.936320000000002,13.45655556,0,0,0,1,0,1,4.483893346
113,0,1,1,1,0,1,0,18.65883333,18.93970833,19.4466875,23.653125,18.55152083,18.3065,0,0,0,1,0,1,2.586969241
114,0,1,1,1,0,1,0,20.68686486,20.90462069,19.32210811,18.75452083,18.17575,19.440375,0,0,0,1,0,1,3.466747916
115,1,0,0,0,0,1,0,20.62445652,20.29841667,21.11620833,23.386,21.15629167,20.1445625,0,0,0,1,0,1,2.406436399
116,0,1,1,0,0,1,0,20.0565625,22.07861702,22.860875,16.00908696,14.46102174,17.46914583,0,0,0,1,0,1,4.122580247
117,1,0,0,0,0,1,0,21.65161905,21.9319375,23.21439583,19.496125,20.83404167,21.0638125,0,0,0,1,0,1,2.007394548
118,1,0,0,0,0,1,0,17.9125,17.95080435,17.6525,19.274125,17.60189583,17.411625,0,0,0,1,0,1,3.637978439
119,1,0,0,0,0,1,0,17.26202083,19.49504167,19.03343478,19.93095833,20.62445652,20.29841667,0,0,0,1,0,1,1.663889884
120,0,1,1,1,0,1,0,21.07280851,21.07280851,21.04008333,21.04008333,20.23722222,19.39991667,0,0,0,1,0,1,3.587509271
121,0,1,1,1,0,1,0,19.496125,20.83404167,21.0638125,20.68966667,19.77379167,17.44883333,0,0,0,1,0,1,2.282780152
122,0,1,0,0,0,1,0,11.15808889,13.42646154,13.10775,10.41958621,12.02476923,12.10433333,0,0,0,1,0,1,2.3836567459999998
123,0,0,1,1,0,1,0,16.00267857,14.31333333,18.51,18.51,9.186454545,9.975883721,0,0,0,1,0,1,5.055372226999999
124,0,1,0,0,0,1,0,11.61236842,13.936320000000002,13.45655556,12.297761900000001,11.15808889,13.42646154,0,0,0,1,0,1,2.614468407
125,1,0,0,1,0,1,0,20.24582609,20.04151064,20.86887234,20.251375,22.51777419,21.74095652,0,0,0,1,0,1,1.655304915
126,0,1,1,0,0,1,0,27.0265,24.11529167,24.11529167,22.23075,23.130125,21.38735417,0,0,0,1,0,1,3.6457118889999998
127,0,1,0,1,0,1,0,18.342625,17.4694,16.83929167,17.1697234,21.79817949,17.52381395,0,0,0,1,0,1,4.006866155
128,0,0,1,1,0,1,0,14.62607143,13.53323684,12.30362162,16.28589474,20.30969444,18.30902273,0,0,0,1,0,1,3.1836245969999997
129,0,1,1,1,0,1,0,23.20470833,20.69729167,19.63514583,21.12802083,19.74675,20.36189362,0,0,0,1,0,1,3.71175483
130,0,1,0,0,0,1,0,11.10545455,11.29777083,11.67689583,11.29738889,15.15905,12.41277143,0,0,0,1,0,1,2.9651233319999997
131,1,0,0,0,0,1,0,20.38808333,20.38808333,20.60952083,22.70528889,21.54365217,21.03918605,0,0,0,1,0,1,2.443595798
132,0,1,0,0,0,1,0,21.04814286,14.62607143,13.53323684,12.30362162,16.28589474,20.30969444,0,0,0,1,0,1,2.403499034
133,0,1,1,1,0,1,0,20.83404167,21.0638125,20.68966667,19.77379167,17.44883333,17.34697917,0,0,0,1,0,1,2.278047523
134,0,1,1,1,0,1,0,22.52164583,21.07280851,21.07280851,21.04008333,21.04008333,20.23722222,0,0,0,1,0,1,3.715999568
135,1,0,0,1,0,1,0,16.90595556,19.79259091,19.70734783,20.42907143,21.92853846,20.24582609,0,0,0,1,0,1,2.106718393
136,1,0,0,1,0,1,0,17.51547917,18.76695745,19.19357447,19.65238298,20.41014583,20.33054167,0,0,0,1,0,1,2.890298959
137,0,1,1,0,0,1,0,22.23075,23.130125,21.38735417,19.940625,18.25297917,17.96308333,0,0,0,1,0,1,3.170049742
138,0,1,1,1,0,1,0,21.179375,20.86284091,20.86284091,21.28808511,21.99645714,19.592175,0,0,0,1,0,1,3.910285357
139,0,1,0,0,0,1,0,12.36895556,11.599,11.10545455,11.29777083,11.67689583,11.29738889,0,0,0,1,0,1,4.439867745
140,1,0,0,0,0,1,0,23.8029375,22.44963043,22.87047917,23.40306522,21.80964583,21.89211364,0,0,0,1,0,1,4.556657432
141,1,0,0,0,0,1,0,17.60189583,17.411625,18.5682766,19.44153333,16.71435417,17.02420833,0,0,0,1,0,1,3.674834335
142,1,0,0,0,0,1,0,20.96060417,19.61114583,19.40504444,19.1562766,21.34755556,19.87463043,0,0,0,1,0,1,2.818355678
143,0,1,1,0,0,1,0,16.64977083,16.64977083,20.8596875,23.17361702,23.17361702,23.1326875,0,0,0,1,0,1,2.5700750930000003
144,0,1,1,0,0,1,0,18.1020625,16.9431875,16.53297917,18.08264583,22.398125,22.03158333,0,0,0,1,0,1,2.41699761
145,0,1,1,1,0,1,0,21.55208511,22.52164583,21.07280851,21.07280851,21.04008333,21.04008333,0,0,0,1,0,1,3.4549323530000002
146,0,1,1,1,0,1,0,19.18766667,18.58263636,17.37877083,18.98653191,21.03029167,21.03029167,0,0,0,1,0,1,4.018496533
147,0,0,0,1,0,1,0,15.74525,15.38642105,14.70924,14.70924,10.33766667,15.37735714,0,0,0,1,0,1,1.8746842609999999
148,0,1,0,1,0,1,0,19.04589583,18.20273913,17.89197143,17.42436842,15.20260417,14.50129167,0,0,0,1,0,1,2.767826545
149,0,1,1,1,0,1,0,19.2459375,18.57538298,21.400625,23.2473125,20.28014583,19.596375,0,0,0,1,0,1,2.2206357469999998
150,0,1,1,1,0,1,0,18.57538298,21.400625,23.2473125,20.28014583,19.596375,19.82654167,0,0,0,1,0,1,1.9796638130000002
151,0,1,1,0,0,1,0,22.92995455,22.56829167,21.69927083,21.5891875,23.28239583,20.21577083,0,0,0,1,0,1,3.990401502
152,0,1,1,1,0,1,0,22.54839583,28.45102083,24.99335417,25.2621875,26.459,27.0265,0,0,0,1,0,1,2.887748888
153,1,0,0,0,0,1,0,22.70528889,21.54365217,21.03918605,20.16816667,20.09972917,20.96060417,0,0,0,1,0,1,3.46348487
154,0,1,0,0,0,1,0,15.18689744,15.18689744,13.48541667,11.923,14.71202083,14.71202083,0,0,0,1,0,1,3.81795637
155,0,1,1,0,0,1,0,21.2024359,21.32584444,22.57147917,19.1028125,21.273000000000003,21.17468293,0,0,0,1,0,1,4.760329281000001
156,1,0,0,0,0,1,0,19.274125,17.60189583,17.411625,18.5682766,19.44153333,16.71435417,0,0,0,1,0,1,3.64422501
157,0,1,0,1,0,1,0,17.89197143,17.42436842,15.20260417,14.50129167,18.26585417,20.59766667,0,0,0,1,0,1,3.422752547
158,1,0,0,1,0,1,0,17.864,20.4361087,19.7464375,20.43765217,21.27242553,21.07272917,0,0,0,1,0,1,3.206378785
159,1,0,0,0,0,1,0,24.20454167,24.20454167,22.079375,19.92127083,18.88522917,19.4484375,0,0,0,1,0,1,3.158284229
160,0,1,0,1,0,1,0,19.4246875,18.72129167,18.342625,18.342625,17.4694,16.83929167,0,0,0,1,0,1,3.818846614
161,1,0,0,0,0,1,0,20.16816667,20.09972917,20.96060417,19.61114583,19.40504444,19.1562766,0,0,0,1,0,1,2.650453788
162,0,1,1,0,0,1,0,16.9431875,16.53297917,18.08264583,22.398125,22.03158333,18.91970833,0,0,0,1,0,1,2.206209842
163,0,1,1,1,0,1,0,26.459,27.0265,24.11529167,24.11529167,22.23075,23.130125,0,0,0,1,0,1,3.600366167
164,1,0,0,0,0,1,0,20.41179167,20.1418125,18.98054167,18.42861702,18.44420833,17.84133333,0,0,0,1,0,1,1.8490613130000002
165,0,1,0,1,0,1,0,16.817375,16.416375,15.68225,15.68225,16.3920625,17.0866875,0,0,0,1,0,1,2.9470189789999996
166,1,0,0,0,0,1,0,21.54365217,21.03918605,20.16816667,20.09972917,20.96060417,19.61114583,0,0,0,1,0,1,3.0021471889999995
167,0,1,1,0,0,1,0,18.92322727,20.40508889,20.794,16.81755263,18.6528913,20.60789362,0,0,0,1,0,1,3.331497296
168,0,1,0,1,0,1,0,17.42436842,15.20260417,14.50129167,18.26585417,20.59766667,18.4005625,0,0,0,1,0,1,3.3804363619999998
169,1,0,0,0,0,1,0,18.82614894,18.82614894,18.30760417,18.30760417,18.99616667,18.99616667,0,0,0,1,0,1,2.345638891
170,0,0,1,0,0,1,0,12.389375,17.1471,13.34952174,6.320818182000001,9.189769231,8.097263157999999,0,0,0,1,0,1,3.647790171
171,1,0,0,0,0,1,0,20.13052083,20.13052083,18.72372917,19.01216667,19.26120833,19.26120833,0,0,0,1,0,1,3.48836803
172,1,0,0,0,0,1,0,20.60952083,22.70528889,21.54365217,21.03918605,20.16816667,20.09972917,0,0,0,1,0,1,2.414208143
173,1,0,0,1,0,1,0,20.4361087,19.7464375,20.43765217,21.27242553,21.07272917,21.07272917,0,0,0,1,0,1,2.9337045330000002
174,0,0,1,0,0,1,0,9.989125,12.38596154,12.01188462,12.01188462,13.675360000000001,13.675360000000001,0,0,0,1,0,1,2.521715765
175,0,1,1,0,0,1,0,20.21577083,18.81729167,19.6097234,15.24227083,20.0565625,22.07861702,0,0,0,1,0,1,4.213165591
176,0,1,1,1,0,1,0,21.9319375,23.21439583,19.496125,20.83404167,21.0638125,20.68966667,0,0,0,1,0,1,2.279387157
177,1,0,0,0,0,1,0,23.051,19.97595652,18.94752083,19.412,21.10520833,26.31384615,0,0,0,1,0,1,2.371436177
178,0,1,1,1,0,1,0,18.55152083,18.3065,16.90625,17.44264583,19.57170833,20.83,0,0,0,1,0,1,2.369515662
179,1,0,1,0,0,1,0,16.41525,18.713,18.713,17.52755263,17.52755263,19.34080435,0,0,0,1,0,1,1.703935587
180,1,0,0,1,0,1,0,16.49320833,16.49320833,17.02864583,18.7871875,19.12454167,19.23727083,0,0,0,1,0,1,1.376624804
181,0,1,0,1,0,1,0,17.46914583,18.6708125,19.4246875,18.72129167,18.342625,18.342625,0,0,0,1,0,1,4.01035606
182,1,0,0,0,0,1,0,18.94752083,19.412,21.10520833,26.31384615,22.50946809,23.81179167,0,0,0,1,0,1,1.55469904
183,1,0,0,0,0,1,0,19.03522917,19.72247917,20.13052083,20.13052083,18.72372917,19.01216667,0,0,0,1,0,1,3.1966013369999997
184,0,1,0,1,0,1,0,17.87741667,22.99616667,22.221418600000003,21.9288125,16.399,15.353,0,0,0,1,0,1,2.818455482
185,0,1,1,0,0,1,0,18.25297917,17.96308333,21.31672917,19.6470625,20.08217391,21.0902381,0,0,0,1,0,1,3.047336741
186,0,1,1,1,0,1,0,19.460825,20.68686486,20.68686486,20.90462069,19.32210811,18.75452083,0,0,0,1,0,1,3.522353742
187,1,0,0,0,0,1,0,19.89320833,19.89320833,24.06270833,24.20454167,24.20454167,22.079375,0,0,0,1,0,1,2.210116066
188,1,0,0,0,0,1,0,16.71435417,17.02420833,17.75293478,18.26197917,17.99187234,17.240375,0,0,0,1,0,1,3.715319816
189,0,1,0,1,0,1,0,16.00908696,14.46102174,17.46914583,18.6708125,19.4246875,18.72129167,0,0,0,1,0,1,3.510851101
190,0,1,0,1,0,1,0,23.17361702,23.1326875,22.202125,20.18585417,20.18585417,18.0905,0,0,0,1,0,1,4.133043365
191,0,1,1,0,0,1,0,16.81755263,18.6528913,20.60789362,22.95884615,21.57508696,17.51575,0,0,0,1,0,1,4.041721955
192,0,1,1,0,0,1,0,17.80325,14.12483333,11.47217021,16.13514894,16.28095833,15.4466875,0,0,0,1,0,1,3.093446738
193,0,1,1,1,0,1,0,21.04008333,21.04008333,20.23722222,19.39991667,21.81308333,21.04266667,0,0,0,1,0,1,3.360063508
194,1,0,0,0,0,1,0,21.11620833,23.386,21.15629167,20.1445625,19.89320833,19.89320833,0,0,0,1,0,1,2.554087979
195,0,1,1,1,0,1,0,17.44883333,17.34697917,19.86760417,21.27779167,19.2459375,19.2459375,0,0,0,1,0,1,1.998855649
196,0,1,0,1,0,1,0,23.1326875,22.202125,20.18585417,20.18585417,18.0905,18.97451111,0,0,0,1,0,1,4.048119596
197,0,1,0,1,0,1,0,16.13514894,16.28095833,15.4466875,16.93676744,16.55146154,16.55146154,0,0,0,1,0,1,2.9583512080000003
198,1,0,0,1,0,1,0,19.79259091,19.70734783,20.42907143,21.92853846,20.24582609,20.04151064,0,0,0,1,0,1,2.361623306
199,0,1,1,1,0,1,0,19.440375,19.60661702,18.4639375,20.45416,17.73444681,16.87272917,0,0,0,1,0,1,3.567823645
200,1,0,0,0,0,1,0,17.6525,19.274125,17.60189583,17.411625,18.5682766,19.44153333,0,0,0,1,0,1,4.075435335
201,0,1,0,0,0,1,0,13.10775,10.41958621,12.02476923,12.10433333,11.744639999999999,13.21903448,0,0,0,1,0,1,2.466685555
202,0,1,1,0,0,1,0,20.21572917,21.70597917,21.74372917,20.0053125,17.80325,14.12483333,0,0,0,1,0,1,3.649980005
203,1,0,0,1,0,1,0,19.12454167,19.23727083,19.383375,19.79221277,19.19852083,18.80754167,0,0,0,1,0,1,1.7599017280000002
204,0,1,0,0,0,1,0,13.74847826,16.26244444,21.04814286,14.62607143,13.53323684,12.30362162,0,0,0,1,0,1,2.925161988
205,0,0,1,1,0,1,0,18.51,9.186454545,9.975883721,22.63958333,23.075,24.49791667,0,0,0,1,0,1,4.929483017
206,1,0,0,1,0,1,0,18.76695745,19.19357447,19.65238298,20.41014583,20.33054167,20.8347234,0,0,0,1,0,1,3.13507563
207,0,0,1,1,0,1,0,13.21903448,12.16194286,14.15153333,11.15194595,10.49172222,9.969761905,0,0,0,1,0,1,3.605490567
208,0,1,1,1,0,1,0,18.99616667,18.99616667,19.77608333,19.77608333,21.04602128,18.951,0,0,0,1,0,1,2.179740233
209,1,0,0,1,0,1,0,17.02864583,18.7871875,19.12454167,19.23727083,19.383375,19.79221277,0,0,0,1,0,1,1.440386051
210,0,1,1,1,0,1,0,18.3804375,18.3804375,18.88212766,21.55208511,22.52164583,21.07280851,0,0,0,1,0,1,2.75413903
211,0,1,1,1,0,1,0,21.04008333,20.23722222,19.39991667,21.81308333,21.04266667,19.7137234,0,0,0,1,0,1,3.360063508
212,0,1,0,1,0,1,0,14.50129167,18.26585417,20.59766667,18.4005625,16.1908125,18.26522727,0,0,0,1,0,1,2.773972363
213,1,0,0,0,0,1,0,18.32151064,18.32151064,17.8168913,20.38808333,20.38808333,20.60952083,0,0,0,1,0,1,2.016325358
214,1,0,0,0,0,1,0,23.81179167,23.97413636,22.62219048,21.8304,20.41179167,20.1418125,0,0,0,1,0,1,2.070807206
215,1,0,0,1,0,1,0,22.51777419,21.74095652,24.66363636,24.66363636,22.01030435,22.26025532,0,0,0,1,0,1,2.75166407
216,1,0,0,0,0,1,0,22.59073913,18.24974419,17.26202083,19.49504167,19.03343478,19.93095833,0,0,0,1,0,1,2.680017025
217,1,1,0,0,0,1,0,7.528484848,9.724972222,11.32173333,24.78397059,18.98195833,20.4596,0,0,0,1,0,1,2.723851293
218,0,1,1,1,0,1,0,17.61472917,18.65883333,18.93970833,19.4466875,23.653125,18.55152083,0,0,0,1,0,1,2.327589917
219,1,0,0,0,0,1,0,18.42861702,18.44420833,17.84133333,17.22654167,21.65161905,21.9319375,0,0,0,1,0,1,1.771748735
220,1,0,0,0,0,1,0,22.62219048,21.8304,20.41179167,20.1418125,18.98054167,18.42861702,0,0,0,1,0,1,2.406730432
221,0,1,1,0,0,1,0,21.31672917,19.6470625,20.08217391,21.0902381,18.67640476,16.8275,0,0,0,1,0,1,3.445932758
222,1,0,1,0,0,1,0,17.168,17.168,21.45163636,18.49084444,20.19128571,19.42428571,0,0,0,1,0,1,1.073666119
223,0,1,1,1,0,1,0,18.3804375,18.88212766,21.55208511,22.52164583,21.07280851,21.07280851,0,0,0,1,0,1,2.75413903
224,1,0,0,0,0,1,0,17.02420833,17.75293478,18.26197917,17.99187234,17.240375,18.12429787,0,0,0,1,0,1,3.491581458
225,1,0,0,0,0,1,0,19.1562766,21.34755556,19.87463043,18.82614894,18.82614894,18.30760417,0,0,0,1,0,1,2.187559836
226,1,0,0,0,0,1,0,19.97595652,18.94752083,19.412,21.10520833,26.31384615,22.50946809,0,0,0,1,0,1,1.7863894219999998
227,1,0,1,1,0,1,0,13.53323684,12.30362162,16.28589474,20.30969444,18.30902273,18.89551282,0,0,0,1,0,1,3.585887285
228,1,0,0,0,0,1,0,17.45225,17.9084375,17.9125,17.95080435,17.6525,19.274125,0,0,0,1,0,1,4.021754033000001
229,0,0,1,0,0,1,0,17.1471,13.34952174,6.320818182000001,9.189769231,8.097263157999999,15.63419149,0,0,0,1,0,1,1.025263796
230,1,0,1,0,0,1,0,18.30902273,18.89551282,18.197,16.90595556,16.90595556,19.79259091,0,0,0,1,0,1,2.1859028080000003
231,0,1,0,1,0,1,0,16.3920625,17.0866875,14.63172917,13.74847826,16.26244444,21.04814286,0,0,0,1,0,1,2.922154512
232,0,0,1,1,0,1,0,18.51,18.51,9.186454545,9.975883721,22.63958333,23.075,0,0,0,1,0,1,4.929483017
233,0,1,0,1,0,1,0,18.26522727,20.7266875,20.62666667,20.62666667,20.323125,17.86975,0,0,0,1,0,1,2.8896325189999996
234,0,1,0,0,0,1,0,11.29777083,11.67689583,11.29738889,15.15905,12.41277143,9.989125,0,0,0,1,0,1,3.4143041380000003
235,0,1,0,0,0,1,0,14.7485625,21.52414583,15.150625,15.1598125,21.45645833,21.45645833,0,0,1,0,0,1,2.306223232
236,0,0,1,1,0,1,0,10.80995833,6.79275,16.44458333,25.20191489,28.80191489,30.48895833,0,0,1,0,0,1,1.500053263
237,1,0,1,0,0,1,0,11.93341667,16.275,21.5645,24.20320833,24.12189362,20.74340426,0,0,1,0,0,1,1.202367476
238,0,1,1,0,0,1,0,28.86,4.909090909,4.909090909,14.56190476,9.892000000000001,20.29583333,0,0,1,0,0,1,2.3396298680000003
239,0,1,1,0,0,1,0,28.52460417,29.16791667,28.86,4.909090909,4.909090909,14.56190476,0,0,1,0,0,1,3.360169953
240,0,1,1,0,0,1,0,31.78991667,31.90064583,31.767875,28.77104167,28.77104167,32.00545833,0,0,1,0,0,1,1.896906798
241,0,1,1,0,0,1,0,31.90064583,31.767875,28.77104167,28.77104167,32.00545833,30.91008333,0,0,1,0,0,1,1.052903445
242,0,0,1,1,0,1,0,8.589085106,10.80995833,6.79275,16.44458333,25.20191489,28.80191489,0,0,1,0,0,1,2.348042163
243,0,1,0,1,0,1,0,28.5253125,28.11114583,21.0915,18.5750625,18.5750625,14.7485625,0,0,1,0,0,1,1.83088433
244,0,1,0,1,0,1,0,23.31354167,25.38770833,24.78083333,24.94708333,16.54673913,15.95597872,0,0,1,0,0,1,3.475871838
245,0,0,1,1,0,1,0,15.11176596,8.589085106,10.80995833,6.79275,16.44458333,25.20191489,0,0,1,0,0,1,1.7847943990000001
246,0,1,1,1,0,1,0,34.23958333,35.46125,29.15791667,31.13229167,28.52460417,29.16791667,0,0,1,0,0,1,2.039842744
247,0,1,0,0,0,1,0,25.46110638,17.62122917,24.91229787,19.49502083,4.369957447,18.61965957,0,0,1,0,0,1,1.397267426
248,0,1,1,0,0,1,0,27.65255319,27.47723404,28.61257447,23.31354167,25.38770833,24.78083333,0,0,1,0,0,1,3.6391725060000004
249,0,1,0,1,0,1,0,24.94708333,16.54673913,15.95597872,21.0042766,19.23297872,12.91682979,0,0,1,0,0,1,2.056324851
250,0,1,0,1,0,1,0,23.75176596,28.5253125,28.11114583,21.0915,18.5750625,18.5750625,0,0,1,0,0,1,1.2618558579999999
251,0,1,1,1,0,1,0,35.46125,29.15791667,31.13229167,28.52460417,29.16791667,28.86,0,0,1,0,0,1,2.268514232
252,0,1,1,0,0,1,0,28.77104167,32.00545833,30.91008333,30.60595745,32.14658333,23.75176596,0,0,1,0,0,1,1.036003351
253,1,0,1,0,0,1,0,16.275,21.5645,24.20320833,24.12189362,20.74340426,19.42334783,0,0,1,0,0,1,1.216963423
254,0,1,0,0,0,1,0,21.45645833,25.46110638,17.62122917,24.91229787,19.49502083,4.369957447,0,0,1,0,0,1,1.6984949109999998
255,0,1,1,1,0,1,0,33.11689583,34.23958333,35.46125,29.15791667,31.13229167,28.52460417,0,0,1,0,0,1,1.849872664
256,0,0,1,0,0,1,0,11.21895745,9.400708332999999,10.47502083,30.25721739,35.2449375,30.88616667,0,0,1,0,0,1,1.6075295980000002
257,0,0,0,1,0,1,0,10.47502083,30.25721739,35.2449375,30.88616667,31.78991667,31.90064583,0,0,1,0,0,1,6.454089038999999
258,0,1,1,0,0,1,0,31.767875,28.77104167,28.77104167,32.00545833,30.91008333,30.60595745,0,0,1,0,0,1,1.958566236
259,0,1,1,1,0,1,0,29.216875,29.851875,30.44397917,29.20729167,29.97625,29.161875,0,0,1,0,0,1,2.85214509
260,1,0,1,1,0,1,0,16.44458333,25.20191489,28.80191489,30.48895833,33.59831915,33.11689583,0,0,1,0,0,1,1.4124330369999998
261,1,0,0,0,0,1,0,28.1785625,26.11625,29.70041667,29.216875,29.851875,30.44397917,0,0,1,0,0,1,1.374148961
262,0,1,1,1,0,1,0,30.44397917,29.20729167,29.97625,29.161875,28.869375,29.09020833,0,0,1,0,0,1,3.9868349860000003
263,0,1,1,0,0,1,0,27.96397917,27.65255319,27.47723404,28.61257447,23.31354167,25.38770833,0,0,1,0,0,1,4.967390453999999
264,0,0,1,1,0,1,0,18.19444444,4.73225,14.7635,15.96626316,15.96626316,10.26063636,0,0,0,0,1,1,4.994773265
265,0,1,1,1,0,1,0,34.15538462,34.15538462,34.27384615,32.2,34.56291667,32.2476,0,0,0,0,1,1,8.300068237
266,0,1,0,0,0,1,0,14.60055556,12.67247368,14.61022727,18.19444444,4.73225,14.7635,0,0,0,0,1,1,5.032258978
267,0,1,1,0,0,1,0,30.78851852,29.9964,27.796296299999998,27.796296299999998,27.09153846,16.73583333,0,0,0,0,1,1,7.79830282
268,0,0,1,1,0,1,0,7.846842105,7.6285,13.5208,13.5208,15.028761900000001,13.55115385,0,0,0,0,1,1,2.164358747
269,1,0,1,0,0,1,0,25.7005,14.52690476,26.30904762,26.30904762,24.50380952,24.50380952,0,0,0,0,1,1,6.234291977000001
270,1,0,1,0,0,1,0,14.52690476,26.30904762,26.30904762,24.50380952,24.50380952,30.59333333,0,0,0,0,1,1,4.599876939
271,0,1,0,1,0,1,0,18.37761905,16.638125,23.0464,22.83318182,17.90521739,17.90521739,0,0,0,0,1,1,8.391979702
272,0,1,0,0,0,1,0,25.85409091,19.99495833,18.39625,18.39625,25.05833333,22.37,0,0,0,0,1,1,5.089124541
273,0,1,0,1,0,1,0,27.09153846,16.73583333,19.32125,19.32125,16.1836,23.82904762,0,0,0,0,1,1,6.636279634
274,1,0,0,1,0,1,0,30.92545455,28.451999999999998,28.75285714,29.34058824,26.495,32.88833333,0,0,0,0,1,1,3.2418607489999998
275,1,0,0,1,0,1,0,32.88833333,30.80454545,30.80454545,30.35,34.345,31.45882353,0,0,0,0,1,1,3.483382715
276,0,1,0,1,0,1,0,25.33608696,26.57863636,26.57863636,18.37761905,16.638125,23.0464,0,0,0,0,1,1,8.79607326
277,1,0,0,0,0,1,0,31.45882353,36.88142857,33.9835,31.46083333,31.46083333,29.77625,0,0,0,0,1,1,10.45299382
278,0,1,0,1,0,1,0,24.6685,27.49875,25.63826087,24.14352941,20.59695652,25.33608696,0,0,0,0,1,1,6.838315325
279,1,0,0,1,0,1,0,30.35,34.345,31.45882353,36.88142857,33.9835,31.46083333,0,0,0,0,1,1,4.296123099
280,1,0,1,0,0,1,0,21.273000000000003,25.7005,14.52690476,26.30904762,26.30904762,24.50380952,0,0,0,0,1,1,4.041982282
281,0,1,0,0,0,1,0,25.05833333,22.37,23.90166667,14.60055556,12.67247368,14.61022727,0,0,0,0,1,1,6.887731646000001
282,1,0,1,0,0,1,0,25.805238100000004,29.67631579,23.1825,21.38933333,30.92545455,28.451999999999998,0,0,0,0,1,1,2.7742990919999997
283,0,0,1,1,0,1,0,13.55115385,13.55115385,10.99855,10.99855,20.75107143,16.2815,0,0,0,0,1,1,3.088035868
284,0,1,0,1,0,1,0,19.32125,19.32125,16.1836,23.82904762,24.6685,27.49875,0,0,0,0,1,1,7.026508395
285,0,1,0,0,0,1,0,23.90166667,14.60055556,12.67247368,14.61022727,18.19444444,4.73225,0,0,0,0,1,1,5.461182396
286,0,1,1,0,0,1,0,34.74346154,33.70130435,36.06083333,32.56,30.125,31.86481481,0,0,0,0,1,1,8.508023388
287,1,0,1,0,0,1,0,23.89294118,21.8245,18.10647059,27.79363636,26.79529412,25.805238100000004,0,0,0,0,1,1,1.373088267
288,1,1,0,0,0,1,0,12.23714286,8.758071429,7.770466667000001,10.52683333,-2.929933333,9.933538462000001,0,0,0,0,1,1,2.302864994
289,0,1,1,1,0,1,0,30.85230769,30.63,36.38958333,34.73217391,30.27,27.745,0,0,0,0,1,1,5.397538845
290,0,1,1,1,0,1,0,33.55521739,34.15538462,34.15538462,34.27384615,32.2,34.56291667,0,0,0,0,1,1,7.759645464
291,0,1,0,1,0,1,0,26.57863636,18.37761905,16.638125,23.0464,22.83318182,17.90521739,0,0,0,0,1,1,9.336878711
292,1,0,0,1,0,1,0,31.34409091,32.47478261,25.09863636,25.09863636,22.29545455,31.48130435,0,0,0,0,1,1,6.006705196
293,1,0,0,0,0,1,0,28.94133333,24.6575,30.98,31.67473684,31.67473684,29.44869565,0,0,0,0,1,1,6.2713003
294,1,0,1,0,0,1,0,29.67631579,23.1825,21.38933333,30.92545455,28.451999999999998,28.75285714,0,0,0,0,1,1,1.958457435
295,0,0,1,1,0,1,0,14.61022727,18.19444444,4.73225,14.7635,15.96626316,15.96626316,0,0,0,0,1,1,3.019428729
296,0,0,1,1,0,1,0,13.55115385,10.99855,10.99855,20.75107143,16.2815,16.45770588,0,0,0,0,1,1,3.088035868
297,1,0,1,0,0,1,0,23.33529412,23.89294118,21.8245,18.10647059,27.79363636,26.79529412,0,0,0,0,1,1,3.5878133969999997
298,0,1,1,1,0,1,0,36.61294118,37.31,37.1764,35.7556,34.89346154,33.55521739,0,0,0,0,1,1,6.404510742
299,0,1,1,0,0,1,0,30.4675,34.74346154,33.70130435,36.06083333,32.56,30.125,0,0,0,0,1,1,7.232916921
300,0,0,1,0,0,1,0,1.780611111,8.025105263,14.2394375,8.540823528999999,5.790058824,3.619588235,0,0,0,0,1,1,1.164955859
301,0,0,0,1,0,1,0,13.6685,23.33529412,23.89294118,21.8245,18.10647059,27.79363636,0,0,0,0,1,1,1.722808636
302,0,0,1,1,0,1,0,7.6285,13.5208,13.5208,15.028761900000001,13.55115385,13.55115385,0,0,0,0,1,1,1.850340539
303,0,1,0,1,0,1,0,29.69962963,18.773,25.85409091,19.99495833,18.39625,18.39625,0,0,0,0,1,1,8.637064871
304,1,0,1,0,0,1,0,21.8245,18.10647059,27.79363636,26.79529412,25.805238100000004,29.67631579,0,0,0,0,1,1,1.174030313
305,1,0,0,1,0,1,0,30.80454545,30.35,34.345,31.45882353,36.88142857,33.9835,0,0,0,0,1,1,3.637854042
306,0,0,1,0,0,1,0,19.85375,1.780611111,8.025105263,14.2394375,8.540823528999999,5.790058824,0,0,0,0,1,1,2.447612104
307,0,0,0,1,0,1,0,14.2394375,8.540823528999999,5.790058824,3.619588235,11.71242857,11.45557143,0,0,0,0,1,1,1.853328265
308,0,0,1,1,0,1,0,15.028761900000001,13.55115385,13.55115385,10.99855,10.99855,20.75107143,0,0,0,0,1,1,4.0144493919999995
309,0,1,0,0,0,1,0,18.65059091,14.46558333,14.46558333,26.49727273,19.44772727,21.94823529,0,0,0,0,1,1,6.317776413
310,0,0,1,0,0,1,0,16.2815,16.45770588,10.91466667,10.91466667,19.85375,1.780611111,0,0,0,0,1,1,2.713810456
311,1,0,0,0,0,1,0,31.46083333,29.77625,29.77625,30.30695652,33.6216,34.0565,0,0,0,0,1,1,9.818539515
312,0,1,1,0,0,1,0,29.1075,27.14722222,29.69962963,18.773,25.85409091,19.99495833,0,0,0,0,1,1,9.758103319
313,1,0,1,0,0,1,0,21.38933333,30.92545455,28.451999999999998,28.75285714,29.34058824,26.495,0,0,0,0,1,1,4.580983194
314,0,0,0,1,0,1,0,5.790058824,3.619588235,11.71242857,11.45557143,12.23714286,8.758071429,0,0,0,0,1,1,2.1361162
315,0,1,0,1,0,1,0,20.59695652,25.33608696,26.57863636,26.57863636,18.37761905,16.638125,0,0,0,0,1,1,8.840334066
316,0,1,0,1,0,1,0,18.773,25.85409091,19.99495833,18.39625,18.39625,25.05833333,0,0,0,0,1,1,4.443735831000001
317,1,0,0,1,0,1,0,24.50380952,24.50380952,30.59333333,30.59333333,31.34409091,32.47478261,0,0,0,0,1,1,5.996501785
318,0,1,0,0,0,1,0,18.39625,25.05833333,22.37,23.90166667,14.60055556,12.67247368,0,0,0,0,1,1,4.104471736
319,1,0,0,0,0,1,0,31.46083333,31.46083333,29.77625,29.77625,30.30695652,33.6216,0,0,0,0,1,1,9.818539515
320,1,0,0,0,0,1,0,31.67473684,31.67473684,29.44869565,35.44916667,35.47684211,34.5572,0,0,0,0,1,1,9.138089181
321,1,0,0,0,0,0,1,18.55367391,19.49173913,18.799625,18.799625,21.10458333,20.7368125,0,0,1,0,1,0,6.689366962
322,0,0,0,1,0,0,1,7.588195745,16.896125,16.248875,16.70391304,21.13931915,22.22780851,0,0,1,0,1,0,1.4308634880000002
323,0,1,1,0,0,0,1,19.75969565,17.89941304,17.44654348,20.9141087,18.85466667,18.85466667,0,0,1,0,1,0,6.751951588
324,0,1,1,1,0,0,1,19.66921277,17.82325532,19.24328261,23.96880435,19.2476087,19.2476087,0,0,1,0,1,0,7.476239217000001
325,0,0,1,1,0,0,1,10.36705957,14.079375,14.079375,18.27391667,18.787375,20.35608333,0,0,1,0,1,0,4.103871969
326,0,1,1,0,0,0,1,18.85466667,21.05665957,18.69971739,17.11823404,15.4252766,14.71817021,0,0,1,0,1,0,4.145586538
327,0,1,1,1,0,0,1,20.7368125,19.66921277,19.66921277,19.66921277,17.82325532,19.24328261,0,0,1,0,1,0,7.260851575
328,0,1,1,1,0,0,1,20.02826087,21.1726087,19.39132609,19.11653191,17.1595,21.45193478,0,0,1,0,1,0,7.474920994
329,0,1,1,0,0,0,1,19.75395833,22.82934043,21.67878723,24.130375,24.290375,23.07114583,0,0,1,0,1,0,2.292451406
330,1,0,0,1,0,0,1,16.70391304,21.13931915,22.22780851,18.8538913,19.47697917,19.47697917,0,0,1,0,1,0,4.685965862
331,1,0,0,0,0,0,1,18.57914583,17.83339583,18.4066875,19.7799375,19.61429167,18.5894375,0,0,1,0,1,0,8.002308402
332,1,0,0,1,0,0,1,20.7722766,18.55367391,19.49173913,18.799625,18.799625,21.10458333,0,0,1,0,1,0,6.130649722
333,0,1,0,1,0,0,1,14.11014565,11.2620125,10.75581458,18.7543913,21.388,17.07232609,0,0,1,0,1,0,6.386748102
334,0,1,1,0,0,0,1,17.89941304,17.44654348,20.9141087,18.85466667,18.85466667,18.85466667,0,0,1,0,1,0,7.035045154
335,0,1,1,1,0,0,1,22.22780851,18.8538913,19.47697917,19.47697917,20.18329787,20.4126383,0,0,1,0,1,0,7.346924117
336,0,1,1,1,0,0,1,21.10458333,20.7368125,20.7368125,19.66921277,19.66921277,19.66921277,0,0,1,0,1,0,7.886133732
337,0,1,1,0,0,0,1,20.4126383,16.1586383,18.8295,18.20408333,17.5214375,19.31663043,0,0,1,0,1,0,6.999467221000001
338,0,0,1,1,0,0,1,10.36705957,10.36705957,14.079375,14.079375,18.27391667,18.787375,0,0,1,0,1,0,4.103871969
339,0,1,1,0,0,0,1,17.44654348,20.9141087,18.85466667,18.85466667,18.85466667,21.05665957,0,0,1,0,1,0,6.842642726
340,0,1,1,0,0,0,1,21.05895652,19.69322917,18.22195833,18.22195833,18.12875,13.10645208,0,0,1,0,1,0,1.58898266
341,0,1,1,1,0,0,1,19.10102083,17.95971739,17.95971739,17.491125,21.38279167,21.38279167,0,0,1,0,1,0,7.439059802999999
342,0,1,1,1,0,0,1,20.7368125,20.7368125,19.66921277,19.66921277,19.66921277,17.82325532,0,0,1,0,1,0,7.260851575
343,0,1,0,1,0,0,1,14.73216667,10.91266087,20.7722766,18.55367391,19.49173913,18.799625,0,0,1,0,1,0,5.429883221
344,1,0,0,0,0,0,1,18.83985106,17.73626087,18.06357447,18.65670833,19.11229167,23.16858333,0,0,1,0,1,0,6.297956826
345,0,1,1,0,0,0,1,17.11823404,15.4252766,14.71817021,14.57101277,14.57101277,16.19131915,0,0,1,0,1,0,2.783900923
346,0,1,1,1,0,0,1,18.799625,18.799625,21.10458333,20.7368125,20.7368125,19.66921277,0,0,1,0,1,0,7.682815856
347,0,1,1,1,0,0,1,19.47697917,20.18329787,20.4126383,16.1586383,18.8295,18.20408333,0,0,1,0,1,0,5.642083649
348,0,1,1,1,0,0,1,19.11653191,17.1595,21.45193478,19.75969565,19.75969565,17.89941304,0,0,1,0,1,0,6.788318117
349,0,1,1,1,0,0,1,23.96880435,19.2476087,19.2476087,20.32655319,20.50165217,21.40591489,0,0,1,0,1,0,9.541737942000001
350,0,1,1,1,0,0,1,19.47697917,19.47697917,20.18329787,20.4126383,16.1586383,18.8295,0,0,1,0,1,0,5.642083649
351,0,1,0,1,0,0,1,17.47334783,16.32234783,21.06358696,21.97916667,10.59590426,7.588195745,0,0,1,0,1,0,6.299872356
352,0,1,0,1,0,0,1,21.67878723,24.130375,24.290375,23.07114583,20.89420833,12.53774167,0,0,1,0,1,0,2.466095294
353,0,1,1,0,0,0,1,16.1586383,18.8295,18.20408333,17.5214375,19.31663043,19.31663043,0,0,1,0,1,0,6.061697657000001
354,1,0,0,1,0,0,1,20.95704348,20.95704348,14.16554348,17.47334783,16.32234783,21.06358696,0,0,1,0,1,0,6.3768529439999995
355,0,1,0,1,0,0,1,24.130375,24.290375,23.07114583,20.89420833,12.53774167,20.19912766,0,0,1,0,1,0,2.701999087
356,1,0,0,0,0,0,1,19.31663043,19.31663043,18.57914583,17.83339583,18.4066875,19.7799375,0,0,1,0,1,0,7.29150785
357,0,1,1,1,0,0,1,21.1726087,19.39132609,19.11653191,17.1595,21.45193478,19.75969565,0,0,1,0,1,0,7.825825181
358,1,0,0,0,0,0,1,18.06357447,18.65670833,19.11229167,23.16858333,17.42558696,17.42683333,0,0,1,0,1,0,5.542137837
359,0,1,0,1,0,0,1,14.802025,14.73216667,10.91266087,20.7722766,18.55367391,19.49173913,0,0,1,0,1,0,5.596662134
360,0,1,1,0,0,0,1,21.45193478,19.75969565,19.75969565,17.89941304,17.44654348,20.9141087,0,0,1,0,1,0,7.545387524
361,0,1,1,1,0,0,1,21.13931915,22.22780851,18.8538913,19.47697917,19.47697917,20.18329787,0,0,1,0,1,0,7.233982912999999
362,1,0,0,0,0,0,1,20.36351064,23.29572917,21.44569565,20.02826087,21.1726087,19.39132609,0,0,1,0,1,0,7.300527993999999
363,0,1,1,0,0,1,0,25.83541667,12.97083333,16.12291667,14.22083333,7.152083332999999,7.152083332999999,0,0,0,1,0,0,6.438547616
364,0,1,1,0,0,1,0,25.92916667,25.83541667,12.97083333,16.12291667,14.22083333,7.152083332999999,0,0,0,1,0,0,6.150216329
365,0,0,1,1,0,1,0,14.22083333,7.152083332999999,7.152083332999999,10.68958333,9.495833333,6.5875,0,0,0,1,0,0,1.454984015
366,0,1,0,1,0,1,0,21.54583333,22.82083333,23.15416667,23.15416667,20.68333333,15.73333333,0,0,0,1,0,0,4.75358067
367,1,0,0,0,0,1,0,28.60416667,24.7625,21.54583333,22.82083333,23.15416667,23.15416667,0,0,0,1,0,0,6.0180886010000005
368,0,1,1,1,0,1,0,27.84166667,29.58541667,20.79166667,18.38125,22.54375,3.74375,0,0,0,1,0,0,3.378740065
369,0,0,1,0,0,1,0,6.5875,19.82291667,12.05416667,17.30833333,12.6,21.28125,0,0,0,1,0,0,1.79968773
370,0,0,1,1,0,1,0,5.764583332999999,24.225,24.16041667,22.83541667,27.77916667,27.34166667,0,0,0,1,0,0,1.576803713
371,1,0,1,0,0,1,0,18.775,31.1,29.64166667,31.2676,31.67428571,30.78851852,0,0,0,1,0,0,2.0945307619999998
372,1,0,1,0,0,1,0,17.30833333,12.6,21.28125,18.775,31.1,29.64166667,0,0,0,1,0,0,2.11346682
373,1,0,0,1,0,1,0,24.9125,24.62083333,28.60416667,28.60416667,24.7625,21.54583333,0,0,0,1,0,0,3.2341858439999998
374,0,0,1,1,0,1,0,7.402083332999999,15.73125,9.535416667,6.091666667,6.202083332999999,29.63333333,0,0,0,1,0,0,1.201775456
375,0,0,1,1,0,1,0,15.73333333,7.402083332999999,15.73125,9.535416667,6.091666667,6.202083332999999,0,0,0,1,0,0,1.31608126
376,0,0,1,1,0,1,0,15.73125,9.535416667,6.091666667,6.202083332999999,29.63333333,27.84166667,0,0,0,1,0,0,1.946292895
377,1,0,1,0,0,1,0,12.05416667,17.30833333,12.6,21.28125,18.775,31.1,0,0,0,1,0,0,1.418543476
378,0,1,0,0,0,1,0,22.54375,3.74375,20.74791667,18.64166667,16.54375,16.36458333,0,0,0,1,0,0,2.143184088
379,0,1,0,1,0,1,0,20.79166667,18.38125,22.54375,3.74375,20.74791667,18.64166667,0,0,0,1,0,0,4.967745309
380,0,1,1,1,0,1,0,29.58541667,20.79166667,18.38125,22.54375,3.74375,20.74791667,0,0,0,1,0,0,6.615820904
381,0,1,1,0,0,0,1,14.52944445,12.56694445,15.06631946,7.651756957000001,5.760048599999999,6.1206111,0,0,0,0,1,0,3.232925725
382,0,0,1,0,0,0,1,3.019375,3.019375,1.64125,4.013333333,7.071041667,7.071041667,0,0,0,0,1,0,1.77300846
383,0,0,1,0,0,0,1,7.877083333,1.250625,17.285,7.273125,8.083333332999999,12.12666667,0,0,0,0,1,0,6.251850071000001
384,1,0,1,1,0,0,1,10.103125,9.310208333,1.9702083330000002,9.511041667,6.950416667000001,12.64520833,0,0,0,0,1,0,2.372523689
385,1,0,1,1,0,0,1,12.12374996,8.403826333,3.2869167289999996,3.50877775,11.21951381,11.37673617,0,0,0,0,1,0,1.432457892
386,0,0,1,1,0,0,1,7.651756957000001,5.760048599999999,6.1206111,3.052708342,4.539250005,13.03791667,0,0,0,0,1,0,1.019838482
387,0,1,1,0,0,0,1,16.60583333,20.38645833,14.37541667,1.375625,9.086666667000001,4.7925,0,0,0,0,1,0,4.436894971
388,0,0,1,1,0,0,1,5.760048599999999,6.1206111,3.052708342,4.539250005,13.03791667,10.98125,0,0,0,0,1,0,1.087027068
389,1,0,1,1,0,0,1,5.2175,8.523541667,8.679375,5.395416667,11.986875,9.008125,0,0,0,0,1,0,1.407266124
390,1,0,0,1,0,0,1,13.19069446,17.03118061,11.19423612,2.3889513890000003,2.733034731,15.98354167,0,0,0,0,1,0,1.677390856
391,0,1,1,1,0,0,1,14.23916667,11.97020833,9.078541667,4.847708333,7.877083333,1.250625,0,0,0,0,1,0,2.285544175
392,1,0,0,0,0,0,1,9.773055521,16.73736108,16.73736108,4.179854187,11.23319444,9.625326438,0,0,0,0,1,0,1.235074398
393,0,0,1,0,0,0,1,3.019375,1.64125,4.013333333,7.071041667,7.071041667,5.2175,0,0,0,0,1,0,1.77300846
394,1,0,1,1,0,0,1,12.12666667,10.103125,9.310208333,1.9702083330000002,9.511041667,6.950416667000001,0,0,0,0,1,0,1.218231861
395,0,0,1,1,0,0,1,11.23319444,9.625326438,-4.942562562,17.42944448,10.74508348,13.19069446,0,0,0,0,1,0,2.296048801
396,1,0,1,0,0,0,1,3.50877775,11.21951381,11.37673617,10.24920831,9.773055521,16.73736108,0,0,0,0,1,0,1.51634014
397,0,0,1,1,0,0,1,14.35645833,11.68770833,5.058125,5.105416667,3.019375,3.019375,0,0,0,0,1,0,2.96762971
398,1,0,1,1,0,0,1,4.7925,1.1129166670000001,6.261458332999999,13.86166667,17.681875,14.24979167,0,0,0,0,1,0,1.7453838640000001
399,1,0,1,0,0,0,1,8.403826333,3.2869167289999996,3.50877775,11.21951381,11.37673617,10.24920831,0,0,0,0,1,0,1.7405902480000002
400,1,0,1,0,0,0,1,9.310208333,1.9702083330000002,9.511041667,6.950416667000001,12.64520833,8.500416667,0,0,0,0,1,0,1.064791718
401,1,0,1,0,0,0,1,9.008125,6.959166667000001,12.01104167,16.60583333,16.60583333,20.38645833,0,0,0,0,1,0,3.291348855
402,1,0,1,0,0,0,1,13.03791667,10.98125,17.32979167,17.32979167,13.00635417,10.94797917,0,0,0,0,1,0,1.429450251
403,1,0,1,0,0,0,1,5.395416667,11.986875,9.008125,6.959166667000001,12.01104167,16.60583333,0,0,0,0,1,0,1.129373612
404,1,0,1,0,0,0,1,1.9702083330000002,9.511041667,6.950416667000001,12.64520833,8.500416667,1.483541667,0,0,0,0,1,0,1.7370215530000002
405,0,0,1,1,0,0,1,9.625326438,-4.942562562,17.42944448,10.74508348,13.19069446,17.03118061,0,0,0,0,1,0,1.5192745980000002
406,0,1,0,1,0,0,1,9.722708333,14.35645833,11.68770833,5.058125,5.105416667,3.019375,0,0,0,0,1,0,4.298266762
407,0,0,1,0,0,0,1,5.625833332999999,12.12374996,8.403826333,3.2869167289999996,3.50877775,11.21951381,0,0,0,0,1,0,1.337028617
408,0,1,0,0,0,0,1,20.38645833,14.37541667,1.375625,9.086666667000001,4.7925,1.1129166670000001,0,0,0,0,1,0,1.6244547530000002
409,1,0,1,0,0,0,1,8.523541667,8.679375,5.395416667,11.986875,9.008125,6.959166667000001,0,0,0,0,1,0,1.4827815969999998
410,0,0,0,1,0,0,1,7.699,23.331,17.993125,16.92578947,22.88777778,22.88777778,0,1,0,0,0,0,3.675662268
411,0,1,0,0,0,0,1,26.99,26.99,20.47,20.91,21.69,16.43,0,1,0,0,0,0,6.53395351
412,0,1,0,0,0,0,1,25.0725,10.06477778,10.93033333,13.79152941,17.71384615,6.406000000000001,0,1,0,0,0,0,2.865280346
413,0,1,1,0,0,0,1,29.67375,14.91,14.91,30.6175,23.24125,23.59863636,0,1,0,0,0,0,8.733863397999999
414,1,0,1,0,0,0,1,24.131,27.0447619,23.07736842,29.64285714,30.1047619,31.97,0,1,0,0,0,0,8.215290006
415,0,1,0,1,0,0,1,19.39,22.99434783,23.54375,23.54375,10.226,24.28894737,0,1,0,0,0,0,5.983318315
416,0,1,1,0,0,0,1,31.44166667,34.835,34.64333333,29.99653846,34.1984,34.1984,0,1,0,0,0,0,14.45886073
417,0,0,1,1,0,0,1,18.45,29.7,7.699,23.331,17.993125,16.92578947,0,1,0,0,0,0,1.468984495
418,1,0,0,1,0,0,1,29.64285714,30.1047619,31.97,31.97,30.39954545,27.69,0,1,0,0,0,0,6.477444865
419,0,1,0,0,0,0,1,20.47,20.91,21.69,16.43,16.43,20.168,0,1,0,0,0,0,4.837765949
420,0,0,1,0,0,0,1,3.63175,5.8728,5.329,2.409714286,3.631360833,2.857916667,0,1,0,0,0,0,5.5310644270000004
421,0,1,1,0,0,0,1,34.0216,34.69666667,32.5795,29.67375,14.91,14.91,0,1,0,0,0,0,11.22582567
422,0,0,1,1,0,0,1,2.375571429,2.375571429,8.621076923,17.69857143,25.45083333,16.14583333,0,1,0,0,0,0,1.496324604
423,1,0,0,1,0,0,1,31.3852381,31.855,29.62,31.44166667,34.835,34.64333333,0,1,0,0,0,0,3.46054504
424,0,1,0,0,0,0,1,23.54375,23.54375,10.226,24.28894737,20.24833333,24.46227273,0,1,0,0,0,0,12.3102883
425,0,0,1,1,0,0,1,13.79152941,17.71384615,6.406000000000001,9.346454545,14.16657143,2.375571429,0,1,0,0,0,0,2.595630695
426,1,0,1,0,0,0,1,28.787,21.14611111,25.29157895,26.428,25.9385,25.9385,0,1,0,0,0,0,4.4541539000000006
427,0,1,1,0,0,0,1,34.835,34.64333333,29.99653846,34.1984,34.1984,34.0216,0,1,0,0,0,0,13.92629072
428,0,1,0,0,0,0,1,20.24833333,24.46227273,20.74583333,25.0725,10.06477778,10.93033333,0,1,0,0,0,0,2.617297138
429,1,0,0,1,0,0,1,34.89785714,25.175,31.3852381,31.855,29.62,31.44166667,0,1,0,0,0,0,4.890132517
430,0,1,0,0,0,0,1,23.8875,26.99,26.99,20.47,20.91,21.69,0,1,0,0,0,0,7.813323133
431,0,1,0,0,0,0,1,20.74583333,25.0725,10.06477778,10.93033333,13.79152941,17.71384615,0,1,0,0,0,0,1.984573486
432,0,0,1,1,0,0,1,9.346454545,14.16657143,2.375571429,2.375571429,8.621076923,17.69857143,0,1,0,0,0,0,1.509367771
433,1,0,1,0,0,0,1,19.9745,14.9635,29.15333333,27.72315789,23.7285,24.131,0,1,0,0,0,0,4.547042311
434,0,1,0,1,0,0,1,22.79,20.435,23.725,26.41,23.8875,26.99,0,1,0,0,0,0,14.82217494
435,0,1,0,1,0,0,1,19.5,22.79,20.435,23.725,26.41,23.8875,0,1,0,0,0,0,13.0091649
436,1,0,1,0,0,0,1,22.88777778,29.06368421,28.787,21.14611111,25.29157895,26.428,0,1,0,0,0,0,2.9842566880000003
437,0,0,1,0,0,0,1,5.8728,5.329,2.409714286,3.631360833,2.857916667,11.44916667,0,1,0,0,0,0,1.151472314
438,0,1,0,0,0,0,1,20.168,18.45,29.7,7.699,23.331,17.993125,0,1,0,0,0,0,8.830510157
439,1,0,0,1,0,0,1,29.93714286,30.8995,32.58315789,34.89785714,25.175,31.3852381,0,1,0,0,0,0,4.0067753139999995
440,1,0,1,0,0,0,1,22.88777778,22.88777778,29.06368421,28.787,21.14611111,25.29157895,0,1,0,0,0,0,2.9842566880000003
441,0,1,0,1,0,0,1,29.3,19.5,22.79,20.435,23.725,26.41,0,1,0,0,0,0,11.89806112
442,0,1,1,0,0,0,1,21.9025,19.50888889,21.309375,28.69952381,19.50229167,20.7423913,0,1,0,1,1,0,4.588281648
443,0,1,0,1,0,0,1,20.56076923,20.56076923,17.42729167,20.39171429,15.29270833,14.01978261,0,1,0,1,1,0,1.713794113
444,0,1,0,0,0,0,1,15.29270833,14.01978261,15.04913636,15.04913636,14.69212766,13.33041667,0,1,0,1,1,0,2.181051851
445,0,0,1,1,0,0,1,13.025625,14.64270833,12.216,13.16047619,9.922041667,10.38329167,0,1,0,1,1,0,2.8032983280000003
446,0,1,0,1,0,0,1,28.69952381,19.50229167,20.7423913,19.404375,16.83361702,26.99,0,1,0,1,1,0,5.8138276289999995
447,0,1,0,1,0,0,1,21.309375,28.69952381,19.50229167,20.7423913,19.404375,16.83361702,0,1,0,1,1,0,2.956320856
448,0,1,0,1,0,0,1,26.99,21.66,17.75125,20.51319149,18.32488889,19.42181818,0,1,0,1,1,0,2.574275473
449,1,0,1,1,0,0,1,11.27582609,8.655782609,20.00113636,17.80931034,17.80931034,14.1165,0,1,0,1,1,0,2.266439843
450,0,0,1,0,0,0,1,10.38329167,6.842636364,4.468416667,5.987954545,9.4005625,9.0005,0,1,0,1,1,0,4.627511487
451,0,0,1,1,0,0,1,14.64270833,12.216,13.16047619,9.922041667,10.38329167,10.38329167,0,1,0,1,1,0,2.834679739
452,0,1,1,0,0,0,1,18.76541667,21.9025,19.50888889,21.309375,28.69952381,19.50229167,0,1,0,1,1,0,3.719185224
453,0,1,1,0,0,0,1,21.435,22.89333333,22.89333333,18.76541667,21.9025,19.50888889,0,1,0,1,1,0,6.243894578
454,0,1,0,0,0,0,1,17.42729167,20.39171429,15.29270833,14.01978261,15.04913636,15.04913636,0,1,0,1,1,0,2.4771501330000003
455,0,1,0,1,0,0,1,19.404375,16.83361702,26.99,21.66,17.75125,20.51319149,0,1,0,1,1,0,2.1843228569999997
456,0,0,0,1,0,0,1,8.991270833,13.20844444,11.27582609,8.655782609,20.00113636,17.80931034,0,1,0,1,1,0,2.3528129140000003
457,1,0,1,1,0,0,1,8.655782609,20.00113636,17.80931034,17.80931034,14.1165,13.08421951,0,1,0,1,1,0,1.07275703
458,0,0,0,1,0,0,1,9.4005625,9.0005,8.991270833,13.20844444,11.27582609,8.655782609,0,1,0,1,1,0,2.847900101
459,0,1,0,1,0,1,0,21.3166875,20.97666667,19.320625,14.49145833,24.484,22.57578947,0,1,0,0,0,1,1.223662204
460,0,1,0,1,0,1,0,23.04354167,25.44916667,25.44916667,25.393125,13.80022917,22.4654375,0,1,0,0,0,1,3.245357335
461,1,0,0,0,0,1,0,33.11379167,30.49160417,30.05958333,28.48325,34.73402083,28.91964583,0,1,0,0,0,1,1.291532016
462,0,1,1,1,0,1,0,29.42833333,30.630625,29.62,29.231875,29.53272917,29.16064583,0,1,0,0,0,1,1.3865415019999998
463,1,0,0,0,0,1,0,30.05958333,28.48325,34.73402083,28.91964583,17.90433333,23.6311875,0,1,0,0,0,1,3.4133793310000002
464,0,1,0,1,0,1,0,21.1366875,24.41416667,20.73375,14.10175,22.57479167,8.621875,0,1,0,0,0,1,1.9934122909999998
465,0,0,1,1,0,1,0,17.32835417,7.1094166670000005,13.00420833,5.8654375,33.11379167,30.49160417,0,1,0,0,0,1,1.5598347590000001
466,1,0,1,1,0,1,0,5.8654375,33.11379167,30.49160417,30.05958333,28.48325,34.73402083,0,1,0,0,0,1,1.402461525
467,0,0,1,1,0,1,0,20.82295833,4.31275,11.31058333,16.91229167,29.42833333,30.630625,0,1,0,0,0,1,2.1255002569999997
468,0,1,1,0,0,1,0,27.874375,23.19270833,25.17375,21.3166875,20.97666667,19.320625,0,1,0,0,0,1,1.1998816079999999
469,1,0,1,1,0,1,0,13.00420833,5.8654375,33.11379167,30.49160417,30.05958333,28.48325,0,1,0,0,0,1,1.312017617
470,0,1,1,0,0,1,0,28.24691667,28.94041667,28.50170833,29.023125,23.04354167,25.44916667,0,1,0,0,0,1,4.865887924
471,0,0,1,1,0,1,0,22.57479167,8.621875,19.99770833,15.1906875,24.68416667,32.77979167,0,1,0,0,0,1,1.4915514419999998
472,0,1,0,0,0,1,0,21.85652083,17.28141667,19.72670833,20.82295833,4.31275,11.31058333,0,1,0,0,0,1,2.151654751
473,0,1,0,1,0,1,0,13.80022917,22.4654375,17.97645833,21.1366875,24.41416667,20.73375,0,1,0,0,0,1,1.112420813
474,0,1,1,0,0,1,0,29.231875,29.53272917,29.16064583,29.15583333,28.75833333,28.24691667,0,1,0,0,0,1,3.830696647
475,0,0,1,1,0,1,0,22.0960625,22.0960625,20.1050625,20.30975,19.705625,17.32835417,0,1,0,0,0,1,2.61395965
476,0,1,1,0,0,1,0,29.53272917,29.16064583,29.15583333,28.75833333,28.24691667,28.94041667,0,1,0,0,0,1,4.316650074
477,0,1,0,0,0,1,0,24.41416667,20.73375,14.10175,22.57479167,8.621875,19.99770833,0,1,0,0,0,1,2.11075279
478,1,0,1,0,0,1,0,15.1906875,24.68416667,32.77979167,29.52916667,26.73064583,30.64479167,0,1,0,0,0,1,1.2241340459999999
479,0,0,1,1,0,1,0,4.31275,11.31058333,16.91229167,29.42833333,30.630625,29.62,0,1,0,0,0,1,1.388760838
480,1,1,0,0,0,1,0,9.139130435,23.0,2.34137931,7.680769231,10.72314583,0.809854167,0,0,1,0,0,0,2.012739366
481,0,0,1,1,0,1,0,20.29583333,11.564,7.38,11.08,17.36875,12.62272727,0,0,1,0,0,0,3.236988408
482,0,0,1,0,0,1,0,4.909090909,4.909090909,14.56190476,9.892000000000001,20.29583333,11.564,0,0,1,0,0,0,2.819543482
483,1,0,1,1,0,1,0,7.680769231,10.72314583,0.809854167,7.3688125,7.858541667000001,23.71157447,0,0,1,0,0,0,2.50754035
484,1,1,0,0,0,1,0,7.38,11.08,17.36875,12.62272727,9.139130435,23.0,0,0,1,0,0,0,1.571535052
485,0,1,0,0,0,0,1,17.80931034,17.80931034,14.1165,13.08421951,11.35978723,14.14595745,0,1,0,1,0,1,5.630252447
486,0,1,1,0,0,0,1,26.58945946,23.43479545,22.3266875,22.17020833,24.01489362,24.45823529,0,1,0,1,0,1,2.518161792
487,0,0,1,0,0,0,1,11.58932432,11.58932432,10.15734211,10.5955,11.3316087,17.52333333,0,1,0,1,0,1,3.928818969
488,0,0,1,1,0,0,1,16.11336111,13.63431818,12.00661538,15.47957778,12.17073684,11.58932432,0,1,0,1,0,1,2.53635281
489,0,0,1,0,0,0,1,12.76166667,11.36423077,11.00746875,4.115607143,8.277333333,12.98115385,0,1,0,1,0,1,6.499204816000001
490,0,1,1,1,0,0,1,18.9685625,16.8954375,16.83708333,19.1996087,21.86025,21.775,0,1,0,1,0,1,4.017663392
491,0,0,1,0,0,0,1,11.58932432,10.15734211,10.5955,11.3316087,17.52333333,13.065,0,1,0,1,0,1,3.928818969
492,0,1,0,0,0,0,1,17.80931034,14.1165,13.08421951,11.35978723,14.14595745,14.14595745,0,1,0,1,0,1,5.630252447
493,0,0,0,1,0,0,1,4.115607143,8.277333333,12.98115385,17.2335625,24.212,22.50619048,0,1,0,1,0,1,1.5373434780000002
494,0,1,0,0,0,0,1,14.1165,13.08421951,11.35978723,14.14595745,14.14595745,17.19744186,0,1,0,1,0,1,4.665805436
495,0,1,1,0,0,0,1,20.59608333,19.1519375,20.72375,20.72375,16.40189583,16.20044681,0,1,0,1,0,1,2.522017988
496,0,0,0,1,0,0,1,11.00746875,4.115607143,8.277333333,12.98115385,17.2335625,24.212,0,1,0,1,0,1,2.715628765
497,0,1,1,0,0,0,1,24.01489362,24.45823529,19.08028205,18.55744681,18.89777778,17.65333333,0,1,0,1,0,1,2.1149023319999998
498,0,1,1,0,0,0,1,25.0225,26.58945946,23.43479545,22.3266875,22.17020833,24.01489362,0,1,0,1,0,1,2.536102241
499,0,1,0,0,0,0,1,11.35978723,14.14595745,14.14595745,17.19744186,16.82292683,20.67361111,0,1,0,1,0,1,3.4500462119999997
500,1,0,0,0,0,0,1,22.50619048,18.90710417,19.055,17.62041667,19.0910625,19.0910625,0,1,0,1,0,1,6.158112302
501,0,1,1,0,0,0,1,23.43479545,22.3266875,22.17020833,24.01489362,24.45823529,19.08028205,0,1,0,1,0,1,2.23963345
502,0,1,1,1,0,0,1,16.8954375,16.83708333,19.1996087,21.86025,21.775,19.23590909,0,1,0,1,0,1,3.169557587
503,0,1,0,0,0,0,1,16.82292683,20.67361111,16.11673913,13.54621429,14.40720513,16.11336111,0,1,0,1,0,1,3.803666161
504,0,1,1,1,0,0,1,19.055,17.62041667,19.0910625,19.0910625,19.51541667,18.9685625,0,1,0,1,0,1,5.092852872
505,0,1,0,0,0,0,1,16.11673913,13.54621429,14.40720513,16.11336111,16.11336111,13.63431818,0,1,0,1,0,1,4.8883294919999996
506,0,0,1,0,0,0,1,10.15734211,10.5955,11.3316087,17.52333333,13.065,12.76166667,0,1,0,1,0,1,3.3893923939999997
507,0,1,1,1,0,0,1,21.775,19.23590909,23.98532353,22.21285714,22.21285714,19.63085417,0,1,0,1,0,1,3.609613247
508,0,1,0,0,0,0,1,14.40720513,16.11336111,16.11336111,13.63431818,12.00661538,15.47957778,0,1,0,1,0,1,3.6489043139999997
509,0,0,1,0,1,0,1,25.47409091,7.12662963,8.86156,9.285833333,3.35175,18.71,0,1,0,1,0,0,1.535185695
510,0,0,1,1,1,0,0,7.8125625,21.80308696,23.10565217,18.30483333,21.05895652,19.69322917,0,0,1,0,1,1,2.177056774
511,0,0,1,1,0,0,1,10.07708333,7.1577083329999995,9.147083333,7.94125,8.109166667,11.68541667,0,0,1,1,1,0,2.2180024680000003
512,0,0,1,1,0,0,1,10.39333333,9.758958332999999,10.07708333,7.1577083329999995,9.147083333,7.94125,0,0,1,1,1,0,1.9045439419999999
513,1,1,0,0,0,0,1,2.857916667,11.44916667,11.44916667,17.98270833,7.998958332999999,16.475,0,0,1,1,1,0,1.689284086
514,0,0,1,0,0,0,1,8.109166667,11.68541667,15.13427083,7.255875,0.5299166670000001,4.1308125,0,0,1,1,1,0,2.0210575769999997
515,0,0,1,0,0,0,1,9.147083333,7.94125,8.109166667,11.68541667,15.13427083,7.255875,0,0,1,1,1,0,1.897955181
516,0,0,0,1,1,0,0,3.35175,18.71,21.21,8.21,8.21,17.3,0,1,0,0,1,1,1.008381169
517,0,1,0,0,1,0,0,7.12662963,8.86156,9.285833333,3.35175,18.71,21.21,0,1,0,0,1,1,2.309701006
518,1,1,0,0,0,0,1,7.858541667000001,23.71157447,27.58202128,20.91673171,20.91673171,33.01676596,0,0,0,1,1,1,2.009880381
519,0,0,1,1,0,0,1,0.809854167,7.3688125,7.858541667000001,23.71157447,27.58202128,20.91673171,0,0,0,1,1,1,1.961184778
520,0,1,0,1,0,0,1,15.13427083,7.255875,0.5299166670000001,4.1308125,0.651979167,1.65825,0,0,1,1,0,1,1.506894046
521,1,0,0,1,0,0,1,13.15020833,9.965416667000001,10.80416667,17.64567391,7.8125625,21.80308696,0,0,1,1,0,0,1.6634150719999998
522,0,0,1,0,0,0,1,4.1308125,0.651979167,1.65825,1.8906041669999998,13.15020833,13.15020833,0,0,1,1,0,0,2.316247224
523,0,0,1,1,0,0,1,0.5299166670000001,4.1308125,0.651979167,1.65825,1.8906041669999998,13.15020833,0,0,1,1,0,0,3.4372006319999997
524,0,1,0,1,0,0,1,10.94797917,13.36170833,13.77441667,13.77441667,0.5440625,3.7595416669999997,0,0,0,0,0,1,2.279251855
525,0,1,0,1,0,0,1,10.94797917,10.94797917,13.36170833,13.77441667,13.77441667,0.5440625,0,0,0,0,0,1,2.279251855
526,0,0,1,1,0,1,0,18.71,21.21,8.21,8.21,17.3,24.12733333,0,1,0,0,1,0,3.453986027
527,0,0,1,1,0,1,0,8.21,17.3,24.12733333,22.0960625,22.0960625,20.1050625,0,1,0,0,1,0,1.176754308
528,0,0,1,1,0,0,1,3.631360833,2.857916667,11.44916667,11.44916667,17.98270833,7.998958332999999,0,0,1,1,1,1,1.923411945
