,WS,WS-1,WS-2,WS-3,WS-4,WS-5,RH,RH-1,RH-2,RH-3,RH-4,RH-5,TA,TA-1,TA-2,TA-3,TA-4,TA-5,Eeflux_LST,Eeflux_NDVI,Eeflux_Albedo,Site_1,Site_2,Site_3,Site_4,Site_5,Month_1,Month_2,Month_3,Month_4,Vegetation_1,Vegetation_2,Vegetation_3,Eeflux_LST-1,Eeflux_LST-2,Eeflux_LST-3,Eeflux_LST-4,Eeflux_LST-5,Eeflux_Albedo-1,Eeflux_Albedo-2,Eeflux_Albedo-3,Eeflux_Albedo-4,Eeflux_Albedo-5,Eeflux_NDVI-1,Eeflux_NDVI-2,Eeflux_NDVI-3,Eeflux_NDVI-4,Eeflux_NDVI-5,Eeflux_ET
0,1.9649166669999998,1.512666667,2.284041667,3.844375,2.4192291669999997,4.049791667,80.71579167,68.38333333,58.77214583,68.278125,52.80664583,42.37083333,14.14864583,29.56,13.22075,13.834375,9.588229167,0.566666667,291.88,0.61,0.141,0,0,0,0,1,0,0,1,0,0,0,1,307.08,298.94,294.58,285.7,296.66,0.17,0.141,0.165,0.125,0.16699999999999998,0.7440000000000001,0.5920000000000001,0.741,0.462,0.252,1.14479816
1,1.188875,2.068571429,1.756,2.3312,2.583333333,1.962592593,59.99054167,74.3715,71.29666667,51.056000000000004,50.21481481,64.51485185,22.51952083,29.72857143,28.73,26.336,24.52592593,22.17407407,303.92,0.82,0.152,0,0,0,0,1,0,0,1,1,0,0,1,297.98,304.86,301.56,303.76,297.88,0.174,0.16899999999999998,0.161,0.17,0.163,0.785,0.78,0.737,0.755,0.6890000000000001,2.783199787
2,2.3974,1.217894737,5.027291667,1.817193548,0.663333333,1.576058824,60.441,59.47368421,59.66520833,51.32064516,45.66666667,76.98535294,20.188,8.363157895,0.662708333,6.836774194,9.6,20.99294118,293.38,0.6679999999999999,0.11800000000000001,0,0,0,1,0,1,0,1,0,0,1,0,284.78,275.56,284.42,284.3,295.62,0.14300000000000002,0.175,0.11800000000000001,0.13699999999999998,0.11,0.521,0.584,0.782,0.625,0.765,2.476480961
3,1.1723,4.94,3.015,2.3974,1.217894737,5.027291667,37.6111,47.9,46.95,60.441,59.47368421,59.66520833,25.029,8.3,17.2,20.188,8.363157895,0.662708333,301.22,0.7490000000000001,0.12,0,0,0,1,0,0,0,0,1,0,1,0,283.98,287.78,293.38,284.78,275.56,0.154,0.15,0.11800000000000001,0.14300000000000002,0.175,0.395,0.441,0.6679999999999999,0.521,0.584,0.3
4,2.618947368,1.1723,4.94,3.015,2.3974,1.217894737,55.34157895,37.6111,47.9,46.95,60.441,59.47368421,28.39263158,25.029,8.3,17.2,20.188,8.363157895,305.96,0.725,0.115,0,0,0,1,0,0,0,0,1,0,1,0,301.22,283.98,287.78,293.38,284.78,0.12,0.154,0.15,0.11800000000000001,0.14300000000000002,0.7490000000000001,0.395,0.441,0.6679999999999999,0.521,6.36339283
5,2.127571429,2.7713333330000003,2.9885,1.227391304,1.942380952,0.895,52.50071429,29.732,59.34,55.75652174,35.41904762,40.68,11.69214286,13.914000000000001,9.85,0.534782609,7.033333333,19.04,286.4,0.762,0.124,0,0,0,1,0,1,0,1,1,0,1,0,289.18,286.96,278.36,285.7,295.74,0.14800000000000002,0.16,0.141,0.154,0.16399999999999998,0.35600000000000004,0.469,0.45299999999999996,0.5479999999999999,0.634,0.3
6,2.2765,2.3765,2.7615,2.2244827590000003,2.3465517240000002,2.406923077,48.025,28.91266667,29.0,22.50793103,58.72206897,62.67807692,29.475,21.34866667,23.10933333,24.66206897,15.14310345,11.73830769,305.58,0.924,0.124,0,0,0,1,0,0,0,0,1,0,1,0,313.32,308.3,312.88,301.22,302.48,0.152,0.152,0.147,0.15,0.15,0.348,0.48700000000000004,0.34299999999999997,0.447,0.32,7.106262207
7,0.54,1.267916667,2.452833333,2.298125,1.8880000000000001,2.2765,75.4,88.86395833,14.07166667,79.9925,34.451,48.025,23.415,13.421625,29.64673333,11.67872917,14.720999999999998,29.475,312.76,0.715,0.11199999999999999,0,0,0,1,0,0,0,1,0,0,1,0,297.22,312.04,289.84,299.82,305.58,0.2,0.152,0.196,0.154,0.124,0.823,0.465,0.6890000000000001,0.47700000000000004,0.924,4.840503216
8,4.925625,2.04875,4.443125,1.4553125,5.418333333,4.162173913,48.975,64.52291667,62.35,65.565625,55.16666667,66.3173913,7.45625,-7.129166667000001,4.6125,18.23125,5.4,9.139130435,285.0,0.203,0.185,0,0,0,1,1,1,1,0,0,0,1,1,274.82,284.48,292.64,282.62,284.2,0.17800000000000002,0.19,0.12300000000000001,0.183,0.14400000000000002,0.278,0.31,0.7809999999999999,0.299,0.473,2.211178303
9,7.149375,2.931428571,4.925625,2.04875,4.443125,1.4553125,50.40833333,49.26190476,48.975,64.52291667,62.35,65.565625,15.73333333,14.60952381,7.45625,-7.129166667000001,4.6125,18.23125,298.02,0.267,0.174,0,0,0,1,1,1,0,0,0,0,1,1,295.5,285.0,274.82,284.48,292.64,0.15,0.185,0.17800000000000002,0.19,0.12300000000000001,0.434,0.203,0.278,0.31,0.7809999999999999,0.3
10,5.5072916670000005,2.422413793,2.487,2.162454545,3.1259259260000003,7.149375,73.5875,49.5,35.40930769,53.02909091,55.8592963,50.40833333,21.54583333,19.96206897,24.95307692,15.86545455,22.51481481,15.73333333,302.42,0.64,0.18100000000000002,0,0,0,1,1,0,0,0,1,0,1,1,300.92,303.56,297.68,296.26,298.02,0.163,0.128,0.11800000000000001,0.15,0.174,0.7020000000000001,0.7,0.604,0.45799999999999996,0.267,0.3
11,3.191458333,1.538888889,2.2328333330000003,1.767826087,5.5072916670000005,2.422413793,62.10625,75.02962963,64.2925,47.94913043,73.5875,49.5,28.43125,28.14814815,30.45841667,28.43,21.54583333,19.96206897,311.8,0.667,0.182,0,0,0,1,1,0,0,1,1,0,1,1,301.48,307.06,304.22,302.42,300.92,0.192,0.11199999999999999,0.134,0.18100000000000002,0.163,0.7659999999999999,0.742,0.774,0.64,0.7020000000000001,4.579813957
12,1.7058333330000002,1.3508333330000002,1.608,3.191458333,1.538888889,2.2328333330000003,67.22291667,91.4125,71.52,62.10625,75.02962963,64.2925,18.4375,23.69166667,27.612,28.43125,28.14814815,30.45841667,303.98,0.69,0.184,0,0,0,1,1,0,1,0,0,0,1,1,302.8,303.2,311.8,301.48,307.06,0.159,0.159,0.182,0.192,0.11199999999999999,0.736,0.83,0.667,0.7659999999999999,0.742,2.492971659
13,1.672307692,2.618947368,1.1723,4.94,3.015,2.3974,61.63076923,55.34157895,37.6111,47.9,46.95,60.441,26.40769231,28.39263158,25.029,8.3,17.2,20.188,304.44,0.111,0.17600000000000002,0,0,1,0,0,0,0,1,0,0,1,1,305.96,301.22,283.98,287.78,293.38,0.115,0.12,0.154,0.15,0.11800000000000001,0.725,0.7490000000000001,0.395,0.441,0.6679999999999999,0.3
14,2.0140740740000003,1.672307692,2.618947368,1.1723,4.94,3.015,67.05555556,61.63076923,55.34157895,37.6111,47.9,46.95,29.02596296,26.40769231,28.39263158,25.029,8.3,17.2,306.62,0.7070000000000001,0.14300000000000002,0,0,1,0,0,0,1,0,1,0,1,1,304.44,305.96,301.22,283.98,287.78,0.17600000000000002,0.115,0.12,0.154,0.15,0.111,0.725,0.7490000000000001,0.395,0.441,0.3
15,1.69375,2.0140740740000003,1.672307692,2.618947368,1.1723,4.94,75.65416667,67.05555556,61.63076923,55.34157895,37.6111,47.9,25.16666667,29.02596296,26.40769231,28.39263158,25.029,8.3,302.72,0.7559999999999999,0.15,0,0,1,0,0,0,1,1,0,0,1,1,306.62,304.44,305.96,301.22,283.98,0.14300000000000002,0.17600000000000002,0.115,0.12,0.154,0.7070000000000001,0.111,0.725,0.7490000000000001,0.395,0.3
16,2.51,1.69375,2.0140740740000003,1.672307692,2.618947368,1.1723,67.976,75.65416667,67.05555556,61.63076923,55.34157895,37.6111,15.716,25.16666667,29.02596296,26.40769231,28.39263158,25.029,295.02,0.693,0.149,0,0,1,0,0,0,1,1,0,0,1,1,302.72,306.62,304.44,305.96,301.22,0.15,0.14300000000000002,0.17600000000000002,0.115,0.12,0.7559999999999999,0.7070000000000001,0.111,0.725,0.7490000000000001,1.200462937
17,1.241111111,2.51,1.69375,2.0140740740000003,1.672307692,2.618947368,39.75,67.976,75.65416667,67.05555556,61.63076923,55.34157895,22.38888889,15.716,25.16666667,29.02596296,26.40769231,28.39263158,300.6,0.687,0.152,0,0,1,0,0,0,1,1,0,0,1,1,295.02,302.72,306.62,304.44,305.96,0.149,0.15,0.14300000000000002,0.17600000000000002,0.115,0.693,0.7559999999999999,0.7070000000000001,0.111,0.725,2.073215961
18,0.895,1.241111111,2.51,1.69375,2.0140740740000003,1.672307692,40.68,39.75,67.976,75.65416667,67.05555556,61.63076923,19.04,22.38888889,15.716,25.16666667,29.02596296,26.40769231,295.74,0.634,0.16399999999999998,0,0,1,0,0,0,1,1,1,0,1,1,300.6,295.02,302.72,306.62,304.44,0.152,0.149,0.15,0.14300000000000002,0.17600000000000002,0.687,0.693,0.7559999999999999,0.7070000000000001,0.111,1.308443546
19,1.942380952,0.895,1.241111111,2.51,1.69375,2.0140740740000003,35.41904762,40.68,39.75,67.976,75.65416667,67.05555556,7.033333333,19.04,22.38888889,15.716,25.16666667,29.02596296,285.7,0.5479999999999999,0.154,0,0,1,0,0,0,1,1,1,0,1,1,295.74,300.6,295.02,302.72,306.62,0.16399999999999998,0.152,0.149,0.15,0.14300000000000002,0.634,0.687,0.693,0.7559999999999999,0.7070000000000001,0.503912568
20,1.227391304,1.942380952,0.895,1.241111111,2.51,1.69375,55.75652174,35.41904762,40.68,39.75,67.976,75.65416667,0.534782609,7.033333333,19.04,22.38888889,15.716,25.16666667,278.36,0.45299999999999996,0.141,0,0,1,0,0,1,0,1,0,0,1,1,285.7,295.74,300.6,295.02,302.72,0.154,0.16399999999999998,0.152,0.149,0.15,0.5479999999999999,0.634,0.687,0.693,0.7559999999999999,0.3
21,2.9885,1.227391304,1.942380952,0.895,1.241111111,2.51,59.34,55.75652174,35.41904762,40.68,39.75,67.976,9.85,0.534782609,7.033333333,19.04,22.38888889,15.716,286.96,0.469,0.16,0,0,1,0,0,1,0,1,1,0,1,1,278.36,285.7,295.74,300.6,295.02,0.141,0.154,0.16399999999999998,0.152,0.149,0.45299999999999996,0.5479999999999999,0.634,0.687,0.693,0.3
22,2.467142857,2.0889583330000003,2.446136364,4.587058824,2.166363636,3.94125,55.176238100000006,31.35254167,32.64009091,65.96941176,25.07272727,75.23875,4.242857143,16.3025,9.646954545,6.431882353,7.086909091,3.35175,282.5,0.46,0.135,0,0,1,0,0,1,1,0,0,0,1,1,288.46,284.9,284.06,284.1,284.94,0.153,0.152,0.152,0.149,0.151,0.307,0.322,0.47200000000000003,0.5379999999999999,0.375,0.3
23,4.2445833330000005,1.98625,1.810416667,3.38028125,10.22626316,10.16938,52.52083333,82.29375,78.52854167,56.176875,48.71052632,45.2935,7.058958333,7.81875,-2.292916667,18.2525,29.06368421,29.9525,274.66,0.46799999999999997,0.17600000000000002,0,0,1,0,1,1,0,1,0,0,0,1,279.8,275.42,294.04,299.42,297.98,0.162,0.163,0.19,0.19,0.218,0.5589999999999999,0.8170000000000001,0.527,0.396,0.35700000000000004,0.3
24,2.47875,4.2445833330000005,1.98625,1.810416667,3.38028125,10.22626316,84.44270833,52.52083333,82.29375,78.52854167,56.176875,48.71052632,-1.53375,7.058958333,7.81875,-2.292916667,18.2525,29.06368421,273.66,0.6559999999999999,0.147,0,0,1,0,1,1,0,1,0,0,0,1,274.66,279.8,275.42,294.04,299.42,0.17600000000000002,0.162,0.163,0.19,0.19,0.46799999999999997,0.5589999999999999,0.8170000000000001,0.527,0.396,0.3
25,4.813333333,1.475975375,0.916482479,1.8971458540000001,0.928869417,4.22658,80.203125,76.44235479,79.8140201,85.70632671,94.02919674,42.95533333,-3.2525,-1.264147437,-3.826919938,0.038167354,0.22679144399999998,11.47106667,269.62,-0.017,0.634,0,0,1,0,1,1,0,1,1,0,0,1,274.08,272.36,274.2,275.06,285.6,0.11900000000000001,0.126,0.126,0.12,0.191,0.474,0.484,0.516,0.71,0.514,0.3
26,3.525625,5.37706875,4.813333333,1.475975375,0.916482479,1.8971458540000001,84.54041667,33.64,80.203125,76.44235479,79.8140201,85.70632671,1.235,14.2394375,-3.2525,-1.264147437,-3.826919938,0.038167354,273.4,0.048,0.513,0,0,1,0,1,1,1,0,0,0,0,1,286.76,269.62,274.08,272.36,274.2,0.177,0.634,0.11900000000000001,0.126,0.126,0.5720000000000001,-0.017,0.474,0.484,0.516,0.3
27,5.284166667,2.9304615380000003,3.525625,5.37706875,4.813333333,1.475975375,60.710625,51.02076923,84.54041667,33.64,80.203125,76.44235479,7.877083333,18.96492308,1.235,14.2394375,-3.2525,-1.264147437,284.44,0.433,0.159,0,0,1,0,1,1,1,0,0,0,0,1,297.06,273.4,286.76,269.62,274.08,0.188,0.513,0.177,0.634,0.11900000000000001,0.643,0.048,0.5720000000000001,-0.017,0.474,0.743035793
28,2.7989583330000003,5.63817,3.849415385,5.284166667,2.9304615380000003,3.525625,77.399375,42.418,24.67153846,60.710625,51.02076923,84.54041667,4.787708333,7.6285,13.55115385,7.877083333,18.96492308,1.235,281.82,0.475,0.145,0,0,1,0,1,1,0,0,0,0,0,1,287.78,290.78,284.44,297.06,273.4,0.19699999999999998,0.187,0.159,0.188,0.513,0.7559999999999999,0.575,0.433,0.643,0.048,1.2589033840000001
29,1.8752083330000002,2.156075,8.6457,4.8988,3.010185714,4.07446,74.22,72.045,56.29,35.61,50.25428571,54.912,2.760416667,14.14,26.41,20.47,17.08571429,20.168,275.9,0.040999999999999995,0.18899999999999997,0,0,1,0,1,0,0,0,1,0,0,1,299.6,300.64,296.54,296.16,293.72,0.166,0.16699999999999998,0.183,0.177,0.168,0.787,0.514,0.522,0.7929999999999999,0.312,0.3
30,2.762291667,1.8752083330000002,2.156075,8.6457,4.8988,3.010185714,59.65208333,74.22,72.045,56.29,35.61,50.25428571,6.775416667000001,2.760416667,14.14,26.41,20.47,17.08571429,281.16,0.304,0.19,0,0,1,0,1,0,0,0,1,0,0,1,275.9,299.6,300.64,296.54,296.16,0.18899999999999997,0.166,0.16699999999999998,0.183,0.177,0.040999999999999995,0.787,0.514,0.522,0.7929999999999999,1.218460798
31,1.543125,2.866141667,1.94095,1.488340021,4.278129412,5.5161,54.06083333,35.09166667,44.27,74.01757498,47.64529412,45.62,16.15854167,28.16333333,23.01,15.36528719,24.14352941,24.44,300.96,0.75,0.174,0,0,1,0,1,0,0,1,0,0,0,1,306.48,300.98,298.8,300.14,299.84,0.174,0.16699999999999998,0.18,0.16,0.163,0.5,0.632,0.634,0.73,0.578,2.647957444
32,2.73,1.543125,2.866141667,1.94095,1.488340021,4.278129412,62.031875,54.06083333,35.09166667,44.27,74.01757498,47.64529412,18.53208333,16.15854167,28.16333333,23.01,15.36528719,24.14352941,297.06,0.667,0.174,0,0,1,0,1,0,0,1,0,0,0,1,300.96,306.48,300.98,298.8,300.14,0.174,0.174,0.16699999999999998,0.18,0.16,0.75,0.5,0.632,0.634,0.73,3.2063477039999997
33,2.353958333,3.32305,2.73,1.543125,2.866141667,1.94095,70.7375,43.97642857,62.031875,54.06083333,35.09166667,44.27,15.73541667,30.62357143,18.53208333,16.15854167,28.16333333,23.01,292.24,0.69,0.22699999999999998,0,0,1,0,1,0,0,1,1,0,0,1,308.36,297.06,300.96,306.48,300.98,0.179,0.174,0.174,0.174,0.16699999999999998,0.43200000000000005,0.667,0.75,0.5,0.632,1.3602610830000001
34,2.266458333,2.353958333,3.32305,2.73,1.543125,2.866141667,68.62604167,70.7375,43.97642857,62.031875,54.06083333,35.09166667,18.95979167,15.73541667,30.62357143,18.53208333,16.15854167,28.16333333,298.76,0.588,0.171,0,0,1,0,1,0,1,0,0,0,0,1,292.24,308.36,297.06,300.96,306.48,0.22699999999999998,0.179,0.174,0.174,0.174,0.69,0.43200000000000005,0.667,0.75,0.5,3.7193806169999997
35,4.626666667,2.2804133330000003,2.266458333,2.353958333,3.32305,2.73,62.48979167,63.396,68.62604167,70.7375,43.97642857,62.031875,13.53458333,26.60866667,18.95979167,15.73541667,30.62357143,18.53208333,292.6,0.518,0.151,0,0,1,0,1,0,1,0,1,0,0,1,300.78,298.76,292.24,308.36,297.06,0.18600000000000003,0.171,0.22699999999999998,0.179,0.174,0.6559999999999999,0.588,0.69,0.43200000000000005,0.667,1.176084161
36,2.648958333,4.108928578,4.626666667,2.2804133330000003,2.266458333,2.353958333,64.621875,32.00822222,62.48979167,63.396,68.62604167,70.7375,15.35375,15.24977778,13.53458333,26.60866667,18.95979167,15.73541667,292.78,0.7490000000000001,0.157,0,0,1,0,1,0,1,1,0,0,0,1,299.2,292.6,300.78,298.76,292.24,0.201,0.151,0.18600000000000003,0.171,0.22699999999999998,0.254,0.518,0.6559999999999999,0.588,0.69,1.99990201
37,3.56375,2.450930804,2.648958333,4.108928578,4.626666667,2.2804133330000003,85.96583333,69.66130435,64.621875,32.00822222,62.48979167,63.396,-2.992916667,13.37417391,15.35375,15.24977778,13.53458333,26.60866667,271.62,0.706,0.156,0,0,1,0,1,1,0,1,0,0,0,1,296.32,292.78,299.2,292.6,300.78,0.203,0.157,0.201,0.151,0.18600000000000003,0.251,0.7490000000000001,0.254,0.518,0.6559999999999999,0.3
38,2.201875,1.311433826,3.56375,2.450930804,2.648958333,4.108928578,80.21041667,73.22586957,85.96583333,69.66130435,64.621875,32.00822222,-6.366041667,12.40482609,-2.992916667,13.37417391,15.35375,15.24977778,266.98,0.209,0.377,0,0,1,0,1,1,1,0,0,0,0,1,287.12,271.62,296.32,292.78,299.2,0.046,0.156,0.203,0.157,0.201,0.215,0.706,0.251,0.7490000000000001,0.254,0.5281357170000001
39,1.800208333,2.201875,1.311433826,3.56375,2.450930804,2.648958333,78.634375,80.21041667,73.22586957,85.96583333,69.66130435,64.621875,-2.36375,-6.366041667,12.40482609,-2.992916667,13.37417391,15.35375,274.62,0.43200000000000005,0.156,0,0,1,0,1,1,1,0,0,0,0,1,266.98,287.12,271.62,296.32,292.78,0.377,0.046,0.156,0.203,0.157,0.209,0.215,0.706,0.251,0.7490000000000001,0.3
40,1.4120833330000002,1.800208333,2.201875,1.311433826,3.56375,2.450930804,75.465625,78.634375,80.21041667,73.22586957,85.96583333,69.66130435,-3.8025,-2.36375,-6.366041667,12.40482609,-2.992916667,13.37417391,274.6,0.35200000000000004,0.157,0,0,1,0,1,1,1,0,0,0,0,1,274.62,266.98,287.12,271.62,296.32,0.156,0.377,0.046,0.156,0.203,0.43200000000000005,0.209,0.215,0.706,0.251,0.38710609100000004
41,3.681458333,0.8995266279999999,1.4120833330000002,1.800208333,2.201875,1.311433826,76.974375,63.07418605,75.465625,78.634375,80.21041667,73.22586957,-5.086666667,11.20748837,-3.8025,-2.36375,-6.366041667,12.40482609,271.52,0.45299999999999996,0.18,0,0,1,0,1,1,1,0,0,0,0,1,294.16,274.6,274.62,266.98,287.12,0.076,0.157,0.156,0.377,0.046,0.34,0.35200000000000004,0.43200000000000005,0.209,0.215,1.011308432
42,4.091875,3.681458333,0.8995266279999999,1.4120833330000002,1.800208333,2.201875,65.74541667,76.974375,63.07418605,75.465625,78.634375,80.21041667,-10.39895833,-5.086666667,11.20748837,-3.8025,-2.36375,-6.366041667,266.82,0.40299999999999997,0.183,0,0,1,0,1,1,0,0,0,0,0,1,271.52,294.16,274.6,274.62,266.98,0.18,0.076,0.157,0.156,0.377,0.45299999999999996,0.34,0.35200000000000004,0.43200000000000005,0.209,0.722828597
43,3.9425,4.091875,3.681458333,0.8995266279999999,1.4120833330000002,1.800208333,68.31,65.74541667,76.974375,63.07418605,75.465625,78.634375,-8.718333333,-10.39895833,-5.086666667,11.20748837,-3.8025,-2.36375,272.88,0.187,0.17600000000000002,0,0,1,0,1,1,0,0,0,0,0,1,266.82,271.52,294.16,274.6,274.62,0.183,0.18,0.076,0.157,0.156,0.40299999999999997,0.45299999999999996,0.34,0.35200000000000004,0.43200000000000005,0.3
44,4.25375,2.501234417,1.8380791840000001,2.206239,3.9425,4.091875,54.55145833,72.5605968,58.45947368,71.03355556,68.31,65.74541667,11.97104167,8.362234375,18.03157895,6.7249777779999995,-8.718333333,-10.39895833,288.7,0.299,0.142,0,0,1,0,1,1,0,0,1,0,0,1,280.38,298.82,290.12,272.88,266.82,0.149,0.11800000000000001,0.10400000000000001,0.17600000000000002,0.183,0.494,0.39,0.349,0.187,0.40299999999999997,2.8622043130000003
45,2.920833333,4.333523769,5.965555571,4.34851817,4.585773119,1.8943642859999998,67.63083333,47.23641026,50.87228571,60.11042553,62.61595238,50.47314286,17.12041667,20.56076923,20.39171429,14.69212766,13.16047619,17.28105714,300.92,0.44,0.183,0,0,1,0,1,0,0,1,0,0,0,1,310.34,307.9,303.96,297.14,301.92,0.121,0.14300000000000002,0.141,0.128,0.128,0.29600000000000004,0.282,0.32299999999999995,0.402,0.524,2.426237822
46,2.142083333,4.6776685780000005,5.183065167,2.79177213,2.920833333,4.333523769,57.52520833,65.27511111,61.68541667,60.04826087,67.63083333,47.23641026,19.956875,19.50888889,19.404375,17.65695652,17.12041667,20.56076923,301.06,0.701,0.171,0,0,1,0,1,0,0,1,0,0,0,1,313.08,315.42,304.26,300.92,310.34,0.133,0.122,0.12300000000000001,0.183,0.121,0.461,0.31,0.46299999999999997,0.44,0.29600000000000004,0.3
47,1.351666667,2.076183429,3.7423654789999996,3.463381333,2.142083333,4.6776685780000005,68.974375,46.928000000000004,69.66395833,68.62375,57.52520833,65.27511111,17.50020833,25.331999999999997,17.348125,18.83125,19.956875,19.50888889,300.84,0.68,0.168,0,0,1,0,1,0,0,1,1,0,0,1,308.8,307.08,303.06,301.06,313.08,0.166,0.14300000000000002,0.141,0.171,0.133,0.752,0.56,0.675,0.701,0.461,4.106770753999999
48,1.452291667,2.9742377839999996,1.351666667,2.076183429,3.7423654789999996,3.463381333,64.065,55.46648649,68.974375,46.928000000000004,69.66395833,68.62375,19.61083333,24.29216216,17.50020833,25.331999999999997,17.348125,18.83125,302.94,0.655,0.193,0,0,1,0,1,0,0,1,1,0,0,1,307.42,300.84,308.8,307.08,303.06,0.18600000000000003,0.168,0.166,0.14300000000000002,0.141,0.775,0.68,0.752,0.56,0.675,4.8183803560000005
49,1.4304166669999998,2.9847314999999996,1.452291667,2.9742377839999996,1.351666667,2.076183429,42.39604167,55.62645833,64.065,55.46648649,68.974375,46.928000000000004,26.47041667,21.93791667,19.61083333,24.29216216,17.50020833,25.331999999999997,311.92,0.748,0.187,0,0,1,0,1,0,0,1,1,0,0,1,305.62,302.94,307.42,300.84,308.8,0.193,0.193,0.18600000000000003,0.168,0.166,0.8170000000000001,0.655,0.775,0.68,0.752,0.3
50,1.4829166669999998,1.4304166669999998,2.9847314999999996,1.452291667,2.9742377839999996,1.351666667,51.47479167,42.39604167,55.62645833,64.065,55.46648649,68.974375,25.65145833,26.47041667,21.93791667,19.61083333,24.29216216,17.50020833,307.92,0.5820000000000001,0.188,0,0,1,0,1,0,1,0,0,0,0,1,311.92,305.62,302.94,307.42,300.84,0.187,0.193,0.193,0.18600000000000003,0.168,0.748,0.8170000000000001,0.655,0.775,0.68,4.784526348
51,1.75125,1.4829166669999998,1.4304166669999998,2.9847314999999996,1.452291667,2.9742377839999996,47.64458333,51.47479167,42.39604167,55.62645833,64.065,55.46648649,24.38208333,25.65145833,26.47041667,21.93791667,19.61083333,24.29216216,309.04,0.59,0.188,0,0,1,0,1,0,1,0,0,0,0,1,307.92,311.92,305.62,302.94,307.42,0.188,0.187,0.193,0.193,0.18600000000000003,0.5820000000000001,0.748,0.8170000000000001,0.655,0.775,3.779826403
52,1.254583333,1.75125,1.4829166669999998,1.4304166669999998,2.9847314999999996,1.452291667,53.70958333,47.64458333,51.47479167,42.39604167,55.62645833,64.065,19.753125,24.38208333,25.65145833,26.47041667,21.93791667,19.61083333,307.64,0.6890000000000001,0.188,0,0,1,0,1,0,1,0,0,0,0,1,309.04,307.92,311.92,305.62,302.94,0.188,0.188,0.187,0.193,0.193,0.59,0.5820000000000001,0.748,0.8170000000000001,0.655,2.976030588
53,5.939166667,1.794714359,2.212317692,3.2164867289999997,3.773145167,1.254583333,50.37041667,56.73461538,66.31076923,72.42583333,76.56958333,53.70958333,16.63541667,18.33435897,18.8674359,16.91583333,16.11145833,19.753125,295.5,0.395,0.172,0,0,1,0,1,0,1,1,0,0,0,1,301.66,303.5,300.56,300.5,307.64,0.19,0.18899999999999997,0.19,0.19399999999999998,0.188,0.662,0.667,0.784,0.7759999999999999,0.6890000000000001,1.33238852
54,4.506875,3.603377927,0.975046187,5.939166667,1.794714359,2.212317692,67.91020833,19.65760976,58.03142362,50.37041667,56.73461538,66.31076923,10.99520833,17.00658537,18.14569583,16.63541667,18.33435897,18.8674359,281.1,0.436,0.153,0,0,1,0,1,0,1,1,1,0,0,1,304.92,299.02,295.5,301.66,303.5,0.158,0.18899999999999997,0.172,0.19,0.18899999999999997,0.24100000000000002,0.382,0.395,0.662,0.667,0.7785628440000001
55,8.11125,4.506875,3.603377927,0.975046187,5.939166667,1.794714359,51.23354167,67.91020833,19.65760976,58.03142362,50.37041667,56.73461538,-1.073541667,10.99520833,17.00658537,18.14569583,16.63541667,18.33435897,268.34,0.26899999999999996,0.13,0,0,1,0,1,0,1,1,1,0,0,1,281.1,304.92,299.02,295.5,301.66,0.153,0.158,0.18899999999999997,0.172,0.19,0.436,0.24100000000000002,0.382,0.395,0.662,0.3
56,2.3765,2.7615,2.2244827590000003,2.3465517240000002,2.406923077,4.941851852,28.91266667,29.0,22.50793103,58.72206897,62.67807692,73.33081481,21.34866667,23.10933333,24.66206897,15.14310345,11.73830769,7.12662963,313.32,0.348,0.152,0,0,1,1,0,0,0,0,1,1,0,0,308.3,312.88,301.22,302.48,288.36,0.152,0.147,0.15,0.15,0.146,0.48700000000000004,0.34299999999999997,0.447,0.32,0.413,0.3
57,1.8880000000000001,2.2765,2.3765,2.7615,2.2244827590000003,2.3465517240000002,34.451,48.025,28.91266667,29.0,22.50793103,58.72206897,14.720999999999998,29.475,21.34866667,23.10933333,24.66206897,15.14310345,299.82,0.47700000000000004,0.154,0,0,1,1,0,0,0,0,1,1,0,0,305.58,313.32,308.3,312.88,301.22,0.124,0.152,0.152,0.147,0.15,0.924,0.348,0.48700000000000004,0.34299999999999997,0.447,0.3
58,2.452833333,2.298125,1.8880000000000001,2.2765,2.3765,2.7615,14.07166667,79.9925,34.451,48.025,28.91266667,29.0,29.64673333,11.67872917,14.720999999999998,29.475,21.34866667,23.10933333,312.04,0.465,0.152,0,0,1,1,0,0,0,1,0,1,0,0,289.84,299.82,305.58,313.32,308.3,0.196,0.154,0.124,0.152,0.152,0.6890000000000001,0.47700000000000004,0.924,0.348,0.48700000000000004,2.0676119330000002
59,4.012,1.80875,1.770208333,4.06125,3.1025,2.5827083330000002,32.604,92.85416667,93.84,86.629375,90.546875,91.02166667,13.6695,8.541125,13.23529167,15.455,15.336875,14.39070833,292.24,0.456,0.156,0,0,1,1,0,0,1,1,1,1,0,0,284.56,293.22,295.74,295.54,296.34,0.152,0.141,0.145,0.145,0.161,0.546,0.591,0.35100000000000003,0.528,0.425,3.751271963
60,1.0660416670000001,2.910208333,2.468047619,3.062166667,3.20125,3.707083333,81.96291667,79.17395833,73.93604762,62.028375,58.474375,83.25395833,-0.908645833,0.36927083299999997,23.90461905,18.71185417,10.10122917,4.228604167,280.92,0.385,0.139,0,0,1,1,1,1,0,0,0,0,0,1,279.32,292.28,295.94,291.8,281.32,0.153,0.106,0.10300000000000001,0.183,0.121,0.424,0.62,0.85,0.37,0.531,0.3
61,1.688333333,2.9159393939999996,1.0660416670000001,2.910208333,2.468047619,3.062166667,77.995,84.34669697,81.96291667,79.17395833,73.93604762,62.028375,4.338104167,24.10290909,-0.908645833,0.36927083299999997,23.90461905,18.71185417,290.96,0.635,0.16,0,0,1,1,1,1,0,0,1,0,0,1,296.74,280.92,279.32,292.28,295.94,0.111,0.139,0.153,0.106,0.10300000000000001,0.8290000000000001,0.385,0.424,0.62,0.85,2.084807396
62,2.670208333,1.688333333,2.9159393939999996,1.0660416670000001,2.910208333,2.468047619,73.31,77.995,84.34669697,81.96291667,79.17395833,73.93604762,5.344458333,4.338104167,24.10290909,-0.908645833,0.36927083299999997,23.90461905,289.32,0.34600000000000003,0.161,0,0,1,1,1,1,0,0,1,0,0,1,290.96,296.74,280.92,279.32,292.28,0.16,0.111,0.139,0.153,0.106,0.635,0.8290000000000001,0.385,0.424,0.62,0.3
63,1.351666667,4.706547619,8.2641875,3.869869565,3.005486486,3.857416667,71.92020833,48.2242381,51.92572917,41.72634783,62.23340541,54.84433333,9.840395832999999,19.89890476,17.65070833,15.95047826,23.4102973,28.54083333,293.96,0.778,0.191,0,0,1,1,1,0,0,0,1,0,0,1,300.82,302.42,304.58,301.06,296.6,0.161,0.153,0.147,0.114,0.113,0.638,0.36,0.436,0.727,0.851,2.898472548
64,1.486666667,1.351666667,4.706547619,8.2641875,3.869869565,3.005486486,69.74458333,71.92020833,48.2242381,51.92572917,41.72634783,62.23340541,11.327625,9.840395832999999,19.89890476,17.65070833,15.95047826,23.4102973,297.9,0.6679999999999999,0.192,0,0,1,1,1,0,0,0,1,0,0,1,293.96,300.82,302.42,304.58,301.06,0.191,0.161,0.153,0.147,0.114,0.778,0.638,0.36,0.436,0.727,2.805195332
65,2.300833333,2.982295625,1.486666667,1.351666667,4.706547619,8.2641875,70.82625,63.40493054,69.74458333,71.92020833,48.2242381,51.92572917,15.22,13.897666699999998,11.327625,9.840395832999999,19.89890476,17.65070833,295.1,0.732,0.195,0,0,1,1,1,0,0,0,1,0,0,1,301.2,297.9,293.96,300.82,302.42,0.16399999999999998,0.192,0.191,0.161,0.153,0.409,0.6679999999999999,0.778,0.638,0.36,6.2877635960000005
66,3.527733333,3.595553191,3.156025,3.021979167,5.7198,5.7243125,87.57856667,45.56691489,77.00465,83.33629167,67.10384,57.56270833,-3.689133333,10.87834043,1.014425,0.132104167,-9.62348,4.1941875,274.06,0.27899999999999997,0.552,0,1,0,0,0,1,1,0,0,0,1,1,293.3,279.32,278.66,270.8,282.08,0.187,0.21100000000000002,0.188,0.183,0.187,0.262,0.299,0.266,0.33299999999999996,0.32899999999999996,0.3
67,2.1654166669999997,3.527733333,3.595553191,3.156025,3.021979167,5.7198,75.39204167,87.57856667,45.56691489,77.00465,83.33629167,67.10384,6.333458332999999,-3.689133333,10.87834043,1.014425,0.132104167,-9.62348,285.06,0.29,0.218,0,1,0,0,0,1,1,0,0,0,1,1,274.06,293.3,279.32,278.66,270.8,0.552,0.187,0.21100000000000002,0.188,0.183,0.27899999999999997,0.262,0.299,0.266,0.33299999999999996,0.49081659299999997
68,4.57571875,4.4738913039999995,2.1654166669999997,3.527733333,3.595553191,3.156025,75.27396875,65.07376087,75.39204167,87.57856667,45.56691489,77.00465,7.96528125,0.418413043,6.333458332999999,-3.689133333,10.87834043,1.014425,291.7,0.278,0.209,0,1,0,0,0,1,1,0,0,0,1,1,284.38,285.06,274.06,293.3,279.32,0.18600000000000003,0.218,0.552,0.187,0.21100000000000002,0.233,0.29,0.27899999999999997,0.262,0.299,0.3
69,3.99462069,5.6923125,4.57571875,4.4738913039999995,2.1654166669999997,3.527733333,78.44934483,32.87097917,75.27396875,65.07376087,75.39204167,87.57856667,2.5079310340000003,13.7953125,7.96528125,0.418413043,6.333458332999999,-3.689133333,274.84,0.228,0.207,0,1,0,0,0,1,0,0,0,0,1,1,295.66,291.7,284.38,285.06,274.06,0.188,0.209,0.18600000000000003,0.218,0.552,0.22699999999999998,0.278,0.233,0.29,0.27899999999999997,4.869628429
70,3.8728292680000003,3.99462069,5.6923125,4.57571875,4.4738913039999995,2.1654166669999997,68.8984878,78.44934483,32.87097917,75.27396875,65.07376087,75.39204167,12.22358537,2.5079310340000003,13.7953125,7.96528125,0.418413043,6.333458332999999,287.3,0.09300000000000001,0.205,0,1,0,0,0,1,0,0,0,0,1,1,274.84,295.66,291.7,284.38,285.06,0.207,0.188,0.209,0.18600000000000003,0.218,0.228,0.22699999999999998,0.278,0.233,0.29,0.3
71,2.330325,3.8728292680000003,3.99462069,5.6923125,4.57571875,4.4738913039999995,61.6788,68.8984878,78.44934483,32.87097917,75.27396875,65.07376087,4.087925,12.22358537,2.5079310340000003,13.7953125,7.96528125,0.418413043,288.26,0.275,0.203,0,1,0,0,0,1,0,0,0,0,1,1,287.3,274.84,295.66,291.7,284.38,0.205,0.207,0.188,0.209,0.18600000000000003,0.09300000000000001,0.228,0.22699999999999998,0.278,0.233,1.102663159
72,4.761638888999999,2.330325,3.8728292680000003,3.99462069,5.6923125,4.57571875,44.821999999999996,61.6788,68.8984878,78.44934483,32.87097917,75.27396875,13.26391667,4.087925,12.22358537,2.5079310340000003,13.7953125,7.96528125,287.98,0.228,0.203,0,1,0,0,0,1,0,0,0,0,1,1,288.26,287.3,274.84,295.66,291.7,0.203,0.205,0.207,0.188,0.209,0.275,0.09300000000000001,0.228,0.22699999999999998,0.278,0.3
73,3.994214286,6.582729167,4.761638888999999,2.330325,3.8728292680000003,3.99462069,53.76821429,65.135375,44.821999999999996,61.6788,68.8984878,78.44934483,11.843,15.6870625,13.26391667,4.087925,12.22358537,2.5079310340000003,290.62,0.251,0.19899999999999998,0,1,0,0,0,1,0,0,0,0,1,1,302.3,287.98,288.26,287.3,274.84,0.192,0.203,0.203,0.205,0.207,0.35600000000000004,0.228,0.275,0.09300000000000001,0.228,5.580559254
74,2.778357143,2.441666667,2.7122916669999997,3.994214286,6.582729167,4.761638888999999,32.13521429,49.12583333,68.568125,53.76821429,65.135375,44.821999999999996,17.92442857,9.072291667,5.298958333,11.843,15.6870625,13.26391667,304.56,0.261,0.182,0,1,0,0,0,1,0,0,1,0,1,1,291.08,283.9,290.62,302.3,287.98,0.155,0.139,0.19899999999999998,0.192,0.203,0.35600000000000004,0.32899999999999996,0.251,0.35600000000000004,0.228,0.3
75,11.53046154,4.089375,1.539166667,2.9641666669999998,3.160208333,2.778357143,72.5544359,51.780625,50.17958333,48.81166667,52.74729167,32.13521429,27.60905128,15.90645833,10.25854167,13.36395833,8.011458333,17.92442857,303.84,0.6890000000000001,0.16699999999999998,0,1,0,0,0,0,0,0,1,0,1,1,296.92,295.66,296.96,289.06,304.56,0.196,0.201,0.182,0.17800000000000002,0.182,0.877,0.8290000000000001,0.726,0.76,0.261,0.3
76,6.406045455,11.53046154,4.089375,1.539166667,2.9641666669999998,3.160208333,60.02263636,72.5544359,51.780625,50.17958333,48.81166667,52.74729167,30.17088636,27.60905128,15.90645833,10.25854167,13.36395833,8.011458333,309.06,0.759,0.182,0,1,0,0,0,0,0,1,0,0,1,1,303.84,296.92,295.66,296.96,289.06,0.16699999999999998,0.196,0.201,0.182,0.17800000000000002,0.6890000000000001,0.877,0.8290000000000001,0.726,0.76,7.037987232000001
77,7.839461537999999,6.406045455,11.53046154,4.089375,1.539166667,2.9641666669999998,67.52115385,60.02263636,72.5544359,51.780625,50.17958333,48.81166667,29.94779487,30.17088636,27.60905128,15.90645833,10.25854167,13.36395833,304.02,0.8059999999999999,0.182,0,1,0,0,0,0,0,1,0,0,1,1,309.06,303.84,296.92,295.66,296.96,0.182,0.16699999999999998,0.196,0.201,0.182,0.759,0.6890000000000001,0.877,0.8290000000000001,0.726,0.3
78,4.340909091,8.824083332999999,1.8464583330000002,7.839461537999999,6.406045455,11.53046154,75.62921212,41.1368125,67.22458333,67.52115385,60.02263636,72.5544359,21.80954545,28.54125,15.043125,29.94779487,30.17088636,27.60905128,301.86,0.804,0.192,0,1,0,0,0,0,0,1,0,0,1,1,318.02,293.58,304.02,309.06,303.84,0.207,0.179,0.182,0.182,0.16699999999999998,0.28,0.5920000000000001,0.8059999999999999,0.759,0.6890000000000001,9.56253624
79,5.830311111,4.340909091,8.824083332999999,1.8464583330000002,7.839461537999999,6.406045455,56.81684444,75.62921212,41.1368125,67.22458333,67.52115385,60.02263636,32.78308889,21.80954545,28.54125,15.043125,29.94779487,30.17088636,313.94,0.7040000000000001,0.191,0,1,0,0,0,0,0,1,1,0,1,1,301.86,318.02,293.58,304.02,309.06,0.192,0.207,0.179,0.182,0.182,0.804,0.28,0.5920000000000001,0.8059999999999999,0.759,0.3
80,2.8358181819999997,5.830311111,4.340909091,8.824083332999999,1.8464583330000002,7.839461537999999,71.84466667,56.81684444,75.62921212,41.1368125,67.22458333,67.52115385,29.15084848,32.78308889,21.80954545,28.54125,15.043125,29.94779487,306.66,0.7490000000000001,0.19699999999999998,0,1,0,0,0,0,0,1,1,0,1,1,313.94,301.86,318.02,293.58,304.02,0.191,0.192,0.207,0.179,0.182,0.7040000000000001,0.804,0.28,0.5920000000000001,0.8059999999999999,6.079884052000001
81,4.991604167,2.8358181819999997,5.830311111,4.340909091,8.824083332999999,1.8464583330000002,80.45952083,71.84466667,56.81684444,75.62921212,41.1368125,67.22458333,29.95772917,29.15084848,32.78308889,21.80954545,28.54125,15.043125,302.76,0.7909999999999999,0.198,0,1,0,0,0,0,0,1,1,0,1,1,306.66,313.94,301.86,318.02,293.58,0.19699999999999998,0.191,0.192,0.207,0.179,0.7490000000000001,0.7040000000000001,0.804,0.28,0.5920000000000001,0.3
82,4.2598936169999995,5.713447457999999,4.991604167,2.8358181819999997,5.830311111,4.340909091,63.03621277,78.25345833,80.45952083,71.84466667,56.81684444,75.62921212,33.95429787,17.491125,29.95772917,29.15084848,32.78308889,21.80954545,313.18,0.718,0.196,0,1,0,0,0,0,0,1,1,0,1,1,298.32,302.76,306.66,313.94,301.86,0.19,0.198,0.19699999999999998,0.191,0.192,0.684,0.7909999999999999,0.7490000000000001,0.7040000000000001,0.804,0.3
83,2.513581395,5.484906354,4.486291667,4.2598936169999995,5.713447457999999,4.991604167,71.62783721,71.86116667,40.868125,63.03621277,78.25345833,80.45952083,30.11169767,18.5894375,33.21122917,33.95429787,17.491125,29.95772917,303.56,0.753,0.18899999999999997,0,1,0,0,0,0,0,1,1,0,1,1,304.94,315.74,313.18,298.32,302.76,0.19,0.207,0.196,0.19,0.198,0.64,0.07200000000000001,0.718,0.684,0.7909999999999999,0.3
84,3.9083541669999997,3.4165625,2.513581395,5.484906354,4.486291667,4.2598936169999995,49.8745625,46.1353125,71.62783721,71.86116667,40.868125,63.03621277,35.26758333,32.6390625,30.11169767,18.5894375,33.21122917,33.95429787,309.34,0.691,0.18100000000000002,0,1,0,0,0,0,1,0,0,0,1,1,326.58,303.56,304.94,315.74,313.18,0.231,0.18899999999999997,0.19,0.207,0.196,0.262,0.753,0.64,0.07200000000000001,0.718,6.0373206139999995
85,4.572521739,5.1799522289999995,3.9083541669999997,3.4165625,2.513581395,5.484906354,48.90621739,70.73275,49.8745625,46.1353125,71.62783721,71.86116667,35.064,18.57914583,35.26758333,32.6390625,30.11169767,18.5894375,316.72,0.65,0.182,0,1,0,0,0,0,1,0,0,0,1,1,301.54,309.34,326.58,303.56,304.94,0.191,0.18100000000000002,0.231,0.18899999999999997,0.19,0.585,0.691,0.262,0.753,0.64,0.3
86,2.8815,4.572521739,5.1799522289999995,3.9083541669999997,3.4165625,2.513581395,39.93920833,48.90621739,70.73275,49.8745625,46.1353125,71.62783721,32.37916667,35.064,18.57914583,35.26758333,32.6390625,30.11169767,309.92,0.7,0.188,0,1,0,0,0,0,1,0,0,0,1,1,316.72,301.54,309.34,326.58,303.56,0.182,0.191,0.18100000000000002,0.231,0.18899999999999997,0.65,0.585,0.691,0.262,0.753,0.3
87,5.5421702129999995,3.101666667,2.8815,4.572521739,5.1799522289999995,3.9083541669999997,42.62380851,62.50416667,39.93920833,48.90621739,70.73275,49.8745625,33.01676596,13.75083333,32.37916667,35.064,18.57914583,35.26758333,309.18,0.607,0.187,0,1,0,0,0,0,1,0,1,0,1,1,293.14,309.92,316.72,301.54,309.34,0.18899999999999997,0.188,0.182,0.191,0.18100000000000002,0.349,0.7,0.65,0.585,0.691,2.6841106409999997
88,2.5506666669999998,5.5421702129999995,3.101666667,2.8815,4.572521739,5.1799522289999995,67.07153333,42.62380851,62.50416667,39.93920833,48.90621739,70.73275,24.6814,33.01676596,13.75083333,32.37916667,35.064,18.57914583,302.4,0.5710000000000001,0.184,0,1,0,0,0,0,1,0,1,0,1,1,309.18,293.14,309.92,316.72,301.54,0.187,0.18899999999999997,0.188,0.182,0.191,0.607,0.349,0.7,0.65,0.585,15.0
89,1.814148936,2.5506666669999998,5.5421702129999995,3.101666667,2.8815,4.572521739,68.05019149,67.07153333,42.62380851,62.50416667,39.93920833,48.90621739,24.36574468,24.6814,33.01676596,13.75083333,32.37916667,35.064,305.04,0.621,0.182,0,1,0,0,0,0,1,0,1,0,1,1,302.4,309.18,293.14,309.92,316.72,0.184,0.187,0.18899999999999997,0.188,0.182,0.5710000000000001,0.607,0.349,0.7,0.65,0.3
90,3.090348837,2.109791667,2.147152291,2.0291666669999997,2.200662985,3.615,62.15997674,80.34375,77.81333333,84.908125,81.605625,83.185625,-0.008674419000000001,-1.261458333,12.91895833,6.09625,13.56479167,6.41625,276.28,0.214,0.203,0,1,0,0,0,1,0,1,0,0,1,1,274.46,291.0,283.72,292.36,285.84,0.17,0.157,0.171,0.15,0.16899999999999998,0.638,0.708,0.6729999999999999,0.6579999999999999,0.6729999999999999,0.3
91,6.770789474,3.090348837,2.109791667,2.147152291,2.0291666669999997,2.200662985,45.86805263,62.15997674,80.34375,77.81333333,84.908125,81.605625,10.30092105,-0.008674419000000001,-1.261458333,12.91895833,6.09625,13.56479167,285.52,0.275,0.19899999999999998,0,1,0,0,0,1,0,1,0,0,1,1,276.28,274.46,291.0,283.72,292.36,0.203,0.17,0.157,0.171,0.15,0.214,0.638,0.708,0.6729999999999999,0.6579999999999999,0.3
92,3.857416667,2.670208333,1.688333333,2.9159393939999996,1.0660416670000001,2.910208333,54.84433333,73.31,77.995,84.34669697,81.96291667,79.17395833,28.54083333,5.344458333,4.338104167,24.10290909,-0.908645833,0.36927083299999997,296.6,0.851,0.113,0,1,0,0,1,1,0,0,1,1,0,1,289.32,290.96,296.74,280.92,279.32,0.161,0.16,0.111,0.139,0.153,0.34600000000000003,0.635,0.8290000000000001,0.385,0.424,8.032111168
93,3.005486486,3.857416667,2.670208333,1.688333333,2.9159393939999996,1.0660416670000001,62.23340541,54.84433333,73.31,77.995,84.34669697,81.96291667,23.4102973,28.54083333,5.344458333,4.338104167,24.10290909,-0.908645833,301.06,0.727,0.114,0,1,0,0,1,0,0,0,1,1,0,1,296.6,289.32,290.96,296.74,280.92,0.113,0.161,0.16,0.111,0.139,0.851,0.34600000000000003,0.635,0.8290000000000001,0.385,0.3
94,1.209574098,1.047234583,6.553731707000001,1.58982086,5.4082708329999996,5.993560976,74.00895833,64.51361115,70.01687805,63.63125,58.12916667,71.83407317,17.39354167,14.95326394,31.943243900000002,22.33583333,30.74083333,33.659,300.52,0.365,0.22,0,1,0,1,0,0,0,1,1,0,0,1,294.34,303.76,305.74,314.74,308.22,0.163,0.193,0.21899999999999997,0.188,0.19399999999999998,0.606,0.8059999999999999,0.415,0.42,0.7509999999999999,1.712411523
95,2.260291867,3.0242083330000002,4.208544583,3.3324,1.352210526,1.8755862069999998,79.10354167,49.97270833,85.39543121,68.60488000000001,57.38589474,67.98051724,13.50541667,22.93066667,11.21951381,14.896479999999999,19.49731579,21.05903448,291.6,0.535,0.146,0,1,0,1,0,0,1,1,0,0,0,1,313.94,290.8,295.22,299.14,298.54,0.18,0.165,0.183,0.183,0.18100000000000002,0.257,0.245,0.517,0.539,0.627,0.3
96,1.8674554419999998,2.260291867,3.0242083330000002,4.208544583,3.3324,1.352210526,69.17125,79.10354167,49.97270833,85.39543121,68.60488000000001,57.38589474,12.3840625,13.50541667,22.93066667,11.21951381,14.896479999999999,19.49731579,291.08,0.522,0.152,0,1,0,1,0,0,1,1,0,0,0,1,291.6,313.94,290.8,295.22,299.14,0.146,0.18,0.165,0.183,0.183,0.535,0.257,0.245,0.517,0.539,0.48150852299999997
97,2.13475,3.249166667,5.17625,2.325416667,1.3879166669999998,4.625465553,70.10625,88.935,70.88166667,92.43104167,74.32416667,72.64506383,15.643125,11.98395833,16.68416667,16.39395833,19.135,18.05402128,293.88,0.732,0.111,0,1,0,1,1,0,1,1,0,1,0,0,282.9,291.42,295.56,287.26,298.38,0.151,0.161,0.129,0.22399999999999998,0.198,0.335,0.619,0.42,0.184,0.662,2.9517352580000003
98,1.8223125,2.502916667,1.8175,3.271875,1.712291667,2.13475,43.63770833,70.90875,75.98895833,86.55041667,94.80104167,70.10625,13.75104167,12.49395833,12.66979167,6.203333333,7.036875,15.643125,289.38,0.65,0.11599999999999999,0,1,0,1,1,0,1,1,1,1,0,0,283.14,287.5,278.32,286.26,293.88,0.175,0.17300000000000001,0.165,0.168,0.111,0.635,0.7609999999999999,0.775,0.768,0.732,0.3
99,2.127916667,1.8223125,2.502916667,1.8175,3.271875,1.712291667,46.69979167,43.63770833,70.90875,75.98895833,86.55041667,94.80104167,-3.75875,13.75104167,12.49395833,12.66979167,6.203333333,7.036875,273.08,0.642,0.111,0,1,0,1,1,0,1,1,1,1,0,0,289.38,283.14,287.5,278.32,286.26,0.11599999999999999,0.175,0.17300000000000001,0.165,0.168,0.65,0.635,0.7609999999999999,0.775,0.768,0.3
100,4.486291667,4.2598936169999995,5.713447457999999,4.991604167,2.8358181819999997,5.830311111,40.868125,63.03621277,78.25345833,80.45952083,71.84466667,56.81684444,33.21122917,33.95429787,17.491125,29.95772917,29.15084848,32.78308889,315.74,0.07200000000000001,0.207,0,1,1,0,0,0,0,1,1,0,1,1,313.18,298.32,302.76,306.66,313.94,0.196,0.19,0.198,0.19699999999999998,0.191,0.718,0.684,0.7909999999999999,0.7490000000000001,0.7040000000000001,0.3
101,3.4165625,2.513581395,5.484906354,4.486291667,4.2598936169999995,5.713447457999999,46.1353125,71.62783721,71.86116667,40.868125,63.03621277,78.25345833,32.6390625,30.11169767,18.5894375,33.21122917,33.95429787,17.491125,326.58,0.262,0.231,0,1,1,0,0,0,0,1,1,0,1,1,303.56,304.94,315.74,313.18,298.32,0.18899999999999997,0.19,0.207,0.196,0.19,0.753,0.64,0.07200000000000001,0.718,0.684,0.822488725
102,3.4111521739999997,3.983960534,2.929666667,6.770789474,3.090348837,2.109791667,51.09667391,58.794375,61.66872917,45.86805263,62.15997674,80.34375,4.666456522,9.147083333,5.174791667,10.30092105,-0.008674419000000001,-1.261458333,288.78,0.242,0.174,0,1,1,0,1,1,1,0,0,0,1,1,289.3,285.28,285.52,276.28,274.46,0.177,0.16699999999999998,0.19899999999999998,0.203,0.17,0.488,0.255,0.275,0.214,0.638,1.283011913
103,5.483744681,3.9310302630000002,1.280625,3.4111521739999997,3.983960534,2.929666667,75.66212766,43.71520833,70.79833333,51.09667391,58.794375,61.66872917,20.74340426,16.475,8.626875,4.666456522,9.147083333,5.174791667,306.1,0.387,0.16699999999999998,0,1,1,0,1,1,0,0,0,0,1,1,297.86,293.78,288.78,289.3,285.28,0.19699999999999998,0.152,0.174,0.177,0.16699999999999998,0.6809999999999999,0.5429999999999999,0.242,0.488,0.255,0.3
104,2.904291667,2.0348666669999997,2.171166843,2.144286471,1.075416667,1.389363636,44.14310417,58.48333333,60.96,60.55645833,60.48145833,54.13477273,32.41527083,20.73622222,25.46208333,26.33375,14.5925,23.75318182,320.1,0.419,0.16899999999999998,0,1,1,0,1,0,1,0,1,0,1,1,302.42,317.9,320.04,299.76,305.82,0.19899999999999998,0.212,0.213,0.179,0.191,0.7120000000000001,0.361,0.304,0.872,0.7190000000000001,2.341912508
105,5.492354167,4.4566666669999995,1.118125,3.177333333,4.193862586,1.9535416669999999,57.89620833,63.40854167,66.61253125,60.91291667,73.94985246,66.27541667,16.99027083,11.986875,19.58534375,18.89875,20.721875,12.69541667,297.48,0.304,0.18600000000000003,0,1,1,0,1,0,1,1,1,0,1,1,283.04,297.02,298.66,301.2,292.5,0.168,0.207,0.207,0.17,0.158,0.281,0.579,0.589,0.46299999999999997,0.759,1.291298628
106,4.407735191,2.304791136,5.79285,2.21453425,2.271666667,4.472934128,64.90280851,43.40729167,49.90375,63.88291667,52.94020833,65.78974468,19.11653191,28.36197917,31.80125,14.87635417,18.80354167,17.11823404,300.04,0.731,0.172,0,1,1,1,0,0,0,1,1,0,0,1,313.5,310.28,300.78,302.58,306.18,0.195,0.21,0.192,0.16899999999999998,0.14800000000000002,0.527,0.536,0.5379999999999999,0.8490000000000001,0.618,7.661966324
107,2.7693178130000002,1.4875,5.200785,4.407735191,2.304791136,5.79285,60.62241667,67.6875,47.4135,64.90280851,43.40729167,49.90375,20.13320833,12.250625,34.0565,19.11653191,28.36197917,31.80125,301.14,0.6940000000000001,0.196,0,1,1,1,0,0,1,0,0,0,0,1,290.24,298.8,300.04,313.5,310.28,0.18600000000000003,0.184,0.172,0.195,0.21,0.606,0.727,0.731,0.527,0.536,8.228583336
108,4.414378271,2.7693178130000002,1.4875,5.200785,4.407735191,2.304791136,69.81670833,60.62241667,67.6875,47.4135,64.90280851,43.40729167,18.27391667,20.13320833,12.250625,34.0565,19.11653191,28.36197917,301.42,0.737,0.203,0,1,1,1,0,0,1,0,0,0,0,1,301.14,290.24,298.8,300.04,313.5,0.196,0.18600000000000003,0.184,0.172,0.195,0.6940000000000001,0.606,0.727,0.731,0.527,7.501606702999999
109,2.144286471,1.075416667,1.389363636,2.163541667,2.66572429,1.722083333,60.55645833,60.48145833,54.13477273,66.10541667,41.1625,62.44458333,26.33375,14.5925,23.75318182,14.14875,28.034375,14.746875,320.04,0.304,0.213,0,1,1,1,1,0,1,0,0,0,0,1,299.76,305.82,294.64,321.04,290.36,0.179,0.191,0.182,0.212,0.182,0.872,0.7190000000000001,0.89,0.392,0.706,0.5687252279999999
110,2.171166843,2.144286471,1.075416667,1.389363636,2.163541667,2.66572429,60.96,60.55645833,60.48145833,54.13477273,66.10541667,41.1625,25.46208333,26.33375,14.5925,23.75318182,14.14875,28.034375,317.9,0.361,0.212,0,1,1,1,1,0,1,0,0,0,0,1,320.04,299.76,305.82,294.64,321.04,0.213,0.179,0.191,0.182,0.212,0.304,0.872,0.7190000000000001,0.89,0.392,0.3
111,4.193862586,1.9535416669999999,2.904291667,2.0348666669999997,2.171166843,2.144286471,73.94985246,66.27541667,44.14310417,58.48333333,60.96,60.55645833,20.721875,12.69541667,32.41527083,20.73622222,25.46208333,26.33375,301.2,0.46299999999999997,0.17,0,1,1,1,1,0,1,0,1,0,0,1,292.5,320.1,302.42,317.9,320.04,0.158,0.16899999999999998,0.19899999999999998,0.212,0.213,0.759,0.419,0.7120000000000001,0.361,0.304,0.3
112,7.937761905,3.803621622,3.528375,2.9329166669999998,3.334782609,1.734846154,44.06,31.01840541,41.9,66.94104167,66.36052174,55.95692308,13.54621429,13.28872973,1.3250625,0.25354166699999997,12.42417391,10.80876923,290.82,0.665,0.154,1,0,0,0,0,1,0,0,1,0,0,1,294.26,279.06,274.36,288.16,284.92,0.159,0.102,0.547,0.115,0.10400000000000001,0.48,0.62,-0.022000000000000002,0.377,0.312,5.112141609
113,7.348021739,7.937761905,3.803621622,3.528375,2.9329166669999998,3.334782609,35.49891304,44.06,31.01840541,41.9,66.94104167,66.36052174,16.11673913,13.54621429,13.28872973,1.3250625,0.25354166699999997,12.42417391,295.22,0.594,0.158,1,0,0,0,0,1,0,0,1,0,0,1,290.82,294.26,279.06,274.36,288.16,0.154,0.159,0.102,0.547,0.115,0.665,0.48,0.62,-0.022000000000000002,0.377,7.467412472
114,6.93497561,7.348021739,7.937761905,3.803621622,3.528375,2.9329166669999998,35.87073171,35.49891304,44.06,31.01840541,41.9,66.94104167,13.08421951,16.11673913,13.54621429,13.28872973,1.3250625,0.25354166699999997,294.58,0.46799999999999997,0.162,1,0,0,0,0,1,0,0,1,0,0,1,295.22,290.82,294.26,279.06,274.36,0.158,0.154,0.159,0.102,0.547,0.594,0.665,0.48,0.62,-0.022000000000000002,4.838779449
115,2.21453425,2.271666667,4.472934128,2.0525,5.385222787000001,1.5454815069999999,63.88291667,52.94020833,65.78974468,62.94895833,63.05659574,75.08864583,14.87635417,18.80354167,17.11823404,11.54291667,16.19131915,11.72710417,300.78,0.5379999999999999,0.192,1,0,0,0,1,0,0,1,0,0,0,1,302.58,306.18,289.7,300.68,293.34,0.16899999999999998,0.14800000000000002,0.188,0.16899999999999998,0.188,0.8490000000000001,0.618,0.684,0.679,0.6890000000000001,0.7872847909999999
116,2.304791136,5.79285,2.21453425,2.271666667,4.472934128,2.0525,43.40729167,49.90375,63.88291667,52.94020833,65.78974468,62.94895833,28.36197917,31.80125,14.87635417,18.80354167,17.11823404,11.54291667,313.5,0.527,0.195,1,0,0,0,1,0,0,1,1,0,0,1,310.28,300.78,302.58,306.18,289.7,0.21,0.192,0.16899999999999998,0.14800000000000002,0.188,0.536,0.5379999999999999,0.8490000000000001,0.618,0.684,0.3
117,3.010185714,4.07446,3.86375,2.7989583330000003,5.63817,3.849415385,50.25428571,54.912,36.12818182,77.399375,42.418,24.67153846,17.08571429,20.168,19.44772727,4.787708333,7.6285,13.55115385,296.16,0.7929999999999999,0.177,1,0,0,1,0,1,0,0,1,0,1,1,293.72,298.04,281.82,287.78,290.78,0.168,0.198,0.145,0.19699999999999998,0.187,0.312,0.59,0.475,0.7559999999999999,0.575,2.01513052
118,2.156075,8.6457,4.8988,3.010185714,4.07446,3.86375,72.045,56.29,35.61,50.25428571,54.912,36.12818182,14.14,26.41,20.47,17.08571429,20.168,19.44772727,299.6,0.787,0.166,1,0,0,1,0,0,0,0,1,0,1,1,300.64,296.54,296.16,293.72,298.04,0.16699999999999998,0.183,0.177,0.168,0.198,0.514,0.522,0.7929999999999999,0.312,0.59,1.415090442
119,4.278129412,5.5161,2.762291667,1.8752083330000002,2.156075,8.6457,47.64529412,45.62,59.65208333,74.22,72.045,56.29,24.14352941,24.44,6.775416667000001,2.760416667,14.14,26.41,300.14,0.73,0.16,1,0,0,1,0,0,0,0,1,0,1,1,299.84,281.16,275.9,299.6,300.64,0.163,0.19,0.18899999999999997,0.166,0.16699999999999998,0.578,0.304,0.040999999999999995,0.787,0.514,2.4131479259999997
120,1.94095,1.488340021,4.278129412,5.5161,2.762291667,1.8752083330000002,44.27,74.01757498,47.64529412,45.62,59.65208333,74.22,23.01,15.36528719,24.14352941,24.44,6.775416667000001,2.760416667,300.98,0.632,0.16699999999999998,1,0,0,1,0,0,0,0,1,0,1,1,298.8,300.14,299.84,281.16,275.9,0.18,0.16,0.163,0.19,0.18899999999999997,0.634,0.73,0.578,0.304,0.040999999999999995,4.462000847
121,2.866141667,1.94095,1.488340021,4.278129412,5.5161,2.762291667,35.09166667,44.27,74.01757498,47.64529412,45.62,59.65208333,28.16333333,23.01,15.36528719,24.14352941,24.44,6.775416667000001,306.48,0.5,0.174,1,0,0,1,0,0,0,0,1,0,1,1,300.98,298.8,300.14,299.84,281.16,0.16699999999999998,0.18,0.16,0.163,0.19,0.632,0.634,0.73,0.578,0.304,3.6744961739999997
122,3.32305,2.73,1.543125,2.866141667,1.94095,1.488340021,43.97642857,62.031875,54.06083333,35.09166667,44.27,74.01757498,30.62357143,18.53208333,16.15854167,28.16333333,23.01,15.36528719,308.36,0.43200000000000005,0.179,1,0,0,1,0,0,0,1,0,0,1,1,297.06,300.96,306.48,300.98,298.8,0.174,0.174,0.174,0.16699999999999998,0.18,0.667,0.75,0.5,0.632,0.634,8.636237621
123,4.8988,3.010185714,4.07446,3.86375,2.7989583330000003,5.63817,35.61,50.25428571,54.912,36.12818182,77.399375,42.418,20.47,17.08571429,20.168,19.44772727,4.787708333,7.6285,296.54,0.522,0.183,1,0,0,1,1,1,0,0,1,0,0,1,296.16,293.72,298.04,281.82,287.78,0.177,0.168,0.198,0.145,0.19699999999999998,0.7929999999999999,0.312,0.59,0.475,0.7559999999999999,0.894972801
124,8.6457,4.8988,3.010185714,4.07446,3.86375,2.7989583330000003,56.29,35.61,50.25428571,54.912,36.12818182,77.399375,26.41,20.47,17.08571429,20.168,19.44772727,4.787708333,300.64,0.514,0.16699999999999998,1,0,0,1,1,1,0,0,1,0,0,1,296.54,296.16,293.72,298.04,281.82,0.183,0.177,0.168,0.198,0.145,0.522,0.7929999999999999,0.312,0.59,0.475,3.7882694010000004
125,5.5161,2.762291667,1.8752083330000002,2.156075,8.6457,4.8988,45.62,59.65208333,74.22,72.045,56.29,35.61,24.44,6.775416667000001,2.760416667,14.14,26.41,20.47,299.84,0.578,0.163,1,0,0,1,1,0,0,0,1,0,0,1,281.16,275.9,299.6,300.64,296.54,0.19,0.18899999999999997,0.166,0.16699999999999998,0.183,0.304,0.040999999999999995,0.787,0.514,0.522,3.231825829
126,2.2804133330000003,2.266458333,2.353958333,3.32305,2.73,1.543125,63.396,68.62604167,70.7375,43.97642857,62.031875,54.06083333,26.60866667,18.95979167,15.73541667,30.62357143,18.53208333,16.15854167,300.78,0.6559999999999999,0.18600000000000003,1,0,0,1,1,0,1,0,1,0,0,1,298.76,292.24,308.36,297.06,300.96,0.171,0.22699999999999998,0.179,0.174,0.174,0.588,0.69,0.43200000000000005,0.667,0.75,4.164859772
127,2.493253875,4.25375,2.501234417,1.8380791840000001,2.206239,3.9425,69.51692405,54.55145833,72.5605968,58.45947368,71.03355556,68.31,7.382752674,11.97104167,8.362234375,18.03157895,6.7249777779999995,-8.718333333,289.0,0.725,0.16399999999999998,1,0,1,0,0,1,0,0,1,0,0,1,288.7,280.38,298.82,290.12,272.88,0.142,0.149,0.11800000000000001,0.10400000000000001,0.17600000000000002,0.299,0.494,0.39,0.349,0.187,3.025732756
128,2.300339729,2.493253875,4.25375,2.501234417,1.8380791840000001,2.206239,57.03487371,69.51692405,54.55145833,72.5605968,58.45947368,71.03355556,14.08159896,7.382752674,11.97104167,8.362234375,18.03157895,6.7249777779999995,288.9,0.57,0.16399999999999998,1,0,1,0,0,1,0,0,1,0,0,1,289.0,288.7,280.38,298.82,290.12,0.16399999999999998,0.142,0.149,0.11800000000000001,0.10400000000000001,0.725,0.299,0.494,0.39,0.349,3.2553899289999997
129,0.975046187,5.939166667,1.794714359,2.212317692,3.2164867289999997,3.773145167,58.03142362,50.37041667,56.73461538,66.31076923,72.42583333,76.56958333,18.14569583,16.63541667,18.33435897,18.8674359,16.91583333,16.11145833,299.02,0.382,0.18899999999999997,1,0,1,0,0,0,1,1,0,0,0,1,295.5,301.66,303.5,300.56,300.5,0.172,0.19,0.18899999999999997,0.19,0.19399999999999998,0.395,0.662,0.667,0.784,0.7759999999999999,0.3
130,3.2164867289999997,3.773145167,1.254583333,1.75125,1.4829166669999998,1.4304166669999998,72.42583333,76.56958333,53.70958333,47.64458333,51.47479167,42.39604167,16.91583333,16.11145833,19.753125,24.38208333,25.65145833,26.47041667,300.56,0.784,0.19,1,0,1,0,1,0,1,0,0,0,0,1,300.5,307.64,309.04,307.92,311.92,0.19399999999999998,0.188,0.188,0.188,0.187,0.7759999999999999,0.6890000000000001,0.59,0.5820000000000001,0.748,4.1843748089999995
131,2.212317692,3.2164867289999997,3.773145167,1.254583333,1.75125,1.4829166669999998,66.31076923,72.42583333,76.56958333,53.70958333,47.64458333,51.47479167,18.8674359,16.91583333,16.11145833,19.753125,24.38208333,25.65145833,303.5,0.667,0.18899999999999997,1,0,1,0,1,0,1,0,1,0,0,1,300.56,300.5,307.64,309.04,307.92,0.19,0.19399999999999998,0.188,0.188,0.188,0.784,0.7759999999999999,0.6890000000000001,0.59,0.5820000000000001,5.7520861629999995
132,1.794714359,2.212317692,3.2164867289999997,3.773145167,1.254583333,1.75125,56.73461538,66.31076923,72.42583333,76.56958333,53.70958333,47.64458333,18.33435897,18.8674359,16.91583333,16.11145833,19.753125,24.38208333,301.66,0.662,0.19,1,0,1,0,1,0,1,0,1,0,0,1,303.5,300.56,300.5,307.64,309.04,0.18899999999999997,0.19,0.19399999999999998,0.188,0.188,0.667,0.784,0.7759999999999999,0.6890000000000001,0.59,2.439720392
133,3.603377927,0.975046187,5.939166667,1.794714359,2.212317692,3.2164867289999997,19.65760976,58.03142362,50.37041667,56.73461538,66.31076923,72.42583333,17.00658537,18.14569583,16.63541667,18.33435897,18.8674359,16.91583333,304.92,0.24100000000000002,0.158,1,0,1,0,1,0,1,1,0,0,0,1,299.02,295.5,301.66,303.5,300.56,0.18899999999999997,0.172,0.19,0.18899999999999997,0.19,0.382,0.395,0.662,0.667,0.784,0.31381723300000003
134,1.873067674,8.11125,4.506875,3.603377927,0.975046187,5.939166667,78.92023256,51.23354167,67.91020833,19.65760976,58.03142362,50.37041667,8.049162791,-1.073541667,10.99520833,17.00658537,18.14569583,16.63541667,286.32,0.263,0.051,1,0,1,0,1,1,0,1,0,0,0,1,268.34,281.1,304.92,299.02,295.5,0.13,0.153,0.158,0.18899999999999997,0.172,0.26899999999999996,0.436,0.24100000000000002,0.382,0.395,1.048386216
