Total Number of rare cases: 2 out of 327
Percentage of Rare Cases: 0.61%

number of rare in train: 1/228
==> 0.43859649122807015%%
number of rare in test: 1/99
==> 1.0101010101010102%%
Total Number of rare cases: 2 out of 327
Percentage of Rare Cases: 0.61%

number of rare in train: 1/228
==> 0.43859649122807015%%
number of rare in test: 1/99
==> 1.0101010101010102%%
