Error Metrics,Validation Scores,Testing Scores
mean target,4.2147992429473735,4.2147992429473735
F1,0.6232449197929836,0.7492078131028641
F2,0.6057722323122934,0.7299233182151261
F05,0.643888137342546,0.7695389486493095
Precision,0.6597424053808131,0.7837173591248391
Recall,0.7152281762129726,0.7176092169876981
R2,0.381816504467598,0.46152862642038883
Adjusted R2,0.35744724358176727,0.4448291977460844
RMSE,1.5601860204507774,1.3785520596139789
MSE,2.4960925844241393,1.9004057810659432
MAE,1.1776656857444903,1.051924128995097
MAPE,35.6372955644603,37.160856944708705
Accuracy,64.36270443553968,62.839143055291295
Pearson C.C.,0.6434108146372866,0.7027299693281269
Spearman C.C.,0.6484604724226706,0.7360456136490107
Spatial Distance,0.3565891853627136,0.2972700306718734
NMI,0.9839547179975543,0.9928217120567951
AIC,1120.9821970293644,1046.5699147335345
BIC,1120.9821970293644,1046.5699147335345
Data Size train,-,6465.0
Data Size test,-,1630.0
Training Time (seconds),-,28.282016038894653
Testing Time (seconds),-,0.6711826324462891
