,Site_6,Month_1,Month_2,Month_3,Month_4,Vegetation_1,Vegetation_2,Vegetation_3,WS,RH,TA,Eeflux_LST,Eeflux_NDVI,Eeflux_Albedo,WS-1,WS-2,RH-1,RH-2,RH-3,TA-1,TA-2,TA-3,TA-4,TA-5,Eeflux_LST-1,Eeflux_LST-2,Eeflux_LST-3,Eeflux_LST-4,Eeflux_LST-5,Eeflux_Albedo-1,Eeflux_Albedo-2,Eeflux_NDVI-1,Eeflux_NDVI-2,LE_bowen_corr_mm
0,1,0,1,0,0,0,0,1,3.060156019,76.12291667,11.12020833,294.42,0.285,0.18,3.060156019,2.30898457,76.12291667,76.02166667,73.51083333,11.12020833,11.70541667,11.11958333,9.91,7.998958332999999,294.42,292.34,292.12,296.56,291.78,0.18,0.185,0.285,0.6729999999999999,3.2072894360000004
1,1,0,0,1,1,0,0,1,2.959296723,43.15330155,13.59130856,300.32,0.5379999999999999,0.19699999999999998,1.7128593380000001,2.066854638,61.4225,74.320625,61.763125,13.37416667,10.2475,11.19208333,12.27625,10.39333333,297.9,297.94,295.54,296.02,290.8,0.191,0.18600000000000003,0.601,0.607,2.846851425
2,1,1,1,0,0,0,0,1,4.939929246,55.98958333,2.857916667,277.92,0.5660000000000001,0.154,4.7412122430000005,4.7412122430000005,74.51708333,74.51708333,80.64767116,11.44916667,11.44916667,7.937395832999999,12.98520833,13.061875,287.58,287.58,288.22,300.96,305.24,0.165,0.165,0.5589999999999999,0.5589999999999999,1.689284086
3,1,0,0,1,0,0,0,1,5.273399089,71.23645833,8.109166667,285.48,0.51,0.17800000000000002,3.460628416,1.417920974,61.96666667,79.88854167,73.61958333,7.12,8.7875,11.68541667,7.343958333,12.91895833,284.46,288.3,288.3,289.38,291.0,0.16399999999999998,0.151,0.59,0.634,2.0210575769999997
4,1,0,1,0,0,0,0,1,4.467636504,53.43666667,7.998958332999999,291.78,0.556,0.19,2.0749398180000003,2.110618947,41.28739219,49.30129023,43.15330155,11.75030826,12.30209112,13.59130856,13.37416667,10.2475,297.36,301.88,300.32,297.9,297.94,0.193,0.19699999999999998,0.639,0.604,2.337635135
5,1,0,0,1,1,0,0,1,2.0749398180000003,41.28739219,11.75030826,297.36,0.639,0.193,2.110618947,2.959296723,49.30129023,43.15330155,61.4225,12.30209112,13.59130856,13.37416667,10.2475,11.19208333,301.88,300.32,297.9,297.94,295.54,0.19699999999999998,0.19699999999999998,0.604,0.5379999999999999,2.506931665
6,1,0,0,1,1,0,0,1,6.563577662999999,41.18479167,10.39333333,290.8,0.606,0.184,7.04215994,5.756354095,45.57604167,46.30645833,56.59833333,9.758958332999999,10.07708333,8.859791667,8.859791667,9.473958332999999,290.7,290.76,292.94,292.94,292.54,0.182,0.183,0.636,0.642,1.9045439419999999
7,1,0,0,1,1,0,0,1,2.65538308,56.59833333,8.859791667,292.94,0.5820000000000001,0.182,2.2689384169999998,1.831017441,82.56083333,71.48708333,63.95708333,9.473958332999999,11.37208333,6.979166667,7.1577083329999995,9.154791667000001,292.54,295.42,291.5,286.6,292.66,0.182,0.182,0.589,0.621,1.9069406690000001
8,1,1,0,1,0,0,0,1,2.465607436,80.64767116,7.937395832999999,288.22,0.647,0.17,3.643594132,2.8678915060000003,52.48479167,67.083125,72.41604167,12.98520833,13.061875,12.71125,13.99604167,13.65395833,300.96,305.24,305.0,300.34,297.36,0.175,0.175,0.527,0.5429999999999999,1.859160353
9,1,0,0,1,1,0,0,1,1.7128593380000001,61.4225,13.37416667,297.9,0.601,0.191,2.066854638,3.2015695930000003,74.320625,61.763125,46.749375,10.2475,11.19208333,12.27625,10.39333333,9.758958332999999,297.94,295.54,296.02,290.8,290.7,0.18600000000000003,0.18600000000000003,0.607,0.5820000000000001,2.154063357
10,1,1,0,1,0,0,0,1,1.923659623,72.53291667,10.80604167,292.7,0.59,0.165,1.2115584640000001,2.721666625,68.56770833,74.90395833,70.62416667,14.03691667,8.705447917,11.40516667,10.027875,12.74979167,297.0,285.66,291.2,292.8,288.4,0.201,0.188,0.613,0.66,1.815430659
11,1,0,1,0,1,0,0,1,2.056583241,67.74833333,13.99604167,300.34,0.6579999999999999,0.18100000000000002,2.349256713,2.48826011,72.37479167,75.92354167,76.12291667,13.65395833,12.16666667,11.12020833,11.12020833,11.70541667,297.36,296.68,294.42,294.42,292.34,0.18899999999999997,0.188,0.765,0.591,2.3315953819999997
12,1,1,1,0,0,0,0,1,2.249127721,67.96104167,3.92,279.84,0.6579999999999999,0.153,4.939929246,4.7412122430000005,55.98958333,74.51708333,74.51708333,2.857916667,11.44916667,11.44916667,7.937395832999999,12.98520833,277.92,287.58,287.58,288.22,300.96,0.154,0.165,0.5660000000000001,0.5589999999999999,1.408075375
13,1,0,1,0,0,0,0,1,2.349256713,72.37479167,13.65395833,297.36,0.765,0.18899999999999997,2.48826011,3.060156019,75.92354167,76.12291667,76.12291667,12.16666667,11.12020833,11.12020833,11.70541667,11.11958333,296.68,294.42,294.42,292.34,292.12,0.188,0.18,0.591,0.285,4.537902388
14,1,1,0,1,0,0,0,1,2.332586138,79.48666667,13.5075,291.78,0.619,0.14400000000000002,1.533953942,1.923659623,84.37729167,72.53291667,68.56770833,13.71354167,10.80604167,14.03691667,8.705447917,11.40516667,289.52,292.7,297.0,285.66,291.2,0.146,0.165,0.57,0.59,2.09064298
15,1,0,0,1,0,0,1,0,5.7887,49.74368421,2.9523157889999996,278.8,0.6729999999999999,0.196,6.590478947,6.590478947,46.24894737,46.24894737,42.33833333,11.44631579,11.44631579,13.6685,8.788357142999999,13.01875,286.66,286.66,287.94,283.86,300.1,0.191,0.191,0.521,0.521,1.762353296
16,1,0,0,0,1,0,1,0,4.649161111000001,42.33833333,13.6685,287.94,0.575,0.191,3.4518142860000003,1.012291667,50.91,53.61166667,57.35979167,8.788357142999999,13.01875,11.76041667,11.97104167,4.741666667,283.86,300.1,295.86,288.7,281.32,0.19,0.174,0.48700000000000004,0.7120000000000001,1.722808636
17,1,1,1,0,0,0,1,0,1.7718,53.88,-1.795,284.32,0.628,0.183,4.12798,6.609130769,43.59533333,67.96615385,86.15,-2.929933333,9.933538462000001,3.9885,8.402000000000001,14.00777778,275.82,283.96,292.8,290.12,298.86,0.203,0.203,0.747,0.7909999999999999,1.00838469
18,1,0,0,1,0,0,1,0,6.590478947,46.24894737,11.44631579,286.66,0.521,0.191,4.649161111000001,3.4518142860000003,42.33833333,50.91,53.61166667,13.6685,8.788357142999999,13.01875,11.76041667,11.97104167,287.94,283.86,300.1,295.86,288.7,0.191,0.19,0.575,0.48700000000000004,1.9059717580000002
19,1,0,0,0,1,0,1,0,5.809123529,40.31764706,5.790058824,280.62,0.488,0.177,6.305923529,5.17835,53.47176471,51.04142857,55.83785714,3.619588235,11.71242857,11.45557143,12.23714286,8.758071429,279.54,285.72,285.24,285.28,285.44,0.17600000000000002,0.17600000000000002,0.517,0.41100000000000003,2.1361162
20,1,0,0,1,0,0,1,0,2.8122428569999998,70.56285714,10.98585714,294.08,0.662,0.18600000000000003,2.8122428569999998,2.6840375,70.56285714,56.73875,41.93,10.98585714,6.436625,10.91466667,10.91466667,1.780611111,294.08,288.24,285.38,285.38,281.1,0.18600000000000003,0.182,0.662,0.5579999999999999,3.36927905
21,1,0,0,1,1,0,1,0,5.5048449999999995,27.3475,10.99855,290.16,0.6659999999999999,0.185,5.5048449999999995,2.8122428569999998,27.3475,70.56285714,70.56285714,10.99855,10.98585714,10.98585714,6.436625,10.91466667,290.16,294.08,294.08,288.24,285.38,0.185,0.18600000000000003,0.6659999999999999,0.662,2.773053852
22,1,0,1,0,0,0,1,0,3.1518,44.01333333,14.00777778,298.86,0.7659999999999999,0.221,3.1518,4.882242105,44.01333333,39.08052632,66.24916667,14.00777778,12.67247368,4.73225,10.26063636,3.238,298.86,292.84,287.9,291.2,289.2,0.221,0.213,0.7659999999999999,0.813,2.84427863
23,1,1,0,1,1,0,1,0,2.14085,86.15,3.9885,292.8,0.754,0.192,3.28115,3.1518,81.1275,44.01333333,44.01333333,8.402000000000001,14.00777778,14.00777778,12.67247368,4.73225,290.12,298.86,298.86,292.84,287.9,0.19,0.221,0.71,0.7659999999999999,1.576835337
24,1,1,1,0,0,0,1,0,5.652,25.94571429,8.758071429,285.44,0.457,0.195,4.34696,6.498766667000001,43.90133333,55.32416667,53.88,7.770466667000001,10.52683333,-1.795,-2.929933333,9.933538462000001,283.86,281.54,284.32,275.82,283.96,0.18899999999999997,0.18600000000000003,0.55,0.5770000000000001,1.250586084
25,1,0,1,0,0,0,1,0,4.882242105,39.08052632,12.67247368,292.84,0.813,0.213,4.410991667,6.568781818,66.24916667,32.78,57.665,4.73225,10.26063636,3.238,7.9925625,2.1972,287.9,291.2,289.2,291.58,291.42,0.209,0.20600000000000002,0.684,0.693,2.937621117
26,1,0,0,1,0,0,1,0,10.92544444,30.08944444,6.5190555560000005,282.36,0.575,0.198,3.3883875,3.6545,54.90125,53.16444444,45.55684211,6.53875,7.117999999999999,5.167736842,2.9523157889999996,11.44631579,286.16,284.74,282.18,278.8,286.66,0.201,0.2,0.684,0.486,1.98037414
27,1,0,0,1,1,0,1,0,4.716173333,18.77533333,13.5208,295.58,0.7879999999999999,0.187,4.716173333,3.849415385,18.77533333,24.67153846,24.67153846,13.5208,13.55115385,13.55115385,10.99855,10.99855,295.58,290.78,290.78,290.16,290.16,0.187,0.187,0.7879999999999999,0.575,2.8622684830000003
28,1,0,0,1,1,0,1,0,5.5048449999999995,27.3475,10.99855,290.16,0.6659999999999999,0.185,2.8122428569999998,2.8122428569999998,70.56285714,70.56285714,56.73875,10.98585714,10.98585714,6.436625,10.91466667,10.91466667,294.08,294.08,288.24,285.38,285.38,0.18600000000000003,0.18600000000000003,0.662,0.662,2.773053852
29,0,1,0,0,1,0,0,1,1.935416667,80.90354167,12.50541667,289.8,0.614,0.182,1.509375,1.983541667,76.30479167,73.12958333,75.60479167,12.90645833,13.11416667,11.20479167,13.33458333,7.2670833329999995,290.34,290.26,290.62,293.9,284.06,0.182,0.18,0.461,0.527,1.387030119
30,0,0,0,1,1,0,0,1,3.193333333,43.595,11.975,291.8,0.546,0.149,2.856875,1.821875,43.43958333,77.82,65.23416667,10.51416667,-15.448125,4.7925,1.1129166670000001,6.261458332999999,275.74,259.42,279.32,276.36,284.26,0.14800000000000002,0.5579999999999999,0.535,0.021,1.6744464159999999
31,0,1,0,1,1,0,0,1,3.4329166669999998,64.843125,8.343333333,284.38,0.59,0.171,5.574791667,1.8441666669999999,68.48541667,65.983125,78.71520833,13.86166667,11.183125,11.04375,13.083125,13.80916667,291.96,292.28,287.68,292.42,289.2,0.16699999999999998,0.165,0.617,0.635,3.716803625
32,0,0,0,1,1,0,0,1,5.193125,63.283125,4.847708333,278.4,0.379,0.16,5.284166667,4.405625,60.710625,76.41104167,87.37,7.877083333,1.250625,5.971666667,7.4985416670000005,9.602708332999999,284.44,272.32,284.34,283.14,276.06,0.159,0.159,0.433,0.22399999999999998,5.7629181460000005
33,0,0,0,1,1,0,0,1,2.8929166669999997,65.79583333,5.74375,286.6,0.255,0.138,2.7122916669999997,2.0491666669999997,68.568125,59.09479167,87.97479167,5.298958333,5.2975,7.152291667,7.996875,-1.337916667,283.9,287.94,287.46,288.58,276.76,0.139,0.138,0.32899999999999996,0.27699999999999997,1.434563176
34,0,0,1,0,1,0,0,1,2.925416667,60.64229167,13.66604167,295.78,0.843,0.18899999999999997,1.7704166669999999,2.795416667,80.78666667,58.524375,84.08541667,9.223541667000001,5.832083333,0.953125,5.959166667000001,7.186666667000001,289.28,289.84,277.06,287.54,290.98,0.18899999999999997,0.172,0.8190000000000001,0.805,4.574989093
35,0,0,1,0,0,0,0,1,3.9797916669999998,59.00583333,12.64520833,278.72,0.445,0.174,1.688541667,3.641041667,70.07854167,62.5275,72.07541667,10.27979167,9.011875,5.5777083329999995,2.5725,3.38375,293.04,285.7,288.54,278.06,285.56,0.174,0.156,0.6940000000000001,0.552,3.3765732010000002
36,0,0,1,0,1,0,0,1,2.072708333,72.12979167,11.74604167,290.64,0.835,0.19699999999999998,2.781875,4.600625,80.55270833,76.3975,76.69375,13.46166667,9.722708333,10.495,10.865,13.21125,288.58,287.08,277.12,289.9,286.28,0.185,0.20800000000000002,1.0,0.8290000000000001,5.076146595
37,0,0,1,0,0,0,0,1,1.84375,56.09333333,8.712083332999999,293.42,0.48700000000000004,0.17800000000000002,6.344791667000001,2.358333333,61.61625,71.69395833,49.12583333,7.300833333,12.86520833,9.072291667,4.9,3.670833333,283.56,292.1,291.08,289.02,285.92,0.16399999999999998,0.155,0.478,0.19899999999999998,2.405499747
38,0,0,1,0,0,0,0,1,1.161458333,66.10333333,7.186666667000001,290.98,0.855,0.16,3.242291667,1.747916667,72.10604167,72.99,75.444375,4.669375,5.6791666670000005,13.675,7.273125,8.083333332999999,284.14,283.32,285.74,283.62,285.2,0.162,0.163,0.8640000000000001,0.86,3.03305783
39,0,1,0,1,0,0,0,1,2.153333333,84.33541667,7.000625,282.3,0.27,0.146,5.175833333,4.4566666669999995,61.60854167,63.40854167,66.81104167,5.395416667,11.986875,9.008125,8.445625,7.734375,286.04,283.04,273.74,274.58,283.36,0.155,0.168,0.33299999999999996,0.281,1.647677223
40,0,0,1,0,0,0,0,1,2.313125,84.57166667,13.21125,286.28,0.512,0.21100000000000002,1.46125,2.14,82.3275,89.39583333,77.16791667,12.8325,11.880625,12.43479167,11.31645833,8.191041667,295.44,293.2,292.14,292.06,287.76,0.212,0.196,0.846,0.795,2.643303654
41,0,0,1,0,1,0,0,1,2.4875,78.38125,9.533541667,285.74,0.621,0.225,2.27375,2.27375,59.48020833,59.48020833,67.40083333,12.63375,12.63375,8.795833333,10.40020833,10.40020833,292.98,292.98,287.34,279.82,279.82,0.16699999999999998,0.16699999999999998,0.583,0.583,2.6872341669999997
42,0,1,0,0,1,0,0,1,1.770355625,72.29922758,13.95930554,294.84,0.22,0.17600000000000002,2.858515417,3.901852083,82.01272929,66.70090994,71.260428,13.13034721,10.24920831,9.358590228999999,8.795354187000001,9.773055521,288.88,292.08,290.14,288.98,283.28,0.17600000000000002,0.172,0.392,0.45899999999999996,1.082537988
43,0,0,1,0,0,0,0,1,2.835416667,50.8175,8.447291667,277.46,0.2,0.17300000000000001,2.740416667,5.126666667,64.76104167,64.57625,63.57833333,5.079166667,1.375625,9.086666667000001,5.305625,8.208958333,281.34,280.94,290.3,290.08,289.18,0.17600000000000002,0.151,0.34600000000000003,0.5920000000000001,1.135198399
44,0,0,1,0,1,0,0,1,2.71655625,59.00498655,8.705763897,291.46,0.585,0.14800000000000002,3.404113958,3.607735833,69.62234881,46.43655335,56.6494,9.67383333,7.621750015,7.651756957000001,5.760048599999999,7.987326395,292.08,290.44,287.28,279.04,288.18,0.138,0.14800000000000002,0.469,0.386,4.160994527
45,0,1,0,1,1,0,0,1,4.751875,52.90041667,10.103125,286.84,0.44,0.13699999999999998,4.903958333,3.041875,67.220625,81.57520833,70.313125,9.310208333,0.812083333,1.9702083330000002,5.561458332999999,9.364166667000001,285.82,281.74,282.0,283.16,288.74,0.13699999999999998,0.127,0.499,0.607,2.372523689
46,0,0,1,1,1,0,0,1,2.817708333,76.60729167,11.96104167,290.44,0.579,0.174,3.169375,2.896875,77.71416667,78.499375,69.50664583,11.32875,8.366666667,9.439854167,10.62745833,11.53029167,287.8,285.76,286.16,291.3,292.74,0.177,0.157,0.187,0.307,2.966832817
47,0,1,1,0,0,0,0,1,3.795625,79.799375,1.64125,274.7,0.484,0.139,5.55375,4.272708333,81.120625,50.58104167,50.58104167,4.013333333,7.071041667,7.071041667,5.2175,8.523541667,275.94,280.18,280.18,279.22,284.82,0.145,0.131,0.493,0.55,4.080214646
48,0,0,0,1,1,0,0,1,2.095625,62.05583333,11.01916667,292.7,0.635,0.16699999999999998,2.4110416669999997,3.539375,74.51875,71.32416667,51.58354167,9.218333333,5.7652083329999995,11.68770833,8.077291667,7.627708332999999,290.06,286.22,290.48,289.1,289.96,0.17300000000000001,0.152,0.672,0.628,1.776430231
49,0,0,1,1,1,0,0,1,3.809583333,75.51854167,11.92270833,288.32,0.802,0.151,1.77625,3.539166667,75.12791667,59.88354167,58.79208333,12.43416667,7.016458332999999,7.993125,8.447291667,5.079166667,284.18,284.0,290.74,277.46,281.34,0.174,0.159,0.39299999999999996,0.036000000000000004,4.132514991
50,0,0,1,1,1,0,0,1,1.4875,67.6875,12.250625,290.24,0.606,0.18600000000000003,3.284166667,1.185208333,65.56208333,71.04875,68.40854167,13.83333333,13.92625,11.21458333,10.574375,13.90083333,290.44,295.2,287.68,291.74,298.04,0.182,0.17800000000000002,0.45299999999999996,0.818,1.9249876959999999
51,0,1,0,0,0,0,0,1,3.7919964580000003,65.28446988,13.62909723,292.32,0.469,0.16899999999999998,1.8371460419999999,2.4405345830000003,73.25976425,72.61364444,74.98937501,11.74895838,10.73790971,11.19423612,12.61314585,13.897666699999998,292.8,290.5,293.36,297.5,301.2,0.16899999999999998,0.18100000000000002,0.7909999999999999,0.18600000000000003,2.683171904
52,0,1,1,0,0,0,0,1,3.700356875,83.62284433,2.3889513890000003,276.54,0.368,0.151,5.490231875,1.319916875,74.30879158,68.57434273,76.41809985,2.733034731,10.282826400000001,12.56694445,8.705763897,9.67383333,276.32,291.76,289.58,291.46,292.08,0.151,0.149,0.374,0.713,1.1262253979999999
53,0,0,0,1,1,0,0,1,5.276458333,61.57354167,8.500416667,274.5,0.40399999999999997,0.156,1.658333333,3.733333333,70.90666667,79.98916667,78.85958333,1.060625,1.483541667,-0.211875,0.095416667,7.971458332999999,279.76,277.82,270.0,274.44,281.26,0.16399999999999998,0.20199999999999999,0.636,0.32299999999999995,1.665963922
54,0,1,0,0,1,0,0,1,2.9733333330000002,77.321875,8.464166667,282.26,0.36700000000000005,0.14300000000000002,1.480833333,1.634166667,65.35770833,75.71708333,72.31583333,13.88625,10.85166667,10.620625,11.74604167,13.46166667,290.94,291.3,290.98,290.64,288.58,0.151,0.191,0.525,0.7120000000000001,2.3545299369999997
55,0,0,1,1,0,0,0,1,2.456875,88.46041667,13.80916667,289.2,0.596,0.183,1.539166667,1.7527083330000002,50.17958333,62.01020833,70.273125,10.25854167,13.76875,10.3025,13.36395833,11.33833333,295.66,290.96,286.36,296.96,292.5,0.201,0.201,0.8290000000000001,0.778,2.1152393519999997
56,0,0,1,0,0,0,0,1,1.5808333330000002,76.68854167,11.28645833,292.0,0.225,0.151,4.400416667,5.193125,54.43,63.283125,60.710625,9.078541667,4.847708333,7.877083333,1.250625,5.971666667,286.44,278.4,284.44,272.32,284.34,0.16,0.16,0.405,0.379,2.337257333
57,0,0,1,0,0,0,0,1,2.155416667,79.18145833,3.644375,284.5,0.8490000000000001,0.166,2.2010416669999997,2.5891666669999998,69.46916667,82.346875,59.05083333,13.336875,11.28854167,14.06,12.50291667,11.01916667,289.78,290.94,295.6,282.84,292.7,0.163,0.165,0.742,0.6579999999999999,1.955234556
58,0,0,1,0,0,0,0,1,4.123958333,57.63625,7.273125,283.62,0.602,0.132,4.365625,3.041041667,67.874375,83.00666667,72.363125,8.083333332999999,2.512916667,3.536875,1.54625,12.12666667,285.2,283.28,285.88,279.72,284.64,0.132,0.13,0.53,0.649,2.812096107
59,0,0,1,0,0,0,0,1,3.027991042,50.40930548,9.477965271,293.4,0.7559999999999999,0.18,2.104126667,3.093867083,69.73548585,71.77515002,48.31091746,4.921118104,7.020875,10.08279865,7.106180563,4.179854187,288.9,287.88,294.5,291.12,281.54,0.18,0.166,0.759,0.754,2.991344508
60,0,1,0,0,1,0,0,1,1.8441666669999999,65.983125,11.183125,292.28,0.635,0.165,1.514791667,3.766458333,78.71520833,64.78041667,88.46041667,11.04375,13.083125,13.80916667,10.25854167,13.76875,287.68,292.42,289.2,295.66,290.96,0.165,0.163,0.031,0.336,1.082683344
61,0,1,0,1,0,0,0,1,2.8860416669999998,83.92833333,13.2675,290.36,0.696,0.157,5.590416667,4.626666667,88.03083333,62.48979167,83.78041667,7.804583332999999,13.53458333,12.98166667,6.775416667000001,2.760416667,281.86,292.6,288.78,281.16,275.9,0.162,0.151,0.19899999999999998,0.518,1.060330282
62,0,0,1,0,0,0,0,1,4.25375,54.55145833,11.97104167,288.7,0.299,0.142,3.2054166669999997,6.48375,67.26020833,80.619375,83.92833333,4.741666667,-1.9672916669999998,13.2675,7.804583332999999,13.53458333,281.32,271.48,290.36,281.86,292.6,0.151,0.159,0.247,0.32899999999999996,3.42968857
63,0,0,1,1,0,0,0,1,1.3037485420000001,65.47354142,12.61314585,297.5,0.6890000000000001,0.191,2.982295625,1.80887,63.40493054,61.48249997,48.51118047,13.897666699999998,14.04166667,14.06277778,13.42066665,12.07009031,301.2,299.86,296.42,298.92,292.5,0.16399999999999998,0.166,0.409,0.5660000000000001,3.749473945
64,0,0,0,1,1,0,0,1,3.539375,71.32416667,5.7652083329999995,286.22,0.628,0.152,4.526041667,2.1625,51.58354167,50.32104167,64.405625,11.68770833,8.077291667,7.627708332999999,3.679583333,3.425625,290.48,289.1,289.96,284.92,281.9,0.15,0.158,0.5529999999999999,0.485,2.144772965
65,0,0,1,0,0,0,0,1,3.28875,63.70291667,7.2983333329999995,286.54,0.736,0.161,4.785416667,3.9797916669999998,65.47583333,59.00583333,70.07854167,6.950416667000001,12.64520833,10.27979167,9.011875,5.5777083329999995,278.58,278.72,293.04,285.7,288.54,0.17300000000000001,0.174,0.569,0.445,3.321558796
66,0,0,1,0,1,0,0,1,1.8752083330000002,74.22,2.760416667,275.9,0.040999999999999995,0.18899999999999997,3.5310416669999998,4.536458333,72.24770833,65.02166667,76.68854167,6.213333333,11.97020833,11.28645833,9.078541667,4.847708333,284.36,293.94,292.0,286.44,278.4,0.14800000000000002,0.149,0.514,0.381,1.258389049
67,0,0,0,1,1,0,0,1,2.413958333,54.87541667,7.996875,288.58,0.287,0.14,3.360833333,3.5714583330000003,63.16020833,53.35,59.79625,-1.337916667,-1.355833333,5.625833332999999,12.12374996,8.403826333,276.76,276.34,280.28,284.22,286.74,0.125,0.124,0.298,0.26,1.099702285
68,0,0,0,1,1,0,0,1,3.163958333,78.46791667,3.425625,281.9,0.488,0.14,3.726458333,3.961458333,71.52375,59.31583333,75.52458333,5.058125,5.105416667,3.2520833330000003,3.45875,3.019375,281.6,281.36,275.68,274.42,278.26,0.141,0.141,0.466,0.49,1.014299927
69,0,0,1,0,1,0,0,1,3.160208333,52.74729167,8.011458333,289.06,0.76,0.17800000000000002,3.291875,2.6775,68.6,49.77270833,56.09333333,11.020625,11.45125,8.712083332999999,7.300833333,12.86520833,292.62,294.04,293.42,283.56,292.1,0.17800000000000002,0.179,0.7090000000000001,0.483,3.132082047
70,0,0,1,0,0,0,0,1,4.536458333,65.02166667,11.97020833,293.94,0.381,0.149,1.5808333330000002,4.400416667,76.68854167,54.43,63.283125,11.28645833,9.078541667,4.847708333,7.877083333,1.250625,292.0,286.44,278.4,284.44,272.32,0.151,0.16,0.225,0.405,2.703868693
71,0,0,1,1,0,0,0,1,1.3791666669999998,63.479375,13.90083333,298.04,0.8540000000000001,0.16899999999999998,2.997083333,2.0525,70.23166667,62.94895833,78.38125,10.615625,11.54291667,9.533541667,12.63375,12.63375,282.88,289.7,285.74,292.98,292.98,0.18,0.188,0.5529999999999999,0.684,3.6352464369999997
72,0,1,0,0,0,0,0,1,2.785105625,63.49719479,12.78360421,291.62,0.37799999999999995,0.16899999999999998,3.7919964580000003,1.8371460419999999,65.28446988,73.25976425,72.61364444,13.62909723,11.74895838,10.73790971,11.19423612,12.61314585,292.32,292.8,290.5,293.36,297.5,0.16899999999999998,0.16899999999999998,0.469,0.7909999999999999,2.216192071
73,0,0,1,0,1,0,0,1,1.672634375,82.15652771,11.29104171,287.42,0.419,0.18,1.4707064580000002,1.9009008330000001,63.90097219,48.36854163,49.527083399999995,10.43116669,12.28249304,8.683687521,5.583645832999999,8.283444437,292.44,296.98,292.18,292.14,290.78,0.18,0.179,0.732,0.775,1.6260302530000001
74,0,0,1,0,1,0,0,1,3.521666667,68.803125,13.850625,293.72,0.853,0.19399999999999998,3.730416667,2.925416667,60.27104167,60.64229167,80.78666667,13.590625,13.66604167,9.223541667000001,5.832083333,0.953125,291.62,295.78,289.28,289.84,277.06,0.193,0.18899999999999997,0.8079999999999999,0.843,4.121842891
75,0,1,1,0,0,0,0,1,2.173736667,65.16785561,-1.796972222,271.78,0.27699999999999997,0.187,2.336191667,3.700356875,61.71094245,83.62284433,74.30879158,-1.70652777,2.3889513890000003,2.733034731,10.282826400000001,12.56694445,273.46,276.54,276.32,291.76,289.58,0.209,0.151,0.135,0.368,2.4441728609999998
76,0,0,1,0,1,0,0,1,1.80887,61.48249997,14.04166667,299.86,0.5660000000000001,0.166,3.355982917,2.4134872919999997,48.51118047,55.53972231,50.57663613,14.06277778,13.42066665,12.07009031,-2.803333332,-1.796972222,296.42,298.92,292.5,272.76,271.78,0.165,0.172,0.486,0.249,1.16242402
77,0,1,0,1,0,0,0,1,4.36,69.22645833,13.03791667,288.5,0.669,0.157,7.42,2.817708333,71.145,76.60729167,77.71416667,10.98125,11.96104167,11.32875,8.366666667,9.439854167,285.28,290.44,287.8,285.76,286.16,0.171,0.174,0.402,0.579,1.429450251
78,0,0,1,1,0,0,0,1,1.849415625,78.11958354,12.16484023,290.42,0.34600000000000003,0.21100000000000002,1.5257877080000002,2.1808670830000003,72.46243031,93.90138883,82.15652771,7.889715354,9.047680563,11.29104171,10.43116669,12.28249304,287.52,284.16,287.42,292.44,296.98,0.18899999999999997,0.18100000000000002,0.759,0.65,3.811231635
79,0,0,0,1,1,0,0,1,3.483541667,51.56020833,10.023125,282.8,0.289,0.151,3.193333333,2.856875,43.595,43.43958333,77.82,11.975,10.51416667,-15.448125,4.7925,1.1129166670000001,291.8,275.74,259.42,279.32,276.36,0.149,0.14800000000000002,0.546,0.535,1.4787121859999999
80,0,1,0,1,0,0,0,1,3.183541667,85.081875,6.429375,280.42,0.418,0.162,3.271875,1.712291667,86.55041667,94.80104167,78.6825,6.203333333,7.036875,10.29083333,12.960625,12.53583333,278.32,286.26,285.84,282.54,287.14,0.165,0.168,0.775,0.768,1.627556091
81,0,1,0,1,0,0,0,1,3.249166667,88.935,11.98395833,282.9,0.335,0.151,2.735,3.545416667,85.45854167,83.59645833,84.571875,12.6,11.20333333,10.403125,11.85458333,12.84479167,285.62,287.82,289.8,292.42,287.92,0.151,0.16,0.7829999999999999,0.48700000000000004,1.411982676
82,0,0,1,0,0,0,0,1,3.89579125,58.2435155,4.179854187,281.54,0.579,0.154,3.952964583,1.78910125,56.36050298,66.84195892,86.48021531,11.23319444,5.8177569170000005,9.625326438,-4.942562562,10.74508348,290.74,288.22,286.0,268.96,284.32,0.149,0.147,0.53,0.523,2.010927056
83,0,0,0,1,1,0,0,1,1.474375,59.7875,5.305625,290.08,0.504,0.154,2.909583333,1.342916667,63.99375,74.92875,53.9425,8.208958333,7.950833332999999,4.366666667,10.023125,11.975,289.18,289.44,286.3,282.8,291.8,0.154,0.152,0.536,0.562,1.301802443
84,0,1,0,1,0,0,0,1,2.91625,86.59291667,12.53583333,287.14,0.457,0.151,3.249166667,2.735,88.935,85.45854167,83.59645833,11.98395833,12.6,11.20333333,10.403125,11.85458333,282.9,285.62,287.82,289.8,292.42,0.151,0.151,0.335,0.7829999999999999,1.6757252409999999
85,0,1,0,1,0,0,0,1,3.145833333,82.62333333,9.602708332999999,276.06,0.529,0.154,3.349791667,1.935416667,82.576875,80.90354167,76.30479167,11.79895833,12.50541667,12.90645833,13.11416667,11.20479167,291.92,289.8,290.34,290.26,290.62,0.174,0.182,0.645,0.614,4.134313141
86,0,1,0,0,1,0,0,1,3.766458333,64.78041667,13.083125,292.42,0.336,0.163,2.456875,1.539166667,88.46041667,50.17958333,62.01020833,13.80916667,10.25854167,13.76875,10.3025,13.36395833,289.2,295.66,290.96,286.36,296.96,0.183,0.201,0.596,0.8290000000000001,1.7174771169999998
87,0,1,0,1,0,0,0,1,4.208544583,85.39543121,11.21951381,290.8,0.245,0.165,5.440024583,1.770355625,68.2255584,72.29922758,82.01272929,11.37673617,13.95930554,13.13034721,10.24920831,9.358590228999999,289.66,294.84,288.88,292.08,290.14,0.179,0.17600000000000002,0.505,0.22,1.0259804829999999
88,0,1,0,1,0,0,0,1,5.590416667,88.03083333,7.804583332999999,281.86,0.19899999999999998,0.162,4.626666667,2.130625,62.48979167,83.78041667,59.65208333,13.53458333,12.98166667,6.775416667000001,2.760416667,6.213333333,292.6,288.78,281.16,275.9,284.36,0.151,0.17800000000000002,0.518,0.846,4.2821375569999995
89,0,0,0,1,1,0,0,1,1.975651042,63.20858689999999,10.60084029,282.54,0.37,0.145,2.2197991669999997,7.046545833,66.60384456,78.12895605,79.62880413,8.288763868,3.052708342,4.539250005,4.866041667,2.8997916669999997,289.42,279.42,275.88,272.4,282.68,0.145,0.145,0.526,0.483,1.1718211509999998
90,0,0,1,0,1,0,0,1,2.9641666669999998,48.81166667,13.36395833,296.96,0.726,0.182,3.166666667,2.9577083330000002,55.530625,40.22833333,45.574375,11.33833333,13.22645833,10.423125,8.011458333,11.020625,292.5,296.08,293.38,289.06,292.62,0.182,0.182,0.778,0.703,4.058251766000001
91,0,1,0,0,1,0,0,1,5.440024583,68.2255584,11.37673617,289.66,0.505,0.179,1.770355625,2.858515417,72.29922758,82.01272929,66.70090994,13.95930554,13.13034721,10.24920831,9.358590228999999,8.795354187000001,294.84,288.88,292.08,290.14,288.98,0.17600000000000002,0.17600000000000002,0.22,0.392,1.649291225
92,0,0,0,1,1,0,0,1,3.739671042,53.73281317,-4.942562562,268.96,0.01,0.62,4.956967292,5.060941458,90.03681942,72.80347213,63.49719479,10.74508348,13.19069446,12.78360421,13.62909723,11.74895838,284.32,287.24,291.62,292.32,292.8,0.166,0.17,0.35,0.3,1.3663017880000001
93,0,0,1,0,0,0,0,1,2.740416667,64.76104167,5.079166667,281.34,0.34600000000000003,0.17600000000000002,5.126666667,4.216666667,64.57625,63.57833333,59.7875,1.375625,9.086666667000001,5.305625,8.208958333,7.950833332999999,280.94,290.3,290.08,289.18,289.44,0.151,0.154,0.5920000000000001,0.574,2.077881431
94,0,0,1,1,1,0,0,1,1.480833333,65.35770833,13.88625,290.94,0.525,0.151,1.634166667,1.7525,75.71708333,72.31583333,72.12979167,10.85166667,10.620625,11.74604167,13.46166667,9.722708333,291.3,290.98,290.64,288.58,287.08,0.191,0.191,0.7120000000000001,0.858,3.424547322
95,0,0,0,1,0,0,0,1,3.726458333,71.52375,5.058125,281.6,0.466,0.141,3.961458333,3.504375,59.31583333,75.52458333,77.510625,5.105416667,3.2520833330000003,3.45875,3.019375,3.019375,281.36,275.68,274.42,278.26,278.26,0.141,0.145,0.49,0.259,1.337852086
96,0,0,0,1,1,0,0,1,3.5190900000000003,59.19512004,6.528916692999999,286.3,0.43200000000000005,0.151,4.546888542,1.975651042,67.6617714,63.20858689999999,66.60384456,6.1206111,10.60084029,8.288763868,3.052708342,4.539250005,285.08,282.54,289.42,279.42,275.88,0.147,0.145,0.34700000000000003,0.37,1.475268253
97,0,0,1,0,0,0,0,1,1.46125,82.3275,12.8325,295.44,0.846,0.212,2.14,1.5285416669999998,89.39583333,77.16791667,74.48,11.880625,12.43479167,11.31645833,8.191041667,5.243958333,293.2,292.14,292.06,287.76,290.24,0.196,0.19399999999999998,0.795,0.257,2.808893465
98,0,0,1,1,0,0,0,1,1.7525,72.31583333,10.620625,290.98,0.858,0.191,2.072708333,2.781875,72.12979167,80.55270833,76.3975,11.74604167,13.46166667,9.722708333,10.495,10.865,290.64,288.58,287.08,277.12,289.9,0.19699999999999998,0.185,0.835,1.0,4.842993863999999
99,0,0,1,0,0,0,0,1,1.761336042,49.527083399999995,8.683687521,292.18,0.746,0.179,1.143856667,2.42279875,52.03229169,67.95534698,50.40930548,5.583645832999999,8.283444437,9.477965271,4.921118104,7.020875,292.14,290.78,293.4,288.9,287.88,0.179,0.18,0.774,0.7240000000000001,2.139206733
100,0,0,0,1,1,0,0,1,3.041041667,83.00666667,2.512916667,283.28,0.649,0.13,1.8220833330000001,3.402708333,72.363125,82.63354167,78.496875,3.536875,1.54625,12.12666667,10.103125,9.310208333,285.88,279.72,284.64,286.84,285.82,0.13,0.13,0.618,0.063,1.739677673
101,0,1,0,0,0,0,0,1,1.319916875,68.57434273,10.282826400000001,291.76,0.713,0.149,5.696874583,2.71655625,76.41809985,59.00498655,69.62234881,12.56694445,8.705763897,9.67383333,7.621750015,7.651756957000001,289.58,291.46,292.08,290.44,287.28,0.14300000000000002,0.14800000000000002,0.669,0.585,2.309284051
102,0,1,0,1,0,0,0,1,4.011458333,74.353125,6.959166667000001,281.06,0.109,0.16899999999999998,4.331041667,3.694583333,73.625625,61.90958333,74.13354167,12.01104167,13.955,9.535833333,9.535833333,12.69541667,289.82,291.58,284.2,284.2,292.5,0.157,0.152,0.541,0.715,1.4284746380000002
103,0,0,1,0,1,0,0,1,3.770833333,76.69375,10.495,277.12,0.23,0.20800000000000002,3.605833333,2.313125,75.35916667,84.57166667,82.3275,10.865,13.21125,12.8325,11.880625,12.43479167,289.9,286.28,295.44,293.2,292.14,0.207,0.21100000000000002,0.877,0.512,4.854260871
104,0,0,1,0,0,0,0,1,3.179375,74.48,11.31645833,292.06,0.87,0.193,2.2225,2.07875,86.653125,57.295625,79.18145833,8.191041667,5.243958333,3.644375,13.336875,11.28854167,287.76,290.24,284.5,289.78,290.94,0.196,0.166,0.601,0.8,3.557120831
105,0,0,0,1,1,0,0,1,5.601069375,86.48021531,9.625326438,286.0,0.272,0.147,3.739671042,4.956967292,53.73281317,90.03681942,72.80347213,-4.942562562,10.74508348,13.19069446,12.78360421,13.62909723,268.96,284.32,287.24,291.62,292.32,0.62,0.166,0.01,0.35,1.5192745980000002
106,0,0,1,0,1,0,0,1,2.4641666669999998,69.98104167,13.33458333,293.9,0.902,0.20800000000000002,3.271875,3.521666667,77.17291667,68.803125,60.27104167,7.2670833329999995,13.850625,13.590625,13.66604167,9.223541667000001,284.06,293.72,291.62,295.78,289.28,0.191,0.19399999999999998,0.7340000000000001,0.853,4.002885831
107,0,0,1,0,0,0,0,1,1.747916667,72.99,5.6791666670000005,283.32,0.86,0.163,1.63625,4.123958333,75.444375,57.63625,67.874375,13.675,7.273125,8.083333332999999,2.512916667,3.536875,285.74,283.62,285.2,283.28,285.88,0.135,0.132,0.69,0.602,2.342834291
108,0,0,1,0,1,0,0,1,2.829166667,70.273125,10.3025,286.36,0.725,0.188,2.9641666669999998,3.166666667,48.81166667,55.530625,40.22833333,13.36395833,11.33833333,13.22645833,10.423125,8.011458333,296.96,292.5,296.08,293.38,289.06,0.182,0.182,0.726,0.778,2.9256479019999997
109,0,0,1,0,0,0,0,1,3.539166667,59.88354167,7.016458332999999,284.0,0.036000000000000004,0.159,3.458125,2.835416667,58.79208333,50.8175,64.76104167,7.993125,8.447291667,5.079166667,1.375625,9.086666667000001,290.74,277.46,281.34,280.94,290.3,0.16,0.17300000000000001,0.534,0.2,1.646939236
110,0,0,1,0,0,0,0,1,2.42279875,67.95534698,8.283444437,290.78,0.7240000000000001,0.18,3.027991042,2.104126667,50.40930548,69.73548585,71.77515002,9.477965271,4.921118104,7.020875,10.08279865,7.106180563,293.4,288.9,287.88,294.5,291.12,0.18,0.18,0.7559999999999999,0.759,2.258194181
111,0,1,0,0,1,0,0,1,4.331041667,73.625625,12.01104167,289.82,0.541,0.157,3.694583333,3.76,61.90958333,74.13354167,74.13354167,13.955,9.535833333,9.535833333,12.69541667,11.04770833,291.58,284.2,284.2,292.5,290.9,0.152,0.154,0.715,0.027000000000000003,1.806975896
112,0,0,0,1,0,0,0,1,4.405625,76.41104167,1.250625,272.32,0.22399999999999998,0.159,2.3747916669999998,3.7454166669999998,87.37,85.12145833,82.62333333,5.971666667,7.4985416670000005,9.602708332999999,11.79895833,12.50541667,284.34,283.14,276.06,291.92,289.8,0.16399999999999998,0.16399999999999998,0.821,0.379,2.0292383480000002
113,0,1,0,0,1,0,0,1,5.060941458,72.80347213,13.19069446,287.24,0.3,0.17,2.785105625,3.7919964580000003,63.49719479,65.28446988,73.25976425,12.78360421,13.62909723,11.74895838,10.73790971,11.19423612,291.62,292.32,292.8,290.5,293.36,0.16899999999999998,0.16899999999999998,0.37799999999999995,0.469,1.677390856
114,0,0,1,0,0,0,0,1,6.344791667000001,61.61625,7.300833333,283.56,0.478,0.16399999999999998,2.358333333,2.441666667,71.69395833,49.12583333,62.614375,12.86520833,9.072291667,4.9,3.670833333,5.74375,292.1,291.08,289.02,285.92,286.6,0.155,0.155,0.19899999999999998,0.35600000000000004,2.230009489
115,0,0,1,0,1,0,0,1,1.7704166669999999,80.78666667,9.223541667000001,289.28,0.8190000000000001,0.18899999999999997,2.795416667,3.20875,58.524375,84.08541667,68.185,5.832083333,0.953125,5.959166667000001,7.186666667000001,4.669375,289.84,277.06,287.54,290.98,284.14,0.172,0.161,0.805,0.47200000000000003,3.6808098080000002
116,0,0,1,0,0,0,0,1,1.688541667,70.07854167,10.27979167,293.04,0.6940000000000001,0.174,3.641041667,1.608333333,62.5275,72.07541667,70.51895833,9.011875,5.5777083329999995,2.5725,3.38375,5.255625,285.7,288.54,278.06,285.56,287.18,0.156,0.156,0.552,0.649,3.1964998639999997
117,0,0,1,0,0,0,0,1,4.048541667,56.3875,9.511041667,292.4,0.8,0.16399999999999998,2.944791667,1.8495833330000002,64.533125,62.7725,72.9725,7.731875,5.462708332999999,9.636666667,7.2983333329999995,6.950416667000001,291.96,290.82,285.06,286.54,278.58,0.16399999999999998,0.163,0.7959999999999999,0.8009999999999999,3.7217480569999997
118,1,1,0,1,0,0,1,0,3.2096382980000002,53.39234043,12.00989362,295.94,0.45299999999999996,0.184,2.908595745,2.9016521739999996,64.60191489,58.21891304,49.23874468,13.99759574,11.33478261,12.91682979,14.07458333,8.589085106,297.8,300.86,300.0,300.88,290.62,0.17300000000000001,0.16,0.485,0.406,1.130547049
119,1,0,1,0,0,0,1,0,5.179361702,49.23874468,12.91682979,300.0,0.268,0.161,3.635979167,4.452191489,39.154375,65.76597872,61.74460417,14.07458333,8.589085106,10.80995833,14.02813043,7.672833333,300.88,290.62,290.54,298.96,294.58,0.161,0.162,0.3,0.27899999999999997,1.402574653
120,1,0,0,1,1,0,1,0,4.452191489,65.76597872,8.589085106,290.62,0.27899999999999997,0.162,7.9104375,3.179434783,61.74460417,49.24152174,76.65208333,10.80995833,14.02813043,7.672833333,6.79275,7.024020833,290.54,298.96,294.58,287.88,282.94,0.162,0.16,0.256,0.243,2.348042163
121,1,0,0,1,0,0,1,0,2.951708333,54.86354167,9.5945,286.4,0.10400000000000001,0.602,3.2096382980000002,3.2096382980000002,53.39234043,53.39234043,64.60191489,12.00989362,12.00989362,13.99759574,11.33478261,12.91682979,295.94,295.94,297.8,300.86,300.0,0.184,0.184,0.45299999999999996,0.45299999999999996,3.154012903
122,1,1,0,1,0,0,1,0,3.9395833330000003,43.68239583,11.93341667,293.9,0.381,0.16899999999999998,1.970086957,1.960297872,77.79019565,52.99455319,50.55087234,11.99608696,7.237510638,6.817042552999999,11.21895745,9.400708332999999,298.1,294.42,292.32,297.32,293.32,0.17,0.174,0.423,0.301,1.202367476
123,1,0,0,1,1,0,1,0,1.960297872,52.99455319,7.237510638,294.42,0.301,0.174,4.0126170210000005,4.094042553,50.55087234,37.85859574,39.43897917,6.817042552999999,11.21895745,9.400708332999999,4.666456522,12.38483333,292.32,297.32,293.32,288.78,292.04,0.17600000000000002,0.17600000000000002,0.307,0.271,1.8583482480000002
124,1,1,0,1,0,0,1,0,2.908595745,64.60191489,13.99759574,297.8,0.485,0.17300000000000001,2.9016521739999996,5.179361702,58.21891304,49.23874468,39.154375,11.33478261,12.91682979,14.07458333,8.589085106,10.80995833,300.86,300.0,300.88,290.62,290.54,0.16,0.161,0.406,0.268,1.264134687
125,1,0,1,0,1,0,1,0,3.4945625,53.72583333,13.81597917,306.5,0.374,0.177,3.4945625,3.6949375,53.72583333,34.0686875,72.50778723,13.81597917,12.75333333,4.369957447,9.5945,12.00989362,306.5,303.04,287.92,286.4,295.94,0.177,0.177,0.374,0.33,2.185441783
126,1,0,0,1,1,0,1,0,6.255479167000001,69.6979375,6.79275,287.88,0.151,0.18899999999999997,3.4525625,3.695833333,63.89729167,57.62958333,28.57,7.024020833,12.79047917,12.9525,11.69214286,5.388315789,282.94,295.58,287.38,286.4,284.22,0.168,0.159,0.20800000000000002,0.36700000000000005,1.493675156
127,0,0,0,1,0,1,0,0,2.3016875,54.8160625,6.600625,285.38,0.622,0.11199999999999999,2.9163125,2.7334347830000003,53.6125,76.97391304,53.74468085,8.9724375,13.75002174,7.384787234,12.25591667,9.162659574,289.42,293.86,286.38,294.86,291.1,0.109,0.11,0.7120000000000001,0.6779999999999999,1.753768231
128,0,0,1,0,0,1,0,0,3.0925833330000003,26.53125,12.25591667,294.86,0.5920000000000001,0.106,2.9481063830000003,2.445208333,26.46385106,39.4041875,60.45627083,9.162659574,7.41225,8.494583333,9.524595745,6.9239999999999995,291.1,289.52,290.7,288.82,287.18,0.106,0.105,0.5770000000000001,0.621,1.892143251
129,0,0,1,0,0,1,0,0,4.065958333,51.07541667,10.80416667,290.68,0.299,0.129,1.946875,2.931456522,53.88814583,53.28130435,54.8160625,5.276041667,1.3963043480000001,6.600625,8.9724375,13.75002174,288.42,279.32,285.38,289.42,293.86,0.106,0.111,0.615,0.624,1.819504447
130,0,0,0,1,1,1,0,0,2.329957447,33.41276596,7.0060425529999995,285.76,0.628,0.115,3.429208333,3.9023125,71.7975,54.45291667,56.33354167,-3.323104167,7.8125625,7.486875,13.67891667,13.10645208,266.04,285.44,286.2,295.78,298.6,0.207,0.106,0.22899999999999998,0.5,1.046865248
131,0,0,0,1,1,1,0,0,3.177934783,56.77413043,6.9239999999999995,287.18,0.619,0.11199999999999999,2.047958333,2.4045,57.44104167,39.85291667,33.41276596,10.739125,8.343916667,7.0060425529999995,-3.323104167,7.8125625,290.12,287.22,285.76,266.04,285.44,0.11,0.114,0.695,0.621,1.074270054
132,0,1,0,1,0,1,0,0,2.877583333,56.33354167,7.486875,286.2,0.72,0.11699999999999999,3.845410083,5.290490375,65.27116667,66.1438125,57.18308511,13.67891667,13.10645208,10.36705957,10.36705957,13.306823399999999,295.78,298.6,291.6,291.6,296.94,0.151,0.151,0.589,0.47,1.297447351
133,0,0,1,0,0,1,0,0,2.7334347830000003,76.97391304,13.75002174,293.86,0.6779999999999999,0.11,2.619893617,3.0925833330000003,53.74468085,26.53125,26.46385106,7.384787234,12.25591667,9.162659574,7.41225,8.494583333,286.38,294.86,291.1,289.52,290.7,0.106,0.106,0.588,0.5920000000000001,1.9373152269999998
134,1,1,0,0,1,0,0,1,3.513958333,77.53958333,11.31604167,288.04,0.4,0.207,3.222916667,1.4427083330000001,79.58125,70.17958333,81.63229167,13.12416667,3.445854167,5.872166667,13.30204167,13.421625,291.06,289.42,287.02,297.06,297.22,0.221,0.177,0.415,0.5,1.679373306
135,1,0,1,0,0,0,0,1,3.612708333,74.775625,11.11072917,295.3,0.6,0.162,2.025625,2.1295833330000002,83.63916667,82.45958333,59.34645833,9.596833333,5.312041667,7.255875,5.344458333,4.338104167,292.56,290.06,289.5,289.32,290.96,0.162,0.161,0.644,0.47600000000000003,4.4690436280000005
136,1,1,0,1,1,0,0,1,3.76125,75.64229167,1.8906041669999998,276.8,0.489,0.113,2.3770833330000003,1.9372916669999998,93.484375,91.04583333,85.40541667,11.41166667,9.684166667000001,13.799375,13.15020833,13.15020833,288.76,287.36,291.88,290.22,290.22,0.135,0.16399999999999998,0.522,0.40700000000000003,1.9244256290000001
137,1,0,1,0,1,0,0,1,1.486666667,69.74458333,11.327625,297.9,0.6679999999999999,0.192,1.351666667,1.085833333,71.92020833,67.23104167,72.10645833,9.840395832999999,14.02452083,11.89064583,12.11239583,9.7731875,293.96,301.66,295.72,292.32,293.12,0.191,0.179,0.778,0.529,3.557805798
138,1,1,0,0,1,0,0,1,3.218125,85.40541667,13.799375,291.88,0.45399999999999996,0.168,4.38,4.38,83.93583333,83.93583333,67.32791667,13.15020833,13.15020833,9.965416667000001,11.63270833,13.50270833,290.22,290.22,287.54,288.58,288.02,0.19,0.19,0.35600000000000004,0.35600000000000004,1.4845045330000002
139,1,0,0,1,1,0,0,1,2.074583333,94.10833333,-2.7310625,273.98,0.062,0.5479999999999999,0.834583333,1.8223125,82.17979167,43.63770833,75.34217391,-7.3241875,13.75104167,11.78586957,9.135869565,10.80416667,272.24,289.38,292.64,289.22,290.68,0.602,0.11599999999999999,0.032,0.65,1.206954498
140,1,0,1,0,0,0,0,1,1.688333333,77.995,4.338104167,290.96,0.635,0.16,2.101875,2.275833333,76.90375,69.02604167,96.35416667,4.459979167,5.732895833,5.210791667,-0.908645833,0.36927083299999997,289.88,287.6,280.6,280.92,279.32,0.16,0.161,0.33899999999999997,0.455,2.597807062
141,1,0,1,0,1,0,0,1,1.3275,75.67041667,10.54164583,287.4,0.747,0.187,2.638125,2.159166667,59.593125,67.16,69.74458333,11.279125,11.85702083,11.327625,9.840395832999999,14.02452083,296.22,287.22,297.9,293.96,301.66,0.187,0.184,0.757,0.631,9.540732538
142,1,0,1,1,0,0,0,1,1.267916667,88.86395833,13.421625,297.22,0.823,0.2,1.804375,3.3639583330000002,73.70479167,81.81625,79.9925,12.17202083,10.62875,11.67872917,10.705625,10.04585417,292.5,290.9,289.84,288.92,290.76,0.2,0.2,0.805,0.782,3.577905335
143,1,1,0,1,1,0,0,1,6.586041667000001,74.74,1.65825,274.08,0.43799999999999994,0.12,1.831458333,3.76125,100.4916667,75.64229167,93.484375,4.9060625,1.8906041669999998,11.41166667,9.684166667000001,13.799375,280.7,276.8,288.76,287.36,291.88,0.12,0.113,0.19399999999999998,0.489,1.993088407
144,1,0,1,0,1,0,0,1,2.86375,86.88458333,10.04585417,290.76,0.782,0.201,1.95125,2.483125,85.956875,79.60666667,80.87770833,8.695895833,6.158291667,-0.651875,-1.288,-1.842979167,291.5,285.78,276.24,273.58,274.0,0.183,0.152,0.6,0.39,3.4519023389999997
145,1,0,0,1,1,0,0,1,2.129166667,80.87770833,-0.651875,276.24,0.368,0.125,2.530208333,2.03625,83.62395833,82.76520833,94.10833333,-1.288,-1.842979167,-2.7310625,-7.3241875,13.75104167,273.58,274.0,273.98,272.24,289.38,0.126,0.126,0.055,0.385,2.0950330580000003
146,1,0,0,1,1,0,0,1,2.819791667,85.41770833,-0.734208333,274.58,0.344,0.162,4.084375,1.01,68.47354167,95.70208333,82.90729167,0.5299166670000001,1.9628125,5.153979167,4.1308125,0.651979167,279.1,283.42,275.56,277.16,274.58,0.162,0.14400000000000002,0.3,0.434,1.5444822669999998
147,1,0,0,1,1,0,0,1,2.03625,82.76520833,-1.842979167,274.0,0.385,0.126,2.074583333,0.834583333,94.10833333,82.17979167,43.63770833,-2.7310625,-7.3241875,13.75104167,11.78586957,9.135869565,273.98,272.24,289.38,292.64,289.22,0.5479999999999999,0.602,0.062,0.032,2.596888158
148,1,1,0,0,1,0,0,1,3.259583333,91.5825,11.63270833,288.58,0.475,0.19,2.665,3.513958333,85.71541667,77.53958333,79.58125,13.50270833,11.31604167,13.12416667,3.445854167,5.872166667,288.02,288.04,291.06,289.42,287.02,0.20800000000000002,0.207,0.401,0.4,1.3441761669999999
149,1,1,0,0,1,0,0,1,4.38,83.93583333,13.15020833,290.22,0.35600000000000004,0.19,4.966458333,3.259583333,67.32791667,91.5825,85.71541667,9.965416667000001,11.63270833,13.50270833,11.31604167,13.12416667,287.54,288.58,288.02,288.04,291.06,0.19399999999999998,0.19,0.473,0.475,1.6634150719999998
150,1,0,1,0,0,0,0,1,1.4427083330000001,70.17958333,3.445854167,289.42,0.5,0.177,2.4239583330000003,1.7175,81.63229167,84.220625,88.86395833,5.872166667,13.30204167,13.421625,12.17202083,10.62875,287.02,297.06,297.22,292.5,290.9,0.159,0.149,0.537,0.47600000000000003,3.1688651689999996
151,1,0,1,0,1,0,0,1,3.820833333,66.37645833,11.91164583,290.84,0.76,0.188,1.3275,2.638125,75.67041667,59.593125,67.16,10.54164583,11.279125,11.85702083,11.327625,9.840395832999999,287.4,296.22,287.22,297.9,293.96,0.187,0.187,0.747,0.757,2.476861243
152,1,1,0,0,1,0,0,1,4.966458333,67.32791667,9.965416667000001,287.54,0.473,0.19399999999999998,3.259583333,2.665,91.5825,85.71541667,77.53958333,11.63270833,13.50270833,11.31604167,13.12416667,3.445854167,288.58,288.02,288.04,291.06,289.42,0.19,0.20800000000000002,0.475,0.401,1.531909913
153,0,0,0,1,0,0,1,0,2.4459999999999997,70.54666667,8.706666667,289.54,0.418,0.155,1.953636364,1.728888889,63.38181818,68.91111111,56.81538462,9.172727273,6.511111111,9.769230769,9.139130435,12.32105263,288.52,292.06,289.62,284.2,292.4,0.159,0.157,0.43200000000000005,0.396,1.9808092959999999
154,0,0,1,0,0,0,1,0,2.574117647,96.88823529,10.43529412,301.4,0.584,0.158,3.446956522,2.898055556,62.08260870000001,66.8,43.372,11.76956522,7.961111111,9.892000000000001,11.564,7.312121212,290.92,289.66,291.9,286.88,287.3,0.157,0.157,0.469,0.46799999999999997,1.210339465
155,0,1,1,0,0,0,1,0,1.751111111,60.56666667,5.755555556,281.08,0.46399999999999997,0.151,1.512777778,3.8685,51.10561111,44.21005,68.98,3.616666667,7.38,11.08,11.91672222,10.72631579,280.12,283.84,287.84,289.12,286.48,0.14300000000000002,0.14300000000000002,0.521,0.526,1.456059953
156,0,1,0,1,1,0,1,0,1.281111111,42.64455556,8.077777778,284.84,0.496,0.156,3.4071428569999997,3.2710000000000004,55.97619048,57.155,36.31111111,5.8,9.63,8.105555556,6.923809524,13.99,283.16,279.72,286.32,285.94,288.68,0.156,0.154,0.51,0.382,1.524663411
157,0,0,0,1,0,0,1,0,1.723636364,47.01818182,10.16363636,281.52,0.413,0.152,2.8244444439999996,1.751111111,38.74074074,60.56666667,51.10561111,9.074074074,5.755555556,3.616666667,7.38,11.08,289.02,281.08,280.12,283.84,287.84,0.153,0.151,0.43799999999999994,0.46399999999999997,2.348352249
158,0,0,0,1,0,0,1,0,3.210789474,77.11052632,9.186842105,286.44,0.158,0.138,1.723636364,2.8244444439999996,47.01818182,38.74074074,60.56666667,10.16363636,9.074074074,5.755555556,3.616666667,7.38,281.52,289.02,281.08,280.12,283.84,0.152,0.153,0.413,0.43799999999999994,2.303558388
159,0,1,0,1,0,0,1,0,1.103636364,51.50909091,13.15463636,293.58,0.657,0.17,2.738695652,1.4428571430000001,73.86521739,86.0,37.384,12.02608696,9.671428571,12.384,10.43529412,11.76956522,290.92,295.86,294.96,301.4,290.92,0.162,0.16399999999999998,0.667,0.66,1.682915755
160,0,1,0,1,1,0,1,0,1.924761905,44.05714286,9.480952381,288.24,0.588,0.146,3.3252173910000002,2.4384,46.63043478,66.952,50.26111111,8.565217391000001,14.00804,11.89444444,13.64231579,11.63181818,284.8,292.12,289.1,291.08,290.2,0.147,0.147,0.593,0.667,2.859043399
161,0,1,0,1,1,0,1,0,2.6824,54.9,13.696,290.26,0.5579999999999999,0.145,1.3980000000000001,3.433333333,63.595,68.04290476,80.08095238,13.4601,10.8,11.67142857,13.834375,9.684791667,290.16,288.26,283.76,294.58,288.78,0.145,0.14400000000000002,0.561,0.541,2.06592925
162,0,1,1,0,0,0,1,0,3.072272727,65.01363636,1.6227272730000002,277.92,0.43799999999999994,0.152,2.188571429,3.161052632,45.2952381,42.78421053,49.845,10.76666667,12.51057895,9.84,12.40005,8.22,286.42,287.32,284.14,287.4,284.42,0.151,0.151,0.436,0.413,2.543786913
163,0,0,0,0,1,0,1,0,3.256153846,54.06923077,11.44230769,285.14,0.345,0.14,2.443,3.0335,53.63,52.885,57.63,8.975,6.235,7.46,9.85,11.66111111,282.38,282.34,281.7,286.96,288.4,0.14800000000000002,0.14800000000000002,0.45399999999999996,0.426,1.7785049480000001
164,0,1,0,1,0,0,1,0,2.439473684,49.3,13.64231579,291.08,0.688,0.145,1.445,2.585454545,70.16363636,49.31215152,35.50666667,11.63181818,13.594000000000001,12.22,9.081818182000001,5.121428571,290.2,293.6,294.2,287.08,287.38,0.145,0.156,0.679,0.204,3.4701843560000003
165,0,1,1,0,0,0,1,0,2.5672,46.672,5.8839999999999995,282.76,0.45899999999999996,0.156,1.281111111,3.4071428569999997,42.64455556,55.97619048,57.155,8.077777778,5.8,9.63,8.105555556,6.923809524,284.84,283.16,279.72,286.32,285.94,0.156,0.156,0.496,0.51,1.218275077
166,0,0,1,0,0,0,1,0,1.4428571430000001,86.0,9.671428571,295.86,0.66,0.16399999999999998,2.9452,2.574117647,37.384,96.88823529,62.08260870000001,12.384,10.43529412,11.76956522,7.961111111,9.892000000000001,294.96,301.4,290.92,289.66,291.9,0.16699999999999998,0.158,0.626,0.584,1.123292696
167,0,0,0,1,1,0,1,0,2.11,55.9,8.815,282.24,0.364,0.145,2.70826087,0.823333333,70.21304348,100.0,40.37619048,7.769565217,-1.233333333,11.47619048,9.995238095,1.404545455,285.36,282.12,289.7,285.24,279.06,0.142,0.145,0.397,0.41200000000000003,4.018287883
168,0,1,1,0,0,0,1,0,4.162173913,66.3173913,9.139130435,284.2,0.473,0.14400000000000002,1.461052632,2.11,61.73684211,55.9,70.21304348,12.32105263,8.815,7.769565217,-1.233333333,11.47619048,292.4,282.24,285.36,282.12,289.7,0.155,0.145,0.419,0.364,2.012739366
169,0,1,0,1,1,0,1,0,4.007692308,60.65769231,7.680769231,282.92,0.569,0.147,2.6824,1.3980000000000001,54.9,63.595,68.04290476,13.696,13.4601,10.8,11.67142857,13.834375,290.26,290.16,288.26,283.76,294.58,0.145,0.145,0.5579999999999999,0.561,2.50754035
170,0,0,0,1,1,0,1,0,1.8593333330000001,35.50666667,12.22,294.2,0.509,0.157,3.075,2.814642857,51.96818182,64.76428571,55.89583333,9.081818182000001,5.121428571,13.383375,10.93333333,12.26254167,287.08,287.38,293.76,291.1,289.88,0.156,0.158,0.514,0.509,3.444541405
171,0,0,0,1,0,0,1,0,2.403846154,56.81538462,9.769230769,289.62,0.406,0.156,4.162173913,1.461052632,66.3173913,61.73684211,55.9,9.139130435,12.32105263,8.815,7.769565217,-1.233333333,284.2,292.4,282.24,285.36,282.12,0.14400000000000002,0.155,0.473,0.419,1.504393585
172,0,0,0,1,0,0,1,0,0.823333333,100.0,-1.233333333,282.12,0.41200000000000003,0.145,2.57047619,3.012380952,40.37619048,63.11428571,40.25909091,11.47619048,9.995238095,1.404545455,-6.670588235,2.34137931,289.7,285.24,279.06,271.76,279.44,0.14800000000000002,0.14800000000000002,0.405,0.396,3.39618916
173,0,0,0,1,0,0,1,0,2.1322727269999997,49.81363636,5.713636364,283.68,0.45799999999999996,0.133,4.2613636360000005,4.2613636360000005,56.38186364,56.38186364,44.17373684,4.909090909,4.909090909,10.93684211,11.44230769,8.975,281.84,281.84,289.18,285.14,282.38,0.135,0.135,0.484,0.484,2.773241482
174,0,1,1,0,0,0,1,0,1.7447368419999998,65.95263158,-2.631578947,275.66,0.488,0.139,1.319230769,3.286923077,55.71538462,75.82696154,46.672,6.3230769229999995,2.192307692,5.8839999999999995,8.077777778,5.8,281.28,279.5,282.76,284.84,283.16,0.14,0.155,0.433,0.49,1.230894951
175,0,1,1,0,0,0,1,0,3.161052632,42.78421053,12.51057895,287.32,0.413,0.151,3.705,2.7335,49.845,70.46,77.07,9.84,12.40005,8.22,6.6,4.78,284.14,287.4,284.42,284.98,279.7,0.151,0.154,0.446,0.44299999999999995,2.92082056
176,0,1,1,0,0,0,1,0,4.0815,68.98,11.08,287.84,0.562,0.14,1.086666667,1.4236842109999999,56.14444444,60.35789474,61.56111111,11.91672222,10.72631579,9.1,12.00004167,8.817647059,289.12,286.48,285.46,287.28,285.06,0.138,0.138,0.565,0.564,2.118221781
177,0,1,0,1,1,0,1,0,1.711428571,70.59047619,7.452380952,285.94,0.552,0.147,4.007692308,2.6824,60.65769231,54.9,63.595,7.680769231,13.696,13.4601,10.8,11.67142857,282.92,290.26,290.16,288.26,283.76,0.147,0.145,0.569,0.5579999999999999,2.510632449
178,0,0,0,1,1,0,1,0,3.175384615,59.88076923,9.107692307999999,290.04,0.505,0.154,3.523225806,2.374285714,70.99032258,39.66428571,48.61666667,13.51935484,11.55714286,8.377777777999999,12.62272727,8.706666667,291.92,290.7,288.32,292.08,289.54,0.151,0.15,0.45799999999999996,0.46799999999999997,3.6405438039999996
179,0,0,0,0,1,0,1,0,3.027619048,48.62380952,-1.880952381,275.04,0.414,0.157,2.1055,1.864761905,44.915,64.7952381,37.68505,2.7,4.4523809519999995,1.475,3.485,10.41578947,278.56,281.38,277.48,281.26,286.58,0.154,0.153,0.41200000000000003,0.405,2.805638932
180,0,0,0,1,1,0,1,0,3.446956522,62.08260870000001,11.76956522,290.92,0.469,0.157,2.898055556,3.9672,66.8,43.372,40.95608,7.961111111,9.892000000000001,11.564,7.312121212,4.113043478,289.66,291.9,286.88,287.3,282.66,0.157,0.156,0.46799999999999997,0.43200000000000005,2.626263683
181,0,0,0,0,1,0,1,0,3.7948275860000003,47.47586207,2.34137931,279.44,0.36,0.172,3.1675,3.027619048,50.2,48.62380952,44.915,0.515,-1.880952381,2.7,4.4523809519999995,1.475,276.48,275.04,278.56,281.38,277.48,0.158,0.157,0.396,0.414,1.850835835
182,0,0,0,1,1,0,1,0,3.523225806,70.99032258,13.51935484,291.92,0.45799999999999996,0.151,2.374285714,1.8555555559999999,39.66428571,48.61666667,46.55,11.55714286,8.377777777999999,12.62272727,8.706666667,9.172727273,290.7,288.32,292.08,289.54,288.52,0.15,0.151,0.46799999999999997,0.449,2.9710659489999998
183,0,1,0,1,0,0,1,0,1.9715,48.945,13.99,288.68,0.41200000000000003,0.16899999999999998,1.103636364,2.738695652,51.50909091,73.86521739,86.0,13.15463636,12.02608696,9.671428571,12.384,10.43529412,293.58,290.92,295.86,294.96,301.4,0.17,0.162,0.657,0.667,1.94890401
184,0,0,0,0,1,0,1,0,1.4805555559999999,66.65555556,11.66111111,288.4,0.414,0.157,1.8419999999999999,2.893333333,72.2801,55.75,49.65714286,9.575,10.46111111,11.49047619,-2.631578947,6.3230769229999995,286.5,285.24,288.0,275.66,281.28,0.152,0.146,0.46299999999999997,0.466,1.083881764
185,0,1,0,1,1,0,1,0,3.433333333,68.04290476,10.8,288.26,0.541,0.14400000000000002,2.2719047619999997,3.844375,80.08095238,68.278125,71.27833333,11.67142857,13.834375,9.684791667,12.3840625,13.50541667,283.76,294.58,288.78,291.08,291.6,0.14400000000000002,0.165,1.0,0.741,2.750273655
186,0,0,0,1,1,0,1,0,4.7736,40.95608,11.564,286.88,0.254,0.156,2.193939394,3.7047826089999996,80.12424242,51.33478261,77.11052632,7.312121212,4.113043478,9.186842105,10.16363636,9.074074074,287.3,282.66,286.44,281.52,289.02,0.153,0.138,0.469,0.462,3.9921515939999996
187,1,0,0,0,1,1,0,0,2.760227273,31.36913636,10.99590909,286.5,0.418,0.15,3.357272727,4.8,28.53454545,49.9,49.9,12.36681818,8.21,8.21,11.62922222,7.1094166670000005,288.24,287.88,287.88,291.4,287.84,0.15,0.172,0.391,0.369,1.221226402
188,1,0,0,0,1,1,0,0,2.253636364,36.82590909,14.05054545,293.62,0.364,0.152,2.322954545,2.446136364,43.39045455,32.64009091,15.8625,11.08890909,9.646954545,9.285833333,9.886590909,3.35175,285.94,284.9,286.4,287.9,284.94,0.152,0.152,0.43799999999999994,0.322,1.349799183
189,1,1,1,0,0,1,0,0,2.88625,70.033125,6.2504375,282.36,0.426,0.149,1.932727273,1.374,33.99368182,47.2845,66.0544,11.83990909,10.0177,13.574720000000001,13.49544828,11.73830769,288.48,286.2,300.22,301.04,302.48,0.152,0.152,0.35600000000000004,0.41700000000000004,1.294784795
190,1,0,0,1,1,1,0,0,1.46,61.5588,5.54516,284.84,0.374,0.152,2.958333333,2.577173913,55.99,19.46869565,18.191,7.5098333329999996,13.02952174,12.2645,10.78157895,3.39625,288.86,294.56,292.02,289.56,283.52,0.151,0.15,0.368,0.358,3.3744324480000003
191,1,0,0,1,0,1,0,0,3.1408333330000002,21.835,12.61708333,293.18,0.42700000000000005,0.15,2.350588235,2.253636364,38.67294118,36.82590909,43.39045455,13.46764706,14.05054545,11.08890909,9.646954545,9.285833333,290.84,293.62,285.94,284.9,286.4,0.152,0.152,0.40399999999999997,0.364,1.025141751
192,1,0,0,0,1,1,0,0,3.686875,61.35,7.3356875,287.08,0.37200000000000005,0.151,2.7713333330000003,3.2425,29.732,19.5075,31.36913636,13.914000000000001,13.91375,10.99590909,12.36681818,8.21,289.18,287.14,286.5,288.24,287.88,0.14800000000000002,0.14800000000000002,0.35600000000000004,0.389,1.075419906
193,1,0,0,1,0,1,0,0,1.838333333,50.01958333,3.39625,283.52,0.35100000000000003,0.14800000000000002,3.1408333330000002,2.350588235,21.835,38.67294118,36.82590909,12.61708333,13.46764706,14.05054545,11.08890909,9.646954545,293.18,290.84,293.62,285.94,284.9,0.15,0.152,0.42700000000000005,0.40399999999999997,2.405774416
194,1,0,1,0,0,1,0,0,1.87862069,74.37965517,13.49544828,301.04,0.39299999999999996,0.149,2.406923077,2.406923077,62.67807692,62.67807692,66.80083333,11.73830769,11.73830769,11.52229167,13.31253571,7.12662963,302.48,302.48,294.82,297.72,288.36,0.15,0.15,0.32,0.32,2.473291663
195,1,0,0,0,1,1,0,0,2.350588235,38.67294118,13.46764706,290.84,0.40399999999999997,0.152,2.253636364,2.322954545,36.82590909,43.39045455,32.64009091,14.05054545,11.08890909,9.646954545,9.285833333,9.886590909,293.62,285.94,284.9,286.4,287.9,0.152,0.152,0.364,0.43799999999999994,1.40660612
196,1,0,1,0,0,1,0,0,2.406923077,62.67807692,11.73830769,302.48,0.32,0.15,2.260625,2.556607143,66.80083333,24.895,73.33081481,11.52229167,13.31253571,7.12662963,8.86156,10.23011111,294.82,297.72,288.36,293.34,290.56,0.149,0.147,0.38,0.304,2.246105346
197,1,0,0,0,1,1,0,0,1.825227273,28.84181818,12.28868182,290.1,0.36700000000000005,0.15,3.686875,2.7713333330000003,61.35,29.732,19.5075,7.3356875,13.914000000000001,13.91375,10.99590909,12.36681818,287.08,289.18,287.14,286.5,288.24,0.151,0.14800000000000002,0.37200000000000005,0.35600000000000004,1.4271016840000001
198,1,0,0,1,1,1,0,0,2.597916667,41.40254167,8.166208333,277.7,0.048,0.152,0.8688095240000001,3.1464,64.91714286,72.51,61.5588,3.900952381,5.59928,5.54516,7.5098333329999996,13.02952174,274.86,288.48,284.84,288.86,294.56,0.152,0.151,-0.01,0.326,3.6756082780000003
199,1,0,1,0,1,1,0,0,2.1852,66.0544,13.574720000000001,300.22,0.42,0.15,1.87862069,2.406923077,74.37965517,62.67807692,62.67807692,13.49544828,11.73830769,11.73830769,11.52229167,13.31253571,301.04,302.48,302.48,294.82,297.72,0.149,0.15,0.39299999999999996,0.32,2.304878593
200,1,0,1,0,0,1,0,0,4.941851852,73.33081481,7.12662963,288.36,0.413,0.146,4.4268,1.9720370369999998,77.1348,59.27296296,45.79592593,8.86156,10.23011111,10.29285185,11.608296300000001,12.6262963,293.34,290.56,297.14,295.22,295.76,0.146,0.141,0.337,0.275,2.309701006
201,1,0,0,1,1,1,0,0,1.900769231,34.88473077,9.971346153999999,290.04,0.341,0.14300000000000002,2.3561538459999998,2.597916667,58.58730769,41.40254167,64.91714286,6.880961537999999,8.166208333,3.900952381,5.59928,5.54516,281.06,277.7,274.86,288.48,284.84,0.149,0.152,0.083,0.048,4.072462291
202,0,0,1,0,1,0,0,1,4.922172681,67.8797234,13.306823399999999,296.94,0.595,0.172,6.284729792,4.422836521,71.45189583,84.13358333,74.07525,11.2620125,10.75581458,12.53774167,10.59590426,8.133891489,293.74,289.14,295.26,288.38,286.66,0.132,0.11900000000000001,0.415,0.47,5.084178818
203,0,0,0,0,1,0,0,1,3.4029572339999996,72.33559574,8.133891489,286.66,0.37799999999999995,0.09699999999999999,3.9680025110000003,9.925826174,70.66282979,37.53906522,43.68239583,7.588195745,10.91266087,11.93341667,11.99608696,7.237510638,286.24,286.6,293.9,298.1,294.42,0.099,0.11199999999999999,0.308,0.546,1.455397885
204,0,1,0,1,0,0,0,1,5.800617104,74.07525,12.53774167,295.26,0.48700000000000004,0.17800000000000002,6.245917894,3.4029572339999996,51.91746809,72.33559574,70.66282979,10.59590426,8.133891489,7.588195745,10.91266087,11.93341667,288.38,286.66,286.24,286.6,293.9,0.145,0.09699999999999999,0.451,0.37799999999999995,1.788857711
205,0,0,0,1,1,0,0,1,5.290490375,66.1438125,13.10645208,298.6,0.47,0.151,4.892487362,4.892487362,57.18308511,57.18308511,67.8797234,10.36705957,10.36705957,13.306823399999999,11.2620125,10.75581458,291.6,291.6,296.94,293.74,289.14,0.151,0.151,0.6809999999999999,0.6809999999999999,4.6796598860000005
206,0,0,0,0,1,0,0,1,2.2460625,73.669375,4.6405625,280.78,0.332,0.10400000000000001,5.2225,3.26752381,56.70133333,62.12333333,73.67230769,8.277333333,7.1129999999999995,7.296576923,10.31917241,12.33384615,281.2,282.48,284.84,285.58,286.46,0.10300000000000001,0.107,0.331,0.37200000000000005,1.909777672
207,0,0,0,1,1,0,0,1,3.8288,67.271775,13.994000000000002,295.46,0.441,0.154,4.349636364,3.803621622,60.66545455,31.01840541,62.48820513,13.63431818,13.28872973,12.00661538,13.85468085,13.85468085,299.22,294.26,295.58,299.62,299.62,0.16399999999999998,0.159,0.512,0.48,2.893472057
208,0,0,0,1,0,0,0,1,1.0556,65.312,13.665999999999999,290.52,0.381,0.11199999999999999,1.5903076919999999,2.884227273,55.57769231,67.75684091,66.16586957,13.86469231,8.560954545,7.803065217,11.00746875,12.22375,289.66,287.48,285.1,285.8,281.94,0.11199999999999999,0.113,0.37,0.368,1.1085103
209,0,0,0,0,1,0,0,1,1.869571429,49.76,13.60714286,286.84,0.34,0.105,1.734846154,1.4485,55.95692308,55.81916667,45.10928571,10.80876923,9.3795,4.115607143,4.113605263,5.707999999999999,284.92,282.98,280.7,281.8,282.14,0.10400000000000001,0.10400000000000001,0.312,0.324,1.729640209
210,0,0,0,1,1,0,0,1,4.436789473999999,56.47710526,12.17073684,293.84,0.539,0.138,3.768447368,5.627297297,65.46052632,41.18675676,41.18675676,10.57642105,11.58932432,11.58932432,12.57938095,10.15734211,285.84,291.58,291.58,291.48,289.94,0.139,0.14300000000000002,0.377,0.445,3.242856665
211,0,0,0,1,1,0,0,1,4.523128205,62.48820513,12.00661538,295.58,0.591,0.16399999999999998,2.957446809,2.957446809,55.80342553,55.80342553,56.47710526,13.85468085,13.85468085,12.17073684,10.57642105,11.58932432,299.62,299.62,293.84,285.84,291.58,0.138,0.138,0.514,0.514,3.109197758
212,0,0,0,0,1,0,0,1,1.758888889,51.33333333,13.84333333,287.22,0.33299999999999996,0.10400000000000001,1.518666667,1.869571429,50.155,49.76,55.95692308,12.91933333,13.60714286,10.80876923,9.3795,4.115607143,285.1,286.84,284.92,282.98,280.7,0.105,0.105,0.303,0.34,1.21402509
213,0,0,0,0,1,0,0,1,0.98625,59.25375,12.22375,281.94,0.281,0.10400000000000001,1.758888889,1.518666667,51.33333333,50.155,49.76,13.84333333,12.91933333,13.60714286,10.80876923,9.3795,287.22,285.1,286.84,284.92,282.98,0.10400000000000001,0.105,0.33299999999999996,0.303,1.50050635
214,0,0,0,1,0,0,0,1,3.2754782610000004,48.35608696,13.51108696,290.24,0.429,0.133,3.7899565219999998,4.1756,50.87873913,45.174,31.66166667,11.3316087,13.065,12.76166667,11.36423077,11.4792069,288.46,287.48,285.2,284.4,290.96,0.133,0.122,0.39799999999999996,0.374,4.075531062
215,0,0,0,1,1,0,0,1,3.768447368,65.46052632,10.57642105,285.84,0.377,0.139,5.627297297,5.627297297,41.18675676,41.18675676,54.95714286,11.58932432,11.58932432,12.57938095,10.15734211,10.5955,291.58,291.58,291.48,289.94,288.34,0.14300000000000002,0.14300000000000002,0.445,0.445,2.274444897
216,0,1,1,0,0,0,0,1,3.26752381,62.12333333,7.1129999999999995,282.48,0.37200000000000005,0.107,2.3938461540000002,3.592758621,73.67230769,66.89758621,75.05923077,7.296576923,10.31917241,12.33384615,12.98115385,12.48334884,284.84,285.58,286.46,285.0,289.96,0.107,0.106,0.295,0.299,1.3138819290000001
217,0,0,0,0,1,0,0,1,1.5903076919999999,55.57769231,13.86469231,289.66,0.37,0.11199999999999999,2.884227273,3.694173913,67.75684091,66.16586957,67.55378125,8.560954545,7.803065217,11.00746875,12.22375,13.84333333,287.48,285.1,285.8,281.94,287.22,0.113,0.113,0.368,0.361,1.787032014
218,0,0,0,1,0,0,0,1,5.627297297,41.18675676,11.58932432,291.58,0.445,0.14300000000000002,3.3101904760000003,5.492342105,54.95714286,37.27605263,49.2329375,12.57938095,10.15734211,10.5955,13.51108696,11.3316087,291.48,289.94,288.34,290.24,288.46,0.14300000000000002,0.142,0.348,0.433,3.928818969
219,0,0,0,0,1,0,0,1,1.518666667,50.155,12.91933333,285.1,0.303,0.105,1.869571429,1.734846154,49.76,55.95692308,55.81916667,13.60714286,10.80876923,9.3795,4.115607143,4.113605263,286.84,284.92,282.98,280.7,281.8,0.105,0.10400000000000001,0.34,0.312,2.464981426
220,0,0,0,0,1,0,0,1,5.48528125,67.55378125,11.00746875,285.8,0.391,0.11199999999999999,0.98625,1.758888889,59.25375,51.33333333,50.155,12.22375,13.84333333,12.91933333,13.60714286,10.80876923,281.94,287.22,285.1,286.84,284.92,0.10400000000000001,0.10400000000000001,0.281,0.33299999999999996,2.715628765
221,0,0,1,0,1,0,0,1,2.955,60.00245833,8.488875,287.48,0.091,0.11,3.1575833330000003,1.9885208330000002,56.98414583,85.80164583,49.6013125,12.6815625,12.9351875,-0.223708333,0.5440625,2.555125,296.0,290.72,276.46,278.8,273.02,0.11,0.1,0.5579999999999999,0.272,1.861791601
222,0,0,1,1,0,0,0,1,2.0851875,69.50664583,9.439854167,286.16,0.242,0.146,3.141666667,1.3834375,69.4666875,78.62675,62.95389583,10.62745833,11.53029167,9.3898125,13.00635417,8.8108125,291.3,292.74,288.38,290.16,287.4,0.146,0.151,0.767,0.475,2.5868154619999997
223,0,0,1,0,1,0,0,1,2.4192291669999997,52.80664583,9.588229167,285.7,0.462,0.125,1.414625,2.098979167,49.41166667,55.90783333,58.17260417,8.640541667,10.7288125,9.95275,8.887604167000001,13.77441667,294.0,296.34,295.28,291.54,291.1,0.125,0.128,0.5379999999999999,0.536,1.739486824
224,0,0,1,0,1,0,0,1,1.154375,58.17260417,9.95275,295.28,0.547,0.129,1.59425,4.171354167,65.21002083,52.6573125,52.6573125,8.887604167000001,13.77441667,13.77441667,-0.651958333,0.8529375,291.54,291.1,291.1,276.52,275.0,0.129,0.13,0.517,0.195,2.019861843
225,0,0,0,1,1,0,0,1,2.772416667,76.40822917,3.9719375,276.28,0.071,0.325,2.244770833,1.232145833,87.00889583,83.51110417,68.184375,13.06879167,11.08933333,9.758,13.6378125,12.63033333,293.0,294.48,290.68,295.4,289.78,0.154,0.156,0.615,0.741,1.247499833
226,0,1,0,0,1,0,0,1,2.912604167,77.63597917,11.42541667,286.64,0.391,0.179,0.687083333,1.6969999999999998,86.05089583,79.64677083,81.54520833,11.739875,11.81741667,12.34766667,10.27360417,10.65685417,286.36,293.08,291.9,283.82,287.6,0.163,0.163,0.307,0.674,1.265349074
227,0,0,1,0,0,0,0,1,1.081958333,61.50116667,2.555125,273.02,0.225,0.091,2.1904375,1.9969999999999999,73.97345833,71.39883333,80.1524375,3.667416667,5.002895833,3.7595416669999997,5.012729167,11.09583333,278.86,282.3,280.74,280.06,286.5,0.091,0.091,0.361,0.387,2.372785322
228,0,0,1,0,0,0,0,1,1.9885208330000002,85.80164583,12.9351875,290.72,0.272,0.1,3.1884583330000003,4.037895833,49.6013125,55.50716667,61.50116667,-0.223708333,0.5440625,2.555125,3.667416667,5.002895833,276.46,278.8,273.02,278.86,282.3,0.09,0.09,0.363,0.332,2.725156021
229,0,0,1,0,0,0,0,1,4.0794375,80.1524375,3.7595416669999997,280.74,0.322,0.092,3.647416667,3.2156875,79.93764583,85.91791667,75.67639583,5.012729167,11.09583333,11.94291667,11.42541667,11.739875,280.06,286.5,285.76,286.64,286.36,0.09300000000000001,0.157,0.179,0.507,2.55459113
230,0,0,1,0,1,0,0,1,2.9858958330000003,63.29377083,6.363458333,283.66,0.706,0.11900000000000001,1.3878333330000001,2.230979167,54.39454167,57.53402083,54.46325,8.609145833,8.170979167,9.287708333,8.37875,8.488875,295.3,283.9,287.92,290.06,287.48,0.114,0.114,0.5589999999999999,0.10800000000000001,3.6025531060000002
231,0,0,1,0,1,0,0,1,2.098979167,55.90783333,10.7288125,296.34,0.536,0.128,1.154375,1.59425,58.17260417,65.21002083,52.6573125,9.95275,8.887604167000001,13.77441667,13.77441667,-0.651958333,295.28,291.54,291.1,291.1,276.52,0.129,0.129,0.547,0.517,1.9871790390000001
232,0,1,0,0,1,0,0,1,1.232145833,83.51110417,11.08933333,294.48,0.741,0.156,1.145541667,1.011666667,68.184375,78.8230625,79.27491667,9.758,13.6378125,12.63033333,12.6673125,13.22075,290.68,295.4,289.78,297.5,298.94,0.161,0.155,0.742,0.664,1.7118768309999999
233,0,1,0,0,1,0,0,1,2.244770833,87.00889583,13.06879167,293.0,0.615,0.154,1.232145833,1.145541667,83.51110417,68.184375,78.8230625,11.08933333,9.758,13.6378125,12.63033333,12.6673125,294.48,290.68,295.4,289.78,297.5,0.156,0.161,0.741,0.742,1.28720815
234,0,0,1,0,0,0,0,1,1.8971875,67.0015625,2.031791667,278.98,0.36700000000000005,0.136,3.4392083330000003,2.955854167,87.82891667,82.1895,79.85010417,11.76891667,2.797729167,12.59125,6.363458333,8.609145833,286.3,280.84,287.8,283.66,295.3,0.174,0.17600000000000002,0.5329999999999999,0.528,1.198791739
235,0,0,1,0,1,0,0,1,4.368291667,64.4328125,10.94797917,291.46,0.613,0.121,4.125145833,3.800020833,70.22672917,74.4534375,75.20139583,13.36170833,10.594000000000001,10.6045625,10.01795833,3.9719375,294.06,292.06,289.86,291.3,276.28,0.121,0.11900000000000001,0.649,0.184,2.279251855
236,0,0,1,0,0,0,0,1,2.1904375,73.97345833,3.667416667,278.86,0.361,0.091,1.9969999999999999,4.0794375,71.39883333,80.1524375,79.93764583,5.002895833,3.7595416669999997,5.012729167,11.09583333,11.94291667,282.3,280.74,280.06,286.5,285.76,0.091,0.092,0.387,0.322,2.7173703689999997
237,0,1,0,1,0,0,0,1,3.2156875,85.91791667,11.09583333,286.5,0.507,0.157,2.734208333,2.912604167,75.67639583,77.63597917,86.05089583,11.94291667,11.42541667,11.739875,11.81741667,12.34766667,285.76,286.64,286.36,293.08,291.9,0.16899999999999998,0.179,0.428,0.391,6.555948888
238,0,1,0,1,1,0,0,1,9.297291326,39.84152174,11.27582609,286.92,0.396,0.057999999999999996,2.442732,7.086894152,51.21105263,47.43565217,65.79651163,7.723263158,8.655782609,9.519534884,9.731641026,13.08421951,287.14,286.38,288.78,291.3,294.58,0.077,0.078,0.29600000000000004,0.285,2.266439843
239,0,0,0,1,1,0,0,1,3.740849729,60.09270833,12.59008333,297.66,0.42200000000000004,0.127,3.954140417,3.075762208,67.20625,72.49229167,54.46866667,9.922041667,12.87354167,13.65804444,10.38329167,10.38329167,292.68,297.9,292.6,292.78,292.78,0.127,0.124,0.484,0.426,3.4891174869999997
240,0,1,0,1,1,0,0,1,2.504060417,61.153125,8.988729167,285.86,0.309,0.042,1.367879396,2.734082186,73.731875,77.95860465,72.78619048,8.147104167,9.309813952999999,10.61528571,8.049162791,11.15227273,274.02,287.6,286.84,286.32,284.98,0.042,0.044000000000000004,0.165,0.364,1.71221457
241,0,0,0,1,1,0,0,1,3.075762208,72.49229167,12.87354167,297.9,0.426,0.124,2.7119295560000003,5.013574396,54.46866667,55.35083333,55.35083333,13.65804444,10.38329167,10.38329167,8.451069767,9.194680851000001,292.6,292.78,292.78,290.7,294.62,0.11900000000000001,0.11800000000000001,0.36700000000000005,0.344,4.3250048969999995
242,0,1,0,1,1,0,0,1,3.191388875,61.20625,7.47185,286.22,0.341,0.055999999999999994,2.9655968039999996,9.297291326,49.81978261,39.84152174,51.21105263,9.115195652,11.27582609,7.723263158,8.655782609,9.519534884,286.1,286.92,287.14,286.38,288.78,0.055999999999999994,0.057999999999999996,0.266,0.396,1.9000397880000002
243,0,1,0,1,1,0,0,1,2.964348233,65.79651163,9.519534884,288.78,0.264,0.079,1.539241179,6.93497561,68.81871795,35.87073171,62.10917021,9.731641026,13.08421951,11.35978723,13.54621429,13.994000000000002,291.3,294.58,299.44,290.82,295.46,0.115,0.162,0.256,0.46799999999999997,1.0552407590000001
244,0,1,0,1,1,0,0,1,7.2748841429999995,57.59542857,5.979628571,282.66,0.282,0.043,5.3188956460000005,2.504060417,54.47104167,61.153125,73.731875,6.945208332999999,8.988729167,8.147104167,9.309813952999999,10.61528571,283.26,285.86,274.02,287.6,286.84,0.042,0.042,0.281,0.309,2.152060481
245,0,1,0,1,1,0,0,1,2.734082186,77.95860465,9.309813952999999,287.6,0.364,0.044000000000000004,2.624006548,1.873067674,72.78619048,78.92023256,74.84,10.61528571,8.049162791,11.15227273,14.01978261,13.33041667,286.84,286.32,284.98,300.6,302.76,0.05,0.051,0.262,0.263,1.716317092
246,0,0,0,0,1,0,0,1,4.332136396,56.15625,9.0005,288.68,0.32,0.071,2.644010391,4.180724604,52.65086957,64.20375,54.36777778,9.053630435,8.991270833,13.20844444,13.46134783,12.40482609,290.34,287.28,292.48,290.08,287.12,0.065,0.065,0.35700000000000004,0.355,3.2302804860000003
247,0,0,0,0,1,0,0,1,1.741211604,54.95958333,4.2198125,288.12,0.37799999999999995,0.08,3.452980043,6.186256667,57.72744681,67.55541667,63.07418605,5.048638298,9.4005625,11.20748837,10.28655263,9.0005,289.08,289.4,294.16,289.28,288.68,0.08,0.08,0.341,0.359,1.8171809680000002
248,0,1,0,1,1,0,0,1,7.086894152,47.43565217,8.655782609,286.38,0.285,0.078,2.964348233,1.539241179,65.79651163,68.81871795,35.87073171,9.519534884,9.731641026,13.08421951,11.35978723,13.54621429,288.78,291.3,294.58,299.44,290.82,0.079,0.115,0.264,0.256,1.07275703
249,0,0,0,0,1,0,0,1,3.452980043,57.72744681,5.048638298,289.08,0.341,0.08,6.186256667,0.8995266279999999,67.55541667,63.07418605,57.90026316,9.4005625,11.20748837,10.28655263,9.0005,9.053630435,289.4,294.16,289.28,288.68,290.34,0.08,0.076,0.359,0.34,2.408862608
250,0,0,0,1,1,0,0,1,4.539992255,64.2006383,12.216,296.12,0.48200000000000004,0.136,4.585773119,3.740849729,62.61595238,60.09270833,67.20625,13.16047619,12.59008333,9.922041667,12.87354167,13.65804444,297.14,297.66,292.68,297.9,292.6,0.128,0.127,0.402,0.42200000000000004,2.967665455
251,0,0,0,0,1,0,0,1,2.003493263,57.90026316,10.28655263,289.28,0.405,0.075,4.332136396,2.644010391,56.15625,52.65086957,64.20375,9.0005,9.053630435,8.991270833,13.20844444,13.46134783,288.68,290.34,287.28,292.48,290.08,0.071,0.065,0.32,0.35700000000000004,2.7680968569999997
252,0,0,0,0,1,0,0,1,1.839293804,61.10391304,5.535152173999999,289.42,0.33299999999999996,0.084,1.741211604,3.452980043,54.95958333,57.72744681,67.55541667,4.2198125,5.048638298,9.4005625,11.20748837,10.28655263,288.12,289.08,289.4,294.16,289.28,0.08,0.08,0.37799999999999995,0.341,2.186759911
253,0,1,0,1,1,0,0,1,2.442732,51.21105263,7.723263158,287.14,0.29600000000000004,0.077,7.086894152,2.964348233,47.43565217,65.79651163,68.81871795,8.655782609,9.519534884,9.731641026,13.08421951,11.35978723,286.38,288.78,291.3,294.58,299.44,0.078,0.079,0.285,0.264,1.302591909
254,1,0,0,1,0,0,1,0,4.206941176,86.98335294,-8.516470587999999,265.1,0.057,0.552,3.860605263,2.020032258,66.64473684,66.35293548,46.23018919,13.03981579,11.93329032,11.74627027,13.46811765,12.72105128,294.78,294.84,295.88,295.98,297.04,0.184,0.184,0.507,0.579,2.153612098
255,1,0,1,0,1,0,1,0,6.196390244,52.44056098,10.04743902,301.96,0.304,0.14800000000000002,4.837543478,5.2204411760000005,56.77723913,58.013000000000005,48.32086957,7.593152174,11.37455882,9.863130435,12.6492,12.6492,288.4,288.74,291.14,289.9,289.9,0.19399999999999998,0.187,0.35600000000000004,0.37799999999999995,2.9124727439999996
256,1,1,0,1,0,0,1,0,2.1944871790000002,64.39115385,8.934948718,291.3,0.455,0.17300000000000001,3.5594210530000003,2.641536585,55.40442105,59.65129268,68.10521739,12.67773684,12.818487800000002,11.57869565,14.07315909,7.533186047,292.12,291.7,293.94,295.9,282.98,0.16899999999999998,0.16899999999999998,0.43700000000000006,0.46,1.298993023
257,1,1,0,1,1,0,1,0,3.116837209,42.26725581,10.45309302,286.34,0.353,0.17300000000000001,2.4489166669999998,5.9035,55.85697222,57.57330435,60.18697561,8.496666667000001,11.75715217,7.745731707000001,12.632525,13.37532143,287.66,292.14,285.94,295.28,283.9,0.17600000000000002,0.184,0.386,0.49,1.074592663
258,1,0,1,0,0,0,1,0,8.227930233,60.9502093,13.21593023,293.74,0.255,0.158,7.515977778,4.336769231,66.34008889,46.83915385,55.82952778,11.62835556,3.849307692,10.68897222,7.5906875,12.65040426,290.8,282.96,290.28,282.64,295.18,0.16699999999999998,0.172,0.23399999999999999,0.423,1.79826056
259,1,0,1,0,0,0,1,0,3.77204,49.0024,10.1608,292.56,0.27699999999999997,0.159,8.227930233,7.515977778,60.9502093,66.34008889,46.83915385,13.21593023,11.62835556,3.849307692,10.68897222,7.5906875,293.74,290.8,282.96,290.28,282.64,0.158,0.16699999999999998,0.255,0.23399999999999999,1.31015151
260,1,0,1,0,0,0,1,0,2.535926829,40.80592683,11.209512199999999,295.64,0.263,0.179,4.412139535,3.7185,55.78565116,51.90340476,51.90340476,8.958093023,8.408904762,8.408904762,13.15791111,5.45184375,288.62,289.74,289.74,293.2,281.68,0.19,0.188,0.239,0.265,1.278486472
261,1,1,0,1,1,0,1,0,4.83034375,45.456,5.45184375,281.68,0.359,0.184,6.147655172,3.116837209,47.51848276,42.26725581,55.85697222,7.7129310339999995,10.45309302,8.496666667000001,11.75715217,7.745731707000001,281.36,286.34,287.66,292.14,285.94,0.184,0.17300000000000001,0.325,0.353,1.172767342
262,1,1,0,1,0,0,1,0,3.860605263,66.64473684,13.03981579,294.78,0.507,0.184,2.020032258,3.6788108110000004,66.35293548,46.23018919,59.80417647,11.93329032,11.74627027,13.46811765,12.72105128,12.74044444,294.84,295.88,295.98,297.04,296.02,0.184,0.16,0.579,0.557,1.990661819
263,1,1,0,1,0,0,1,0,2.020032258,66.35293548,11.93329032,294.84,0.579,0.184,3.6788108110000004,7.898264706,46.23018919,59.80417647,55.52038462,11.74627027,13.46811765,12.72105128,12.74044444,11.209512199999999,295.88,295.98,297.04,296.02,295.64,0.16,0.16,0.557,0.494,2.37946246
264,1,1,0,1,0,0,1,0,4.559275,56.343,12.6492,289.9,0.37799999999999995,0.179,3.30525,2.649586957,49.80745833,66.63073913,64.39115385,10.5694375,9.733652174,8.934948718,12.67773684,12.818487800000002,291.22,290.48,291.3,292.12,291.7,0.17800000000000002,0.17600000000000002,0.395,0.435,1.1906672090000001
265,1,1,0,1,0,0,1,0,5.9035,57.57330435,11.75715217,292.14,0.49,0.184,2.175829268,4.069375,60.18697561,56.709025,54.77203571,7.745731707000001,12.632525,13.37532143,12.82528261,11.04928261,285.94,295.28,283.9,294.94,290.42,0.179,0.182,0.514,0.5489999999999999,1.28460833
266,1,1,0,1,0,0,1,0,2.649586957,66.63073913,9.733652174,290.48,0.435,0.17600000000000002,2.1944871790000002,3.5594210530000003,64.39115385,55.40442105,59.65129268,8.934948718,12.67773684,12.818487800000002,11.57869565,14.07315909,291.3,292.12,291.7,293.94,295.9,0.17300000000000001,0.16899999999999998,0.455,0.43700000000000006,1.328754976
267,1,1,0,1,0,0,1,0,4.069375,56.709025,12.632525,295.28,0.5489999999999999,0.182,5.941571429,2.9329347830000003,54.77203571,63.87773913,59.77945652,13.37532143,12.82528261,11.04928261,13.10302381,10.1608,283.9,294.94,290.42,292.16,292.56,0.182,0.182,0.546,0.585,2.445171396
268,1,1,0,1,0,0,1,0,2.7292826089999997,59.77945652,11.04928261,290.42,0.615,0.182,7.046,3.77204,38.39028571,49.0024,60.9502093,13.10302381,10.1608,13.21593023,11.62835556,3.849307692,292.16,292.56,293.74,290.8,282.96,0.183,0.159,0.581,0.27699999999999997,1.947637897
269,0,1,0,1,1,0,1,0,6.536854167,70.22233333,13.00420833,290.82,0.295,0.192,4.129604167,3.12325,72.7384375,54.11445833,70.33122917,5.8654375,13.3625625,4.31275,11.31058333,12.30929167,285.8,310.12,287.18,289.54,296.1,0.204,0.191,0.309,0.34700000000000003,1.312017617
270,0,1,0,1,1,0,1,0,4.129604167,72.7384375,5.8654375,285.8,0.309,0.204,3.12325,5.329645833,54.11445833,70.33122917,59.45379167,13.3625625,4.31275,11.31058333,12.30929167,13.80022917,310.12,287.18,289.54,296.1,306.8,0.191,0.19399999999999998,0.34700000000000003,0.355,1.402461525
271,0,0,0,0,1,0,1,0,3.369625,62.75945833,4.8625625,282.36,0.369,0.225,6.536854167,4.129604167,70.22233333,72.7384375,54.11445833,13.00420833,5.8654375,13.3625625,4.31275,11.31058333,290.82,285.8,310.12,287.18,289.54,0.192,0.204,0.295,0.309,1.106062905
272,0,0,0,1,0,0,1,0,8.693729167,77.610125,7.1094166670000005,287.84,0.413,0.188,3.369625,6.536854167,62.75945833,70.22233333,72.7384375,4.8625625,13.00420833,5.8654375,13.3625625,4.31275,282.36,290.82,285.8,310.12,287.18,0.225,0.192,0.369,0.295,1.117062614
273,1,0,1,0,0,0,1,1,2.358083333,59.42166667,11.4625,291.02,0.731,0.11800000000000001,2.39825,2.39825,60.9325,60.9325,67.95,13.945,13.945,3.79075,11.68067857,13.19914815,298.4,298.4,283.96,287.88,287.14,0.11599999999999999,0.11599999999999999,0.727,0.727,2.213686039
274,1,1,1,0,0,0,1,1,1.845875,74.1081875,10.5478125,288.98,0.778,0.12,1.7884,1.833807692,57.8405,40.06653846,56.51461538,10.1921,4.329692308,2.9363461539999998,6.836774194,9.899571429,283.74,279.72,282.42,284.42,286.94,0.12,0.11800000000000001,0.752,0.7190000000000001,4.074500991
275,1,0,0,0,1,0,1,1,1.87575,47.9275,10.07233333,282.98,0.772,0.122,1.11675,1.606846154,70.295,36.32461538,49.54846154,9.34325,13.33246154,9.845076922999999,11.0975,5.944,288.64,286.8,285.36,290.1,284.28,0.11,0.109,0.738,0.778,2.8539256689999997
276,1,0,1,0,0,0,1,1,1.5225,54.94,13.055,296.88,0.727,0.125,2.455,2.358083333,59.79,59.42166667,60.9325,10.22285714,11.4625,13.945,13.945,3.79075,293.56,291.02,298.4,298.4,283.96,0.12300000000000001,0.11800000000000001,0.7340000000000001,0.731,4.506488383
277,1,1,0,1,1,0,1,1,1.135,74.8675,11.0975,290.1,0.7829999999999999,0.128,1.842857143,2.0825,57.2265,62.4,41.15505,5.944,13.13214286,12.85005,9.480952381,8.565217391000001,284.28,290.12,290.8,288.24,284.8,0.113,0.146,0.6659999999999999,0.501,5.507353693
278,1,1,1,0,0,0,1,1,2.307038462,70.39653846,8.100384615,283.92,0.7829999999999999,0.122,2.192617647,2.488333333,70.04911765,30.138,20.475,12.71323529,12.47133333,11.98166667,13.83,11.52772727,291.5,287.04,280.88,285.4,286.04,0.141,0.12300000000000001,0.737,0.72,3.256417902
279,1,0,0,1,0,0,1,1,2.002,74.05821429,11.68067857,287.88,0.74,0.127,1.229703704,2.24424,76.18,68.854,70.39653846,13.19914815,8.43572,8.100384615,12.71323529,12.47133333,287.14,284.36,283.92,291.5,287.04,0.124,0.12300000000000001,0.6940000000000001,0.77,1.63230594
280,1,0,0,0,1,0,1,1,1.393,45.53384615,2.699692308,281.76,0.7390000000000001,0.121,2.3891,1.721454545,48.0591,42.17090909,49.58,4.5316,12.66545455,8.853111111,8.49875,9.243789474,277.88,285.88,283.96,282.18,286.56,0.121,0.122,0.6829999999999999,0.539,1.457136086
281,1,1,1,0,0,0,1,1,1.7884,57.8405,10.1921,283.74,0.752,0.12,1.833807692,1.9105384619999999,40.06653846,56.51461538,51.32064516,4.329692308,2.9363461539999998,6.836774194,9.899571429,12.68777778,279.72,282.42,284.42,286.94,285.4,0.11800000000000001,0.11800000000000001,0.7190000000000001,0.7709999999999999,4.289056503
282,1,1,1,0,0,0,1,1,1.842857143,57.2265,5.944,284.28,0.6659999999999999,0.113,2.0825,2.4735,62.4,41.15505,44.05714286,13.13214286,12.85005,9.480952381,8.565217391000001,14.00804,290.12,290.8,288.24,284.8,292.12,0.146,0.146,0.501,0.621,2.25828281
283,1,0,0,1,0,0,1,1,1.229703704,76.18,13.19914815,287.14,0.6940000000000001,0.124,2.24424,2.307038462,68.854,70.39653846,70.04911765,8.43572,8.100384615,12.71323529,12.47133333,11.98166667,284.36,283.92,291.5,287.04,280.88,0.12300000000000001,0.122,0.77,0.7829999999999999,4.007840439
284,1,1,1,0,0,0,1,1,1.318111111,52.94222222,12.68777778,285.4,0.67,0.121,1.5225,2.455,54.94,59.79,59.42166667,13.055,10.22285714,11.4625,13.945,13.945,296.88,293.56,291.02,298.4,298.4,0.125,0.12300000000000001,0.727,0.7340000000000001,6.643630139
285,1,0,1,0,0,0,1,1,2.455,59.79,10.22285714,293.56,0.7340000000000001,0.12300000000000001,2.358083333,2.39825,59.42166667,60.9325,60.9325,11.4625,13.945,13.945,3.79075,11.68067857,291.02,298.4,298.4,283.96,287.88,0.11800000000000001,0.11599999999999999,0.731,0.727,3.7369176439999996
286,0,0,0,1,0,0,1,0,2.9767307689999996,67.50096154,13.71076923,293.78,0.5579999999999999,0.138,3.9998,4.579875,70.57677143,53.5880625,59.4965,12.41277143,9.989125,12.38596154,12.01188462,12.01188462,288.02,287.32,286.38,289.9,289.9,0.14,0.135,0.5479999999999999,0.495,1.8073727309999998
287,0,0,0,1,0,0,1,0,3.9447692310000004,82.37315385,12.01188462,289.9,0.56,0.138,3.9447692310000004,4.9919199999999995,82.37315385,83.71032,83.71032,12.01188462,13.675360000000001,13.675360000000001,12.33955556,9.1028,289.9,287.06,287.06,285.5,281.46,0.138,0.13699999999999998,0.56,0.441,1.4571133280000002
288,0,0,1,0,0,0,1,0,4.940142857,67.37460714,12.37389286,284.44,0.441,0.163,3.493242424,3.487,70.08442424,58.628240000000005,66.01861765,13.34378788,13.05048,11.16182353,10.91285185,11.58783333,288.08,292.1,289.68,291.24,291.9,0.171,0.168,0.639,0.7340000000000001,3.3874124119999998
289,0,0,0,1,1,0,1,0,6.995916667,50.12477778,11.29738889,291.26,0.5710000000000001,0.16,2.9767307689999996,3.9998,67.50096154,70.57677143,53.5880625,13.71076923,12.41277143,9.989125,12.38596154,12.01188462,293.78,288.02,287.32,286.38,289.9,0.138,0.14,0.5579999999999999,0.5479999999999999,2.497899428
290,0,1,0,1,1,0,1,0,4.881315788999999,40.455999999999996,8.097263157999999,284.48,0.516,0.136,4.833425532,3.4189999999999996,59.55053191,74.37133333,74.37133333,11.47217021,9.777583332999999,9.777583332999999,11.43341667,13.19243902,295.84,297.04,297.04,293.16,290.3,0.172,0.172,0.6409999999999999,0.764,2.864632131
291,0,0,0,1,0,0,1,0,3.225333333,36.26718519,11.401,288.98,0.5720000000000001,0.13,9.339,2.7099444439999996,31.7895625,33.77538889,38.36517391,12.389375,11.38377778,13.34952174,6.320818182000001,9.189769231,285.84,285.5,287.16,283.16,282.74,0.125,0.11800000000000001,0.6659999999999999,0.605,2.573433907
292,0,0,1,0,0,0,1,0,4.8725625,65.42916667,11.43341667,293.16,0.794,0.165,3.0443902439999997,4.940142857,71.5744878,67.37460714,67.37460714,13.19243902,12.37389286,12.37389286,13.34378788,13.05048,290.3,284.44,284.44,288.08,292.1,0.16399999999999998,0.163,0.76,0.441,3.224120123
293,0,0,1,0,0,0,1,0,6.550551724,58.50465517,10.41958621,287.76,0.7879999999999999,0.174,4.441230769,3.7886,79.0325,72.5455,63.97492,12.02476923,12.10433333,11.744639999999999,13.21903448,12.16194286,290.98,288.28,283.18,288.88,290.46,0.16399999999999998,0.165,0.815,0.693,3.624006358
294,0,0,1,0,0,0,1,0,3.493242424,70.08442424,13.34378788,288.08,0.639,0.171,3.487,3.446588235,58.628240000000005,66.01861765,63.49537037,13.05048,11.16182353,10.91285185,11.58783333,13.07856818,292.1,289.68,291.24,291.9,295.9,0.168,0.168,0.7340000000000001,0.784,4.198737194
295,0,0,0,1,1,0,1,0,4.5294827589999995,63.72458621,13.21903448,288.88,0.7190000000000001,0.16899999999999998,5.120857143,7.976081081,68.1122,68.03443243,65.13872222,12.16194286,11.15194595,10.49172222,9.969761905,11.401,290.46,281.34,284.0,287.26,288.98,0.16899999999999998,0.172,0.782,0.574,3.605490567
296,0,0,0,1,1,0,1,0,5.120857143,68.1122,12.16194286,290.46,0.782,0.16899999999999998,7.976081081,4.360555556,68.03443243,65.13872222,63.31419048,11.15194595,10.49172222,9.969761905,11.401,12.389375,281.34,284.0,287.26,288.98,285.84,0.172,0.135,0.574,0.69,3.205635084
297,0,1,0,1,1,0,1,0,4.046625,85.27541667,10.33766667,286.76,0.41,0.15,2.7827307689999996,3.133666667,62.56980769,59.05847619,75.31155,10.83242308,12.11609524,13.78525,13.89870968,13.89870968,285.48,289.52,288.92,297.66,297.66,0.15,0.158,0.42,0.568,1.413429382
298,0,1,0,1,1,0,1,0,7.977078947000001,27.31102632,13.53323684,287.38,0.498,0.149,8.475756757000001,5.549625,40.98981081,38.71183333,62.12725,12.30362162,13.48541667,11.923,13.79623913,12.36895556,286.22,290.34,295.0,291.48,292.52,0.15,0.166,0.49200000000000005,0.6940000000000001,3.585887285
299,0,1,1,0,0,0,1,0,2.5377272730000002,68.51540909,11.78763636,282.46,0.285,0.10300000000000001,1.933695652,1.998947368,73.83904348,77.483,66.62863333,10.55121739,8.587157895,8.046666667,8.097263157999999,11.47217021,286.5,285.06,286.14,284.48,295.84,0.105,0.107,0.456,0.46299999999999997,1.503426261
300,0,1,0,1,1,0,1,0,2.639166667,66.62863333,8.046666667,286.14,0.396,0.134,4.881315788999999,4.833425532,40.455999999999996,59.55053191,74.37133333,8.097263157999999,11.47217021,9.777583332999999,9.777583332999999,11.43341667,284.48,295.84,297.04,297.04,293.16,0.136,0.172,0.516,0.6409999999999999,1.446841737
301,0,0,1,0,1,0,1,0,5.01816129,63.28625806,13.89870968,297.66,0.65,0.163,5.01816129,5.71562069,63.28625806,66.5972069,48.54284211,13.89870968,12.05410345,11.61236842,13.936320000000002,13.45655556,297.66,292.94,292.56,289.46,294.58,0.163,0.163,0.65,0.695,4.483893346
302,0,0,1,0,0,0,1,0,5.646977777999999,62.23968889,11.15808889,287.06,0.473,0.17600000000000002,5.284692308,4.9639166669999994,66.74541026,63.51483333,58.50465517,13.42646154,13.10775,10.41958621,12.02476923,12.10433333,285.14,292.62,287.76,290.98,288.28,0.175,0.175,0.5710000000000001,0.812,2.3836567459999998
303,0,0,0,1,0,0,1,0,3.9998,70.57677143,12.41277143,288.02,0.5479999999999999,0.14,4.579875,6.142923077000001,53.5880625,59.4965,82.37315385,9.989125,12.38596154,12.01188462,12.01188462,13.675360000000001,287.32,286.38,289.9,289.9,287.06,0.135,0.135,0.495,0.575,1.091260155
304,0,0,0,1,1,0,1,0,5.947930232999999,70.08274419,9.975883721,286.24,0.767,0.14800000000000002,3.901684211,2.7322916669999997,72.31310526,62.60208333,56.93125,13.82421053,5.94375,11.06458333,7.402083332999999,5.064583333,288.0,287.48,298.52,291.94,293.0,0.146,0.17300000000000001,0.6890000000000001,0.39,1.908801886
305,0,0,1,0,0,0,1,0,6.811333332999999,62.12725,11.923,295.0,0.782,0.165,7.611978261,4.238911111,49.07947826,65.11342222,68.37133333,13.79623913,12.36895556,11.599,12.81672,11.31803125,291.48,292.52,286.08,288.98,291.24,0.155,0.142,0.773,0.703,2.413979651
306,0,0,0,1,1,0,1,0,3.07237037,63.49537037,10.91285185,291.24,0.293,0.163,3.37502381,3.7180681819999997,66.45404762,72.89502273,67.99266667,11.58783333,13.07856818,9.186454545,9.975883721,13.82421053,291.9,295.9,287.84,286.24,288.0,0.163,0.165,0.748,0.7490000000000001,4.1550234139999995
307,0,0,0,1,1,0,1,0,3.972484848,67.99266667,9.186454545,287.84,0.615,0.15,5.947930232999999,3.901684211,70.08274419,72.31310526,62.60208333,9.975883721,13.82421053,5.94375,11.06458333,7.402083332999999,286.24,288.0,287.48,298.52,291.94,0.14800000000000002,0.146,0.767,0.6890000000000001,3.6940787389999996
308,0,0,1,0,0,0,1,0,4.385952381,58.12019048,12.297761900000001,290.78,0.757,0.177,5.646977777999999,5.284692308,62.23968889,66.74541026,63.51483333,11.15808889,13.42646154,13.10775,10.41958621,12.02476923,287.06,285.14,292.62,287.76,290.98,0.17600000000000002,0.175,0.473,0.5710000000000001,3.086363591
309,0,0,0,1,0,0,1,0,4.854857143,63.31419048,9.969761905,287.26,0.615,0.139,3.225333333,9.339,36.26718519,31.7895625,33.77538889,11.401,12.389375,11.38377778,13.34952174,6.320818182000001,288.98,285.84,285.5,287.16,283.16,0.13,0.125,0.5720000000000001,0.6659999999999999,2.6812608730000003
310,0,0,1,0,0,0,1,0,6.121681818,60.43411364,11.10545455,289.1,0.6709999999999999,0.156,5.2626458330000006,3.2357368419999997,63.8943125,58.41471053,55.53033333,11.29777083,12.01197368,12.02739394,9.158904762,11.86391667,293.28,287.68,293.94,279.96,288.12,0.161,0.141,0.691,0.563,2.9651233319999997
311,0,0,0,1,1,0,1,0,2.136047619,54.9897619,9.158904762,279.96,0.431,0.139,2.199791667,6.519375,67.1735,59.7773125,52.15,11.86391667,11.67689583,13.16561905,11.29738889,13.71076923,288.12,290.78,296.48,291.26,293.78,0.156,0.159,0.564,0.556,3.227048907
312,0,1,0,1,1,1,0,1,3.067310345,73.92196552,12.67486207,294.06,0.927,0.105,2.371111111,2.88625,12.56777778,70.033125,33.99368182,10.84722222,6.2504375,11.83990909,10.0177,13.574720000000001,287.02,282.36,288.48,286.2,300.22,0.149,0.149,0.36200000000000004,0.426,2.032992713
313,0,0,0,0,1,1,0,1,2.8986511630000003,65.62246512,12.48334884,289.96,0.8170000000000001,0.107,3.276675,2.701333333,56.058875,54.45204762,73.92196552,13.3579,12.26995238,12.67486207,10.84722222,6.2504375,291.44,290.54,294.06,287.02,282.36,0.107,0.10300000000000001,0.8690000000000001,0.8959999999999999,2.4240941819999997
314,1,0,1,0,0,0,0,1,3.7564375,73.328125,8.999125,283.34,0.391,0.179,1.8149166669999999,3.096104167,74.43479167,67.85104167,68.69791667,5.0993125,11.62079167,10.004375,9.612291667000001,4.330125,285.82,291.78,288.98,288.16,282.54,0.192,0.19,0.6759999999999999,0.6940000000000001,2.535946966
315,1,0,1,0,1,0,0,1,2.025812516,70.62416667,11.40516667,291.2,0.58,0.187,1.703209481,2.0201875,57.9084375,68.17229167,77.51520833,10.027875,12.74979167,13.51270833,11.76635417,10.49091667,292.8,288.4,289.7,294.4,292.7,0.19,0.19899999999999998,0.556,0.701,2.886531609
316,1,0,1,0,1,0,0,1,2.156729167,86.19979167,8.7005,290.06,0.7509999999999999,0.201,1.2409999999999999,3.288875,66.10333333,68.52645833,52.78125,10.03329167,8.805333333,11.20214583,8.650854167,7.78125,291.4,288.0,295.8,293.0,289.92,0.18600000000000003,0.18600000000000003,0.6729999999999999,0.7490000000000001,2.062321081
317,1,0,0,1,1,0,0,1,3.249520833,75.473125,4.330125,282.54,0.76,0.171,1.8533333330000001,3.328125,76.52354167,71.67625,66.37645833,11.78545833,12.67708333,11.91164583,10.54164583,11.279125,293.5,286.32,290.84,287.4,296.22,0.225,0.19,0.11199999999999999,0.6970000000000001,1.433231207
318,1,0,0,1,1,0,0,1,1.8149166669999999,74.43479167,5.0993125,285.82,0.6759999999999999,0.192,3.096104167,1.9230833330000001,67.85104167,68.69791667,81.18083333,11.62079167,10.004375,9.612291667000001,4.330125,11.78545833,291.78,288.98,288.16,282.54,293.5,0.19,0.182,0.6940000000000001,0.747,1.632273888
319,1,0,1,0,1,0,0,1,2.2979375,68.84833333,11.76635417,294.4,0.623,0.19899999999999998,2.2936875,2.156729167,69.31645833,86.19979167,66.10333333,10.49091667,8.7005,10.03329167,8.805333333,11.20214583,292.7,290.06,291.4,288.0,295.8,0.19899999999999998,0.201,0.636,0.7509999999999999,4.108197351
320,1,0,1,0,0,0,0,1,1.703209481,57.9084375,10.027875,292.8,0.556,0.19,2.0201875,3.518729167,68.17229167,77.51520833,68.84833333,12.74979167,13.51270833,11.76635417,10.49091667,8.7005,288.4,289.7,294.4,292.7,290.06,0.19899999999999998,0.19899999999999998,0.701,0.6940000000000001,1.384151671
321,1,0,0,0,1,0,0,1,1.474786421,82.29124762,6.510540832999999,280.78,0.7090000000000001,0.147,1.162177242,0.8991123040000001,78.29364795,66.92662996,76.60614319,10.65638427,10.09403176,10.03648302,0.038167354,0.22679144399999998,284.76,295.9,288.0,274.2,275.06,0.145,0.179,0.584,0.7390000000000001,1.173426453
322,1,1,0,1,0,0,0,1,0.8805293129999999,92.22551487,8.782731979,285.82,0.544,0.13699999999999998,3.7510218330000002,2.06017166,61.62408844,65.6281554,81.47495129,13.18228854,10.93224625,7.2094325,4.890670625,4.094889579,292.68,291.58,286.4,282.98,284.36,0.195,0.195,0.645,0.637,1.30850434
323,1,0,0,1,1,0,0,1,1.788577521,76.60614319,10.03648302,288.0,0.48100000000000004,0.145,1.8971458540000001,0.928869417,85.70632671,94.02919674,88.54317987,0.038167354,0.22679144399999998,5.135722604,8.782731979,13.18228854,274.2,275.06,277.8,285.82,292.68,0.126,0.12,0.516,0.71,1.819738506
324,1,1,0,1,1,0,0,1,2.060688958,88.54317987,5.135722604,277.8,0.524,0.11,0.8805293129999999,3.7510218330000002,92.22551487,61.62408844,65.6281554,8.782731979,13.18228854,10.93224625,7.2094325,4.890670625,285.82,292.68,291.58,286.4,282.98,0.13699999999999998,0.195,0.544,0.645,1.747064931
325,1,1,0,0,1,0,0,1,0.615090854,72.02526164,11.14443323,290.2,0.401,0.14,2.493253875,2.501234417,69.51692405,72.5605968,53.16415193,7.382752674,8.362234375,-0.562637276,-0.246480645,0.56002173,289.0,280.38,276.72,275.74,277.44,0.16399999999999998,0.149,0.725,0.494,1.850910209
326,1,0,0,1,0,0,0,1,3.33983125,53.16415193,-0.562637276,276.72,0.639,0.16399999999999998,3.2017441669999998,3.565990625,61.13566989,70.49029587,82.29124762,-0.246480645,0.56002173,6.510540832999999,10.65638427,10.09403176,275.74,277.44,280.78,284.76,295.9,0.16399999999999998,0.162,0.537,0.565,2.637808935
327,1,0,0,1,1,0,0,1,4.265275333,70.948029,3.631360833,280.64,0.5539999999999999,0.16,2.466954292,3.1330609289999996,79.51891726,74.79520833,66.47229167,2.87866924,5.78375,2.7904166669999997,3.92,2.857916667,278.54,282.66,279.32,279.84,277.92,0.12300000000000001,0.155,0.535,0.583,1.923411945
328,0,0,1,0,1,0,0,1,2.824704385,63.84291667,13.66458333,294.32,0.7559999999999999,0.19399999999999998,2.71932071,3.003723542,74.250625,77.42583333,67.76166667,9.5391875,12.63875,10.72314583,7.9927916670000005,0.809854167,289.72,290.84,289.94,286.72,277.88,0.209,0.17600000000000002,0.613,0.715,2.737777657
329,0,0,1,0,0,0,0,1,2.075805265,75.04375,12.49395833,293.9,0.467,0.165,2.021851469,2.683185119,62.75104167,65.49625,75.50208333,12.84114583,9.003270833,5.58925,4.2680625,4.4408333330000005,292.28,289.18,287.98,286.8,284.44,0.16399999999999998,0.16399999999999998,0.469,0.502,1.9316158509999999
330,0,0,1,0,0,0,0,1,2.683185119,65.49625,9.003270833,289.18,0.502,0.16399999999999998,1.059403973,0.860862131,75.50208333,66.40270833,62.48354167,5.58925,4.2680625,4.4408333330000005,3.441166667,11.24854167,287.98,286.8,284.44,278.16,290.08,0.16399999999999998,0.149,0.429,0.337,2.253985656
331,0,1,0,0,1,0,0,1,2.7093229130000003,67.796875,13.895999999999999,293.52,0.513,0.19899999999999998,2.170838621,2.824704385,76.40895833,63.84291667,74.250625,13.54208333,13.66458333,9.5391875,12.63875,10.72314583,291.66,294.32,289.72,290.84,289.94,0.19399999999999998,0.19399999999999998,0.48200000000000004,0.7559999999999999,3.3059701230000003
332,0,0,1,0,0,0,0,1,1.077377756,68.66520833,13.30925,294.58,0.7340000000000001,0.174,2.075805265,2.021851469,75.04375,62.75104167,65.49625,12.49395833,12.84114583,9.003270833,5.58925,4.2680625,293.9,292.28,289.18,287.98,286.8,0.165,0.16399999999999998,0.467,0.469,3.09195654
333,0,0,1,0,1,0,0,1,2.163172594,75.28354167,12.60564583,290.3,0.6779999999999999,0.19899999999999998,1.339999575,1.077377756,69.53208333,68.66520833,75.04375,9.206770833,13.30925,12.49395833,12.84114583,9.003270833,284.72,294.58,293.9,292.28,289.18,0.2,0.174,0.062,0.7340000000000001,3.432620257
334,0,0,0,1,1,0,0,1,2.28919986,68.45791667,7.9927916670000005,286.72,0.457,0.134,4.348301756000001,3.332927708,63.545,64.23083333,75.28354167,0.809854167,-0.766833333,12.60564583,9.206770833,13.30925,277.88,277.46,290.3,284.72,294.58,0.132,0.132,0.369,0.41200000000000003,1.281502772
335,0,1,0,0,1,0,0,1,2.014878625,73.278125,11.14397917,290.38,0.618,0.17600000000000002,5.2403875,5.209996021,74.84729167,80.34395833,70.88629545,7.3688125,7.858541667000001,12.23143182,10.26920833,0.569648649,278.56,280.06,297.48,291.2,273.96,0.051,0.146,0.298,0.395,2.52594374
336,1,0,1,0,0,0,1,0,4.651458333,67.86875,3.74375,290.28,0.36200000000000004,0.157,3.490208333,4.233333333,82.66041667,58.13125,72.73333333,7.39375,-4.220833333,5.764583332999999,1.9645833330000002,3.6125,287.06,277.92,292.46,282.26,282.86,0.172,0.172,0.263,0.254,1.601112301
337,1,0,0,1,0,0,1,0,7.6875,45.47083333,10.68958333,295.14,0.247,0.188,4.615208333,6.277083332999999,46.08333333,68.925,47.98541667,9.495833333,6.5875,12.05416667,12.6,13.4875,286.68,284.84,294.76,294.46,297.78,0.187,0.18600000000000003,0.235,0.225,1.467090135
338,1,0,0,1,1,0,1,0,3.490208333,82.66041667,7.39375,287.06,0.263,0.172,4.233333333,5.150416667,58.13125,72.73333333,83.60416667,-4.220833333,5.764583332999999,1.9645833330000002,3.6125,2.80625,277.92,292.46,282.26,282.86,273.4,0.172,0.172,0.254,0.275,1.036983269
339,1,0,0,0,1,0,1,0,3.036875,58.80625,3.6125,282.86,0.273,0.20800000000000002,2.6314583330000003,5.509791667000001,80.60833333,67.21041667,38.91666667,2.80625,12.97083333,7.152083332999999,7.152083332999999,10.68958333,273.4,296.22,289.38,289.38,295.14,0.45,0.147,0.046,0.578,1.25682626
340,1,0,1,0,0,0,1,0,3.228958333,48.1,11.22083333,299.82,0.363,0.182,4.651458333,3.490208333,67.86875,82.66041667,58.13125,3.74375,7.39375,-4.220833333,5.764583332999999,1.9645833330000002,290.28,287.06,277.92,292.46,282.26,0.157,0.172,0.36200000000000004,0.263,1.5672443269999998
341,1,0,1,0,0,0,1,0,2.7322916669999997,62.60208333,5.94375,287.48,0.39,0.17300000000000001,2.88375,4.432291667,56.93125,44.05208333,45.25416667,11.06458333,7.402083332999999,5.064583333,9.535416667,6.091666667,298.52,291.94,293.0,290.7,282.44,0.135,0.17300000000000001,0.327,0.268,2.467125138
342,1,0,0,1,0,0,1,0,6.277083332999999,68.925,6.5875,284.84,0.225,0.18600000000000003,4.821875,4.069583333,47.98541667,57.42916667,60.25208333,12.05416667,12.6,13.4875,7.846842105,7.6285,294.76,294.46,297.78,285.8,287.78,0.192,0.183,0.511,0.569,1.79968773
343,1,0,0,1,0,0,1,0,4.615208333,46.08333333,9.495833333,286.68,0.235,0.187,6.277083332999999,4.821875,68.925,47.98541667,57.42916667,6.5875,12.05416667,12.6,13.4875,7.846842105,284.84,294.76,294.46,297.78,285.8,0.18600000000000003,0.192,0.225,0.511,1.176734315
344,0,0,0,1,0,0,0,1,11.8779,38.53,3.63175,281.84,0.382,0.17600000000000002,3.9342,5.586881817999999,56.206,42.65363636,48.06571429,5.8728,5.329,2.409714286,11.98033615,11.14443323,285.38,281.16,279.1,284.28,290.2,0.18100000000000002,0.179,0.20800000000000002,0.568,5.5310644270000004
345,0,0,0,1,1,0,0,1,7.8622470589999995,45.00823529,13.79152941,296.56,0.335,0.19899999999999998,4.54935,7.665136363999999,62.96,35.94545455,57.39,6.406000000000001,9.346454545,2.375571429,2.375571429,8.621076923,287.94,293.26,290.58,290.58,294.18,0.19699999999999998,0.19399999999999998,0.5660000000000001,0.306,2.595630695
346,0,0,0,0,1,0,0,1,7.63525,83.35,7.699,285.28,0.331,0.153,2.0041,4.41052,86.6,50.20399999999999,42.89666667,7.382000000000001,10.226,10.06477778,10.93033333,13.79152941,303.54,297.2,300.7,289.96,296.56,0.177,0.198,0.536,0.514,3.675662268
347,0,0,0,1,1,0,0,1,5.599514286000001,57.39,2.375571429,290.58,0.395,0.18899999999999997,5.599514286000001,7.975776923,57.39,31.67076923,47.77272727,2.375571429,8.621076923,6.345272727,3.63175,5.8728,290.58,294.18,290.16,281.84,285.38,0.18899999999999997,0.192,0.395,0.5589999999999999,1.496324604
348,0,0,0,1,0,0,0,1,7.255171429,48.06571429,2.409714286,279.1,0.287,0.177,2.3235787919999997,0.615090854,75.95318828,72.02526164,69.51692405,11.98033615,11.14443323,7.382752674,8.362234375,-0.562637276,284.28,290.2,289.0,280.38,276.72,0.16699999999999998,0.14,0.579,0.401,2.1379666459999997
349,1,0,0,1,1,0,1,0,4.8,49.9,8.21,287.88,0.369,0.172,1.872193333,8.693729167,82.64997222,77.610125,62.75945833,11.62922222,7.1094166670000005,4.8625625,13.00420833,5.8654375,291.4,287.84,282.36,290.82,285.8,0.19899999999999998,0.188,0.841,0.413,1.176754308
350,0,0,1,1,1,0,0,1,1.872193333,82.64997222,11.62922222,291.4,0.841,0.19899999999999998,8.693729167,3.369625,77.610125,62.75945833,70.22233333,7.1094166670000005,4.8625625,13.00420833,5.8654375,13.3625625,287.84,282.36,290.82,285.8,310.12,0.188,0.225,0.413,0.369,3.027062444
