Error Metrics,Validation Scores,Testing Scores
mean target,3.714587493414523,3.714587493414523
F1,0.2976116029939326,0.7419400601435836
F2,0.29268235996774494,0.7255867496988374
F05,0.3040294527335555,0.759047510897291
Precision,0.3092585198180525,0.7708976082093203
Recall,0.5632868202201093,0.715079240675271
R2,0.49837686338208725,0.5561749224031026
Adjusted R2,0.46716111985318126,0.5345786673859745
RMSE,1.2932572800331357,1.2172681610123135
MSE,1.7062899282864017,1.4817417758142997
MAE,0.9636460339911554,0.9006902936231448
MAPE,32.69464513154828,32.804027937618265
Accuracy,67.30535486845172,67.19597206238174
Pearson C.C.,0.7221922404098915,0.7536862970323766
Spearman C.C.,0.736651907330703,0.7742165174241912
Spatial Distance,0.27780775959010845,0.24631370296762356
NMI,0.9927467313914103,0.9943466359392567
AIC,413.2310413812658,415.63171281806524
BIC,413.2310413812658,415.63171281806524
Data Size train,-,4187.0
Data Size test,-,1057.0
Training Time (seconds),-,21.32871389389038
Testing Time (seconds),-,0.6710512638092041
