Error Metrics,Testing Scores
mean target,3.714587493414523
F1,0.7410723789066685
F2,0.7328136680284479
F05,0.7495193606805527
Precision,0.7552584803669392
Recall,0.7274093702834756
R2,0.5460639440999704
Adjusted R2,0.5239756951038419
RMSE,1.2310556446754508
MSE,1.5154980002872898
MAE,0.9139330451253476
MAPE,33.719557467028714
Accuracy,66.28044253297128
Pearson C.C.,0.749207064524916
Spearman C.C.,0.7632702620090883
Spatial Distance,0.2507929354750843
NMI,0.9945323343729412
AIC,439.4415115944011
BIC,439.4415115944011
Data Size train,4187.0
Data Size test,1057.0
Training Time (seconds),25.596291303634644
Testing Time (seconds),0.72428297996521
