Total Number of rare cases: 545 out of 3495
Percentage of Rare Cases: 15.59%

number of rare in train: 434/2786
==> 15.577889447236181%%
number of rare in test: 111/709
==> 15.655853314527505%%
Total Number of rare cases: 545 out of 3495
Percentage of Rare Cases: 15.59%

number of rare in train: 434/2786
==> 15.577889447236181%%
number of rare in test: 111/709
==> 15.655853314527505%%
The size of the original data is (2786, 49)
The size of the oversampled data is (2876, 49)
Total Number of rare cases: 542 out of 2876
Percentage of Rare Cases: 18.85%

The percentage of rare values in dataset after smogn are 18.845618915159946
