For param {'n_trees': 100, 'max_depth': 7, 'learning_rate': 0.1}
 *************************FOLDS Average***************************** 

Utility Based Metrics Across All
F1:  0.7509833831636297
F2:  0.7332365434716352
F05: 0.7730830091769695
precision:  0.7905217053523602
recall: 0.723627434506891

Regression Error Metrics Across All
R2: 0.3971827515873483
Adj-R2: 0.3733775737228332
RMSE: 1.5487285686804542
MSE: 2.4454851116918643
MAE: 1.1654627504522765
MAPE: 36.06449115371337
Accuracy: 63.935508846286645
AIC: 1106.3149131603425
BIC: 1106.3149131603425
NMI: 0.9874946807345338

Correlations Across All
Pearson: 0.6511167418314172
Spearman: 0.6534542677088635
Distance: 0.34888325816858273
************************REPETITIONS Average*******************************

Utility Based Metrics Across All
F1:  0.7509833831636297
F2:  0.7332365434716352
F05: 0.7730830091769695
precision:  0.7905217053523602
recall: 0.723627434506891

Regression Error Metrics Across All
R2: 0.3971827515873483
Adj-R2: 0.3733775737228332
RMSE: 1.5487285686804542
MSE: 2.4454851116918643
MAE: 1.1654627504522765
MAPE: 36.06449115371337
Accuracy: 63.935508846286645
AIC: 1106.3149131603425
BIC: 1106.3149131603425
NMI: 0.9874946807345338

Correlations Across All
Pearson: 0.6511167418314172
Spearman: 0.6534542677088635
Distance: 0.34888325816858273
For param {'n_trees': 100, 'max_depth': 6, 'learning_rate': 0.1}
 *************************FOLDS Average***************************** 

Utility Based Metrics Across All
F1:  0.6485915153509939
F2:  0.6158063449951463
F05: 0.6870035137254349
precision:  0.7166534835665661
recall: 0.7156226906401068

Regression Error Metrics Across All
R2: 0.39382813911801984
Adj-R2: 0.3698902607912832
RMSE: 1.553038989586873
MSE: 2.4604114517655487
MAE: 1.1708828293162774
MAPE: 36.31738063245746
Accuracy: 63.68261936754253
AIC: 1113.1219187907468
BIC: 1113.1219187907468
NMI: 0.9807863038512984

Correlations Across All
Pearson: 0.6478267063536668
Spearman: 0.6530128749699067
Distance: 0.3521732936463332
************************REPETITIONS Average*******************************

Utility Based Metrics Across All
F1:  0.6485915153509939
F2:  0.6158063449951463
F05: 0.6870035137254349
precision:  0.7166534835665661
recall: 0.7156226906401068

Regression Error Metrics Across All
R2: 0.39382813911801984
Adj-R2: 0.3698902607912832
RMSE: 1.553038989586873
MSE: 2.4604114517655487
MAE: 1.1708828293162774
MAPE: 36.31738063245746
Accuracy: 63.68261936754253
AIC: 1113.1219187907468
BIC: 1113.1219187907468
NMI: 0.9807863038512984

Correlations Across All
Pearson: 0.6478267063536668
Spearman: 0.6530128749699067
Distance: 0.3521732936463332
