Error Metrics,Validation Scores,Testing Scores
mean target,3.6548239405093694,3.6548239405093694
F1,0.774337179046151,0.7099701198187385
F2,0.7543378862603735,0.68697188054188
F05,0.7958893358365583,0.7345615518880936
Precision,0.8112170945493299,0.751924633353271
Recall,0.7417829489022314,0.6724499870405706
R2,0.395910407840911,0.26213061044365504
Adjusted R2,0.30686661063370413,0.17995879206124388
RMSE,1.4504897105522414,1.5381825596447802
MSE,2.195132131005774,2.3660055867953678
MAE,1.1459244240887607,1.1350692794372315
MAPE,41.55922252450294,41.37247103359454
Accuracy,58.440777475497065,58.62752896640546
Pearson C.C.,0.6480545415831707,0.5590904939623637
Spearman C.C.,0.6300628626335132,0.6222475915857072
Spatial Distance,0.3519454584168293,0.4409095060376367
NMI,0.9945600305386606,0.9969356972901415
AIC,268.3590187611227,421.989532149796
BIC,268.3590187611227,421.989532149796
Data Size train,-,1912.0
Data Size test,-,490.0
Training Time (seconds),-,13.851092338562012
Testing Time (seconds),-,0.5996861457824707
