,Month_1,Month_2,Month_3,Month_4,Vegetation_1,Vegetation_2,Vegetation_3,WS,WS-1,WS-2,WS-3,WS-4,WS-5,RH,RH-1,RH-2,RH-3,RH-4,RH-5,TA,TA-1,TA-2,TA-3,TA-4,TA-5,Eeflux_LST,Eeflux_LST-1,Eeflux_LST-2,Eeflux_LST-3,Eeflux_LST-4,Eeflux_LST-5,Eeflux_NDVI,Eeflux_NDVI-1,Eeflux_NDVI-2,Eeflux_NDVI-3,Eeflux_NDVI-4,Eeflux_NDVI-5,Eeflux_Albedo,Eeflux_Albedo-1,Eeflux_Albedo-2,Eeflux_Albedo-3,Eeflux_Albedo-4,Eeflux_Albedo-5,Site_0,LE_bowen_corr_mm
0,0,1,1,1,1,0,1,1.479333333,1.576678571,1.6436842109999998,1.7946666669999998,1.53369697,2.025,67.90036667,84.25710714,79.26484211,82.43461905,75.53945455,71.10412121,28.8264,27.85364286,28.555,28.91980952,29.23739394,30.47933333,296.28,298.0,302.08,303.24,301.76,303.8,0.5770000000000001,0.46299999999999997,0.887,0.794,0.879,0.8,0.102,0.102,0.099,0.102,0.114,0.105,1,9.18784792
1,0,1,1,1,1,0,1,2.197081081,1.479333333,1.576678571,1.6436842109999998,1.7946666669999998,1.53369697,77.48102703,67.90036667,84.25710714,79.26484211,82.43461905,75.53945455,29.03064865,28.8264,27.85364286,28.555,28.91980952,29.23739394,294.18,296.28,298.0,302.08,303.24,301.76,0.705,0.5770000000000001,0.46299999999999997,0.887,0.794,0.879,0.094,0.102,0.102,0.099,0.102,0.114,1,7.060627056
2,0,1,1,1,1,0,1,1.682757576,2.197081081,1.479333333,1.576678571,1.6436842109999998,1.7946666669999998,79.22578788,77.48102703,67.90036667,84.25710714,79.26484211,82.43461905,28.69481818,29.03064865,28.8264,27.85364286,28.555,28.91980952,301.46,294.18,296.28,298.0,302.08,303.24,0.33799999999999997,0.705,0.5770000000000001,0.46299999999999997,0.887,0.794,0.094,0.094,0.102,0.102,0.099,0.102,1,6.148002735
3,0,1,1,1,1,0,1,1.8479428569999998,1.682757576,2.197081081,1.479333333,1.576678571,1.6436842109999998,71.18025714,79.22578788,77.48102703,67.90036667,84.25710714,79.26484211,29.18474286,28.69481818,29.03064865,28.8264,27.85364286,28.555,299.62,301.46,294.18,296.28,298.0,302.08,0.54,0.33799999999999997,0.705,0.5770000000000001,0.46299999999999997,0.887,0.091,0.094,0.094,0.102,0.102,0.099,1,8.012126586
4,0,1,1,1,1,0,1,1.6607666669999999,1.8479428569999998,1.682757576,2.197081081,1.479333333,1.576678571,72.1107,71.18025714,79.22578788,77.48102703,67.90036667,84.25710714,28.9618,29.18474286,28.69481818,29.03064865,28.8264,27.85364286,301.4,299.62,301.46,294.18,296.28,298.0,0.8079999999999999,0.54,0.33799999999999997,0.705,0.5770000000000001,0.46299999999999997,0.091,0.091,0.094,0.094,0.102,0.102,1,7.55030422
5,1,0,0,0,1,0,1,1.516472222,1.6607666669999999,1.8479428569999998,1.682757576,2.197081081,1.479333333,78.72375,72.1107,71.18025714,79.22578788,77.48102703,67.90036667,28.53025,28.9618,29.18474286,28.69481818,29.03064865,28.8264,299.82,301.4,299.62,301.46,294.18,296.28,0.86,0.8079999999999999,0.54,0.33799999999999997,0.705,0.5770000000000001,0.09,0.091,0.091,0.094,0.094,0.102,1,6.99884673
6,1,0,0,0,1,0,1,1.516472222,1.516472222,1.6607666669999999,1.8479428569999998,1.682757576,2.197081081,78.72375,78.72375,72.1107,71.18025714,79.22578788,77.48102703,28.53025,28.53025,28.9618,29.18474286,28.69481818,29.03064865,299.82,299.82,301.4,299.62,301.46,294.18,0.86,0.86,0.8079999999999999,0.54,0.33799999999999997,0.705,0.09,0.09,0.091,0.091,0.094,0.094,1,6.99884673
7,1,0,0,0,1,0,1,1.437966667,1.516472222,1.516472222,1.6607666669999999,1.8479428569999998,1.682757576,80.72213333,78.72375,78.72375,72.1107,71.18025714,79.22578788,28.15883333,28.53025,28.53025,28.9618,29.18474286,28.69481818,302.98,299.82,299.82,301.4,299.62,301.46,0.8640000000000001,0.86,0.86,0.8079999999999999,0.54,0.33799999999999997,0.092,0.09,0.09,0.091,0.091,0.094,1,6.830160203999999
8,1,0,0,0,1,0,1,1.71030303,1.437966667,1.516472222,1.516472222,1.6607666669999999,1.8479428569999998,77.64978788,80.72213333,78.72375,78.72375,72.1107,71.18025714,28.47136364,28.15883333,28.53025,28.53025,28.9618,29.18474286,295.44,302.98,299.82,299.82,301.4,299.62,0.573,0.8640000000000001,0.86,0.86,0.8079999999999999,0.54,0.092,0.092,0.09,0.09,0.091,0.091,1,7.397434207000001
9,1,0,0,0,1,0,1,2.0874333330000003,1.71030303,1.437966667,1.516472222,1.516472222,1.6607666669999999,73.86226667,77.64978788,80.72213333,78.72375,78.72375,72.1107,29.51966667,28.47136364,28.15883333,28.53025,28.53025,28.9618,298.14,295.44,302.98,299.82,299.82,301.4,0.316,0.573,0.8640000000000001,0.86,0.86,0.8079999999999999,0.091,0.092,0.092,0.09,0.09,0.091,1,8.329496054
10,1,0,0,0,1,0,1,1.8188799999999998,2.0874333330000003,1.71030303,1.437966667,1.516472222,1.516472222,79.25148,73.86226667,77.64978788,80.72213333,78.72375,78.72375,27.953000000000003,29.51966667,28.47136364,28.15883333,28.53025,28.53025,301.48,298.14,295.44,302.98,299.82,299.82,0.161,0.316,0.573,0.8640000000000001,0.86,0.86,0.085,0.091,0.092,0.092,0.09,0.09,1,9.294916027000001
11,1,0,0,0,1,0,1,2.138565217,1.8188799999999998,2.0874333330000003,1.71030303,1.437966667,1.516472222,90.79726087,79.25148,73.86226667,77.64978788,80.72213333,78.72375,25.96308696,27.953000000000003,29.51966667,28.47136364,28.15883333,28.53025,300.28,301.48,298.14,295.44,302.98,299.82,0.772,0.161,0.316,0.573,0.8640000000000001,0.86,0.08199999999999999,0.085,0.091,0.092,0.092,0.09,1,2.980982894
12,1,0,0,0,1,0,1,1.8570270269999998,2.138565217,1.8188799999999998,2.0874333330000003,1.71030303,1.437966667,86.34572973,90.79726087,79.25148,73.86226667,77.64978788,80.72213333,25.20454054,25.96308696,27.953000000000003,29.51966667,28.47136364,28.15883333,299.54,300.28,301.48,298.14,295.44,302.98,0.856,0.772,0.161,0.316,0.573,0.8640000000000001,0.083,0.08199999999999999,0.085,0.091,0.092,0.092,1,5.965199077
13,1,0,0,0,1,0,1,1.855,1.8570270269999998,2.138565217,1.8188799999999998,2.0874333330000003,1.71030303,81.63183871,86.34572973,90.79726087,79.25148,73.86226667,77.64978788,28.35529032,25.20454054,25.96308696,27.953000000000003,29.51966667,28.47136364,301.74,299.54,300.28,301.48,298.14,295.44,0.7490000000000001,0.856,0.772,0.161,0.316,0.573,0.091,0.083,0.08199999999999999,0.085,0.091,0.092,1,6.620811359
14,1,0,0,0,1,0,1,1.523322581,1.855,1.8570270269999998,2.138565217,1.8188799999999998,2.0874333330000003,83.68183871,81.63183871,86.34572973,90.79726087,79.25148,73.86226667,27.59483871,28.35529032,25.20454054,25.96308696,27.953000000000003,29.51966667,292.76,301.74,299.54,300.28,301.48,298.14,0.48700000000000004,0.7490000000000001,0.856,0.772,0.161,0.316,0.096,0.091,0.083,0.08199999999999999,0.085,0.091,1,5.452549017000001
15,1,0,0,0,1,0,1,1.862837209,1.523322581,1.855,1.8570270269999998,2.138565217,1.8188799999999998,84.47200000000001,83.68183871,81.63183871,86.34572973,90.79726087,79.25148,26.86246512,27.59483871,28.35529032,25.20454054,25.96308696,27.953000000000003,302.62,292.76,301.74,299.54,300.28,301.48,0.8540000000000001,0.48700000000000004,0.7490000000000001,0.856,0.772,0.161,0.096,0.096,0.091,0.083,0.08199999999999999,0.085,1,4.70084314
16,1,0,0,0,1,0,1,1.5123125,1.862837209,1.523322581,1.855,1.8570270269999998,2.138565217,84.7429375,84.47200000000001,83.68183871,81.63183871,86.34572973,90.79726087,27.02084375,26.86246512,27.59483871,28.35529032,25.20454054,25.96308696,300.12,302.62,292.76,301.74,299.54,300.28,0.899,0.8540000000000001,0.48700000000000004,0.7490000000000001,0.856,0.772,0.096,0.096,0.096,0.091,0.083,0.08199999999999999,1,5.436106124
17,1,0,0,0,1,0,1,1.281571429,1.5123125,1.862837209,1.523322581,1.855,1.8570270269999998,76.421,84.7429375,84.47200000000001,83.68183871,81.63183871,86.34572973,28.70519048,27.02084375,26.86246512,27.59483871,28.35529032,25.20454054,300.5,300.12,302.62,292.76,301.74,299.54,0.7440000000000001,0.899,0.8540000000000001,0.48700000000000004,0.7490000000000001,0.856,0.096,0.096,0.096,0.096,0.091,0.083,1,9.876471451
18,1,0,0,0,1,0,1,1.652681818,1.281571429,1.5123125,1.862837209,1.523322581,1.855,83.22877273,76.421,84.7429375,84.47200000000001,83.68183871,81.63183871,27.569000000000003,28.70519048,27.02084375,26.86246512,27.59483871,28.35529032,298.64,300.5,300.12,302.62,292.76,301.74,0.6659999999999999,0.7440000000000001,0.899,0.8540000000000001,0.48700000000000004,0.7490000000000001,0.096,0.096,0.096,0.096,0.096,0.091,1,7.452747025
19,1,0,0,0,1,0,1,1.646,1.652681818,1.281571429,1.5123125,1.862837209,1.523322581,98.927,83.22877273,76.421,84.7429375,84.47200000000001,83.68183871,24.471,27.569000000000003,28.70519048,27.02084375,26.86246512,27.59483871,298.46,298.64,300.5,300.12,302.62,292.76,0.797,0.6659999999999999,0.7440000000000001,0.899,0.8540000000000001,0.48700000000000004,0.096,0.096,0.096,0.096,0.096,0.096,1,2.922351903
20,1,0,0,1,1,0,1,1.2766,1.646,1.652681818,1.281571429,1.5123125,1.862837209,92.67056667,98.927,83.22877273,76.421,84.7429375,84.47200000000001,27.06176667,24.471,27.569000000000003,28.70519048,27.02084375,26.86246512,298.78,298.46,298.64,300.5,300.12,302.62,0.565,0.797,0.6659999999999999,0.7440000000000001,0.899,0.8540000000000001,0.11199999999999999,0.096,0.096,0.096,0.096,0.096,1,4.5639049080000005
21,1,0,0,1,1,0,1,2.5533541669999997,1.2766,1.646,1.652681818,1.281571429,1.5123125,86.27395833,92.67056667,98.927,83.22877273,76.421,84.7429375,27.21029167,27.06176667,24.471,27.569000000000003,28.70519048,27.02084375,297.48,298.78,298.46,298.64,300.5,300.12,0.828,0.565,0.797,0.6659999999999999,0.7440000000000001,0.899,0.12,0.11199999999999999,0.096,0.096,0.096,0.096,1,4.73008288
22,1,0,0,1,1,0,1,2.775422222,2.5533541669999997,1.2766,1.646,1.652681818,1.281571429,79.47791111,86.27395833,92.67056667,98.927,83.22877273,76.421,27.51257778,27.21029167,27.06176667,24.471,27.569000000000003,28.70519048,297.78,297.48,298.78,298.46,298.64,300.5,0.722,0.828,0.565,0.797,0.6659999999999999,0.7440000000000001,0.12,0.12,0.11199999999999999,0.096,0.096,0.096,1,5.589706591000001
23,1,0,0,1,1,0,1,2.4944583330000003,2.775422222,2.5533541669999997,1.2766,1.646,1.652681818,81.6466875,79.47791111,86.27395833,92.67056667,98.927,83.22877273,26.76020833,27.51257778,27.21029167,27.06176667,24.471,27.569000000000003,295.94,297.78,297.48,298.78,298.46,298.64,0.278,0.722,0.828,0.565,0.797,0.6659999999999999,0.11599999999999999,0.12,0.12,0.11199999999999999,0.096,0.096,1,3.7558566719999997
24,1,0,0,1,1,0,1,2.039928571,2.4944583330000003,2.775422222,2.5533541669999997,1.2766,1.646,71.51032143,81.6466875,79.47791111,86.27395833,92.67056667,98.927,28.03807143,26.76020833,27.51257778,27.21029167,27.06176667,24.471,297.88,295.94,297.78,297.48,298.78,298.46,0.701,0.278,0.722,0.828,0.565,0.797,0.111,0.11599999999999999,0.12,0.12,0.11199999999999999,0.096,1,7.664983498
25,1,0,0,1,1,0,1,1.906044444,2.039928571,2.4944583330000003,2.775422222,2.5533541669999997,1.2766,86.16288889,71.51032143,81.6466875,79.47791111,86.27395833,92.67056667,26.43011111,28.03807143,26.76020833,27.51257778,27.21029167,27.06176667,298.92,297.88,295.94,297.78,297.48,298.78,0.858,0.701,0.278,0.722,0.828,0.565,0.107,0.111,0.11599999999999999,0.12,0.12,0.11199999999999999,1,3.9788797660000004
26,1,0,0,1,1,0,1,1.552275862,1.906044444,2.039928571,2.4944583330000003,2.775422222,2.5533541669999997,79.08286207,86.16288889,71.51032143,81.6466875,79.47791111,86.27395833,28.44303448,26.43011111,28.03807143,26.76020833,27.51257778,27.21029167,300.6,298.92,297.88,295.94,297.78,297.48,0.8170000000000001,0.858,0.701,0.278,0.722,0.828,0.10800000000000001,0.107,0.111,0.11599999999999999,0.12,0.12,1,6.529374022000001
27,1,0,0,1,1,0,1,2.329522727,1.552275862,1.906044444,2.039928571,2.4944583330000003,2.775422222,80.82345455,79.08286207,86.16288889,71.51032143,81.6466875,79.47791111,27.63959091,28.44303448,26.43011111,28.03807143,26.76020833,27.51257778,299.58,300.6,298.92,297.88,295.94,297.78,0.366,0.8170000000000001,0.858,0.701,0.278,0.722,0.107,0.10800000000000001,0.107,0.111,0.11599999999999999,0.12,1,4.430171208
28,1,0,0,1,1,0,1,2.116234043,2.329522727,1.552275862,1.906044444,2.039928571,2.4944583330000003,82.87495745,80.82345455,79.08286207,86.16288889,71.51032143,81.6466875,27.10025532,27.63959091,28.44303448,26.43011111,28.03807143,26.76020833,296.2,299.58,300.6,298.92,297.88,295.94,0.845,0.366,0.8170000000000001,0.858,0.701,0.278,0.10400000000000001,0.107,0.10800000000000001,0.107,0.111,0.11599999999999999,1,3.7775939060000003
29,1,0,0,1,1,0,1,1.66340625,2.116234043,2.329522727,1.552275862,1.906044444,2.039928571,83.3271875,82.87495745,80.82345455,79.08286207,86.16288889,71.51032143,26.6298125,27.10025532,27.63959091,28.44303448,26.43011111,28.03807143,298.02,296.2,299.58,300.6,298.92,297.88,0.473,0.845,0.366,0.8170000000000001,0.858,0.701,0.10400000000000001,0.10400000000000001,0.107,0.10800000000000001,0.107,0.111,1,4.992502996
30,1,0,0,1,1,0,1,3.064361702,1.66340625,2.116234043,2.329522727,1.552275862,1.906044444,80.08940426,83.3271875,82.87495745,80.82345455,79.08286207,86.16288889,25.50804255,26.6298125,27.10025532,27.63959091,28.44303448,26.43011111,298.44,298.02,296.2,299.58,300.6,298.92,0.669,0.473,0.845,0.366,0.8170000000000001,0.858,0.10400000000000001,0.10400000000000001,0.10400000000000001,0.107,0.10800000000000001,0.107,1,4.385572862
31,1,0,0,1,1,0,1,3.283833333,3.064361702,1.66340625,2.116234043,2.329522727,1.552275862,82.50252381,80.08940426,83.3271875,82.87495745,80.82345455,79.08286207,25.38730952,25.50804255,26.6298125,27.10025532,27.63959091,28.44303448,295.8,298.44,298.02,296.2,299.58,300.6,0.61,0.669,0.473,0.845,0.366,0.8170000000000001,0.105,0.10400000000000001,0.10400000000000001,0.10400000000000001,0.107,0.10800000000000001,1,4.793474486
32,1,0,1,0,1,0,1,3.542636364,3.283833333,3.064361702,1.66340625,2.116234043,2.329522727,86.25754545,82.50252381,80.08940426,83.3271875,82.87495745,80.82345455,25.46063636,25.38730952,25.50804255,26.6298125,27.10025532,27.63959091,295.96,295.8,298.44,298.02,296.2,299.58,0.604,0.61,0.669,0.473,0.845,0.366,0.10400000000000001,0.105,0.10400000000000001,0.10400000000000001,0.10400000000000001,0.107,1,3.587615888
33,1,0,1,0,1,0,1,2.464,3.542636364,3.283833333,3.064361702,1.66340625,2.116234043,83.78271429,86.25754545,82.50252381,80.08940426,83.3271875,82.87495745,24.98328571,25.46063636,25.38730952,25.50804255,26.6298125,27.10025532,295.78,295.96,295.8,298.44,298.02,296.2,0.597,0.604,0.61,0.669,0.473,0.845,0.10400000000000001,0.10400000000000001,0.105,0.10400000000000001,0.10400000000000001,0.10400000000000001,1,3.331774826
34,1,0,1,0,1,0,1,2.416086957,2.464,3.542636364,3.283833333,3.064361702,1.66340625,78.04356522,83.78271429,86.25754545,82.50252381,80.08940426,83.3271875,22.22747826,24.98328571,25.46063636,25.38730952,25.50804255,26.6298125,297.96,295.78,295.96,295.8,298.44,298.02,0.887,0.597,0.604,0.61,0.669,0.473,0.10300000000000001,0.10400000000000001,0.10400000000000001,0.105,0.10400000000000001,0.10400000000000001,1,3.229190296
35,1,0,1,0,1,0,1,2.497318182,2.416086957,2.464,3.542636364,3.283833333,3.064361702,61.74327273,78.04356522,83.78271429,86.25754545,82.50252381,80.08940426,20.14881818,22.22747826,24.98328571,25.46063636,25.38730952,25.50804255,292.7,297.96,295.78,295.96,295.8,298.44,0.747,0.887,0.597,0.604,0.61,0.669,0.10300000000000001,0.10300000000000001,0.10400000000000001,0.10400000000000001,0.105,0.10400000000000001,1,3.3437563710000004
36,1,0,1,0,1,0,1,2.5089714290000003,2.497318182,2.416086957,2.464,3.542636364,3.283833333,67.51231429,61.74327273,78.04356522,83.78271429,86.25754545,82.50252381,21.18097143,20.14881818,22.22747826,24.98328571,25.46063636,25.38730952,297.78,292.7,297.96,295.78,295.96,295.8,0.841,0.747,0.887,0.597,0.604,0.61,0.10300000000000001,0.10300000000000001,0.10300000000000001,0.10400000000000001,0.10400000000000001,0.105,1,4.459910394
37,1,0,1,0,1,0,1,2.154651163,2.5089714290000003,2.497318182,2.416086957,2.464,3.542636364,75.04869767,67.51231429,61.74327273,78.04356522,83.78271429,86.25754545,21.27455814,21.18097143,20.14881818,22.22747826,24.98328571,25.46063636,295.56,297.78,292.7,297.96,295.78,295.96,0.9279999999999999,0.841,0.747,0.887,0.597,0.604,0.10300000000000001,0.10300000000000001,0.10300000000000001,0.10300000000000001,0.10400000000000001,0.10400000000000001,1,2.993256529
38,1,0,1,0,1,0,1,2.551625,2.154651163,2.5089714290000003,2.497318182,2.416086957,2.464,78.240975,75.04869767,67.51231429,61.74327273,78.04356522,83.78271429,19.316325,21.27455814,21.18097143,20.14881818,22.22747826,24.98328571,296.96,295.56,297.78,292.7,297.96,295.78,0.873,0.9279999999999999,0.841,0.747,0.887,0.597,0.10300000000000001,0.10300000000000001,0.10300000000000001,0.10300000000000001,0.10300000000000001,0.10400000000000001,1,1.117604476
39,1,0,1,0,1,0,1,2.5474583330000002,2.551625,2.154651163,2.5089714290000003,2.497318182,2.416086957,76.67341667,78.240975,75.04869767,67.51231429,61.74327273,78.04356522,19.08658333,19.316325,21.27455814,21.18097143,20.14881818,22.22747826,294.72,296.96,295.56,297.78,292.7,297.96,0.846,0.873,0.9279999999999999,0.841,0.747,0.887,0.102,0.10300000000000001,0.10300000000000001,0.10300000000000001,0.10300000000000001,0.10300000000000001,1,2.539787627
40,1,0,1,0,1,0,1,2.338081081,2.5474583330000002,2.551625,2.154651163,2.5089714290000003,2.497318182,73.314,76.67341667,78.240975,75.04869767,67.51231429,61.74327273,20.32475676,19.08658333,19.316325,21.27455814,21.18097143,20.14881818,296.02,294.72,296.96,295.56,297.78,292.7,0.754,0.846,0.873,0.9279999999999999,0.841,0.747,0.102,0.102,0.10300000000000001,0.10300000000000001,0.10300000000000001,0.10300000000000001,1,3.7891913510000004
41,1,0,1,0,1,0,1,2.136973684,2.338081081,2.5474583330000002,2.551625,2.154651163,2.5089714290000003,75.68631579,73.314,76.67341667,78.240975,75.04869767,67.51231429,19.85452632,20.32475676,19.08658333,19.316325,21.27455814,21.18097143,296.6,296.02,294.72,296.96,295.56,297.78,0.917,0.754,0.846,0.873,0.9279999999999999,0.841,0.10300000000000001,0.102,0.102,0.10300000000000001,0.10300000000000001,0.10300000000000001,1,3.180263974
42,1,0,1,0,1,0,1,2.149761905,2.136973684,2.338081081,2.5474583330000002,2.551625,2.154651163,71.04126190000001,75.68631579,73.314,76.67341667,78.240975,75.04869767,20.62552381,19.85452632,20.32475676,19.08658333,19.316325,21.27455814,296.82,296.6,296.02,294.72,296.96,295.56,0.865,0.917,0.754,0.846,0.873,0.9279999999999999,0.1,0.10300000000000001,0.102,0.102,0.10300000000000001,0.10300000000000001,1,3.1236586610000003
43,1,0,1,0,1,0,1,2.430282051,2.149761905,2.136973684,2.338081081,2.5474583330000002,2.551625,74.66566667,71.04126190000001,75.68631579,73.314,76.67341667,78.240975,22.14079487,20.62552381,19.85452632,20.32475676,19.08658333,19.316325,295.3,296.82,296.6,296.02,294.72,296.96,0.613,0.865,0.917,0.754,0.846,0.873,0.1,0.1,0.10300000000000001,0.102,0.102,0.10300000000000001,1,3.25641598
44,1,0,1,0,1,0,1,1.951384615,2.430282051,2.149761905,2.136973684,2.338081081,2.5474583330000002,83.63530769,74.66566667,71.04126190000001,75.68631579,73.314,76.67341667,22.18820513,22.14079487,20.62552381,19.85452632,20.32475676,19.08658333,293.16,295.3,296.82,296.6,296.02,294.72,0.746,0.613,0.865,0.917,0.754,0.846,0.10099999999999999,0.1,0.1,0.10300000000000001,0.102,0.102,1,3.1311133680000003
45,1,0,1,0,1,0,1,2.500102564,1.951384615,2.430282051,2.149761905,2.136973684,2.338081081,82.33387179,83.63530769,74.66566667,71.04126190000001,75.68631579,73.314,21.94276923,22.18820513,22.14079487,20.62552381,19.85452632,20.32475676,295.14,293.16,295.3,296.82,296.6,296.02,0.879,0.746,0.613,0.865,0.917,0.754,0.102,0.10099999999999999,0.1,0.1,0.10300000000000001,0.102,1,2.78314125
46,1,0,1,0,1,0,1,3.185023256,2.500102564,1.951384615,2.430282051,2.149761905,2.136973684,57.09393023,82.33387179,83.63530769,74.66566667,71.04126190000001,75.68631579,16.45409302,21.94276923,22.18820513,22.14079487,20.62552381,19.85452632,293.22,295.14,293.16,295.3,296.82,296.6,0.843,0.879,0.746,0.613,0.865,0.917,0.10300000000000001,0.102,0.10099999999999999,0.1,0.1,0.10300000000000001,1,2.833079332
47,1,0,1,0,1,0,1,2.549,3.185023256,2.500102564,1.951384615,2.430282051,2.149761905,74.10229268,57.09393023,82.33387179,83.63530769,74.66566667,71.04126190000001,17.81912195,16.45409302,21.94276923,22.18820513,22.14079487,20.62552381,295.28,293.22,295.14,293.16,295.3,296.82,0.841,0.843,0.879,0.746,0.613,0.865,0.10300000000000001,0.10300000000000001,0.102,0.10099999999999999,0.1,0.1,1,2.765325401
48,1,0,1,0,1,0,1,2.141897436,2.549,3.185023256,2.500102564,1.951384615,2.430282051,73.55076923,74.10229268,57.09393023,82.33387179,83.63530769,74.66566667,21.37782051,17.81912195,16.45409302,21.94276923,22.18820513,22.14079487,296.28,295.28,293.22,295.14,293.16,295.3,0.502,0.841,0.843,0.879,0.746,0.613,0.10300000000000001,0.10300000000000001,0.10300000000000001,0.102,0.10099999999999999,0.1,1,3.640241384
49,1,0,1,0,1,0,1,2.62745,2.141897436,2.549,3.185023256,2.500102564,1.951384615,70.51245,73.55076923,74.10229268,57.09393023,82.33387179,83.63530769,22.642075,21.37782051,17.81912195,16.45409302,21.94276923,22.18820513,297.32,296.28,295.28,293.22,295.14,293.16,0.899,0.502,0.841,0.843,0.879,0.746,0.10300000000000001,0.10300000000000001,0.10300000000000001,0.10300000000000001,0.102,0.10099999999999999,1,3.345877357
50,1,0,1,0,1,0,1,1.710515152,2.62745,2.141897436,2.549,3.185023256,2.500102564,76.80557576,70.51245,73.55076923,74.10229268,57.09393023,82.33387179,23.17260606,22.642075,21.37782051,17.81912195,16.45409302,21.94276923,295.26,297.32,296.28,295.28,293.22,295.14,0.9,0.899,0.502,0.841,0.843,0.879,0.102,0.10300000000000001,0.10300000000000001,0.10300000000000001,0.10300000000000001,0.102,1,3.46247406
51,1,0,1,0,1,0,1,1.417666667,1.710515152,2.62745,2.141897436,2.549,3.185023256,76.643,76.80557576,70.51245,73.55076923,74.10229268,57.09393023,24.555761899999997,23.17260606,22.642075,21.37782051,17.81912195,16.45409302,296.72,295.26,297.32,296.28,295.28,293.22,0.488,0.9,0.899,0.502,0.841,0.843,0.102,0.102,0.10300000000000001,0.10300000000000001,0.10300000000000001,0.10300000000000001,1,5.8242110910000005
52,1,0,1,0,1,0,1,1.8691764709999998,1.417666667,1.710515152,2.62745,2.141897436,2.549,82.39817647,76.643,76.80557576,70.51245,73.55076923,74.10229268,24.97091176,24.555761899999997,23.17260606,22.642075,21.37782051,17.81912195,295.92,296.72,295.26,297.32,296.28,295.28,0.9440000000000001,0.488,0.9,0.899,0.502,0.841,0.1,0.102,0.102,0.10300000000000001,0.10300000000000001,0.10300000000000001,1,3.973081773
53,1,0,1,0,1,0,1,1.391047619,1.8691764709999998,1.417666667,1.710515152,2.62745,2.141897436,82.88704762,82.39817647,76.643,76.80557576,70.51245,73.55076923,24.505238100000003,24.97091176,24.555761899999997,23.17260606,22.642075,21.37782051,296.92,295.92,296.72,295.26,297.32,296.28,0.752,0.9440000000000001,0.488,0.9,0.899,0.502,0.1,0.1,0.102,0.102,0.10300000000000001,0.10300000000000001,1,4.781045217
54,1,0,1,1,1,0,1,2.001783784,1.391047619,1.8691764709999998,1.417666667,1.710515152,2.62745,82.35824324,82.88704762,82.39817647,76.643,76.80557576,70.51245,23.52354054,24.505238100000003,24.97091176,24.555761899999997,23.17260606,22.642075,294.74,296.92,295.92,296.72,295.26,297.32,0.442,0.752,0.9440000000000001,0.488,0.9,0.899,0.1,0.1,0.1,0.102,0.102,0.10300000000000001,1,4.081210138
55,1,0,1,1,1,0,1,2.010823529,2.001783784,1.391047619,1.8691764709999998,1.417666667,1.710515152,76.51502941,82.35824324,82.88704762,82.39817647,76.643,76.80557576,23.98961765,23.52354054,24.505238100000003,24.97091176,24.555761899999997,23.17260606,298.04,294.74,296.92,295.92,296.72,295.26,0.841,0.442,0.752,0.9440000000000001,0.488,0.9,0.10400000000000001,0.1,0.1,0.1,0.102,0.102,1,3.231747155
56,1,0,1,1,1,0,1,2.0829,2.010823529,2.001783784,1.391047619,1.8691764709999998,1.417666667,80.9577,76.51502941,82.35824324,82.88704762,82.39817647,76.643,21.45645,23.98961765,23.52354054,24.505238100000003,24.97091176,24.555761899999997,295.42,298.04,294.74,296.92,295.92,296.72,0.715,0.841,0.442,0.752,0.9440000000000001,0.488,0.10400000000000001,0.10400000000000001,0.1,0.1,0.1,0.102,1,2.385110178
57,1,0,1,1,1,0,1,2.1459354840000002,2.0829,2.010823529,2.001783784,1.391047619,1.8691764709999998,75.30838709999999,80.9577,76.51502941,82.35824324,82.88704762,82.39817647,19.86393548,21.45645,23.98961765,23.52354054,24.505238100000003,24.97091176,295.04,295.42,298.04,294.74,296.92,295.92,0.8690000000000001,0.715,0.841,0.442,0.752,0.9440000000000001,0.10300000000000001,0.10400000000000001,0.10400000000000001,0.1,0.1,0.1,1,2.75360608
58,1,0,1,1,1,0,1,1.5501379309999999,2.1459354840000002,2.0829,2.010823529,2.001783784,1.391047619,77.82151724,75.30838709999999,80.9577,76.51502941,82.35824324,82.88704762,23.09255172,19.86393548,21.45645,23.98961765,23.52354054,24.505238100000003,295.08,295.04,295.42,298.04,294.74,296.92,0.892,0.8690000000000001,0.715,0.841,0.442,0.752,0.10300000000000001,0.10300000000000001,0.10400000000000001,0.10400000000000001,0.1,0.1,1,4.77956726
59,1,0,1,1,1,0,1,1.953702703,1.5501379309999999,2.1459354840000002,2.0829,2.010823529,2.001783784,84.70294595,77.82151724,75.30838709999999,80.9577,76.51502941,82.35824324,23.88916216,23.09255172,19.86393548,21.45645,23.98961765,23.52354054,297.98,295.08,295.04,295.42,298.04,294.74,0.91,0.892,0.8690000000000001,0.715,0.841,0.442,0.107,0.10300000000000001,0.10300000000000001,0.10400000000000001,0.10400000000000001,0.1,1,2.898250575
60,1,0,1,1,1,0,1,2.324978723,1.953702703,1.5501379309999999,2.1459354840000002,2.0829,2.010823529,82.75085106,84.70294595,77.82151724,75.30838709999999,80.9577,76.51502941,22.94502128,23.88916216,23.09255172,19.86393548,21.45645,23.98961765,297.36,297.98,295.08,295.04,295.42,298.04,0.738,0.91,0.892,0.8690000000000001,0.715,0.841,0.107,0.107,0.10300000000000001,0.10300000000000001,0.10400000000000001,0.10400000000000001,1,2.76665728
61,1,0,1,1,1,0,1,3.709533333,2.324978723,1.953702703,1.5501379309999999,2.1459354840000002,2.0829,77.80206667,82.75085106,84.70294595,77.82151724,75.30838709999999,80.9577,24.05006667,22.94502128,23.88916216,23.09255172,19.86393548,21.45645,296.34,297.36,297.98,295.08,295.04,295.42,0.26,0.738,0.91,0.892,0.8690000000000001,0.715,0.105,0.107,0.107,0.10300000000000001,0.10300000000000001,0.10400000000000001,1,6.083602239
62,1,0,1,1,1,0,1,2.03775,3.709533333,2.324978723,1.953702703,1.5501379309999999,2.1459354840000002,82.36995,77.80206667,82.75085106,84.70294595,77.82151724,75.30838709999999,22.760525,24.05006667,22.94502128,23.88916216,23.09255172,19.86393548,294.5,296.34,297.36,297.98,295.08,295.04,0.145,0.26,0.738,0.91,0.892,0.8690000000000001,0.105,0.105,0.107,0.107,0.10300000000000001,0.10300000000000001,1,2.5529825809999998
63,1,0,1,1,1,0,1,3.067310345,2.03775,3.709533333,2.324978723,1.953702703,1.5501379309999999,73.92196552,82.36995,77.80206667,82.75085106,84.70294595,77.82151724,12.67486207,22.760525,24.05006667,22.94502128,23.88916216,23.09255172,294.06,294.5,296.34,297.36,297.98,295.08,0.927,0.145,0.26,0.738,0.91,0.892,0.105,0.105,0.105,0.107,0.107,0.10300000000000001,1,2.032992713
64,0,0,0,1,1,0,1,1.958322581,3.067310345,2.03775,3.709533333,2.324978723,1.953702703,76.30241935,73.92196552,82.36995,77.80206667,82.75085106,84.70294595,22.30412903,12.67486207,22.760525,24.05006667,22.94502128,23.88916216,295.42,294.06,294.5,296.34,297.36,297.98,0.847,0.927,0.145,0.26,0.738,0.91,0.10400000000000001,0.105,0.105,0.105,0.107,0.107,1,3.104707715
65,0,0,0,1,1,0,1,1.651096774,1.958322581,3.067310345,2.03775,3.709533333,2.324978723,77.73412903,76.30241935,73.92196552,82.36995,77.80206667,82.75085106,22.76290323,22.30412903,12.67486207,22.760525,24.05006667,22.94502128,296.62,295.42,294.06,294.5,296.34,297.36,0.82,0.847,0.927,0.145,0.26,0.738,0.10400000000000001,0.10400000000000001,0.105,0.105,0.105,0.107,1,3.077915843
66,0,0,0,1,1,0,1,2.159352941,1.651096774,1.958322581,3.067310345,2.03775,3.709533333,79.35802941,77.73412903,76.30241935,73.92196552,82.36995,77.80206667,23.11605882,22.76290323,22.30412903,12.67486207,22.760525,24.05006667,292.6,296.62,295.42,294.06,294.5,296.34,0.177,0.82,0.847,0.927,0.145,0.26,0.105,0.10400000000000001,0.10400000000000001,0.105,0.105,0.105,1,3.198736458
67,0,0,0,1,1,0,1,2.407113636,2.159352941,1.651096774,1.958322581,3.067310345,2.03775,84.61336364,79.35802941,77.73412903,76.30241935,73.92196552,82.36995,22.67781818,23.11605882,22.76290323,22.30412903,12.67486207,22.760525,296.9,292.6,296.62,295.42,294.06,294.5,0.633,0.177,0.82,0.847,0.927,0.145,0.10300000000000001,0.105,0.10400000000000001,0.10400000000000001,0.105,0.105,1,2.670262064
68,0,0,0,1,1,0,1,2.5403404259999998,2.407113636,2.159352941,1.651096774,1.958322581,3.067310345,84.30063829999999,84.61336364,79.35802941,77.73412903,76.30241935,73.92196552,22.35378723,22.67781818,23.11605882,22.76290323,22.30412903,12.67486207,296.92,296.9,292.6,296.62,295.42,294.06,0.8490000000000001,0.633,0.177,0.82,0.847,0.927,0.10300000000000001,0.10300000000000001,0.105,0.10400000000000001,0.10400000000000001,0.105,1,2.578240494
69,0,0,0,1,1,0,1,2.066230769,2.5403404259999998,2.407113636,2.159352941,1.651096774,1.958322581,77.63084615,84.30063829999999,84.61336364,79.35802941,77.73412903,76.30241935,25.3075,22.35378723,22.67781818,23.11605882,22.76290323,22.30412903,297.78,296.92,296.9,292.6,296.62,295.42,0.86,0.8490000000000001,0.633,0.177,0.82,0.847,0.107,0.10300000000000001,0.10300000000000001,0.105,0.10400000000000001,0.10400000000000001,1,4.775314699
70,0,0,0,1,1,0,1,1.448769231,2.066230769,2.5403404259999998,2.407113636,2.159352941,1.651096774,80.24126923,77.63084615,84.30063829999999,84.61336364,79.35802941,77.73412903,24.165,25.3075,22.35378723,22.67781818,23.11605882,22.76290323,297.66,297.78,296.92,296.9,292.6,296.62,0.376,0.86,0.8490000000000001,0.633,0.177,0.82,0.10400000000000001,0.107,0.10300000000000001,0.10300000000000001,0.105,0.10400000000000001,1,3.747833472
71,0,0,0,1,1,0,1,3.062166667,1.448769231,2.066230769,2.5403404259999998,2.407113636,2.159352941,62.028375,80.24126923,77.63084615,84.30063829999999,84.61336364,79.35802941,18.71185417,24.165,25.3075,22.35378723,22.67781818,23.11605882,295.94,297.66,297.78,296.92,296.9,292.6,0.85,0.376,0.86,0.8490000000000001,0.633,0.177,0.10300000000000001,0.10400000000000001,0.107,0.10300000000000001,0.10300000000000001,0.105,1,3.105436938
72,0,0,0,1,1,0,1,1.9578285709999999,3.062166667,1.448769231,2.066230769,2.5403404259999998,2.407113636,69.88157143,62.028375,80.24126923,77.63084615,84.30063829999999,84.61336364,19.08254286,18.71185417,24.165,25.3075,22.35378723,22.67781818,294.94,295.94,297.66,297.78,296.92,296.9,0.853,0.85,0.376,0.86,0.8490000000000001,0.633,0.10400000000000001,0.10300000000000001,0.10400000000000001,0.107,0.10300000000000001,0.10300000000000001,1,4.191772612
73,0,0,0,1,1,0,1,1.9578285709999999,1.9578285709999999,3.062166667,1.448769231,2.066230769,2.5403404259999998,69.88157143,69.88157143,62.028375,80.24126923,77.63084615,84.30063829999999,19.08254286,19.08254286,18.71185417,24.165,25.3075,22.35378723,294.94,294.94,295.94,297.66,297.78,296.92,0.853,0.853,0.85,0.376,0.86,0.8490000000000001,0.10400000000000001,0.10400000000000001,0.10300000000000001,0.10400000000000001,0.107,0.10300000000000001,1,4.191772612
74,0,0,0,1,1,0,1,1.792954545,1.9578285709999999,1.9578285709999999,3.062166667,1.448769231,2.066230769,62.25436364,69.88157143,69.88157143,62.028375,80.24126923,77.63084615,23.38013636,19.08254286,19.08254286,18.71185417,24.165,25.3075,296.18,294.94,294.94,295.94,297.66,297.78,0.8420000000000001,0.853,0.853,0.85,0.376,0.86,0.105,0.10400000000000001,0.10400000000000001,0.10300000000000001,0.10400000000000001,0.107,1,6.248707002000001
75,0,0,0,1,1,0,1,2.190560976,1.792954545,1.9578285709999999,1.9578285709999999,3.062166667,1.448769231,81.33246341,62.25436364,69.88157143,69.88157143,62.028375,80.24126923,22.19480488,23.38013636,19.08254286,19.08254286,18.71185417,24.165,295.8,296.18,294.94,294.94,295.94,297.66,0.74,0.8420000000000001,0.853,0.853,0.85,0.376,0.10400000000000001,0.105,0.10400000000000001,0.10400000000000001,0.10300000000000001,0.10400000000000001,1,3.331729101
76,0,0,0,1,1,0,1,2.408186047,2.190560976,1.792954545,1.9578285709999999,1.9578285709999999,3.062166667,85.8585814,81.33246341,62.25436364,69.88157143,69.88157143,62.028375,22.58904651,22.19480488,23.38013636,19.08254286,19.08254286,18.71185417,287.02,295.8,296.18,294.94,294.94,295.94,0.639,0.74,0.8420000000000001,0.853,0.853,0.85,0.105,0.10400000000000001,0.105,0.10400000000000001,0.10400000000000001,0.10300000000000001,1,3.05585867
77,0,0,0,1,1,0,1,2.42825641,2.408186047,2.190560976,1.792954545,1.9578285709999999,1.9578285709999999,83.71789744,85.8585814,81.33246341,62.25436364,69.88157143,69.88157143,24.8464359,22.58904651,22.19480488,23.38013636,19.08254286,19.08254286,298.42,287.02,295.8,296.18,294.94,294.94,0.758,0.639,0.74,0.8420000000000001,0.853,0.853,0.102,0.105,0.10400000000000001,0.105,0.10400000000000001,0.10400000000000001,1,2.678575923
78,0,0,0,1,1,0,1,2.227805556,2.42825641,2.408186047,2.190560976,1.792954545,1.9578285709999999,80.49555556,83.71789744,85.8585814,81.33246341,62.25436364,69.88157143,25.68522222,24.8464359,22.58904651,22.19480488,23.38013636,19.08254286,295.8,298.42,287.02,295.8,296.18,294.94,0.72,0.758,0.639,0.74,0.8420000000000001,0.853,0.10300000000000001,0.102,0.105,0.10400000000000001,0.105,0.10400000000000001,1,4.04096029
79,0,0,0,1,1,0,1,2.51675,2.227805556,2.42825641,2.408186047,2.190560976,1.792954545,78.3741875,80.49555556,83.71789744,85.8585814,81.33246341,62.25436364,25.741,25.68522222,24.8464359,22.58904651,22.19480488,23.38013636,296.32,295.8,298.42,287.02,295.8,296.18,0.8320000000000001,0.72,0.758,0.639,0.74,0.8420000000000001,0.10400000000000001,0.10300000000000001,0.102,0.105,0.10400000000000001,0.105,1,4.807747743
80,0,0,0,1,1,0,1,2.701333333,2.51675,2.227805556,2.42825641,2.408186047,2.190560976,54.45204762,78.3741875,80.49555556,83.71789744,85.8585814,81.33246341,12.26995238,25.741,25.68522222,24.8464359,22.58904651,22.19480488,290.54,296.32,295.8,298.42,287.02,295.8,0.8959999999999999,0.8320000000000001,0.72,0.758,0.639,0.74,0.10300000000000001,0.10400000000000001,0.10300000000000001,0.102,0.105,0.10400000000000001,1,3.260283497
81,0,0,0,1,1,0,1,2.7653404260000003,2.701333333,2.51675,2.227805556,2.42825641,2.408186047,67.53989362,54.45204762,78.3741875,80.49555556,83.71789744,85.8585814,16.67829787,12.26995238,25.741,25.68522222,24.8464359,22.58904651,291.78,290.54,296.32,295.8,298.42,287.02,0.502,0.8959999999999999,0.8320000000000001,0.72,0.758,0.639,0.102,0.10300000000000001,0.10400000000000001,0.10300000000000001,0.102,0.105,1,2.493221718
82,0,0,1,0,1,0,1,1.967304348,2.7653404260000003,2.701333333,2.51675,2.227805556,2.42825641,63.32408696,67.53989362,54.45204762,78.3741875,80.49555556,83.71789744,22.48556522,16.67829787,12.26995238,25.741,25.68522222,24.8464359,290.14,291.78,290.54,296.32,295.8,298.42,0.32299999999999995,0.502,0.8959999999999999,0.8320000000000001,0.72,0.758,0.102,0.102,0.10300000000000001,0.10400000000000001,0.10300000000000001,0.102,1,4.758250594
83,0,0,1,0,1,0,1,3.143702703,1.967304348,2.7653404260000003,2.701333333,2.51675,2.227805556,73.74635135,63.32408696,67.53989362,54.45204762,78.3741875,80.49555556,23.00891892,22.48556522,16.67829787,12.26995238,25.741,25.68522222,297.9,290.14,291.78,290.54,296.32,295.8,0.853,0.32299999999999995,0.502,0.8959999999999999,0.8320000000000001,0.72,0.10400000000000001,0.102,0.102,0.10300000000000001,0.10400000000000001,0.10300000000000001,1,4.020503635
84,0,0,1,0,1,0,1,2.12225,3.143702703,1.967304348,2.7653404260000003,2.701333333,2.51675,88.891,73.74635135,63.32408696,67.53989362,54.45204762,78.3741875,24.50588889,23.00891892,22.48556522,16.67829787,12.26995238,25.741,297.56,297.9,290.14,291.78,290.54,296.32,0.654,0.853,0.32299999999999995,0.502,0.8959999999999999,0.8320000000000001,0.107,0.10400000000000001,0.102,0.102,0.10300000000000001,0.10400000000000001,1,2.041614613
85,0,0,1,0,1,0,1,3.472125,2.12225,3.143702703,1.967304348,2.7653404260000003,2.701333333,81.47897917,88.891,73.74635135,63.32408696,67.53989362,54.45204762,25.63408333,24.50588889,23.00891892,22.48556522,16.67829787,12.26995238,298.1,297.56,297.9,290.14,291.78,290.54,0.828,0.654,0.853,0.32299999999999995,0.502,0.8959999999999999,0.105,0.107,0.10400000000000001,0.102,0.102,0.10300000000000001,1,2.957337618
86,0,0,1,0,1,0,1,4.117636364,3.472125,2.12225,3.143702703,1.967304348,2.7653404260000003,86.20363636,81.47897917,88.891,73.74635135,63.32408696,67.53989362,25.47409091,25.63408333,24.50588889,23.00891892,22.48556522,16.67829787,291.5,298.1,297.56,297.9,290.14,291.78,0.621,0.828,0.654,0.853,0.32299999999999995,0.502,0.106,0.105,0.107,0.10400000000000001,0.102,0.102,1,1.535185695
87,0,0,1,0,1,0,1,4.117636364,4.117636364,3.472125,2.12225,3.143702703,1.967304348,86.20363636,86.20363636,81.47897917,88.891,73.74635135,63.32408696,25.47409091,25.47409091,25.63408333,24.50588889,23.00891892,22.48556522,291.5,291.5,298.1,297.56,297.9,290.14,0.621,0.621,0.828,0.654,0.853,0.32299999999999995,0.106,0.106,0.105,0.107,0.10400000000000001,0.102,1,1.535185695
88,0,0,1,0,1,0,1,2.62625,4.117636364,4.117636364,3.472125,2.12225,3.143702703,66.2294375,86.20363636,86.20363636,81.47897917,88.891,73.74635135,24.8998125,25.47409091,25.47409091,25.63408333,24.50588889,23.00891892,293.82,291.5,291.5,298.1,297.56,297.9,0.836,0.621,0.621,0.828,0.654,0.853,0.106,0.106,0.106,0.105,0.107,0.10400000000000001,1,5.7637369839999995
89,0,0,1,0,1,0,1,2.468047619,2.62625,4.117636364,4.117636364,3.472125,2.12225,73.93604762,66.2294375,86.20363636,86.20363636,81.47897917,88.891,23.90461905,24.8998125,25.47409091,25.47409091,25.63408333,24.50588889,292.28,293.82,291.5,291.5,298.1,297.56,0.62,0.836,0.621,0.621,0.828,0.654,0.106,0.106,0.106,0.106,0.105,0.107,1,5.698322704
90,0,0,1,0,1,0,1,2.201477273,2.468047619,2.62625,4.117636364,4.117636364,3.472125,79.28236364,73.93604762,66.2294375,86.20363636,86.20363636,81.47897917,24.13386364,23.90461905,24.8998125,25.47409091,25.47409091,25.63408333,298.24,292.28,293.82,291.5,291.5,298.1,0.83,0.62,0.836,0.621,0.621,0.828,0.106,0.106,0.106,0.106,0.106,0.105,1,3.478001508
91,0,0,1,0,1,0,1,2.0986129030000003,2.201477273,2.468047619,2.62625,4.117636364,4.117636364,89.96261290000001,79.28236364,73.93604762,66.2294375,86.20363636,86.20363636,25.826612899999997,24.13386364,23.90461905,24.8998125,25.47409091,25.47409091,300.22,298.24,292.28,293.82,291.5,291.5,0.804,0.83,0.62,0.836,0.621,0.621,0.102,0.106,0.106,0.106,0.106,0.106,1,3.1896922169999997
92,0,0,1,0,1,0,1,2.056941176,2.0986129030000003,2.201477273,2.468047619,2.62625,4.117636364,88.94123529,89.96261290000001,79.28236364,73.93604762,66.2294375,86.20363636,22.70432353,25.826612899999997,24.13386364,23.90461905,24.8998125,25.47409091,297.72,300.22,298.24,292.28,293.82,291.5,0.799,0.804,0.83,0.62,0.836,0.621,0.105,0.102,0.106,0.106,0.106,0.106,1,4.903546805
93,0,0,1,0,1,0,1,2.8410833330000003,2.056941176,2.0986129030000003,2.201477273,2.468047619,2.62625,55.10958333,88.94123529,89.96261290000001,79.28236364,73.93604762,66.2294375,19.83341667,22.70432353,25.826612899999997,24.13386364,23.90461905,24.8998125,294.14,297.72,300.22,298.24,292.28,293.82,0.795,0.799,0.804,0.83,0.62,0.836,0.102,0.105,0.102,0.106,0.106,0.106,1,4.272932678
94,0,0,1,0,1,0,1,2.954625,2.8410833330000003,2.056941176,2.0986129030000003,2.201477273,2.468047619,54.77620833,55.10958333,88.94123529,89.96261290000001,79.28236364,73.93604762,22.34658333,19.83341667,22.70432353,25.826612899999997,24.13386364,23.90461905,294.56,294.14,297.72,300.22,298.24,292.28,0.706,0.795,0.799,0.804,0.83,0.62,0.10400000000000001,0.102,0.105,0.102,0.106,0.106,1,6.485116295
95,0,0,1,0,1,0,1,2.958740741,2.954625,2.8410833330000003,2.056941176,2.0986129030000003,2.201477273,57.29322222,54.77620833,55.10958333,88.94123529,89.96261290000001,79.28236364,23.56314815,22.34658333,19.83341667,22.70432353,25.826612899999997,24.13386364,296.3,294.56,294.14,297.72,300.22,298.24,0.579,0.706,0.795,0.799,0.804,0.83,0.105,0.10400000000000001,0.102,0.105,0.102,0.106,1,5.939636209
96,0,0,1,0,1,0,1,2.068914286,2.958740741,2.954625,2.8410833330000003,2.056941176,2.0986129030000003,66.82674286,57.29322222,54.77620833,55.10958333,88.94123529,89.96261290000001,22.8332,23.56314815,22.34658333,19.83341667,22.70432353,25.826612899999997,299.48,296.3,294.56,294.14,297.72,300.22,0.861,0.579,0.706,0.795,0.799,0.804,0.105,0.105,0.10400000000000001,0.102,0.105,0.102,1,4.437197223
97,0,0,1,0,1,0,1,1.8166923080000001,2.068914286,2.958740741,2.954625,2.8410833330000003,2.056941176,63.61988462,66.82674286,57.29322222,54.77620833,55.10958333,88.94123529,24.22934615,22.8332,23.56314815,22.34658333,19.83341667,22.70432353,294.72,299.48,296.3,294.56,294.14,297.72,0.551,0.861,0.579,0.706,0.795,0.799,0.105,0.105,0.105,0.10400000000000001,0.102,0.105,1,4.8519249339999995
98,0,0,1,0,1,0,1,3.651741935,1.8166923080000001,2.068914286,2.958740741,2.954625,2.8410833330000003,68.0676129,63.61988462,66.82674286,57.29322222,54.77620833,55.10958333,25.24116129,24.22934615,22.8332,23.56314815,22.34658333,19.83341667,294.38,294.72,299.48,296.3,294.56,294.14,0.214,0.551,0.861,0.579,0.706,0.795,0.10400000000000001,0.105,0.105,0.105,0.10400000000000001,0.102,1,6.680827433999999
99,0,0,1,1,1,0,1,2.193722222,3.651741935,1.8166923080000001,2.068914286,2.958740741,2.954625,80.65016667,68.0676129,63.61988462,66.82674286,57.29322222,54.77620833,24.75622222,25.24116129,24.22934615,22.8332,23.56314815,22.34658333,298.24,294.38,294.72,299.48,296.3,294.56,0.8029999999999999,0.214,0.551,0.861,0.579,0.706,0.10099999999999999,0.10400000000000001,0.105,0.105,0.105,0.10400000000000001,1,3.6568772110000003
100,0,0,1,1,1,0,1,3.098682927,2.193722222,3.651741935,1.8166923080000001,2.068914286,2.958740741,77.98021951,80.65016667,68.0676129,63.61988462,66.82674286,57.29322222,24.81670732,24.75622222,25.24116129,24.22934615,22.8332,23.56314815,298.56,298.24,294.38,294.72,299.48,296.3,0.5379999999999999,0.8029999999999999,0.214,0.551,0.861,0.579,0.102,0.10099999999999999,0.10400000000000001,0.105,0.105,0.105,1,4.867860756000001
101,0,0,1,1,1,0,1,2.860075,3.098682927,2.193722222,3.651741935,1.8166923080000001,2.068914286,83.000025,77.98021951,80.65016667,68.0676129,63.61988462,66.82674286,25.308275,24.81670732,24.75622222,25.24116129,24.22934615,22.8332,299.4,298.56,298.24,294.38,294.72,299.48,0.8440000000000001,0.5379999999999999,0.8029999999999999,0.214,0.551,0.861,0.11,0.102,0.10099999999999999,0.10400000000000001,0.105,0.105,1,5.733422732
102,0,0,1,1,1,0,1,2.9159393939999996,2.860075,3.098682927,2.193722222,3.651741935,1.8166923080000001,84.34669697,83.000025,77.98021951,80.65016667,68.0676129,63.61988462,24.10290909,25.308275,24.81670732,24.75622222,25.24116129,24.22934615,296.74,299.4,298.56,298.24,294.38,294.72,0.8290000000000001,0.8440000000000001,0.5379999999999999,0.8029999999999999,0.214,0.551,0.111,0.11,0.102,0.10099999999999999,0.10400000000000001,0.105,1,6.9690823029999995
103,0,0,1,1,1,0,1,1.887088235,2.9159393939999996,2.860075,3.098682927,2.193722222,3.651741935,79.50820588,84.34669697,83.000025,77.98021951,80.65016667,68.0676129,24.17767647,24.10290909,25.308275,24.81670732,24.75622222,25.24116129,296.48,296.74,299.4,298.56,298.24,294.38,0.6829999999999999,0.8290000000000001,0.8440000000000001,0.5379999999999999,0.8029999999999999,0.214,0.11,0.111,0.11,0.102,0.10099999999999999,0.10400000000000001,1,4.849786794
104,0,0,1,1,1,0,1,2.0667,1.887088235,2.9159393939999996,2.860075,3.098682927,2.193722222,63.0469,79.50820588,84.34669697,83.000025,77.98021951,80.65016667,25.54643333,24.17767647,24.10290909,25.308275,24.81670732,24.75622222,299.42,296.48,296.74,299.4,298.56,298.24,0.8059999999999999,0.6829999999999999,0.8290000000000001,0.8440000000000001,0.5379999999999999,0.8029999999999999,0.10800000000000001,0.11,0.111,0.11,0.102,0.10099999999999999,1,6.811294117
105,0,0,1,1,1,0,1,2.24778125,2.0667,1.887088235,2.9159393939999996,2.860075,3.098682927,70.2124375,63.0469,79.50820588,84.34669697,83.000025,77.98021951,25.7554375,25.54643333,24.17767647,24.10290909,25.308275,24.81670732,299.18,299.42,296.48,296.74,299.4,298.56,0.809,0.8059999999999999,0.6829999999999999,0.8290000000000001,0.8440000000000001,0.5379999999999999,0.107,0.10800000000000001,0.11,0.111,0.11,0.102,1,6.485170095
106,0,0,1,1,1,0,1,1.852433333,2.24778125,2.0667,1.887088235,2.9159393939999996,2.860075,73.38513333,70.2124375,63.0469,79.50820588,84.34669697,83.000025,26.44903333,25.7554375,25.54643333,24.17767647,24.10290909,25.308275,299.56,299.18,299.42,296.48,296.74,299.4,0.794,0.809,0.8059999999999999,0.6829999999999999,0.8290000000000001,0.8440000000000001,0.10300000000000001,0.107,0.10800000000000001,0.11,0.111,0.11,1,6.2219094
107,0,0,1,1,1,0,1,2.634740741,1.852433333,2.24778125,2.0667,1.887088235,2.9159393939999996,78.26844444,73.38513333,70.2124375,63.0469,79.50820588,84.34669697,26.58555556,26.44903333,25.7554375,25.54643333,24.17767647,24.10290909,300.64,299.56,299.18,299.42,296.48,296.74,0.654,0.794,0.809,0.8059999999999999,0.6829999999999999,0.8290000000000001,0.105,0.10300000000000001,0.107,0.10800000000000001,0.11,0.111,1,7.196315459
108,0,0,1,1,1,0,1,3.671384615,2.634740741,1.852433333,2.24778125,2.0667,1.887088235,54.84007692,78.26844444,73.38513333,70.2124375,63.0469,79.50820588,22.99569231,26.58555556,26.44903333,25.7554375,25.54643333,24.17767647,295.38,300.64,299.56,299.18,299.42,296.48,0.711,0.654,0.794,0.809,0.8059999999999999,0.6829999999999999,0.106,0.105,0.10300000000000001,0.107,0.10800000000000001,0.11,1,3.914080745
109,0,0,1,1,1,0,1,2.3031111109999998,3.671384615,2.634740741,1.852433333,2.24778125,2.0667,66.53444444,54.84007692,78.26844444,73.38513333,70.2124375,63.0469,22.62763889,22.99569231,26.58555556,26.44903333,25.7554375,25.54643333,298.86,295.38,300.64,299.56,299.18,299.42,0.805,0.711,0.654,0.794,0.809,0.8059999999999999,0.10800000000000001,0.106,0.105,0.10300000000000001,0.107,0.10800000000000001,1,5.950489344
110,0,0,1,1,1,0,1,2.209727273,2.3031111109999998,3.671384615,2.634740741,1.852433333,2.24778125,70.59790909,66.53444444,54.84007692,78.26844444,73.38513333,70.2124375,24.82913636,22.62763889,22.99569231,26.58555556,26.44903333,25.7554375,297.94,298.86,295.38,300.64,299.56,299.18,0.818,0.805,0.711,0.654,0.794,0.809,0.10800000000000001,0.10800000000000001,0.106,0.105,0.10300000000000001,0.107,1,8.307520386
111,0,0,1,1,1,0,1,2.6341923080000003,2.209727273,2.3031111109999998,3.671384615,2.634740741,1.852433333,74.46984615,70.59790909,66.53444444,54.84007692,78.26844444,73.38513333,26.42526923,24.82913636,22.62763889,22.99569231,26.58555556,26.44903333,297.48,297.94,298.86,295.38,300.64,299.56,0.741,0.818,0.805,0.711,0.654,0.794,0.106,0.10800000000000001,0.10800000000000001,0.106,0.105,0.10300000000000001,1,7.284017924
112,0,0,1,1,1,0,1,3.663055556,2.6341923080000003,2.209727273,2.3031111109999998,3.671384615,2.634740741,65.10044444,74.46984615,70.59790909,66.53444444,54.84007692,78.26844444,28.60116667,26.42526923,24.82913636,22.62763889,22.99569231,26.58555556,299.12,297.48,297.94,298.86,295.38,300.64,0.7020000000000001,0.741,0.818,0.805,0.711,0.654,0.106,0.106,0.10800000000000001,0.10800000000000001,0.106,0.105,1,9.11391102
113,0,0,1,1,1,0,1,3.857416667,3.663055556,2.6341923080000003,2.209727273,2.3031111109999998,3.671384615,54.84433333,65.10044444,74.46984615,70.59790909,66.53444444,54.84007692,28.54083333,28.60116667,26.42526923,24.82913636,22.62763889,22.99569231,296.6,299.12,297.48,297.94,298.86,295.38,0.851,0.7020000000000001,0.741,0.818,0.805,0.711,0.113,0.106,0.106,0.10800000000000001,0.10800000000000001,0.106,1,10.62643997
114,0,0,1,1,1,0,1,2.454285714,3.857416667,3.663055556,2.6341923080000003,2.209727273,2.3031111109999998,59.07233333,54.84433333,65.10044444,74.46984615,70.59790909,66.53444444,25.53019048,28.54083333,28.60116667,26.42526923,24.82913636,22.62763889,299.82,296.6,299.12,297.48,297.94,298.86,0.374,0.851,0.7020000000000001,0.741,0.818,0.805,0.114,0.113,0.106,0.106,0.10800000000000001,0.10800000000000001,1,7.253508936
115,0,0,1,1,1,0,1,3.1206764710000003,2.454285714,3.857416667,3.663055556,2.6341923080000003,2.209727273,66.96808824,59.07233333,54.84433333,65.10044444,74.46984615,70.59790909,24.85002941,25.53019048,28.54083333,28.60116667,26.42526923,24.82913636,295.2,299.82,296.6,299.12,297.48,297.94,0.39899999999999997,0.374,0.851,0.7020000000000001,0.741,0.818,0.114,0.114,0.113,0.106,0.106,0.10800000000000001,1,6.453507711
116,0,0,1,1,1,0,1,2.391255814,3.1206764710000003,2.454285714,3.857416667,3.663055556,2.6341923080000003,77.37323256,66.96808824,59.07233333,54.84433333,65.10044444,74.46984615,24.76330233,24.85002941,25.53019048,28.54083333,28.60116667,26.42526923,296.78,295.2,299.82,296.6,299.12,297.48,0.522,0.39899999999999997,0.374,0.851,0.7020000000000001,0.741,0.114,0.114,0.114,0.113,0.106,0.106,1,4.148590191
117,0,1,0,0,1,0,1,3.005486486,2.391255814,3.1206764710000003,2.454285714,3.857416667,3.663055556,62.23340541,77.37323256,66.96808824,59.07233333,54.84433333,65.10044444,23.4102973,24.76330233,24.85002941,25.53019048,28.54083333,28.60116667,301.06,296.78,295.2,299.82,296.6,299.12,0.727,0.522,0.39899999999999997,0.374,0.851,0.7020000000000001,0.114,0.114,0.114,0.114,0.113,0.106,1,6.821244475
118,0,1,0,0,1,0,1,2.586818182,3.005486486,2.391255814,3.1206764710000003,2.454285714,3.857416667,72.17359091,62.23340541,77.37323256,66.96808824,59.07233333,54.84433333,23.78861364,23.4102973,24.76330233,24.85002941,25.53019048,28.54083333,299.12,301.06,296.78,295.2,299.82,296.6,0.414,0.727,0.522,0.39899999999999997,0.374,0.851,0.10300000000000001,0.114,0.114,0.114,0.114,0.113,1,5.0102835269999995
119,0,1,0,0,1,0,1,2.1900370369999997,2.586818182,3.005486486,2.391255814,3.1206764710000003,2.454285714,71.72611111,72.17359091,62.23340541,77.37323256,66.96808824,59.07233333,26.6992963,23.78861364,23.4102973,24.76330233,24.85002941,25.53019048,299.38,299.12,301.06,296.78,295.2,299.82,0.8029999999999999,0.414,0.727,0.522,0.39899999999999997,0.374,0.10300000000000001,0.10300000000000001,0.114,0.114,0.114,0.114,1,8.95349271
120,0,1,0,0,1,0,1,2.5836111109999997,2.1900370369999997,2.586818182,3.005486486,2.391255814,3.1206764710000003,58.44938889,71.72611111,72.17359091,62.23340541,77.37323256,66.96808824,29.56494444,26.6992963,23.78861364,23.4102973,24.76330233,24.85002941,299.82,299.38,299.12,301.06,296.78,295.2,0.8079999999999999,0.8029999999999999,0.414,0.727,0.522,0.39899999999999997,0.10300000000000001,0.10300000000000001,0.10300000000000001,0.114,0.114,0.114,1,9.843986729
121,0,1,0,0,1,0,1,2.173451613,2.5836111109999997,2.1900370369999997,2.586818182,3.005486486,2.391255814,63.30732258,58.44938889,71.72611111,72.17359091,62.23340541,77.37323256,26.43393548,29.56494444,26.6992963,23.78861364,23.4102973,24.76330233,300.32,299.82,299.38,299.12,301.06,296.78,0.887,0.8079999999999999,0.8029999999999999,0.414,0.727,0.522,0.10300000000000001,0.10300000000000001,0.10300000000000001,0.10300000000000001,0.114,0.114,1,7.811760825
122,0,1,0,0,1,0,1,2.173451613,2.173451613,2.5836111109999997,2.1900370369999997,2.586818182,3.005486486,63.30732258,63.30732258,58.44938889,71.72611111,72.17359091,62.23340541,26.43393548,26.43393548,29.56494444,26.6992963,23.78861364,23.4102973,300.32,300.32,299.82,299.38,299.12,301.06,0.887,0.887,0.8079999999999999,0.8029999999999999,0.414,0.727,0.10300000000000001,0.10300000000000001,0.10300000000000001,0.10300000000000001,0.10300000000000001,0.114,1,7.811760825
123,0,1,0,0,1,0,1,2.6659375,2.173451613,2.173451613,2.5836111109999997,2.1900370369999997,2.586818182,76.37147917,63.30732258,63.30732258,58.44938889,71.72611111,72.17359091,26.214375,26.43393548,26.43393548,29.56494444,26.6992963,23.78861364,300.6,300.32,300.32,299.82,299.38,299.12,0.531,0.887,0.887,0.8079999999999999,0.8029999999999999,0.414,0.10300000000000001,0.10300000000000001,0.10300000000000001,0.10300000000000001,0.10300000000000001,0.10300000000000001,1,4.337266566
124,0,1,0,0,1,0,1,2.5468666669999998,2.6659375,2.173451613,2.173451613,2.5836111109999997,2.1900370369999997,80.33226667,76.37147917,63.30732258,63.30732258,58.44938889,71.72611111,27.19213333,26.214375,26.43393548,26.43393548,29.56494444,26.6992963,297.08,300.6,300.32,300.32,299.82,299.38,0.8240000000000001,0.531,0.887,0.887,0.8079999999999999,0.8029999999999999,0.10300000000000001,0.10300000000000001,0.10300000000000001,0.10300000000000001,0.10300000000000001,0.10300000000000001,1,4.262089331
125,0,1,0,0,1,0,1,2.029833333,2.5468666669999998,2.6659375,2.173451613,2.173451613,2.5836111109999997,72.05583333,80.33226667,76.37147917,63.30732258,63.30732258,58.44938889,29.05041667,27.19213333,26.214375,26.43393548,26.43393548,29.56494444,303.82,297.08,300.6,300.32,300.32,299.82,0.7959999999999999,0.8240000000000001,0.531,0.887,0.887,0.8079999999999999,0.10400000000000001,0.10300000000000001,0.10300000000000001,0.10300000000000001,0.10300000000000001,0.10300000000000001,1,8.788118043999999
126,0,1,0,0,1,0,1,2.893138889,2.029833333,2.5468666669999998,2.6659375,2.173451613,2.173451613,82.36069444,72.05583333,80.33226667,76.37147917,63.30732258,63.30732258,28.91380556,29.05041667,27.19213333,26.214375,26.43393548,26.43393548,298.38,303.82,297.08,300.6,300.32,300.32,0.511,0.7959999999999999,0.8240000000000001,0.531,0.887,0.887,0.10400000000000001,0.10400000000000001,0.10300000000000001,0.10300000000000001,0.10300000000000001,0.10300000000000001,1,5.08430632
127,0,1,0,0,1,0,1,3.749541667,2.893138889,2.029833333,2.5468666669999998,2.6659375,2.173451613,79.40172917,82.36069444,72.05583333,80.33226667,76.37147917,63.30732258,27.85695833,28.91380556,29.05041667,27.19213333,26.214375,26.43393548,291.76,298.38,303.82,297.08,300.6,300.32,0.49200000000000005,0.511,0.7959999999999999,0.8240000000000001,0.531,0.887,0.10400000000000001,0.10400000000000001,0.10400000000000001,0.10300000000000001,0.10300000000000001,0.10300000000000001,1,4.697786955
128,0,1,0,0,1,0,1,2.349157895,3.749541667,2.893138889,2.029833333,2.5468666669999998,2.6659375,62.66042105,79.40172917,82.36069444,72.05583333,80.33226667,76.37147917,27.52310526,27.85695833,28.91380556,29.05041667,27.19213333,26.214375,301.52,291.76,298.38,303.82,297.08,300.6,0.8220000000000001,0.49200000000000005,0.511,0.7959999999999999,0.8240000000000001,0.531,0.10400000000000001,0.10400000000000001,0.10400000000000001,0.10400000000000001,0.10300000000000001,0.10300000000000001,1,4.861744731
129,0,1,0,0,1,0,1,2.394409091,2.349157895,3.749541667,2.893138889,2.029833333,2.5468666669999998,66.4915,62.66042105,79.40172917,82.36069444,72.05583333,80.33226667,24.34204545,27.52310526,27.85695833,28.91380556,29.05041667,27.19213333,298.34,301.52,291.76,298.38,303.82,297.08,0.581,0.8220000000000001,0.49200000000000005,0.511,0.7959999999999999,0.8240000000000001,0.105,0.10400000000000001,0.10400000000000001,0.10400000000000001,0.10400000000000001,0.10300000000000001,1,4.808650344
130,0,1,0,0,1,0,1,2.651583333,2.394409091,2.349157895,3.749541667,2.893138889,2.029833333,71.340625,66.4915,62.66042105,79.40172917,82.36069444,72.05583333,22.84120833,24.34204545,27.52310526,27.85695833,28.91380556,29.05041667,300.12,298.34,301.52,291.76,298.38,303.82,0.495,0.581,0.8220000000000001,0.49200000000000005,0.511,0.7959999999999999,0.106,0.105,0.10400000000000001,0.10400000000000001,0.10400000000000001,0.10400000000000001,1,5.554029775
131,0,1,0,0,1,0,1,2.75472093,2.651583333,2.394409091,2.349157895,3.749541667,2.893138889,78.53767442,71.340625,66.4915,62.66042105,79.40172917,82.36069444,28.44725581,22.84120833,24.34204545,27.52310526,27.85695833,28.91380556,300.58,300.12,298.34,301.52,291.76,298.38,0.718,0.495,0.581,0.8220000000000001,0.49200000000000005,0.511,0.10099999999999999,0.106,0.105,0.10400000000000001,0.10400000000000001,0.10400000000000001,1,5.1085563039999995
132,0,1,0,1,1,0,1,1.9837826090000001,2.75472093,2.651583333,2.394409091,2.349157895,3.749541667,74.15086957,78.53767442,71.340625,66.4915,62.66042105,79.40172917,27.84347826,28.44725581,22.84120833,24.34204545,27.52310526,27.85695833,301.62,300.58,300.12,298.34,301.52,291.76,0.7609999999999999,0.718,0.495,0.581,0.8220000000000001,0.49200000000000005,0.10800000000000001,0.10099999999999999,0.106,0.105,0.10400000000000001,0.10400000000000001,1,7.741241832999999
133,0,1,0,1,1,0,1,2.7498085110000003,1.9837826090000001,2.75472093,2.651583333,2.394409091,2.349157895,77.87770213,74.15086957,78.53767442,71.340625,66.4915,62.66042105,27.54425532,27.84347826,28.44725581,22.84120833,24.34204545,27.52310526,300.68,301.62,300.58,300.12,298.34,301.52,0.805,0.7609999999999999,0.718,0.495,0.581,0.8220000000000001,0.106,0.10800000000000001,0.10099999999999999,0.106,0.105,0.10400000000000001,1,5.221224682
134,0,1,0,1,1,0,1,2.902479167,2.7498085110000003,1.9837826090000001,2.75472093,2.651583333,2.394409091,75.265,77.87770213,74.15086957,78.53767442,71.340625,66.4915,27.92783333,27.54425532,27.84347826,28.44725581,22.84120833,24.34204545,298.58,300.68,301.62,300.58,300.12,298.34,0.644,0.805,0.7609999999999999,0.718,0.495,0.581,0.107,0.106,0.10800000000000001,0.10099999999999999,0.106,0.105,1,5.174668679
135,0,1,0,1,1,0,1,2.846878049,2.902479167,2.7498085110000003,1.9837826090000001,2.75472093,2.651583333,67.61217073,75.265,77.87770213,74.15086957,78.53767442,71.340625,28.2092439,27.92783333,27.54425532,27.84347826,28.44725581,22.84120833,298.24,298.58,300.68,301.62,300.58,300.12,0.249,0.644,0.805,0.7609999999999999,0.718,0.495,0.107,0.107,0.106,0.10800000000000001,0.10099999999999999,0.106,1,6.265822582
136,0,1,0,1,1,0,1,1.7490357140000001,2.846878049,2.902479167,2.7498085110000003,1.9837826090000001,2.75472093,74.96517857,67.61217073,75.265,77.87770213,74.15086957,78.53767442,27.89110714,28.2092439,27.92783333,27.54425532,27.84347826,28.44725581,298.08,298.24,298.58,300.68,301.62,300.58,0.9109999999999999,0.249,0.644,0.805,0.7609999999999999,0.718,0.107,0.107,0.107,0.106,0.10800000000000001,0.10099999999999999,1,7.989307505
137,0,1,0,1,1,0,1,2.45175,1.7490357140000001,2.846878049,2.902479167,2.7498085110000003,1.9837826090000001,76.828,74.96517857,67.61217073,75.265,77.87770213,74.15086957,27.2719,27.89110714,28.2092439,27.92783333,27.54425532,27.84347826,301.12,298.08,298.24,298.58,300.68,301.62,0.7759999999999999,0.9109999999999999,0.249,0.644,0.805,0.7609999999999999,0.107,0.107,0.107,0.107,0.106,0.10800000000000001,1,8.712929355
138,0,1,0,1,1,0,1,1.8055,2.45175,1.7490357140000001,2.846878049,2.902479167,2.7498085110000003,67.06691667,76.828,74.96517857,67.61217073,75.265,77.87770213,28.992125,27.2719,27.89110714,28.2092439,27.92783333,27.54425532,298.58,301.12,298.08,298.24,298.58,300.68,0.408,0.7759999999999999,0.9109999999999999,0.249,0.644,0.805,0.106,0.107,0.107,0.107,0.107,0.106,1,11.00923866
139,0,1,0,1,1,0,1,2.884575758,1.8055,2.45175,1.7490357140000001,2.846878049,2.902479167,79.24669697,67.06691667,76.828,74.96517857,67.61217073,75.265,28.0740303,28.992125,27.2719,27.89110714,28.2092439,27.92783333,302.34,298.58,301.12,298.08,298.24,298.58,0.66,0.408,0.7759999999999999,0.9109999999999999,0.249,0.644,0.10400000000000001,0.106,0.107,0.107,0.107,0.107,1,5.777464663
140,0,1,0,1,1,0,1,2.1657878790000002,2.884575758,1.8055,2.45175,1.7490357140000001,2.846878049,78.20963636,79.24669697,67.06691667,76.828,74.96517857,67.61217073,28.13869697,28.0740303,28.992125,27.2719,27.89110714,28.2092439,301.54,302.34,298.58,301.12,298.08,298.24,0.755,0.66,0.408,0.7759999999999999,0.9109999999999999,0.249,0.114,0.10400000000000001,0.106,0.107,0.107,0.107,1,7.133255846
141,0,1,0,1,1,0,1,2.009870968,2.1657878790000002,2.884575758,1.8055,2.45175,1.7490357140000001,72.31070968,78.20963636,79.24669697,67.06691667,76.828,74.96517857,29.11825806,28.13869697,28.0740303,28.992125,27.2719,27.89110714,303.46,301.54,302.34,298.58,301.12,298.08,0.8,0.755,0.66,0.408,0.7759999999999999,0.9109999999999999,0.11199999999999999,0.114,0.10400000000000001,0.106,0.107,0.107,1,8.752124538
142,0,1,0,1,1,0,1,2.443684211,2.009870968,2.1657878790000002,2.884575758,1.8055,2.45175,76.38089474,72.31070968,78.20963636,79.24669697,67.06691667,76.828,28.82605263,29.11825806,28.13869697,28.0740303,28.992125,27.2719,296.34,303.46,301.54,302.34,298.58,301.12,0.43200000000000005,0.8,0.755,0.66,0.408,0.7759999999999999,0.11,0.11199999999999999,0.114,0.10400000000000001,0.106,0.107,1,6.965882045
143,0,1,0,1,1,0,1,2.387311111,2.443684211,2.009870968,2.1657878790000002,2.884575758,1.8055,75.08244444,76.38089474,72.31070968,78.20963636,79.24669697,67.06691667,28.2578,28.82605263,29.11825806,28.13869697,28.0740303,28.992125,298.66,296.34,303.46,301.54,302.34,298.58,0.33799999999999997,0.43200000000000005,0.8,0.755,0.66,0.408,0.11199999999999999,0.11,0.11199999999999999,0.114,0.10400000000000001,0.106,1,6.4228736
144,0,1,1,0,1,0,1,1.740225806,2.387311111,2.443684211,2.009870968,2.1657878790000002,2.884575758,79.31458065,75.08244444,76.38089474,72.31070968,78.20963636,79.24669697,27.37951613,28.2578,28.82605263,29.11825806,28.13869697,28.0740303,303.18,298.66,296.34,303.46,301.54,302.34,0.7120000000000001,0.33799999999999997,0.43200000000000005,0.8,0.755,0.66,0.122,0.11199999999999999,0.11,0.11199999999999999,0.114,0.10400000000000001,1,8.632383003
145,0,1,1,0,1,0,1,2.505925,1.740225806,2.387311111,2.443684211,2.009870968,2.1657878790000002,80.333925,79.31458065,75.08244444,76.38089474,72.31070968,78.20963636,27.617675,27.37951613,28.2578,28.82605263,29.11825806,28.13869697,300.12,303.18,298.66,296.34,303.46,301.54,0.679,0.7120000000000001,0.33799999999999997,0.43200000000000005,0.8,0.755,0.12300000000000001,0.122,0.11199999999999999,0.11,0.11199999999999999,0.114,1,7.203277712999999
146,0,1,1,0,1,0,1,1.535096774,2.505925,1.740225806,2.387311111,2.443684211,2.009870968,77.02964516,80.333925,79.31458065,75.08244444,76.38089474,72.31070968,28.78970968,27.617675,27.37951613,28.2578,28.82605263,29.11825806,299.46,300.12,303.18,298.66,296.34,303.46,0.401,0.679,0.7120000000000001,0.33799999999999997,0.43200000000000005,0.8,0.105,0.12300000000000001,0.122,0.11199999999999999,0.11,0.11199999999999999,1,7.6138083729999995
147,0,1,1,0,1,0,1,1.96215,1.535096774,2.505925,1.740225806,2.387311111,2.443684211,74.332625,77.02964516,80.333925,79.31458065,75.08244444,76.38089474,29.032975,28.78970968,27.617675,27.37951613,28.2578,28.82605263,301.4,299.46,300.12,303.18,298.66,296.34,0.626,0.401,0.679,0.7120000000000001,0.33799999999999997,0.43200000000000005,0.109,0.105,0.12300000000000001,0.122,0.11199999999999999,0.11,1,6.681692854
148,0,1,1,0,1,0,1,1.525071429,1.96215,1.535096774,2.505925,1.740225806,2.387311111,77.87421429,74.332625,77.02964516,80.333925,79.31458065,75.08244444,28.94371429,29.032975,28.78970968,27.617675,27.37951613,28.2578,298.78,301.4,299.46,300.12,303.18,298.66,0.865,0.626,0.401,0.679,0.7120000000000001,0.33799999999999997,0.12300000000000001,0.109,0.105,0.12300000000000001,0.122,0.11199999999999999,1,6.108867984
149,0,1,1,0,1,0,1,1.4458333330000002,1.525071429,1.96215,1.535096774,2.505925,1.740225806,78.19225,77.87421429,74.332625,77.02964516,80.333925,79.31458065,28.37208333,28.94371429,29.032975,28.78970968,27.617675,27.37951613,301.48,298.78,301.4,299.46,300.12,303.18,0.722,0.865,0.626,0.401,0.679,0.7120000000000001,0.12300000000000001,0.12300000000000001,0.109,0.105,0.12300000000000001,0.122,1,1.898707765
150,0,1,1,0,1,0,1,2.052736842,1.4458333330000002,1.525071429,1.96215,1.535096774,2.505925,74.20744737,78.19225,77.87421429,74.332625,77.02964516,80.333925,28.54868421,28.37208333,28.94371429,29.032975,28.78970968,27.617675,301.48,301.48,298.78,301.4,299.46,300.12,0.721,0.722,0.865,0.626,0.401,0.679,0.12300000000000001,0.12300000000000001,0.12300000000000001,0.109,0.105,0.12300000000000001,1,6.567146266
151,0,1,1,0,1,0,1,1.587451613,2.052736842,1.4458333330000002,1.525071429,1.96215,1.535096774,75.95693548,74.20744737,78.19225,77.87421429,74.332625,77.02964516,28.81593548,28.54868421,28.37208333,28.94371429,29.032975,28.78970968,300.28,301.48,301.48,298.78,301.4,299.46,0.778,0.721,0.722,0.865,0.626,0.401,0.12300000000000001,0.12300000000000001,0.12300000000000001,0.12300000000000001,0.109,0.105,1,7.247842147999999
152,0,1,1,1,1,0,1,1.60804,1.587451613,2.052736842,1.4458333330000002,1.525071429,1.96215,68.00404,75.95693548,74.20744737,78.19225,77.87421429,74.332625,30.547040000000003,28.81593548,28.54868421,28.37208333,28.94371429,29.032975,302.1,300.28,301.48,301.48,298.78,301.4,1.0,0.778,0.721,0.722,0.865,0.626,0.125,0.12300000000000001,0.12300000000000001,0.12300000000000001,0.12300000000000001,0.109,1,9.152753809
153,0,1,1,1,1,0,1,1.7114666669999998,1.60804,1.587451613,2.052736842,1.4458333330000002,1.525071429,65.86903333,68.00404,75.95693548,74.20744737,78.19225,77.87421429,29.97686667,30.547040000000003,28.81593548,28.54868421,28.37208333,28.94371429,297.98,302.1,300.28,301.48,301.48,298.78,0.589,1.0,0.778,0.721,0.722,0.865,0.125,0.125,0.12300000000000001,0.12300000000000001,0.12300000000000001,0.12300000000000001,1,9.283782794
154,0,1,1,1,1,0,1,2.533142857,1.7114666669999998,1.60804,1.587451613,2.052736842,1.4458333330000002,77.13232143,65.86903333,68.00404,75.95693548,74.20744737,78.19225,28.07125,29.97686667,30.547040000000003,28.81593548,28.54868421,28.37208333,302.34,297.98,302.1,300.28,301.48,301.48,0.759,0.589,1.0,0.778,0.721,0.722,0.11900000000000001,0.125,0.125,0.12300000000000001,0.12300000000000001,0.12300000000000001,1,7.718753862000001
155,0,1,1,1,1,0,1,1.356514286,2.533142857,1.7114666669999998,1.60804,1.587451613,2.052736842,90.79571429,77.13232143,65.86903333,68.00404,75.95693548,74.20744737,26.21551429,28.07125,29.97686667,30.547040000000003,28.81593548,28.54868421,302.66,302.34,297.98,302.1,300.28,301.48,0.29100000000000004,0.759,0.589,1.0,0.778,0.721,0.131,0.11900000000000001,0.125,0.125,0.12300000000000001,0.12300000000000001,1,3.6382020330000002
