Error Metrics,Testing Scores
mean target,3.828159106660902
F1,0.7918220860442153
F2,0.7519214320039551
F05,0.8361946943928704
Precision,0.868646523020142
Recall,0.7274824198680025
R2,0.5491901555286975
Adjusted R2,0.5249955417509387
RMSE,1.4261370151616737
MSE,2.033866786014248
MAE,1.0600812298415625
MAPE,38.284746852211406
Accuracy,61.715253147788594
Pearson C.C.,0.7495574808039176
Spearman C.C.,0.7820445374831572
Spatial Distance,0.2504425191960824
NMI,0.991799205269477
AIC,683.6710662103636
BIC,683.6710662103636
Data Size train,3791.0
Data Size test,963.0
Training Time (seconds),34.18698573112488
Testing Time (seconds),0.6650400161743164
