Error Metrics,Testing Scores
mean target,3.756640841617097
F1,0.735682135320993
F2,0.7426592341281774
F05,0.7288349125767112
Precision,0.7243404710150495
Recall,0.7473846230898044
R2,0.5589426500013428
Adjusted R2,0.5440584832314157
RMSE,1.2923982639429314
MSE,1.6702932726427029
MAE,0.9678107792520134
MAPE,36.15607722853513
Accuracy,63.84392277146487
Pearson C.C.,0.7577565821131179
Spearman C.C.,0.7666616507819886
Spatial Distance,0.24224341788688197
NMI,0.9857415976352113
AIC,770.5248335040201
BIC,770.5248335040201
Data Size train,5951.0
Data Size test,1502.0
Training Time (seconds),40.46658253669739
Testing Time (seconds),0.661196231842041
