Total Number of rare cases: 158 out of 1661
Percentage of Rare Cases: 9.51%

number of rare in train: 126/1326
==> 9.502262443438914%%
number of rare in test: 32/335
==> 9.55223880597015%%

percentage of noisy one hot encoded: 12.361
fixing one hot encoded cols
The size of the original data is (1326, 51)
The size of the oversampled data is (1351, 51)

We dont have both We have only high rare
Total Number of rare cases: 154 out of 1351
Percentage of Rare Cases: 11.40%
