Error Metrics,Testing Scores
mean target,3.416304752104188
F1,0.85018028095047
F2,0.8712912797818836
F05,0.8300681013339795
Precision,0.8171804195521515
Recall,0.8859575405920503
R2,0.6320644620087403
Adjusted R2,0.5640924349099534
RMSE,0.9487320937700586
MSE,0.9000925857493193
MAE,0.7554008427020591
MAPE,34.443324396831464
Accuracy,65.55667560316854
Pearson C.C.,0.8506582404418898
Spearman C.C.,0.8219527241954164
Spatial Distance,0.14934175955811035
NMI,0.9923243359406434
AIC,-31.156263776652697
BIC,-31.156263776652697
Data Size train,1175.0
Data Size test,296.0
Training Time (seconds),10.225852727890015
Testing Time (seconds),0.5574185848236084
