For param {'n_trees': 100, 'max_depth': 7, 'learning_rate': 0.1}
 *************************FOLDS Average***************************** 

Utility Based Metrics Across All
F1:  0.7719546917627038
F2:  0.7721462740314701
F05: 0.7739701008708659
precision:  0.776469953315752
recall: 0.7736045825718177

Regression Error Metrics Across All
R2: 0.5416297572032099
Adj-R2: 0.5264104132229943
RMSE: 1.3541190804126582
MSE: 1.84655957712354
MAE: 1.0050472577766274
MAPE: 32.541983263027525

Correlations Across All
Pearson: 0.7615937340436625
Spearman: 0.7623230984425728
Distance: 0.2384062659563373
************************REPETITIONS Average*******************************

Utility Based Metrics Across All
F1:  0.7719546917627038
F2:  0.7721462740314701
F05: 0.7739701008708659
precision:  0.776469953315752
recall: 0.7736045825718177

Regression Error Metrics Across All
R2: 0.5416297572032099
Adj-R2: 0.5264104132229943
RMSE: 1.3541190804126582
MSE: 1.84655957712354
MAE: 1.0050472577766274
MAPE: 32.541983263027525

Correlations Across All
Pearson: 0.7615937340436625
Spearman: 0.7623230984425728
Distance: 0.2384062659563373
For param {'n_trees': 100, 'max_depth': 6, 'learning_rate': 0.1}
 *************************FOLDS Average***************************** 

Utility Based Metrics Across All
F1:  0.7724157708495228
F2:  0.7704016780699277
F05: 0.7764616662120252
precision:  0.7802568250181467
recall: 0.7702446750715154

Regression Error Metrics Across All
R2: 0.548192413996966
Adj-R2: 0.5331908458637076
RMSE: 1.3447422672614997
MSE: 1.8245070441340823
MAE: 1.0099667743378755
MAPE: 32.5477514548559

Correlations Across All
Pearson: 0.7666087124070977
Spearman: 0.7569543648048148
Distance: 0.23339128759290223
************************REPETITIONS Average*******************************

Utility Based Metrics Across All
F1:  0.7724157708495228
F2:  0.7704016780699277
F05: 0.7764616662120252
precision:  0.7802568250181467
recall: 0.7702446750715154

Regression Error Metrics Across All
R2: 0.548192413996966
Adj-R2: 0.5331908458637076
RMSE: 1.3447422672614997
MSE: 1.8245070441340823
MAE: 1.0099667743378755
MAPE: 32.5477514548559

Correlations Across All
Pearson: 0.7666087124070977
Spearman: 0.7569543648048148
Distance: 0.23339128759290223
