For param {'n_trees': 100, 'max_depth': 7, 'learning_rate': 0.1}
 *************************FOLDS Average***************************** 

Utility Based Metrics Across All
F1:  0.7514575075832648
F2:  0.735541893694468
F05: 0.7706609226759826
precision:  0.7856297392214949
recall: 0.726490206299412

Regression Error Metrics Across All
R2: 0.46287516509166904
Adj-R2: 0.4486873177832423
RMSE: 1.4664116469560908
MSE: 2.17209987800661
MAE: 1.104711455561564
MAPE: 36.67161353464288

Correlations Across All
Pearson: 0.7044065456408264
Spearman: 0.7091798194930625
Distance: 0.2955934543591743
************************REPETITIONS Average*******************************

Utility Based Metrics Across All
F1:  0.7514575075832648
F2:  0.735541893694468
F05: 0.7706609226759826
precision:  0.7856297392214949
recall: 0.726490206299412

Regression Error Metrics Across All
R2: 0.46287516509166904
Adj-R2: 0.4486873177832423
RMSE: 1.4664116469560908
MSE: 2.17209987800661
MAE: 1.104711455561564
MAPE: 36.67161353464288

Correlations Across All
Pearson: 0.7044065456408264
Spearman: 0.7091798194930625
Distance: 0.2955934543591743
For param {'n_trees': 100, 'max_depth': 6, 'learning_rate': 0.1}
 *************************FOLDS Average***************************** 

Utility Based Metrics Across All
F1:  0.7518507511834851
F2:  0.7346961566001603
F05: 0.7722330787791705
precision:  0.7878949028137439
recall: 0.7248339856987668

Regression Error Metrics Across All
R2: 0.46080909212720744
Adj-R2: 0.4465666312893367
RMSE: 1.4692356799682018
MSE: 2.1815569992751005
MAE: 1.1071601469918395
MAPE: 37.12615307052301

Correlations Across All
Pearson: 0.7038888116370771
Spearman: 0.7059407995519008
Distance: 0.2961111883629232
************************REPETITIONS Average*******************************

Utility Based Metrics Across All
F1:  0.7518507511834851
F2:  0.7346961566001603
F05: 0.7722330787791705
precision:  0.7878949028137439
recall: 0.7248339856987668

Regression Error Metrics Across All
R2: 0.46080909212720744
Adj-R2: 0.4465666312893367
RMSE: 1.4692356799682018
MSE: 2.1815569992751005
MAE: 1.1071601469918395
MAPE: 37.12615307052301

Correlations Across All
Pearson: 0.7038888116370771
Spearman: 0.7059407995519008
Distance: 0.2961111883629232
