Error Metrics,Validation Scores,Testing Scores
mean target,3.9934921654118654,3.9934921654118654
F1,0.44864911695177606,1.999967923654808e-05
F2,0.4422278116144048,4.999679251980714e-05
F05,0.45637234067990884,1.2499949880107766e-05
Precision,0.4623745899276518,1e-05
Recall,0.5778260965903999,0.6235024319845869
R2,0.5844045288415982,0.4906942833550526
Adjusted R2,0.5469071930979832,0.454901202243841
RMSE,1.3061082083454303,1.5125724098969326
MSE,1.756225375970936,2.2878752951814145
MAE,0.9364135052095233,1.1046770068243195
MAPE,29.517017375901844,33.32495520417973
Accuracy,70.48298262409814,66.67504479582027
Pearson C.C.,0.7748678714342109,0.703384238298874
Spearman C.C.,0.8002990459940577,0.7423744149377594
Spatial Distance,0.22513212856578937,0.296615761701126
NMI,0.9931709549047631,0.9974091371000714
AIC,291.2751865772355,605.8204519062122
BIC,291.2751865772355,605.8204519062122
Data Size train,-,2905.0
Data Size test,-,732.0
Training Time (seconds),-,17.927987813949585
Testing Time (seconds),-,0.6479642391204834
