For param {'n_trees': 100, 'max_depth': 7, 'learning_rate': 0.1}
 *************************FOLDS Average***************************** 

Utility Based Metrics Across All
F1:  0.14130005570015672
F2:  0.14596961228468996
F05: 0.1369237939347141
precision:  0.13415424846407875
recall: 0.28679432087363577

Regression Error Metrics Across All
R2: 0.28002080814641056
Adj-R2: -0.37663362033082565
RMSE: 0.7574830072917214
MSE: 0.5910583571403654
MAE: 0.58923184490741
MAPE: 27.70772748726655
Accuracy: 72.29227251273345
AIC: -56.870549816672145
BIC: -56.870549816672145
NMI: 0.9996909963591637

Correlations Across All
Pearson: 0.622087580979745
Spearman: 0.6525657032441329
Distance: 0.37791241902025485
************************REPETITIONS Average*******************************

Utility Based Metrics Across All
F1:  0.14130005570015672
F2:  0.14596961228468996
F05: 0.1369237939347141
precision:  0.13415424846407875
recall: 0.28679432087363577

Regression Error Metrics Across All
R2: 0.28002080814641056
Adj-R2: -0.37663362033082565
RMSE: 0.7574830072917214
MSE: 0.5910583571403654
MAE: 0.58923184490741
MAPE: 27.70772748726655
Accuracy: 72.29227251273345
AIC: -56.870549816672145
BIC: -56.870549816672145
NMI: 0.9996909963591637

Correlations Across All
Pearson: 0.622087580979745
Spearman: 0.6525657032441329
Distance: 0.37791241902025485
For param {'n_trees': 100, 'max_depth': 6, 'learning_rate': 0.1}
 *************************FOLDS Average***************************** 

Utility Based Metrics Across All
F1:  0.14321972290709098
F2:  0.14711490783567285
F05: 0.1395293945473399
precision:  0.1371734684664741
recall: 0.2897436281712717

Regression Error Metrics Across All
R2: 0.27578903151552164
Adj-R2: -0.3846045098623498
RMSE: 0.7558346424243918
MSE: 0.58294922444032
MAE: 0.5782836714854092
MAPE: 27.635293220259996
Accuracy: 72.36470677974
AIC: -56.38072168892563
BIC: -56.38072168892563
NMI: 0.9996871047476332

Correlations Across All
Pearson: 0.6326465219930538
Spearman: 0.6491157654592237
Distance: 0.3673534780069462
************************REPETITIONS Average*******************************

Utility Based Metrics Across All
F1:  0.14321972290709098
F2:  0.14711490783567285
F05: 0.1395293945473399
precision:  0.1371734684664741
recall: 0.2897436281712717

Regression Error Metrics Across All
R2: 0.27578903151552164
Adj-R2: -0.3846045098623498
RMSE: 0.7558346424243918
MSE: 0.58294922444032
MAE: 0.5782836714854092
MAPE: 27.635293220259996
Accuracy: 72.36470677974
AIC: -56.38072168892563
BIC: -56.38072168892563
NMI: 0.9996871047476332

Correlations Across All
Pearson: 0.6326465219930538
Spearman: 0.6491157654592237
Distance: 0.3673534780069462
