Error Metrics,Testing Scores
mean target,4.011720984883297
F1,0.7687771517217806
F2,0.7485284157515185
F05,0.7901518598145012
Precision,0.8050744604197496
Recall,0.7356116205972314
R2,0.47804318982683436
Adjusted R2,0.46415834525653843
RMSE,1.3506958762400585
MSE,1.8243793500918997
MAE,1.0404407043862562
MAPE,37.968374756824126
Accuracy,62.031625243175874
Pearson C.C.,0.7168005433453228
Spearman C.C.,0.7382510046194215
Spatial Distance,0.28319945665467716
NMI,0.9920982512165624
AIC,1137.5457906223544
BIC,1137.5457906223544
Data Size train,7536.0
Data Size test,1892.0
Training Time (seconds),52.24759793281555
Testing Time (seconds),0.6876089572906494
