For param {'n_trees': 100, 'max_depth': 7, 'learning_rate': 0.1}
 *************************FOLDS Average***************************** 

Utility Based Metrics Across All
F1:  0.7438593448994538
F2:  0.7289779869088623
F05: 0.7602179922098214
precision:  0.7720468444996496
recall: 0.719790313354219

Regression Error Metrics Across All
R2: 0.4837944730153344
Adj-R2: 0.46161058810448646
RMSE: 1.4212278284938298
MSE: 2.0683080239642426
MAE: 1.0351957313195457
MAPE: 34.53207039891603
Accuracy: 65.46792960108397
AIC: 808.6422874754454
BIC: 808.6422874754454
NMI: 0.9913704479353711

Correlations Across All
Pearson: 0.7198867640828118
Spearman: 0.7383623653848042
Distance: 0.2801132359171882
************************REPETITIONS Average*******************************

Utility Based Metrics Across All
F1:  0.7438593448994538
F2:  0.7289779869088623
F05: 0.7602179922098214
precision:  0.7720468444996496
recall: 0.719790313354219

Regression Error Metrics Across All
R2: 0.4837944730153344
Adj-R2: 0.46161058810448646
RMSE: 1.4212278284938298
MSE: 2.0683080239642426
MAE: 1.0351957313195457
MAPE: 34.53207039891603
Accuracy: 65.46792960108397
AIC: 808.6422874754454
BIC: 808.6422874754454
NMI: 0.9913704479353711

Correlations Across All
Pearson: 0.7198867640828118
Spearman: 0.7383623653848042
Distance: 0.2801132359171882
For param {'n_trees': 100, 'max_depth': 6, 'learning_rate': 0.1}
 *************************FOLDS Average***************************** 

Utility Based Metrics Across All
F1:  0.5797321176028667
F2:  0.5618958086049898
F05: 0.5997662204387859
precision:  0.6145457709211034
recall: 0.7030496568564784

Regression Error Metrics Across All
R2: 0.47952136756809927
Adj-R2: 0.4571537132482703
RMSE: 1.427612697812277
MSE: 2.0836345914082814
MAE: 1.0449493518242554
MAPE: 34.811302155148766
Accuracy: 65.18869784485123
AIC: 821.1596003237494
BIC: 821.1596003237494
NMI: 0.9881571798022222

Correlations Across All
Pearson: 0.7187404364643131
Spearman: 0.7380093113850696
Distance: 0.28125956353568704
************************REPETITIONS Average*******************************

Utility Based Metrics Across All
F1:  0.5797321176028667
F2:  0.5618958086049898
F05: 0.5997662204387859
precision:  0.6145457709211034
recall: 0.7030496568564784

Regression Error Metrics Across All
R2: 0.47952136756809927
Adj-R2: 0.4571537132482703
RMSE: 1.427612697812277
MSE: 2.0836345914082814
MAE: 1.0449493518242554
MAPE: 34.811302155148766
Accuracy: 65.18869784485123
AIC: 821.1596003237494
BIC: 821.1596003237494
NMI: 0.9881571798022222

Correlations Across All
Pearson: 0.7187404364643131
Spearman: 0.7380093113850696
Distance: 0.28125956353568704
