Error Metrics,Validation Scores,Testing Scores
mean target,3.756640841617097,3.756640841617097
F1,0.7438593448994538,0.7906137520040498
F2,0.7289779869088623,0.7669647803935812
F05,0.7602179922098214,0.8157675318040505
Precision,0.7720468444996496,0.8334451876525972
Recall,0.719790313354219,0.7519694230999562
R2,0.4837944730153344,0.5628057077502624
Adjusted R2,0.46161058810448646,0.5480519058768208
RMSE,1.4212278284938298,1.2867259977739591
MSE,2.0683080239642426,1.6556637933473908
MAE,1.0351957313195457,0.9612401633689751
MAPE,34.53207039891603,36.20745975112829
Accuracy,65.46792960108397,63.79254024887171
Pearson C.C.,0.7198867640828118,0.7583941509863016
Spearman C.C.,0.7383623653848042,0.7624444124613465
Spatial Distance,0.2801132359171882,0.24160584901369841
NMI,0.9913704479353711,0.9906784784643308
AIC,808.6422874754454,757.3114220391582
BIC,808.6422874754454,757.3114220391582
Data Size train,-,5951.0
Data Size test,-,1502.0
Training Time (seconds),-,28.627490997314453
Testing Time (seconds),-,0.6606540679931641
