Total Number of rare cases: 256 out of 2450
Percentage of Rare Cases: 10.45%

number of rare in train: 178/1705
==> 10.439882697947214%%
number of rare in test: 78/745
==> 10.46979865771812%%
The size of the original data is (1705, 40)
The size of the oversampled data is (1741, 40)
Total Number of rare cases: 218 out of 1741
Percentage of Rare Cases: 12.52%

The percentage of rare values in dataset after smogn are 12.521539345203905
Total Number of rare cases: 256 out of 2450
Percentage of Rare Cases: 10.45%

number of rare in train: 178/1705
==> 10.439882697947214%%
number of rare in test: 78/745
==> 10.46979865771812%%
The size of the original data is (1705, 40)
The size of the oversampled data is (1742, 40)
Total Number of rare cases: 224 out of 1742
Percentage of Rare Cases: 12.86%

The percentage of rare values in dataset after smogn are 12.85878300803674
Total Number of rare cases: 256 out of 2450
Percentage of Rare Cases: 10.45%

number of rare in train: 178/1705
==> 10.439882697947214%%
number of rare in test: 78/745
==> 10.46979865771812%%
The size of the original data is (1705, 40)
The size of the oversampled data is (1739, 40)
Total Number of rare cases: 208 out of 1739
Percentage of Rare Cases: 11.96%

The percentage of rare values in dataset after smogn are 11.960897067280046
