For param {'n_trees': 100, 'max_depth': 7, 'learning_rate': 0.1}
 *************************FOLDS Average***************************** 

Utility Based Metrics Across All
F1:  0.32212206907276725
F2:  0.3060779345531871
F05: 0.3404769507572699
precision:  0.35428095633359974
recall: 0.7271414459692523

Regression Error Metrics Across All
R2: 0.4918547355413863
Adj-R2: 0.4606047664205552
RMSE: 1.28451357160754
MSE: 1.663996701467457
MAE: 0.9497729127741019
MAPE: 32.86999623300691
Accuracy: 67.1300037669931
AIC: 416.8356198894131
BIC: 416.8356198894131
NMI: 0.9947641505774645

Correlations Across All
Pearson: 0.7214974714425487
Spearman: 0.7242194707541465
Distance: 0.2785025285574513
************************REPETITIONS Average*******************************

Utility Based Metrics Across All
F1:  0.32212206907276725
F2:  0.3060779345531871
F05: 0.3404769507572699
precision:  0.35428095633359974
recall: 0.7271414459692523

Regression Error Metrics Across All
R2: 0.4918547355413863
Adj-R2: 0.4606047664205552
RMSE: 1.28451357160754
MSE: 1.663996701467457
MAE: 0.9497729127741019
MAPE: 32.86999623300691
Accuracy: 67.1300037669931
AIC: 416.8356198894131
BIC: 416.8356198894131
NMI: 0.9947641505774645

Correlations Across All
Pearson: 0.7214974714425487
Spearman: 0.7242194707541465
Distance: 0.2785025285574513
For param {'n_trees': 100, 'max_depth': 6, 'learning_rate': 0.1}
 *************************FOLDS Average***************************** 

Utility Based Metrics Across All
F1:  0.15052688396772668
F2:  0.15458120765577515
F05: 0.14669543160838794
precision:  0.1442493626043934
recall: 0.731850247892959

Regression Error Metrics Across All
R2: 0.5072536766683238
Adj-R2: 0.47695142039150723
RMSE: 1.2675616348567182
MSE: 1.6157401633288355
MAE: 0.943513489707008
MAPE: 32.7529949641786
Accuracy: 67.24700503582142
AIC: 396.89445678733375
BIC: 396.89445678733375
NMI: 0.9904492118479219

Correlations Across All
Pearson: 0.7316378567779755
Spearman: 0.7360023965097725
Distance: 0.26836214322202434
************************REPETITIONS Average*******************************

Utility Based Metrics Across All
F1:  0.15052688396772668
F2:  0.15458120765577515
F05: 0.14669543160838794
precision:  0.1442493626043934
recall: 0.731850247892959

Regression Error Metrics Across All
R2: 0.5072536766683238
Adj-R2: 0.47695142039150723
RMSE: 1.2675616348567182
MSE: 1.6157401633288355
MAE: 0.943513489707008
MAPE: 32.7529949641786
Accuracy: 67.24700503582142
AIC: 396.89445678733375
BIC: 396.89445678733375
NMI: 0.9904492118479219

Correlations Across All
Pearson: 0.7316378567779755
Spearman: 0.7360023965097725
Distance: 0.26836214322202434
