,Site_6,Month_1,Month_2,Month_3,Month_4,Vegetation_1,Vegetation_2,Vegetation_3,TA,TA-1,TA-2,TA-3,TA-4,TA-5,Site_0,Site_1,Site_2,Site_3,Site_4,Site_5,LE_bowen_corr_mm
0,0,0,1,1,1,0,1,0,18.3804375,18.88212766,21.55208511,22.52164583,21.07280851,21.07280851,0,0,0,1,0,1,2.75413903
1,0,1,0,0,1,0,1,0,21.27242553,21.24938298,21.24938298,21.07272917,21.07272917,21.70716667,0,0,0,1,0,1,3.164427995
2,0,1,0,0,1,0,1,0,17.51547917,18.76695745,19.19357447,19.65238298,20.41014583,20.33054167,0,0,0,1,0,1,2.890298959
3,0,0,1,0,0,0,1,0,22.18704651,18.34975,15.95047917,16.19375,15.27688889,15.4578,0,0,0,1,0,1,5.091253879
4,0,1,0,0,0,0,1,0,17.75293478,18.26197917,17.99187234,17.240375,18.12429787,17.963,0,0,0,1,0,1,3.904767322
5,0,1,0,0,1,0,1,0,17.02629545,17.02629545,21.37973913,19.33908571,18.82929268,19.76630303,0,0,0,1,0,1,3.794083548
6,0,1,0,0,1,0,1,0,19.23727083,21.50952083,19.383375,20.21845833,20.61443243,19.79221277,0,0,0,1,0,1,1.667445267
7,0,1,0,0,0,0,1,0,20.255375,21.34830435,21.49221739,21.21668889,20.03931915,19.07585106,0,0,0,1,0,1,3.931653269
8,0,1,0,0,0,0,1,0,19.76630303,17.520209299999998,22.28895,17.45225,17.9084375,17.9125,0,0,0,1,0,1,5.041360395
9,0,1,0,1,0,0,1,0,14.54033333,15.63419149,15.386175,19.986,19.06261111,17.99165,0,0,0,1,0,1,1.797532879
10,0,0,1,1,0,0,1,0,18.67530556,18.67530556,20.29077143,21.75743478,18.54276087,18.073,0,0,0,1,0,1,3.8293927539999997
11,0,1,0,0,0,0,1,0,18.5682766,19.44153333,16.71435417,17.02420833,17.75293478,18.26197917,0,0,0,1,0,1,4.248774723
12,0,0,1,1,0,0,1,0,20.29077143,21.75743478,18.54276087,18.073,20.604375,20.36791667,0,0,0,1,0,1,3.80238389
13,0,1,0,1,1,0,1,0,18.98486957,18.90366667,16.18147619,15.04389189,15.69590909,16.23508333,0,0,0,1,0,1,1.9384507830000002
14,0,1,0,1,0,0,1,0,18.30902273,18.89551282,17.39297561,19.65302273,22.0585,22.0585,0,0,0,1,0,1,2.1859028080000003
15,0,0,1,0,0,0,1,0,15.27688889,15.4578,15.08013043,17.49634615,15.15905,14.51591304,0,0,0,1,0,1,4.38833698
16,0,1,0,1,0,0,1,0,15.55168889,17.99081081,18.28678125,17.168,17.168,21.45163636,0,0,0,1,0,1,1.239429965
17,0,1,0,0,1,0,1,0,18.7871875,19.12454167,19.23727083,21.50952083,19.383375,20.21845833,0,0,0,1,0,1,1.7026994519999998
18,0,1,0,1,0,0,1,0,21.70788,21.70788,20.30969444,18.30902273,18.89551282,17.39297561,0,0,0,1,0,1,2.42482343
19,0,0,1,1,0,0,1,0,22.65308511,21.32948936,22.965225,20.20642857,18.67530556,18.67530556,0,0,0,1,0,1,3.76933722
20,0,1,0,1,1,0,1,0,18.73545,18.73545,18.98486957,18.90366667,16.18147619,15.04389189,0,0,0,1,0,1,1.622209005
21,0,0,1,1,1,0,1,0,18.93970833,19.4466875,22.00872917,18.55152083,18.3065,16.90625,0,0,0,1,0,1,2.656657516
22,0,1,0,0,0,0,1,0,20.42727083,19.03522917,19.72247917,20.13052083,20.13052083,20.79138298,0,0,0,1,0,1,3.686655028
23,0,1,0,0,1,0,1,0,20.75914894,19.81560417,18.37627083,17.85322727,16.49320833,16.49320833,0,0,0,1,0,1,1.8343787059999999
24,0,0,1,0,1,0,1,0,16.55146154,15.75002083,17.44744681,18.46986364,19.2377,16.96123404,0,0,0,1,0,1,4.961468725
25,0,0,1,1,1,0,1,0,17.42184375,16.17622917,18.33957447,19.43466667,19.18766667,18.58263636,0,0,0,1,0,1,6.383676328
26,0,0,1,1,1,0,1,0,18.55152083,18.3065,16.90625,17.44264583,19.57170833,20.83,0,0,0,1,0,1,2.369515662
27,0,0,1,1,0,0,1,0,16.9431875,16.53297917,18.08264583,22.398125,22.03158333,18.91970833,0,0,0,1,0,1,2.206209842
28,0,1,0,1,0,0,1,0,20.79615385,22.87582609,19.65968182,18.98195833,20.4596,22.42265217,0,0,0,1,0,1,2.9444166939999996
29,0,0,1,1,0,0,1,0,22.92995455,22.56829167,21.69927083,21.5891875,23.28239583,20.21577083,0,0,0,1,0,1,3.990401502
30,0,0,1,0,1,0,1,0,18.4005625,16.1908125,18.26522727,20.7266875,20.62666667,20.62666667,0,0,0,1,0,1,2.90494111
31,0,1,0,1,0,0,1,0,14.80611628,16.986520000000002,16.986520000000002,16.27582927,21.70788,21.70788,0,0,0,1,0,1,1.066778204
32,0,1,0,1,0,0,1,0,18.06528205,19.64366667,19.64366667,20.79615385,22.87582609,19.65968182,0,0,0,1,0,1,2.161877125
33,0,0,0,0,1,0,1,0,15.74525,15.38642105,14.70924,14.70924,15.37735714,15.68263636,0,0,0,1,0,1,1.8746842609999999
34,0,0,1,0,1,0,1,0,17.86975,16.56852083,17.87741667,22.99616667,22.221418600000003,21.9288125,0,0,0,1,0,1,2.6938351060000003
35,0,1,0,0,0,0,1,0,21.15629167,20.1445625,19.89320833,19.89320833,22.079375,19.92127083,0,0,0,1,0,1,2.5915073719999997
36,0,1,0,1,0,0,1,0,21.13770213,21.14044828,19.30661905,17.864,20.4361087,19.7464375,0,0,0,1,0,1,2.843040193
37,0,1,0,0,0,0,1,0,20.1418125,18.98054167,18.42861702,18.44420833,17.84133333,17.22654167,0,0,0,1,0,1,1.765363288
38,0,1,0,0,0,0,1,0,21.65161905,21.9319375,23.21439583,19.496125,20.83404167,21.0638125,0,0,0,1,0,1,2.007394548
39,0,0,1,1,1,0,1,0,19.440375,19.440375,19.60661702,18.4639375,20.45416,17.73444681,0,0,0,1,0,1,3.567823645
40,0,0,1,1,1,0,1,0,17.34697917,19.86760417,21.27779167,19.2459375,19.2459375,18.57538298,0,0,0,1,0,1,2.2028342469999997
41,0,0,1,1,0,0,1,0,17.501625,15.24227083,20.0565625,22.07861702,22.860875,21.94102083,0,0,0,1,0,1,3.841341538
42,0,1,0,1,0,0,1,0,14.73708696,18.44722222,20.27504,19.14334091,19.42428571,22.15826829,0,0,0,1,0,1,3.240472529
43,0,0,1,1,0,0,1,0,22.40533333,18.6528913,20.60789362,21.32410714,22.95884615,21.57508696,0,0,0,1,0,1,6.228225055
44,0,0,1,1,1,0,1,0,18.75452083,18.17575,19.440375,19.440375,19.60661702,18.4639375,0,0,0,1,0,1,3.352597706
45,0,1,0,0,1,0,1,0,17.02629545,21.37973913,19.33908571,18.82929268,19.76630303,17.520209299999998,0,0,0,1,0,1,3.794083548
46,0,0,1,1,1,0,1,0,20.68686486,20.68686486,20.90462069,19.32210811,18.75452083,18.17575,0,0,0,1,0,1,3.466747916
47,0,0,1,1,1,0,1,0,20.60955319,20.70133333,19.78687234,19.6681875,22.6586875,22.6586875,0,0,0,1,0,1,3.7033155730000002
48,0,0,1,1,1,0,1,0,18.4639375,20.45416,17.73444681,16.87272917,19.07295833,19.07295833,0,0,0,1,0,1,3.218194291
49,0,0,1,0,0,0,1,0,15.69641667,20.45206522,21.65658824,20.35592308,20.68593548,19.18603333,0,0,0,1,0,1,2.846094149
50,0,0,1,0,1,0,1,0,17.89197143,17.42436842,15.20260417,14.50129167,18.26585417,23.25502326,0,0,0,1,0,1,3.422752547
51,0,1,0,1,0,0,1,0,17.99081081,18.28678125,17.168,17.168,21.45163636,18.49084444,0,0,0,1,0,1,1.5526965030000002
52,0,1,0,1,0,0,1,0,18.38365625,17.40009677,16.41525,18.713,18.713,15.54281579,0,0,0,1,0,1,3.4298853360000003
53,0,0,1,0,1,0,1,0,15.75002083,17.44744681,18.46986364,19.2377,16.96123404,14.32168085,0,0,0,1,0,1,3.4368239689999998
54,0,1,0,0,0,0,1,0,20.79138298,18.72372917,19.01216667,19.26120833,19.26120833,20.255375,0,0,0,1,0,1,3.7449048960000004
55,0,1,0,0,0,0,1,0,21.97959574,20.20384091,21.5279375,21.5279375,23.051,19.97595652,0,0,0,1,0,1,2.145525477
56,0,0,1,1,0,0,1,0,20.0053125,17.80325,21.12809756,19.31545652,19.31545652,14.12483333,0,0,0,1,0,1,3.077580673
57,0,1,0,0,0,0,1,0,18.12429787,17.963,18.581125,18.76444681,18.65820833,18.4041875,0,0,0,1,0,1,4.378840728
58,0,1,0,0,0,0,1,0,20.13052083,20.13052083,20.79138298,18.72372917,19.01216667,19.26120833,0,0,0,1,0,1,3.48836803
59,0,0,0,1,1,0,1,0,18.51,18.51,20.54791667,22.63958333,23.075,20.90416667,0,0,0,1,0,1,4.929483017
60,0,0,1,1,0,0,1,0,15.70591667,16.9578125,16.9578125,20.5294375,18.36839583,18.36839583,0,0,0,1,0,1,2.4339100019999997
61,0,0,1,1,1,0,1,0,19.2085,19.2085,22.95927083,22.84765217,22.84765217,20.61277083,0,0,0,1,0,1,2.901662635
62,0,0,1,0,1,0,1,0,16.96123404,14.32168085,17.31441463,17.31441463,19.51094872,18.59483333,0,0,0,1,0,1,3.4906052069999998
63,0,1,0,0,0,0,1,0,22.59073913,21.24330952,18.24974419,17.26202083,19.49504167,19.03343478,0,0,0,1,0,1,2.680017025
64,0,0,1,0,1,0,1,0,15.68225,16.3920625,17.0866875,20.68193617,20.68193617,20.49030303,0,0,0,1,0,1,2.97288415
65,0,1,0,0,0,0,1,0,19.1562766,20.36493617,21.34755556,19.87463043,18.82614894,18.82614894,0,0,0,1,0,1,2.187559836
66,0,1,0,0,0,0,1,0,20.39902128,20.29410638,20.92695745,21.515,22.747125,19.5829,0,0,0,1,0,1,2.497371874
67,0,0,1,0,1,0,1,0,14.86282979,16.16579167,19.62667391,19.73074468,18.01210417,14.61847917,0,0,0,1,0,1,3.5080372860000004
68,0,0,1,1,1,0,1,0,20.86284091,21.28808511,21.99645714,21.65046667,19.53551724,19.592175,0,0,0,1,0,1,4.154750718
69,0,1,0,0,0,0,1,0,21.21668889,20.03931915,19.07585106,20.59604255,19.13344681,20.27974468,0,0,0,1,0,1,4.1189670839999994
70,0,1,0,0,0,0,1,0,17.26202083,19.49504167,19.03343478,19.93095833,20.62445652,20.29841667,0,0,0,1,0,1,1.663889884
71,0,0,1,0,0,0,1,0,15.353,15.69641667,20.45206522,21.65658824,20.35592308,20.68593548,0,0,0,1,0,1,2.553836156
72,0,0,1,1,0,0,1,0,21.32948936,22.965225,20.20642857,18.67530556,18.67530556,20.29077143,0,0,0,1,0,1,3.483464249
73,0,0,1,1,1,0,1,0,17.37877083,18.98653191,21.03029167,21.03029167,19.78791892,19.460825,0,0,0,1,0,1,3.6527842489999998
74,0,1,0,0,0,0,1,0,18.82614894,18.82614894,18.30760417,18.30760417,18.99616667,18.99616667,0,0,0,1,0,1,2.345638891
75,0,0,1,1,0,0,1,0,18.41126667,19.97916667,21.2024359,19.03904444,20.79960526,21.32584444,0,0,0,1,0,1,4.8526641260000005
76,0,1,0,0,0,0,1,0,17.9084375,17.9125,17.95080435,17.6525,19.274125,17.60189583,0,0,0,1,0,1,4.487668536
77,0,0,1,0,0,0,1,0,21.9288125,19.63934043,16.399,15.353,15.69641667,20.45206522,0,0,0,1,0,1,4.474700681
78,0,0,1,0,1,0,1,0,19.2377,16.96123404,14.32168085,17.31441463,17.31441463,19.51094872,0,0,0,1,0,1,5.539841357999999
79,0,0,0,1,1,0,1,0,19.76321739,17.89211538,16.86471429,16.28589474,14.731,19.59444444,0,0,0,1,0,1,3.9387751239999997
80,0,0,1,1,0,0,1,0,16.53297917,18.08264583,22.398125,22.03158333,18.91970833,19.04589583,0,0,0,1,0,1,2.2112566769999997
81,0,0,1,0,1,0,1,0,14.44727083,14.15153333,17.1471,19.51905556,14.26718182,14.54033333,0,0,0,1,0,1,4.211132118
82,0,0,1,0,1,0,1,0,16.93676744,16.55146154,16.55146154,15.75002083,17.44744681,18.46986364,0,0,0,1,0,1,3.6968796210000003
83,0,1,0,0,0,0,1,0,20.38808333,20.60952083,21.40566667,22.70528889,21.54365217,21.03918605,0,0,0,1,0,1,2.443595798
84,0,0,1,1,1,0,1,0,19.56637209,20.69729167,22.29053488,21.41637778,19.63514583,21.12802083,0,0,0,1,0,1,3.224642158
85,0,0,1,0,1,0,1,0,20.18585417,20.18585417,19.20169565,19.36972093,18.0905,20.95282222,0,0,0,1,0,1,3.2881875160000003
86,0,1,0,1,0,0,1,0,22.42265217,21.13770213,21.14044828,19.30661905,17.864,20.4361087,0,0,0,1,0,1,3.226768357
87,0,0,1,1,0,0,1,0,20.21577083,18.81729167,19.6097234,17.501625,15.24227083,20.0565625,0,0,0,1,0,1,4.213165591
88,0,0,1,1,1,0,1,0,19.18766667,18.58263636,17.37877083,18.98653191,21.03029167,21.03029167,0,0,0,1,0,1,4.018496533
89,0,1,0,0,1,0,1,0,21.50952083,19.383375,20.21845833,20.61443243,19.79221277,19.19852083,0,0,0,1,0,1,2.011803869
90,0,0,1,1,1,0,1,0,20.86284091,20.86284091,21.28808511,21.99645714,21.65046667,19.53551724,0,0,0,1,0,1,4.154750718
91,0,0,1,1,1,0,1,0,20.69729167,22.29053488,21.41637778,19.63514583,21.12802083,19.74675,0,0,0,1,0,1,2.9998452110000002
92,0,1,0,1,1,0,1,0,14.70924,14.70924,15.37735714,15.68263636,17.07936364,18.29795745,0,0,0,1,0,1,1.751320129
93,0,0,1,0,0,0,1,0,16.19375,15.27688889,15.4578,15.08013043,17.49634615,15.15905,0,0,0,1,0,1,5.137248681
94,0,0,1,1,0,0,1,0,21.2024359,19.03904444,20.79960526,21.32584444,22.57147917,19.1028125,0,0,0,1,0,1,4.760329281000001
95,0,0,1,0,0,0,1,0,17.77116667,14.7533,19.30946809,17.69175,20.33408889,18.59520833,0,0,0,1,0,1,4.582434364
96,0,0,1,0,0,0,1,0,16.892125,17.04454167,22.05344737,17.77116667,14.7533,19.30946809,0,0,0,1,0,1,3.324482572
97,0,0,1,1,1,0,1,0,20.68686486,20.90462069,19.32210811,18.75452083,18.17575,19.440375,0,0,0,1,0,1,3.466747916
98,0,1,0,0,0,0,1,0,17.22654167,21.65161905,21.9319375,23.21439583,19.496125,20.83404167,0,0,0,1,0,1,1.334706025
99,0,0,1,1,1,0,1,0,21.03029167,19.78791892,19.460825,20.68686486,20.68686486,20.90462069,0,0,0,1,0,1,4.579688674
100,0,1,0,0,1,0,1,0,20.17547826,20.17547826,21.11766667,21.11766667,18.331,18.33989583,0,0,0,1,0,1,2.293525149
101,0,1,0,1,0,0,1,0,20.27504,19.14334091,19.42428571,22.15826829,22.71521739,20.565,0,0,0,1,0,1,3.2339966739999997
102,0,0,1,1,1,0,1,0,21.90847826,20.23722222,19.39991667,21.81308333,21.04266667,19.7137234,0,0,0,1,0,1,3.562428965
103,0,1,0,0,1,0,1,0,19.30946809,17.69175,20.33408889,18.59520833,18.82541667,18.51433333,0,0,0,1,0,1,1.5322336019999998
104,0,1,0,0,1,0,1,0,20.86887234,20.251375,22.51777419,21.74095652,22.01030435,22.26025532,0,0,0,1,0,1,1.69858968
105,0,1,0,1,0,0,1,0,22.87582609,19.65968182,18.98195833,20.4596,22.42265217,21.13770213,0,0,0,1,0,1,3.917028797
106,0,1,0,0,0,0,1,0,17.99187234,17.240375,18.12429787,17.963,18.581125,18.76444681,0,0,0,1,0,1,3.917281473
107,0,1,0,1,0,0,1,0,16.18811628,18.38365625,17.40009677,16.41525,18.713,18.713,0,0,0,1,0,1,2.333022152
108,0,0,1,1,0,0,1,0,21.65046667,19.53551724,19.592175,19.86708571,18.92322727,20.40508889,0,0,0,1,0,1,1.945579966
109,0,1,0,0,1,0,1,0,21.74095652,22.01030435,22.26025532,21.97959574,21.97959574,20.20384091,0,0,0,1,0,1,1.967646257
110,0,0,1,0,0,0,1,0,14.71202083,14.71202083,16.892125,17.04454167,22.05344737,17.77116667,0,0,0,1,0,1,2.976107368
111,0,1,0,0,1,0,1,0,21.02917778,19.62857576,18.30783333,18.30783333,21.88793333,22.46407692,0,0,0,1,0,1,2.3155563580000003
112,0,0,1,1,0,0,1,0,20.36189362,21.1863125,18.22910638,16.659875,16.113125,16.112625,0,0,0,1,0,1,3.3276117889999997
113,0,1,0,0,0,0,1,0,22.46407692,22.59073913,21.24330952,18.24974419,17.26202083,19.49504167,0,0,0,1,0,1,2.4910142000000004
114,0,1,0,0,0,0,1,0,20.36493617,21.34755556,19.87463043,18.82614894,18.82614894,18.30760417,0,0,0,1,0,1,2.621197624
115,0,1,0,0,0,0,1,0,22.85352273,20.42727083,19.03522917,19.72247917,20.13052083,20.13052083,0,0,0,1,0,1,4.3800939130000005
116,0,0,1,1,1,0,1,0,23.0650625,23.032375,20.490625,19.83539583,18.7783125,17.61472917,0,0,0,1,0,1,3.049968456
117,0,1,0,0,0,0,1,0,21.91084783,22.85352273,20.42727083,19.03522917,19.72247917,20.13052083,0,0,0,1,0,1,3.7688818580000003
118,0,0,1,1,1,0,1,0,21.04008333,21.90847826,20.23722222,19.39991667,21.81308333,21.04266667,0,0,0,1,0,1,3.360063508
119,0,0,1,1,1,0,1,0,17.61472917,18.65883333,18.93970833,19.4466875,22.00872917,18.55152083,0,0,0,1,0,1,2.327589917
120,0,0,1,1,0,0,1,0,23.28239583,20.21577083,18.81729167,19.6097234,17.501625,15.24227083,0,0,0,1,0,1,4.211655432
121,0,0,1,1,0,0,1,0,22.79802381,22.79802381,20.08217391,21.0902381,18.67640476,16.8275,0,0,0,1,0,1,4.842815446
122,0,0,1,1,0,0,1,0,17.96308333,21.31672917,19.6470625,22.79802381,22.79802381,20.08217391,0,0,0,1,0,1,3.0358071239999997
123,0,1,0,0,1,0,1,0,19.18688235,19.34080435,20.21154762,18.63714583,17.01285106,20.46573077,0,0,0,1,0,1,4.424090837
124,0,0,1,1,1,0,1,0,21.07280851,21.04008333,21.04008333,21.90847826,20.23722222,19.39991667,0,0,0,1,0,1,3.587509271
125,0,1,0,0,1,0,1,0,20.61443243,19.79221277,19.19852083,18.80754167,18.37241667,18.06425,0,0,0,1,0,1,2.575415773
126,0,0,1,1,0,0,1,0,22.63870833,21.17468293,19.1189,18.66046341,17.92859574,19.05490625,0,0,0,1,0,1,5.126359123
127,0,1,0,1,0,0,1,0,18.98195833,20.4596,22.42265217,21.13770213,21.14044828,19.30661905,0,0,0,1,0,1,2.494993269
128,0,1,0,0,1,0,1,0,21.691625,19.10357447,17.51547917,17.51547917,18.76695745,19.19357447,0,0,0,1,0,1,3.75365394
129,0,0,0,1,1,0,1,0,14.62607143,19.76321739,19.76321739,17.89211538,16.86471429,16.28589474,0,0,0,1,0,1,3.1836245969999997
130,0,1,0,0,0,0,1,0,17.411625,18.5682766,19.44153333,16.71435417,17.02420833,17.75293478,0,0,0,1,0,1,3.889066164
131,0,0,1,0,1,0,1,0,22.03158333,18.91970833,19.04589583,18.20273913,17.89197143,17.42436842,0,0,0,1,0,1,3.606525361
132,0,0,1,1,1,0,1,0,17.44883333,17.34697917,19.86760417,21.27779167,19.2459375,19.2459375,0,0,0,1,0,1,1.998855649
133,0,1,0,1,0,0,1,0,21.5494,18.79846429,18.38493548,14.73708696,18.44722222,20.27504,0,0,0,1,0,1,3.359662852
134,0,1,0,0,1,0,1,0,16.49320833,17.02864583,18.7871875,19.12454167,19.23727083,21.50952083,0,0,0,1,0,1,1.376624804
135,0,0,1,1,1,0,1,0,19.60661702,18.4639375,20.45416,17.73444681,16.87272917,19.07295833,0,0,0,1,0,1,3.637801718
136,0,1,0,0,1,0,1,0,21.24938298,21.24938298,21.07272917,21.07272917,21.70716667,22.51575,0,0,0,1,0,1,3.4671027480000003
137,0,0,1,1,0,0,1,0,18.1020625,16.9431875,16.53297917,18.08264583,22.398125,22.03158333,0,0,0,1,0,1,2.41699761
138,0,1,0,1,1,0,1,0,16.86471429,16.28589474,14.731,19.59444444,16.186325,17.97610256,0,0,0,1,0,1,1.60502382
139,0,1,0,0,0,0,1,0,21.6226875,23.0650625,23.032375,20.490625,19.83539583,18.7783125,0,0,0,1,0,1,2.728553255
140,0,0,1,0,1,0,1,0,17.1697234,18.585875,18.585875,21.45314634,23.28811111,21.79817949,0,0,0,1,0,1,3.51212086
141,0,0,1,1,1,0,1,0,22.84765217,20.61277083,20.61277083,21.17520833,23.20470833,20.912,0,0,0,1,0,1,3.889430403
142,0,0,1,0,0,0,1,0,16.399,15.353,15.69641667,20.45206522,21.65658824,20.35592308,0,0,0,1,0,1,2.888377353
143,0,1,0,0,1,0,1,0,18.51433333,20.75914894,19.81560417,18.37627083,17.85322727,16.49320833,0,0,0,1,0,1,1.4259266769999999
144,0,0,1,1,1,0,1,0,18.87041667,18.3804375,18.3804375,18.88212766,21.55208511,22.52164583,0,0,0,1,0,1,2.93653758
145,0,1,0,1,0,0,1,0,17.168,17.168,21.45163636,18.49084444,20.19128571,21.5494,0,0,0,1,0,1,1.073666119
146,0,0,1,0,1,0,1,0,17.46914583,18.6708125,19.4246875,18.72129167,20.82320833,19.25131111,0,0,0,1,0,1,4.01035606
147,0,1,0,0,0,0,1,0,19.03522917,19.72247917,20.13052083,20.13052083,20.79138298,18.72372917,0,0,0,1,0,1,3.1966013369999997
148,0,0,1,1,1,0,1,0,22.29053488,21.41637778,19.63514583,21.12802083,19.74675,20.36189362,0,0,0,1,0,1,3.761415567
149,0,1,0,0,1,0,1,0,22.0585,22.0585,19.979875,18.197,16.90595556,16.90595556,0,0,0,1,0,1,2.300456026
150,0,1,0,0,0,0,1,0,23.051,19.97595652,18.94752083,19.412,21.10520833,23.19174194,0,0,0,1,0,1,2.371436177
151,0,0,1,1,0,0,1,0,21.32410714,22.95884615,21.57508696,17.51575,19.46936364,20.21572917,0,0,0,1,0,1,2.4134207869999997
152,0,1,0,0,1,0,1,0,21.24938298,21.07272917,21.07272917,21.70716667,22.51575,23.31797826,0,0,0,1,0,1,3.4671027480000003
153,0,1,0,0,1,0,1,0,19.65238298,20.41014583,20.33054167,20.8347234,21.91084783,22.85352273,0,0,0,1,0,1,3.169905491
154,0,0,1,0,1,0,1,0,15.4466875,16.93676744,16.55146154,16.55146154,15.75002083,17.44744681,0,0,0,1,0,1,2.805328585
155,0,0,1,1,1,0,1,0,21.9319375,23.21439583,19.496125,20.83404167,21.0638125,20.68966667,0,0,0,1,0,1,2.279387157
156,0,1,0,0,1,0,1,0,19.62857576,18.30783333,18.30783333,21.88793333,22.46407692,22.59073913,0,0,0,1,0,1,2.435236742
157,0,0,1,1,0,0,1,0,20.62044186,18.41126667,19.97916667,21.2024359,19.03904444,20.79960526,0,0,0,1,0,1,4.207103377
158,0,0,1,0,1,0,1,0,21.45314634,23.28811111,21.79817949,17.52381395,17.52381395,14.86282979,0,0,0,1,0,1,4.44574908
159,0,1,0,0,0,0,1,0,18.32151064,18.32151064,17.8168913,20.38808333,20.38808333,20.60952083,0,0,0,1,0,1,2.016325358
160,0,1,0,0,0,0,1,0,19.26120833,19.26120833,20.255375,21.34830435,21.49221739,21.21668889,0,0,0,1,0,1,3.412240469
161,0,0,0,1,1,0,1,0,15.15905,14.51591304,15.74525,15.38642105,14.70924,14.70924,0,0,0,1,0,1,1.480966356
162,0,0,1,1,0,0,1,0,19.05490625,17.18379545,14.44727083,14.15153333,17.1471,19.51905556,0,0,0,1,0,1,5.581594161
163,0,0,1,1,1,0,1,0,20.83,19.2085,19.2085,22.95927083,22.84765217,22.84765217,0,0,0,1,0,1,3.643751375
164,0,1,0,1,1,0,1,0,17.07936364,18.29795745,17.3825625,15.55168889,17.99081081,18.28678125,0,0,0,1,0,1,2.657346263
165,0,0,1,0,1,0,1,0,17.0866875,20.68193617,20.68193617,20.49030303,16.2409375,14.63172917,0,0,0,1,0,1,3.307627215
166,0,1,0,0,1,0,1,0,19.12454167,19.23727083,21.50952083,19.383375,20.21845833,20.61443243,0,0,0,1,0,1,1.7599017280000002
167,0,0,1,1,1,0,1,0,19.2085,22.95927083,22.84765217,22.84765217,20.61277083,20.61277083,0,0,0,1,0,1,2.901662635
168,0,0,1,1,1,0,1,0,22.52164583,21.07280851,21.07280851,21.04008333,21.04008333,21.90847826,0,0,0,1,0,1,3.715999568
169,0,0,1,0,1,0,1,0,22.202125,20.18585417,20.18585417,19.20169565,19.36972093,18.0905,0,0,0,1,0,1,3.65720752
170,0,0,1,1,0,0,1,0,19.7137234,20.67097917,21.5398913,20.08153333,21.37186667,22.65308511,0,0,0,1,0,1,2.994107793
171,0,0,1,1,1,0,1,0,22.84765217,22.84765217,20.61277083,20.61277083,21.17520833,23.20470833,0,0,0,1,0,1,3.889430403
172,0,0,1,1,0,0,1,0,20.0565625,22.07861702,22.860875,21.94102083,20.18108511,19.50705714,0,0,0,1,0,1,4.122580247
173,0,0,1,0,0,0,1,0,17.46544444,15.88172727,15.116375,15.08247826,15.02858065,14.58702941,0,0,0,1,0,1,5.291038142
174,0,0,1,1,1,0,1,0,22.47870833,22.47870833,21.82993617,20.62044186,18.41126667,19.97916667,0,0,0,1,0,1,4.026265931
175,0,0,1,1,0,0,1,0,21.32584444,22.57147917,19.1028125,21.273000000000003,22.63870833,21.17468293,0,0,0,1,0,1,4.847560479
176,0,1,0,0,0,0,1,0,19.61114583,19.40504444,19.1562766,20.36493617,21.34755556,19.87463043,0,0,0,1,0,1,2.400810222
177,0,0,1,1,0,0,1,0,22.965225,20.20642857,18.67530556,18.67530556,20.29077143,21.75743478,0,0,0,1,0,1,4.354771643
178,0,0,1,0,0,0,1,0,21.02071429,23.00942857,22.18704651,18.34975,15.95047917,16.19375,0,0,0,1,0,1,5.448774436
179,0,1,0,1,0,0,1,0,21.70788,20.30969444,18.30902273,18.89551282,17.39297561,19.65302273,0,0,0,1,0,1,2.42482343
180,0,0,1,1,1,0,1,0,18.99616667,19.77608333,19.77608333,21.04602128,21.92769565,22.80327778,0,0,0,1,0,1,2.179740233
181,0,0,1,1,0,0,1,0,18.67530556,20.29077143,21.75743478,18.54276087,18.073,20.604375,0,0,0,1,0,1,3.8293927539999997
182,0,1,0,0,1,0,1,0,19.7464375,20.43765217,21.27242553,21.24938298,21.24938298,21.07272917,0,0,0,1,0,1,2.711751025
183,0,1,0,0,1,0,1,0,18.37241667,18.06425,20.09961702,21.02917778,19.62857576,18.30783333,0,0,0,1,0,1,1.8208097140000001
184,0,0,1,1,0,0,1,0,21.37186667,22.65308511,21.32948936,22.965225,20.20642857,18.67530556,0,0,0,1,0,1,3.1036446210000004
185,0,0,0,1,1,0,1,0,16.00267857,14.31333333,18.64366667,18.51,18.51,20.54791667,0,0,0,1,0,1,5.055372226999999
186,0,0,1,1,1,0,1,0,18.4041875,18.43237778,17.42184375,16.17622917,18.33957447,19.43466667,0,0,0,1,0,1,4.055832037
187,0,0,1,1,1,0,1,0,21.0638125,20.68966667,19.77379167,17.44883333,17.34697917,19.86760417,0,0,0,1,0,1,2.301397311
188,0,1,0,0,1,0,1,0,16.90595556,19.79259091,20.78356757,18.049,19.70734783,22.37975758,0,0,0,1,0,1,2.106718393
189,0,0,1,0,1,0,1,0,19.36972093,18.0905,20.95282222,18.97451111,15.77189583,16.817375,0,0,0,1,0,1,3.432841976
190,0,0,1,1,1,0,1,0,20.61277083,20.61277083,21.17520833,23.20470833,20.912,19.56637209,0,0,0,1,0,1,3.129737707
191,0,1,0,0,0,0,1,0,19.44153333,16.71435417,17.02420833,17.75293478,18.26197917,17.99187234,0,0,0,1,0,1,3.689380327
192,0,0,1,1,1,0,1,0,19.2459375,18.57538298,21.400625,23.2473125,20.28014583,19.596375,0,0,0,1,0,1,2.2206357469999998
193,0,0,1,1,1,0,1,0,20.28014583,19.596375,19.82654167,22.54839583,22.23075,23.130125,0,0,0,1,0,1,2.5202017480000003
194,0,0,1,1,0,0,1,0,18.22910638,16.659875,16.113125,16.112625,15.70591667,16.9578125,0,0,0,1,0,1,3.3648964410000004
195,0,1,0,1,0,0,1,0,17.40009677,16.41525,18.713,18.713,15.54281579,17.52755263,0,0,0,1,0,1,3.4051807569999997
196,0,0,1,0,1,0,1,0,20.62666667,20.62666667,20.323125,17.86975,16.56852083,17.87741667,0,0,0,1,0,1,3.047293653
197,0,0,1,0,1,0,1,0,20.18108511,19.50705714,16.00908696,16.532975,16.10233333,14.46102174,0,0,0,1,0,1,3.983697767
198,0,1,0,0,1,0,1,0,20.09961702,21.02917778,19.62857576,18.30783333,18.30783333,21.88793333,0,0,0,1,0,1,2.1076511140000003
199,0,0,1,1,0,0,1,0,21.75743478,18.54276087,18.073,20.604375,20.36791667,18.55183333,0,0,0,1,0,1,3.4122687999999997
200,0,0,1,0,1,0,1,0,16.83929167,17.1697234,18.585875,18.585875,21.45314634,23.28811111,0,0,0,1,0,1,3.2603960969999997
201,0,1,0,0,1,0,1,0,19.81560417,18.37627083,17.85322727,16.49320833,16.49320833,17.02864583,0,0,0,1,0,1,1.739319395
202,0,1,0,0,0,0,1,0,19.06877083,20.55680556,20.89284091,20.39902128,20.29410638,20.92695745,0,0,0,1,0,1,2.089624328
203,0,0,1,1,1,0,1,0,22.00872917,18.55152083,18.3065,16.90625,17.44264583,19.57170833,0,0,0,1,0,1,3.4926691080000003
204,0,0,1,1,0,0,1,0,15.24227083,20.0565625,22.07861702,22.860875,21.94102083,20.18108511,0,0,0,1,0,1,3.464401154
205,0,0,1,1,0,0,1,0,16.113125,16.112625,15.70591667,16.9578125,16.9578125,20.5294375,0,0,0,1,0,1,2.75868672
206,0,1,0,1,1,0,1,0,18.90366667,16.18147619,15.04389189,15.69590909,16.23508333,18.51274286,0,0,0,1,0,1,2.061870094
207,0,0,1,0,1,0,1,0,18.585875,18.585875,21.45314634,23.28811111,21.79817949,17.52381395,0,0,0,1,0,1,5.092499919
208,0,0,1,1,0,0,1,0,19.97916667,21.2024359,19.03904444,20.79960526,21.32584444,22.57147917,0,0,0,1,0,1,3.9169338519999997
209,0,0,1,1,0,0,1,0,20.41806383,18.43223913,17.54247826,23.16623333,19.47242553,20.8596875,0,0,0,1,0,1,3.398830626
210,0,1,0,1,0,0,1,0,18.89551282,17.39297561,19.65302273,22.0585,22.0585,19.979875,0,0,0,1,0,1,1.907407749
211,0,1,0,0,1,0,1,0,19.65302273,22.0585,22.0585,19.979875,18.197,16.90595556,0,0,0,1,0,1,1.586354228
212,0,1,0,1,0,0,1,0,20.19128571,21.5494,18.79846429,18.38493548,14.73708696,18.44722222,0,0,0,1,0,1,2.072826284
213,0,1,0,0,1,0,1,0,16.49320833,16.49320833,17.02864583,18.7871875,19.12454167,19.23727083,0,0,0,1,0,1,1.376624804
214,0,1,0,0,1,0,1,0,21.07272917,21.70716667,22.51575,23.31797826,21.691625,19.10357447,0,0,0,1,0,1,3.2293253980000003
215,0,1,0,0,0,0,1,0,21.88793333,22.46407692,22.59073913,21.24330952,18.24974419,17.26202083,0,0,0,1,0,1,2.517957464
216,0,0,1,0,1,0,1,0,23.28811111,21.79817949,17.52381395,17.52381395,14.86282979,16.16579167,0,0,0,1,0,1,5.82498774
217,0,1,0,0,0,0,1,0,18.32151064,17.8168913,20.38808333,20.38808333,20.60952083,21.40566667,0,0,0,1,0,1,2.016325358
218,0,1,0,0,0,0,0,1,20.71395833,19.92934043,19.11360417,19.16447917,18.91708333,18.91708333,0,0,1,0,1,1,5.414446234
219,0,1,0,0,0,0,0,1,19.31663043,19.76017391,20.19508511,18.57914583,17.83339583,18.4066875,0,0,1,0,1,1,7.29150785
220,0,1,0,0,0,0,0,1,19.51346809,17.73626087,18.06357447,18.72026087,19.34413043,18.65670833,0,0,1,0,1,1,6.149504952999999
221,0,0,1,1,1,0,0,1,17.1595,21.45193478,19.75969565,19.75969565,19.31217391,17.89941304,0,0,1,0,1,1,6.733544652999999
222,0,0,1,0,1,0,0,1,16.19131915,14.73234681,14.11014565,20.75910638,20.859125,20.49766667,0,0,1,0,1,1,3.1313378060000003
223,0,0,1,1,1,0,0,1,21.40591489,19.8402766,20.76995652,22.29176596,18.9993913,14.3123617,0,0,1,0,1,1,7.499315797
224,0,0,1,1,1,0,0,1,19.2476087,19.2476087,20.32655319,20.50165217,21.40591489,19.8402766,0,0,1,0,1,1,7.070070249
225,0,0,1,1,1,0,0,1,20.50165217,21.40591489,19.8402766,20.76995652,22.29176596,18.9993913,0,0,1,0,1,1,7.218336764
226,0,1,0,0,0,0,0,1,21.06220833,18.20408333,17.5214375,19.31663043,19.31663043,19.76017391,0,0,1,0,1,1,6.776022481
227,0,1,0,0,1,0,0,1,20.859125,20.49766667,18.7543913,21.388,22.68772917,22.68772917,0,0,1,0,1,1,3.057422468
228,0,1,0,0,0,0,0,1,20.13320833,20.13552083,20.57191304,21.70404348,19.27239583,19.76572917,0,0,1,0,1,1,6.835347031
229,0,1,0,0,0,0,0,1,20.36351064,23.29572917,21.44569565,20.02826087,21.1726087,21.20704348,0,0,1,0,1,1,7.300527993999999
230,0,1,0,0,1,0,0,1,21.388,22.68772917,22.68772917,17.07232609,19.11317391,19.61215217,0,0,1,0,1,1,4.269024187
231,0,0,1,1,1,0,0,1,19.66921277,17.82325532,19.24328261,19.2476087,19.2476087,20.32655319,0,0,1,0,1,1,7.476239217000001
232,0,0,1,1,1,0,0,1,21.20704348,21.20704348,21.20704348,21.16954348,19.39132609,19.11653191,0,0,1,0,1,1,7.400038615
233,0,0,1,1,1,0,0,1,18.799625,18.799625,21.10458333,20.7368125,20.7368125,19.66921277,0,0,1,0,1,1,7.682815856
234,0,0,1,1,0,0,0,1,22.73026087,21.97234043,18.85466667,18.85466667,18.85466667,21.05665957,0,0,1,0,1,1,6.81743076
235,0,0,1,1,1,0,0,1,17.82325532,19.24328261,19.2476087,19.2476087,20.32655319,20.50165217,0,0,1,0,1,1,6.814100241
236,0,0,1,1,0,0,0,1,23.16858333,21.68215217,22.734125,17.42558696,17.42683333,21.60757447,0,0,1,0,1,1,9.167157271
237,0,1,0,0,1,0,0,1,19.68554348,19.06336957,18.71895652,19.9526087,21.13931915,22.22780851,0,0,1,0,1,1,4.805350778999999
238,0,1,0,0,0,0,0,1,19.49173913,18.74561702,18.799625,18.799625,21.10458333,20.7368125,0,0,1,0,1,1,7.02335123
239,0,0,1,1,0,0,0,1,18.68975,14.802025,14.73216667,20.7722766,18.55367391,19.49173913,0,0,1,0,1,1,2.764210952
240,0,1,0,0,0,0,0,1,19.76572917,20.36351064,23.29572917,21.44569565,20.02826087,21.1726087,0,0,1,0,1,1,6.986039364
241,0,0,0,1,1,0,0,1,14.079375,14.079375,15.82855106,14.2586125,20.93804167,20.71395833,0,0,1,0,1,1,4.407763978999999
242,0,1,0,0,1,0,0,1,18.7543913,21.388,22.68772917,22.68772917,17.07232609,19.11317391,0,0,1,0,1,1,2.431689914
243,0,1,0,0,0,0,0,1,17.73626087,18.06357447,18.72026087,19.34413043,18.65670833,20.43958696,0,0,1,0,1,1,5.30682803
244,0,1,0,1,0,0,0,1,16.702,16.90597917,16.896125,19.2893617,17.9342766,17.33095745,0,0,1,0,1,1,3.192235766
245,0,0,1,1,1,0,0,1,19.2476087,20.32655319,20.50165217,21.40591489,19.8402766,20.76995652,0,0,1,0,1,1,7.070070249
246,0,0,1,1,0,0,0,1,21.68215217,22.734125,17.42558696,17.42683333,21.60757447,22.09254167,0,0,1,0,1,1,8.392338744
247,0,0,1,1,0,0,0,1,19.69322917,18.22195833,18.22195833,18.12875,15.797,14.079375,0,0,1,0,1,1,1.47249169
248,0,0,1,0,1,0,0,1,23.07114583,20.89420833,19.569625,18.43404348,17.93026087,20.19912766,0,0,1,0,1,1,2.010586246
249,0,0,1,1,1,0,0,1,21.20704348,21.16954348,19.39132609,19.11653191,17.1595,21.45193478,0,0,1,0,1,1,7.400038615
250,0,0,1,1,0,0,0,1,17.42558696,17.42683333,21.60757447,22.09254167,19.75395833,22.82934043,0,0,1,0,1,1,6.1818590460000005
251,0,0,1,0,1,0,0,1,14.16554348,17.47334783,16.32234783,21.06358696,21.97916667,18.29817391,0,0,1,0,1,1,6.136084013
252,0,1,0,0,0,0,0,1,18.05402128,18.83985106,19.51346809,17.73626087,18.06357447,18.72026087,0,0,1,0,1,1,5.509815245
253,0,1,0,0,0,0,0,1,17.5214375,19.31663043,19.31663043,19.76017391,20.19508511,18.57914583,0,0,1,0,1,1,5.956379438
254,0,0,1,1,1,0,0,1,19.66921277,19.66921277,17.82325532,19.24328261,19.2476087,19.2476087,0,0,1,0,1,1,7.476239217000001
255,0,1,0,0,0,0,0,1,19.27239583,19.76572917,20.36351064,23.29572917,21.44569565,20.02826087,0,0,1,0,1,1,7.21887779
256,0,0,1,1,1,0,0,1,17.491125,21.38279167,21.38279167,19.75764583,18.68975,14.802025,0,0,1,0,1,1,6.43989167
257,0,1,0,0,0,0,0,1,18.6016875,22.0400625,20.84754348,19.11229167,23.16858333,21.68215217,0,0,1,0,1,1,5.45289598
258,0,0,1,1,0,0,0,1,21.97234043,18.85466667,18.85466667,18.85466667,21.05665957,18.69971739,0,0,1,0,1,1,5.950980271000001
259,0,0,1,1,1,0,0,1,18.5894375,19.10102083,17.95971739,17.95971739,17.491125,21.38279167,0,0,1,0,1,1,7.912428307000001
260,0,0,1,0,1,0,0,1,21.67878723,23.07114583,20.89420833,19.569625,18.43404348,17.93026087,0,0,1,0,1,1,2.466095294
261,0,0,1,1,1,0,0,1,20.7368125,20.7368125,19.66921277,19.66921277,19.66921277,17.82325532,0,0,1,0,1,1,7.260851575
262,0,1,0,0,0,0,0,1,20.47789583,20.13320833,20.13552083,20.57191304,21.70404348,19.27239583,0,0,1,0,1,1,6.838432437000001
263,0,0,1,1,1,0,0,1,21.44569565,20.02826087,21.1726087,21.20704348,21.20704348,21.20704348,0,0,1,0,1,1,7.37291984
264,0,1,0,0,1,0,0,1,16.06354167,21.80308696,23.10565217,18.30483333,21.05895652,19.69322917,0,0,1,0,1,1,3.2705134030000003
265,0,0,1,1,0,0,0,1,21.60757447,22.09254167,19.75395833,22.82934043,22.83212766,17.7419375,0,0,1,0,1,1,6.779464625
266,0,1,0,0,1,0,0,1,17.89962083,16.06354167,16.06354167,21.80308696,23.10565217,18.30483333,0,0,1,0,1,1,3.1743922860000002
267,0,1,0,0,0,0,0,1,18.91708333,18.91708333,18.27391667,18.787375,20.35608333,20.35608333,0,0,1,0,1,1,5.420584767999999
268,0,1,0,0,0,0,0,1,18.787375,20.35608333,20.35608333,20.56866667,20.47789583,20.13320833,0,0,1,0,1,1,6.086509749
269,0,0,1,0,0,0,0,1,15.797,14.079375,14.079375,15.82855106,14.2586125,20.93804167,0,0,1,0,1,1,4.246806939
270,0,0,1,0,1,0,0,1,15.4252766,14.71817021,14.57101277,14.57101277,16.19131915,14.73234681,0,0,1,0,1,1,2.733663874
271,0,0,1,1,1,0,0,1,20.32655319,20.50165217,21.40591489,19.8402766,20.76995652,22.29176596,0,0,1,0,1,1,7.630082981
272,0,1,0,0,1,0,0,1,22.68772917,22.68772917,17.07232609,19.11317391,19.61215217,22.72078723,0,0,1,0,1,1,4.671495242
273,0,0,1,1,0,0,0,1,20.18329787,20.4126383,16.1586383,18.8295,21.06220833,21.06220833,0,0,1,0,1,1,6.518812812
274,0,1,0,0,0,0,0,1,19.16447917,18.91708333,18.91708333,18.27391667,18.787375,20.35608333,0,0,1,0,1,1,5.379694842999999
275,0,1,0,1,0,0,0,1,21.8828125,16.702,16.90597917,16.896125,19.2893617,17.9342766,0,0,1,0,1,1,2.632221725
276,0,1,0,0,0,0,0,1,19.14458325,16.62576396,16.29159717,17.03118061,19.50902772,23.17354165,0,0,0,0,1,0,3.5519440560000004
277,0,0,1,0,1,0,0,1,14.345,16.64375,14.92291667,15.53916667,15.29979167,15.81798608,0,0,0,0,1,0,3.07151509
278,0,1,0,0,0,0,0,1,15.13375,22.401875,18.67333333,14.5925,14.13145833,14.14875,0,0,0,0,1,0,2.610962948
279,0,0,1,1,1,0,0,1,22.82458333,16.39041667,15.58666667,21.54729167,15.58895833,18.17708333,0,0,0,0,1,0,2.670191333
280,0,0,1,0,1,0,0,1,14.39083333,14.39083333,14.65916667,14.24666667,15.13416667,21.46041667,0,0,0,0,1,0,3.3411710269999997
281,0,0,1,1,1,0,0,1,17.74986117,19.90638896,21.54409725,21.76777769,20.50993058,18.22402781,0,0,0,0,1,0,3.876342169
282,0,0,1,1,1,0,0,1,19.04902779,19.17597222,21.08215278,14.52944445,18.08333331,15.88611119,0,0,0,0,1,0,4.45565896
283,0,0,1,0,1,0,0,1,14.24666667,15.13416667,21.46041667,19.82,14.29375,18.18104167,0,0,0,0,1,0,4.382036796
284,0,1,0,0,0,0,0,1,16.29645833,18.95979167,21.97395833,22.82458333,16.39041667,15.58666667,0,0,0,0,1,0,2.336113676
285,0,0,1,1,0,0,0,1,16.81138889,15.32874999,19.52812502,20.73881945,19.2495833,18.63534722,0,0,0,0,1,0,3.808366032
286,0,0,1,1,0,0,0,1,20.70312501,19.87965275,20.97986109,19.86583329,16.85847225,20.44875004,0,0,0,0,1,0,2.532744466
287,0,0,1,1,1,0,0,1,21.97395833,22.82458333,16.39041667,15.58666667,21.54729167,15.58895833,0,0,0,0,1,0,3.027301425
288,0,0,1,1,1,0,0,1,19.17597222,21.08215278,14.52944445,18.08333331,15.88611119,21.46618058,0,0,0,0,1,0,4.449197062
289,0,0,1,1,1,0,0,1,15.74041667,17.681875,16.14333333,14.24979167,17.420625,19.14291667,0,0,0,0,1,0,4.049872052
290,0,0,1,1,0,0,0,1,16.94055554,16.94055554,16.89868053,15.28020837,15.16805548,20.47076389,0,0,0,0,1,0,2.691601
291,0,1,0,0,0,0,0,1,19.37125,18.83083333,16.29645833,18.95979167,21.97395833,22.82458333,0,0,0,0,1,0,2.2996345540000003
292,0,0,1,0,1,0,0,1,14.70934728,17.32979167,17.32979167,17.41791667,19.65541667,20.40541667,0,0,0,0,1,0,3.4493286760000004
293,0,0,1,1,0,0,0,1,14.52944445,18.08333331,15.88611119,21.46618058,17.99631945,15.06631946,0,0,0,0,1,0,3.232925725
294,0,0,1,1,1,0,0,1,18.18104167,22.80625,14.34895833,21.26708333,18.52,16.58020833,0,0,0,0,1,0,3.040474873
295,0,0,1,1,1,0,0,1,18.68930557,17.694722199999998,15.98354167,19.04902779,19.17597222,21.08215278,0,0,0,0,1,0,3.881991143
296,0,0,1,1,1,0,0,1,14.24979167,17.420625,19.14291667,16.60958333,17.20583333,17.863125,0,0,0,0,1,0,4.736862448
297,0,0,1,1,1,0,0,1,20.62888894,22.52631944,21.95069437,21.18965279,21.52756943,17.9804167,0,0,0,0,1,0,2.6628367440000003
298,0,1,0,1,0,0,0,1,15.874375,16.68416667,16.434375,15.655625,16.11708333,17.39395833,0,0,0,0,1,0,2.2792944790000003
299,0,1,0,0,1,0,0,1,17.32979167,17.41791667,19.65541667,20.40541667,21.07520833,19.20583333,0,0,0,0,1,0,1.912320107
300,0,0,1,0,1,0,0,1,15.53916667,15.29979167,15.81798608,21.81680558,20.02416679,17.59423617,0,0,0,0,1,0,3.941309851
301,0,0,1,1,0,0,0,1,20.39958333,14.77375,14.74208333,15.87791667,14.546875,17.03291667,0,0,0,0,1,0,6.907201331
302,0,1,0,0,1,0,0,1,17.285,18.79833333,21.05854167,21.91875,21.89020833,21.51625,0,0,0,0,1,0,3.749945165
303,0,0,1,1,0,0,0,1,16.88750002,15.36180558,15.39168742,16.73736108,16.73736108,15.58152779,0,0,0,0,1,0,3.437234797
304,0,0,1,0,1,0,0,1,15.13416667,21.46041667,19.82,14.29375,18.18104167,22.80625,0,0,0,0,1,0,5.298737773
305,0,0,1,0,1,0,0,1,14.65916667,14.24666667,15.13416667,21.46041667,19.82,14.29375,0,0,0,0,1,0,4.14484715
306,0,1,0,1,0,0,0,1,14.50770833,14.735625,15.06291667,19.37125,18.83083333,16.29645833,0,0,0,0,1,0,1.206504136
307,0,0,1,1,1,0,0,1,15.78729167,19.956875,15.32416667,20.17791667,17.12041667,15.35375,0,0,0,0,1,0,3.1141641589999995
308,0,1,0,0,0,0,0,1,21.77,22.45,22.01458333,21.09854167,21.024375,20.4525,0,0,0,0,1,0,3.3728236710000004
309,0,0,1,1,1,0,0,1,17.681875,16.14333333,14.24979167,17.420625,19.14291667,16.60958333,0,0,0,0,1,0,4.684495706
310,0,1,0,0,1,0,0,1,16.23534727,16.1598611,19.14458325,16.62576396,16.29159717,17.03118061,0,0,0,0,1,0,1.8842150180000001
311,0,1,0,0,1,0,0,1,21.194375,21.194375,18.20125,19.36979167,15.19,17.861875,0,0,0,0,1,0,1.518654679
312,0,0,1,0,1,0,0,1,18.53979167,15.90645833,17.05125,14.345,16.64375,14.92291667,0,0,0,0,1,0,5.300793275
313,0,1,0,0,1,0,0,1,16.22145833,18.98291667,20.144375,16.72020833,15.13375,22.401875,0,0,0,0,1,0,1.7179883219999998
314,0,0,1,1,1,0,0,1,20.4525,19.61083333,17.36416667,17.50020833,17.97625,21.69395833,0,0,0,0,1,0,3.200947551
315,0,0,1,1,0,0,0,1,15.16805548,20.47076389,20.4610417,20.88770835,18.79083337,15.37972222,0,0,0,0,1,0,3.02581055
316,0,1,0,0,0,0,0,1,20.02416679,17.59423617,19.91215281,16.43986106,15.69618065,14.95326394,0,0,0,0,1,0,1.383543589
317,0,1,0,0,0,0,0,1,14.13145833,14.14875,17.525625,14.746875,21.26916667,14.35104167,0,0,0,0,1,0,2.512349967
318,0,1,0,0,1,0,0,1,16.39395833,19.135,19.520625,15.56208333,21.14104167,16.46875,0,0,0,0,1,0,2.2169690269999998
319,0,1,0,0,0,0,0,1,16.20756945,18.68930557,17.694722199999998,15.98354167,19.04902779,19.17597222,0,0,0,0,1,0,4.128697358
320,0,0,1,1,1,0,0,1,18.17708333,15.73541667,14.94375,14.23916667,18.53208333,16.15854167,0,0,0,0,1,0,4.19219815
321,0,0,1,1,1,0,0,1,19.65541667,20.40541667,21.07520833,19.20583333,14.63708333,14.27291667,0,0,0,0,1,0,3.15682755
322,0,0,1,1,1,0,0,1,15.98354167,19.04902779,19.17597222,21.08215278,14.52944445,18.08333331,0,0,0,0,1,0,5.368312138
323,0,1,0,0,0,0,0,1,16.18416664,16.606875,17.26013888,16.45486111,18.65986105,16.20756945,0,0,0,0,1,0,2.537385546
324,0,0,1,1,0,0,0,1,15.184375,19.625625,14.576875,19.664375,20.325,18.116875,0,0,0,0,1,0,4.798996573999999
325,0,0,1,1,1,0,0,1,17.97625,21.69395833,19.806875,15.78729167,19.956875,15.32416667,0,0,0,0,1,0,4.207219376
326,0,0,1,1,1,0,0,1,17.420625,19.14291667,16.60958333,17.20583333,17.863125,17.225625,0,0,0,0,1,0,4.51564763
327,0,0,1,1,0,0,0,1,16.89868053,15.28020837,15.16805548,20.47076389,20.4610417,20.88770835,0,0,0,0,1,0,2.797460305
328,0,0,1,1,0,0,0,1,19.09875,14.29625,15.043125,18.87791667,20.373125,18.584375,0,0,0,0,1,0,3.6621676739999995
329,0,1,0,0,1,0,0,1,17.39395833,17.39395833,16.39395833,19.135,19.520625,15.56208333,0,0,0,0,1,0,2.8723086889999996
330,0,0,1,1,1,0,0,1,21.91708325,17.74986117,19.90638896,21.54409725,21.76777769,20.50993058,0,0,0,0,1,0,4.702986677
331,0,0,1,1,0,0,0,1,15.77451381,16.88750002,16.88750002,15.36180558,15.39168742,16.73736108,0,0,0,0,1,0,2.6833279119999998
332,0,0,1,0,1,0,0,1,14.96270833,14.39083333,14.39083333,14.65916667,14.24666667,15.13416667,0,0,0,0,1,0,4.068963493
333,0,1,0,0,0,0,0,1,18.65986105,16.20756945,18.68930557,17.694722199999998,15.98354167,19.04902779,0,0,0,0,1,0,4.431712087
334,0,0,1,0,1,0,0,1,15.27243052,14.24347221,18.04291668,17.30784725,16.18416664,16.606875,0,0,0,0,1,0,1.1482093279999999
335,0,0,1,1,0,0,0,1,18.22402781,19.32041675,18.10548602,15.52706265,15.77451381,16.88750002,0,0,0,0,1,0,3.2316015869999997
336,0,1,0,0,1,0,0,1,18.20125,19.36979167,15.19,17.861875,15.74041667,17.681875,0,0,0,0,1,0,1.272152971
337,0,1,0,0,1,0,0,1,20.144375,16.72020833,15.13375,22.401875,18.67333333,14.5925,0,0,0,0,1,0,3.9019226760000003
338,0,0,1,1,0,0,0,1,17.225625,17.74708333,15.37916667,19.09875,14.29625,15.043125,0,0,0,0,1,0,4.448459305
339,0,0,1,0,1,0,0,1,18.64222221,14.70934728,17.32979167,17.32979167,17.41791667,19.65541667,0,0,0,0,1,0,2.828113048
340,0,1,0,0,1,0,0,1,16.11708333,17.39395833,17.39395833,16.39395833,19.135,19.520625,0,0,0,0,1,0,3.1614566280000003
341,0,0,1,1,1,0,0,1,14.09229167,21.18327083,22.51952083,18.1299375,17.24970833,16.65020833,0,0,0,0,1,0,4.369410895
342,0,0,1,1,0,0,0,1,23.115,20.39958333,14.77375,14.74208333,15.87791667,14.546875,0,0,0,0,1,0,7.195896567
343,0,1,0,0,0,0,0,1,17.861875,15.74041667,17.681875,16.14333333,14.24979167,17.420625,0,0,0,0,1,0,5.79971813
344,0,1,0,0,1,0,0,1,15.81798608,21.81680558,20.02416679,17.59423617,19.91215281,16.43986106,0,0,0,0,1,0,1.439390168
345,0,1,0,0,0,0,0,1,17.525625,14.746875,21.26916667,14.35104167,16.30666667,18.095625,0,0,0,0,1,0,3.713940848
346,0,0,1,1,0,0,0,1,15.88611119,21.46618058,17.99631945,15.06631946,20.70312501,19.87965275,0,0,0,0,1,0,3.3679610039999996
347,0,1,0,0,1,0,0,1,16.72020833,15.13375,22.401875,18.67333333,14.5925,14.13145833,0,0,0,0,1,0,2.460459799
348,0,0,1,1,0,0,0,1,18.10548602,15.52706265,15.77451381,16.88750002,16.88750002,15.36180558,0,0,0,0,1,0,4.000764226
349,0,1,0,0,0,0,0,1,22.401875,18.67333333,14.5925,14.13145833,14.14875,17.525625,0,0,0,0,1,0,2.698007825
350,0,0,1,1,0,0,0,1,16.60583333,16.60583333,15.184375,19.625625,14.576875,19.664375,0,0,0,0,1,0,4.436894971
351,0,0,1,1,1,0,0,1,19.61083333,17.36416667,17.50020833,17.97625,21.69395833,19.806875,0,0,0,0,1,0,3.34674357
352,0,0,1,0,0,0,0,1,15.608125,14.37541667,21.194375,21.194375,18.20125,19.36979167,0,0,0,0,1,0,1.450375103
353,0,0,1,1,0,0,0,1,14.25145833,17.83770833,23.03895833,18.80354167,19.1175,15.25666667,0,0,0,0,1,0,4.153650912
354,0,0,1,0,1,0,0,1,20.325,18.116875,15.16166667,16.78166667,20.38645833,15.608125,0,0,0,0,1,0,1.128223796
355,0,0,1,0,1,0,0,1,15.16166667,16.78166667,20.38645833,15.608125,14.37541667,21.194375,0,0,0,0,1,0,1.226381714
356,0,1,0,0,1,0,0,1,15.665625,16.22145833,18.98291667,20.144375,16.72020833,15.13375,0,0,0,0,1,0,1.0416614290000001
357,0,1,0,0,1,0,0,1,16.434375,15.655625,16.11708333,17.39395833,17.39395833,16.39395833,0,0,0,0,1,0,1.946935726
358,0,1,0,1,0,0,0,1,15.35375,14.50770833,14.735625,15.06291667,19.37125,18.83083333,0,0,0,0,1,0,3.720660969
359,0,1,0,0,1,0,0,1,16.62868054,16.23534727,16.1598611,19.14458325,16.62576396,16.29159717,0,0,0,0,1,0,1.233429594
360,1,1,0,1,0,0,1,0,16.14379167,16.69793939,17.19647917,15.65759524,16.54917073,18.91778378,0,0,0,1,1,0,2.60830945
361,1,1,0,1,0,0,1,0,17.26891429,19.611,19.611,19.9459375,22.2099375,21.35322917,0,0,0,1,1,0,2.59085223
362,1,0,1,0,1,0,1,0,17.18060465,17.18060465,18.20107692,21.92073913,17.24170213,18.29725,0,0,0,1,1,0,2.689211203
363,1,1,0,0,1,0,1,0,21.05903448,23.1755,23.18166667,22.455,21.476275,19.423475,0,0,0,1,1,0,3.9466591589999998
364,1,1,0,0,1,0,1,0,16.06936842,21.05903448,23.1755,23.18166667,22.455,21.476275,0,0,0,1,1,0,5.034196616
365,1,1,0,1,0,0,1,0,18.066625,16.14379167,16.69793939,17.19647917,15.65759524,16.54917073,0,0,0,1,1,0,2.27619014
366,1,0,1,1,0,0,1,0,23.15491176,15.03603704,21.20470968,20.90709375,16.61138889,14.896479999999999,0,0,0,1,1,0,7.071273593
367,1,1,0,1,0,0,1,0,19.19747917,18.066625,16.14379167,16.69793939,17.19647917,15.65759524,0,0,0,1,1,0,2.167473596
368,1,1,0,0,1,0,1,0,18.24747826,18.058,20.91673171,20.91673171,21.80954545,23.15491176,0,0,0,1,1,0,1.173712038
369,1,1,0,0,1,0,1,0,23.12533333,20.75620833,22.38073913,23.01791489,22.511875,22.0884,0,0,0,1,1,0,3.473333817
370,1,1,0,1,0,0,1,0,19.96991111,17.26891429,19.611,19.611,19.9459375,22.2099375,0,0,0,1,1,0,2.5178751580000003
371,1,0,1,0,1,0,1,0,18.29725,18.29725,15.25441304,17.85906667,17.11,17.11,0,0,0,1,1,0,2.833365132
372,1,1,0,0,1,0,1,0,18.70989362,17.33777143,16.308487799999998,17.68585417,23.12533333,20.75620833,0,0,0,1,1,0,4.181525973
373,1,1,0,1,0,0,1,0,14.99278125,14.99278125,14.28959574,17.74976087,14.39425714,19.19747917,0,0,0,1,1,0,1.97293904
374,1,0,1,1,0,0,1,0,21.93065217,16.57328571,16.57328571,20.52013333,15.59704348,15.40636111,0,0,0,1,1,0,5.140749592
375,1,1,0,1,0,0,1,0,14.28959574,17.74976087,14.39425714,19.19747917,18.066625,16.14379167,0,0,0,1,1,0,1.042400985
376,1,1,0,0,1,0,1,0,19.95242553,19.74565957,18.70989362,17.33777143,16.308487799999998,17.68585417,0,0,0,1,1,0,2.866276006
377,1,0,0,1,1,0,1,0,21.20470968,20.90709375,16.61138889,14.896479999999999,19.49731579,19.53671795,0,0,0,1,1,0,1.3527791319999998
378,1,1,0,0,0,0,1,0,20.36106383,21.66032558,21.80941304,22.73157447,21.25221277,23.02111905,0,0,0,1,1,0,4.041222629
379,1,1,0,0,1,0,1,0,16.26593617,22.31806383,22.31806383,18.58606522,17.58402703,22.54,0,0,0,1,1,0,1.8727391530000002
380,1,1,0,0,1,0,1,0,18.58606522,17.58402703,22.54,22.01661702,20.26732609,20.36106383,0,0,0,1,1,0,2.650072631
381,1,1,0,1,0,0,1,0,16.61138889,14.896479999999999,19.49731579,19.53671795,22.14825,20.47792857,0,0,0,1,1,0,2.340295046
382,1,1,0,1,0,0,1,0,19.611,19.9459375,22.2099375,21.35322917,17.7871875,22.93922917,0,0,0,1,1,0,2.708474835
383,1,1,0,0,0,0,1,0,21.80941304,22.73157447,21.25221277,23.02111905,18.32269565,23.04432609,0,0,0,1,1,0,5.313390603999999
384,1,0,1,0,1,0,1,0,15.95047826,15.35944681,21.81095455,19.96991111,17.26891429,19.611,0,0,0,1,1,0,1.7267821909999999
385,1,1,0,0,1,0,1,0,23.23416667,23.04378261,21.52993617,19.95242553,19.74565957,18.70989362,0,0,0,1,1,0,3.160953151
386,1,0,1,0,1,0,1,0,21.83131111,19.5056,15.32889362,21.1481,18.852999999999998,19.97562791,0,0,0,1,1,0,3.633438317
387,1,0,1,0,1,0,1,0,22.29752083,17.18060465,17.18060465,18.20107692,21.92073913,17.24170213,0,0,0,1,1,0,4.572322954
388,1,1,0,0,1,0,1,0,20.91673171,21.80954545,23.15491176,15.03603704,21.20470968,20.90709375,0,0,0,1,1,0,1.78051181
389,1,1,0,1,0,0,1,0,14.896479999999999,19.49731579,19.53671795,22.14825,20.47792857,18.38032143,0,0,0,1,1,0,2.302052364
390,1,0,1,0,1,0,1,0,19.89890476,22.70387179,22.49902439,18.6172,17.24142222,14.64468085,0,0,0,1,1,0,3.597555957
391,1,1,0,0,1,0,1,0,22.14825,20.47792857,18.38032143,16.06936842,21.05903448,23.1755,0,0,0,1,1,0,2.8656779919999997
392,1,0,1,0,1,0,1,0,15.25441304,17.85906667,17.11,17.11,15.05134146,17.9029,0,0,0,1,1,0,2.7592980430000003
393,1,0,1,0,0,0,1,0,17.9029,17.9029,14.94117073,16.8608,21.26226471,19.51848387,0,0,0,1,1,0,1.757841391
394,1,1,0,1,0,0,1,0,19.49731579,19.53671795,22.14825,20.47792857,18.38032143,16.06936842,0,0,0,1,1,0,2.006005122
395,1,0,1,0,1,0,1,0,18.852999999999998,19.97562791,14.99278125,14.99278125,14.28959574,17.74976087,0,0,0,1,1,0,1.9930800309999999
396,1,1,0,0,1,0,1,0,18.058,20.91673171,20.91673171,21.80954545,23.15491176,15.03603704,0,0,0,1,1,0,1.526102151
397,1,1,0,0,1,0,1,0,23.1755,23.18166667,22.455,21.476275,19.423475,22.29752083,0,0,0,1,1,0,4.029343081
398,0,0,1,1,0,0,0,1,18.89777778,17.65333333,17.65333333,23.21852273,22.8707,22.96841935,0,1,0,1,1,1,1.5486540130000002
399,0,0,1,1,1,0,0,1,19.055,17.62041667,19.0910625,19.0910625,19.51541667,20.83772917,0,1,0,1,1,1,5.092852872
400,0,0,1,0,0,0,0,1,14.14595745,14.14595745,17.19744186,16.82292683,20.67361111,16.11673913,0,1,0,1,1,1,4.181534909
401,0,0,1,1,0,0,0,1,19.1519375,20.72375,20.72375,21.13734146,17.79159091,16.40189583,0,1,0,1,1,1,2.405344296
402,0,1,0,1,0,0,0,1,22.21382979,22.51818182,19.58534375,18.28928571,17.16723404,16.76729167,0,1,0,1,1,1,1.277739433
403,0,1,0,1,0,0,0,1,19.58534375,18.28928571,17.16723404,16.76729167,16.76729167,16.78234043,0,1,0,1,1,1,1.4289677840000001
404,0,0,1,0,0,0,0,1,14.1165,14.14595745,14.14595745,17.19744186,16.82292683,20.67361111,0,1,0,1,1,1,4.665805436
405,0,0,1,1,0,0,0,1,18.77337778,22.3266875,22.17020833,19.08028205,18.55744681,18.89777778,0,1,0,1,1,1,2.404495933
406,0,1,0,0,0,0,0,1,21.61651163,21.40806522,21.68791667,20.78340909,22.50619048,22.16630233,0,1,0,1,1,1,6.190163674
407,0,1,0,1,0,0,0,1,17.14195652,17.48770833,17.48770833,17.2335625,19.99723404,18.89875,0,1,0,1,1,1,1.606207704
408,0,0,0,1,0,0,0,1,14.582,14.65714286,15.76,16.28,17.637999999999998,21.76090909,0,1,0,1,1,1,3.352302608
409,0,1,0,0,1,0,0,1,18.65222222,20.15714286,22.90151515,17.29644444,17.29644444,16.38217391,0,1,0,1,1,1,2.975954522
410,0,1,0,0,0,0,0,1,20.65382979,20.9825,21.61651163,21.40806522,21.68791667,20.78340909,0,1,0,1,1,1,5.216766132
411,0,0,1,1,0,0,0,1,22.18236842,18.77337778,22.3266875,22.17020833,19.08028205,18.55744681,0,1,0,1,1,1,3.11851164
412,0,1,0,0,1,0,0,1,21.595,20.96361111,20.5575,23.235,23.125,18.48137931,0,1,0,1,1,1,3.1836644639999996
413,0,0,1,0,0,0,0,1,17.80931034,14.1165,14.14595745,14.14595745,17.19744186,16.82292683,0,1,0,1,1,1,5.630252447
414,0,0,0,1,0,0,0,1,16.282,17.52333333,18.86454545,17.76230769,16.71555556,14.582,0,1,0,1,1,1,2.8556667260000004
415,0,0,1,0,0,0,0,1,16.5396087,16.6852381,16.11336111,16.11336111,18.5705,15.47957778,0,1,0,1,1,1,4.579324322
416,0,0,1,0,0,0,0,1,14.14595745,17.19744186,16.82292683,20.67361111,16.11673913,14.40720513,0,1,0,1,1,1,4.181534909
417,0,0,1,0,0,0,0,1,14.40720513,14.875625,16.5396087,16.6852381,16.11336111,16.11336111,0,1,0,1,1,1,3.6489043139999997
418,0,1,0,0,0,0,0,1,21.68791667,20.78340909,22.50619048,22.16630233,20.70238095,20.70238095,0,1,0,1,1,1,6.496568515
419,0,0,0,1,0,0,0,1,14.65714286,15.76,16.28,17.637999999999998,21.76090909,23.23916667,0,1,0,1,1,1,1.862819675
420,0,0,0,1,1,0,0,1,15.1948125,16.6847619,15.23190476,16.282,17.52333333,18.86454545,0,1,0,1,1,1,3.616878495
421,0,1,0,0,0,0,0,1,20.9825,21.61651163,21.40806522,21.68791667,20.78340909,22.50619048,0,1,0,1,1,1,5.933127186
422,0,1,0,0,0,0,0,1,23.23657895,21.25746512,20.15044444,19.055,17.62041667,19.0910625,0,1,0,1,1,1,7.7805021110000006
423,0,0,1,1,1,0,0,1,23.01236667,22.47833333,19.23590909,22.22125,22.21285714,22.21285714,0,1,0,1,1,1,3.050650651
424,0,0,0,0,1,0,0,1,16.28,17.637999999999998,21.76090909,23.23916667,22.21382979,22.51818182,0,1,0,1,1,1,1.872110386
425,0,1,0,0,1,0,0,1,18.97622222,22.22722222,20.12866667,21.595,20.96361111,20.5575,0,1,0,1,1,1,2.737948145
426,0,0,1,1,0,0,0,1,20.59608333,20.59608333,19.1519375,20.72375,20.72375,21.13734146,0,1,0,1,1,1,2.522017988
427,0,0,1,1,1,0,0,1,22.27608696,18.9685625,18.5275,16.8954375,16.83708333,19.195,0,1,0,1,1,1,5.094712653999999
428,0,1,0,0,0,0,0,1,20.60191489,23.23657895,21.25746512,20.15044444,19.055,17.62041667,0,1,0,1,1,1,6.199080259
429,0,0,1,0,0,0,0,1,16.11673913,14.40720513,14.875625,16.5396087,16.6852381,16.11336111,0,1,0,1,1,1,4.8883294919999996
430,0,1,0,0,1,0,0,1,18.89875,21.59282609,19.49188372,20.18195652,18.97622222,22.22722222,0,1,0,1,1,1,2.155196319
431,0,1,0,0,1,0,0,1,23.235,23.125,18.48137931,19.22191489,18.97354167,18.65222222,0,1,0,1,1,1,7.724872878999999
432,0,0,1,1,0,0,0,1,20.72375,21.13734146,17.79159091,16.40189583,16.20044681,15.8412766,0,1,0,1,1,1,2.8209921139999996
433,0,1,0,0,1,0,0,1,17.29644444,17.29644444,16.38217391,23.11613889,22.91425,22.91425,0,1,0,1,1,1,3.216072763
434,0,0,0,1,0,0,0,1,17.76230769,16.71555556,14.582,14.65714286,15.76,16.28,0,1,0,1,1,1,2.833675884
435,0,0,0,1,1,0,0,1,15.47957778,22.49666667,18.82,18.95,15.1948125,16.6847619,0,1,0,1,1,1,2.7307969880000003
436,0,1,0,0,0,0,0,1,18.90710417,20.60191489,23.23657895,21.25746512,20.15044444,19.055,0,1,0,1,1,1,4.642328109
437,0,0,0,1,1,0,0,1,16.11336111,16.11336111,18.5705,15.47957778,22.49666667,18.82,0,1,0,1,1,1,2.53635281
438,0,0,1,1,0,0,0,1,17.79159091,16.40189583,16.20044681,15.8412766,15.8412766,16.21388889,0,1,0,1,1,1,2.338550348
439,0,0,0,1,1,1,0,1,22.99569231,22.8332,22.34658333,19.83341667,22.70432353,23.00891892,0,1,0,1,1,0,3.914080745
440,0,0,0,0,1,1,0,1,21.47236585,15.4645,22.84120833,22.62763889,22.99569231,22.8332,0,1,0,1,1,0,2.523912638
441,0,0,0,0,1,1,0,1,22.58904651,22.19480488,19.08254286,19.08254286,18.71185417,22.35378723,0,1,0,1,1,0,3.05585867
442,0,0,0,1,0,1,0,1,22.96841935,23.14803571,21.4437381,18.59151429,19.5165,16.45318182,0,1,0,1,1,0,5.559968249
443,0,0,0,1,0,1,0,1,23.00891892,22.48556522,16.67829787,22.58904651,22.19480488,19.08254286,0,1,0,1,1,0,4.020503635
444,0,0,0,1,0,1,0,1,21.4437381,18.59151429,19.5165,16.45318182,16.45318182,18.8255,0,1,0,1,1,0,3.9838314089999995
445,0,1,0,1,0,1,0,1,20.62552381,19.85452632,20.32475676,19.08658333,19.316325,21.27455814,0,1,0,1,1,0,3.1236586610000003
446,0,0,0,1,0,1,0,1,16.45318182,18.8255,22.74933333,21.99715625,19.28685714,18.368625,0,1,0,1,1,0,7.838601831
447,0,1,0,1,0,1,0,1,17.81912195,16.45409302,21.94276923,22.18820513,22.14079487,20.62552381,0,1,0,1,1,0,2.765325401
448,0,0,0,0,1,1,0,1,22.35378723,22.67781818,23.11605882,22.76290323,22.30412903,22.760525,0,1,0,1,1,0,2.578240494
449,0,1,0,1,0,1,0,1,23.17260606,22.642075,21.37782051,17.81912195,16.45409302,21.94276923,0,1,0,1,1,0,3.46247406
450,0,1,0,1,1,1,0,1,23.09255172,19.86393548,21.45645,23.17260606,22.642075,21.37782051,0,1,0,1,1,0,4.77956726
451,0,1,0,1,0,1,0,1,21.94276923,22.18820513,22.14079487,20.62552381,19.85452632,20.32475676,0,1,0,1,1,0,2.78314125
452,0,0,0,1,0,1,0,1,22.8707,22.96841935,23.14803571,21.4437381,18.59151429,19.5165,0,1,0,1,1,0,3.829654137
453,0,0,0,0,1,1,0,1,17.49239024,21.27063636,18.61589474,16.667,21.42963889,23.25220833,0,1,0,1,1,0,3.6324436639999997
454,0,1,0,1,0,1,0,1,22.22747826,17.22822727,14.411,17.92448148,23.30083333,21.56833333,0,1,0,1,1,0,3.229190296
455,0,0,0,1,0,1,0,1,18.8255,22.74933333,21.99715625,19.28685714,18.368625,20.65872414,0,1,0,1,1,0,5.5053962489999995
456,0,1,0,1,0,1,0,1,16.45409302,21.94276923,22.18820513,22.14079487,20.62552381,19.85452632,0,1,0,1,1,0,2.833079332
457,0,0,0,0,1,1,0,1,20.65872414,15.64483333,17.49239024,21.27063636,18.61589474,16.667,0,1,0,1,1,0,3.944311051
458,0,0,0,0,1,1,0,1,19.08254286,19.08254286,18.71185417,22.35378723,22.67781818,23.11605882,0,1,0,1,1,0,4.191772612
459,0,0,0,0,1,1,0,1,16.667,21.42963889,23.25220833,22.75383333,21.47236585,15.4645,0,1,0,1,1,0,2.80223405
460,0,0,1,0,1,0,0,1,15.40645833,19.156875,15.43339583,14.14375,15.01089583,15.94729167,0,0,0,1,1,1,3.729590318
461,0,0,1,1,0,0,0,1,20.07916667,17.611125,17.21166667,19.54229167,17.76083333,16.63583333,0,0,0,1,1,1,1.9527359530000001
462,0,0,1,1,0,0,0,1,16.26854167,15.40645833,15.40645833,19.156875,15.43339583,14.14375,0,0,0,1,1,1,3.786852581
463,0,0,1,0,1,0,0,1,19.156875,15.43339583,14.14375,15.01089583,15.94729167,16.30354167,0,0,0,1,1,1,4.7689113
464,0,1,0,0,0,0,0,1,20.52083333,20.853125,21.09020833,17.97520833,16.53041667,16.26854167,0,0,0,1,1,1,1.7217648159999999
465,0,0,1,0,1,0,0,1,15.40645833,15.40645833,19.156875,15.43339583,14.14375,15.01089583,0,0,0,1,1,1,3.729590318
466,0,0,0,1,1,0,0,1,14.57729167,18.603125,21.003125,18.19958333,20.52083333,20.853125,0,0,0,1,1,1,2.126064749
467,0,1,0,0,0,0,0,1,18.603125,21.003125,18.19958333,20.52083333,20.853125,21.09020833,0,0,0,1,1,1,1.0807990159999998
468,0,0,1,1,1,0,0,1,23.24125,21.15791667,17.69104167,21.83979167,19.68041667,22.25916667,0,0,0,1,1,1,2.9323851469999997
469,0,1,0,0,0,0,0,1,19.99479167,17.39354167,22.33583333,23.24125,21.15791667,17.69104167,0,0,0,1,1,1,4.025044048
470,0,0,1,0,1,0,0,1,15.43339583,14.14375,15.01089583,15.94729167,16.30354167,20.18270833,0,0,0,1,1,1,4.480421177
471,0,0,1,1,0,0,0,1,17.76083333,16.63583333,15.11375,14.7205,18.92604167,14.57729167,0,0,0,1,1,1,2.592832316
472,0,0,1,0,1,0,0,1,14.7205,18.92604167,14.57729167,18.603125,21.003125,18.19958333,0,0,0,1,1,1,3.3028578719999997
473,0,0,1,1,0,0,0,1,19.54229167,17.76083333,16.63583333,15.11375,14.7205,18.92604167,0,0,0,1,1,1,2.184873285
474,0,0,1,1,0,0,0,1,21.40583333,18.926875,17.29809524,20.01802381,18.24747826,18.058,0,0,0,1,1,1,5.75159479
475,0,0,1,1,0,0,0,1,18.926875,17.29809524,20.01802381,18.24747826,18.058,20.91673171,0,0,0,1,1,1,4.802994707
476,0,0,1,1,0,0,0,1,17.08958333,16.68541667,16.3971875,14.49220833,21.40583333,18.926875,0,0,0,1,1,1,5.3166926210000005
477,0,1,0,1,0,0,1,0,14.49,16.87083333,16.87083333,18.41333333,22.38888889,22.51818182,0,0,1,0,0,0,1.8874660730000001
478,0,0,1,0,0,0,1,0,14.527999999999999,15.90869565,19.68846154,16.94117647,14.97727273,21.1173913,0,0,1,0,0,0,6.065840337000001
479,0,1,0,1,0,0,1,0,15.716,19.4,22.7962963,21.79545455,22.89333333,22.57391304,0,0,1,0,0,0,2.494799462
480,0,1,0,1,1,0,1,0,18.10588235,19.06666667,19.38461538,20.06153846,23.04615385,15.57083333,0,0,1,0,0,0,4.067407941
481,0,0,0,1,1,0,1,0,20.29583333,15.8,15.184000000000001,19.86666667,15.7,16.625,0,0,1,0,0,0,3.236988408
482,0,0,0,1,1,0,1,0,16.94117647,14.97727273,21.1173913,15.315999999999999,19.96005,15.536,0,0,1,0,0,0,4.185924257
483,0,0,0,0,1,0,1,0,15.536,14.56190476,14.87619048,14.77142857,18.91071429,18.028,0,0,1,0,0,0,2.390484456
484,0,1,1,0,0,0,1,0,15.7,16.625,17.36875,19.58888889,16.64545455,18.10588235,0,0,1,0,0,0,1.0937610309999999
485,0,0,0,1,1,0,1,0,15.8,15.184000000000001,19.86666667,15.7,16.625,17.36875,0,0,1,0,0,0,3.203852365
486,0,1,0,0,1,0,1,0,22.56153846,22.700039999999998,22.116,22.116,20.124000000000002,20.74193548,0,0,1,0,0,0,5.279541184
487,0,0,1,0,0,0,1,0,14.43928571,17.55217391,15.06666667,14.22731818,23.05714286,22.51481481,0,0,1,0,0,0,3.9270334780000002
488,0,0,1,0,1,0,1,0,16.39130435,14.80003333,16.60454545,16.60454545,20.48333333,20.48333333,0,0,1,0,0,0,3.958856505
489,0,1,0,0,1,0,1,0,22.30714286,22.40344828,22.40344828,18.116,20.30769231,22.3,0,0,1,0,0,0,5.885410512000001
490,0,1,0,1,1,0,1,0,19.04,18.948,17.27272727,15.55,14.49,16.87083333,0,0,1,0,0,0,1.872472326
491,0,1,0,1,0,0,1,0,22.05652174,20.66666667,21.21578947,21.51304348,22.56153846,22.700039999999998,0,0,1,0,0,0,4.576513086
492,0,1,0,1,0,0,1,0,23.04615385,15.57083333,22.05652174,20.66666667,21.21578947,21.51304348,0,0,1,0,0,0,2.8699527160000002
493,0,0,0,1,1,0,1,0,23.05714286,22.51481481,19.084039999999998,14.60952381,14.10526316,16.12861905,0,0,1,0,0,0,3.678234906
494,0,0,0,1,1,0,1,0,14.60952381,14.10526316,16.12861905,14.81505,21.99615385,21.86923077,0,0,1,0,0,0,2.7149069710000004
495,0,0,1,0,1,0,1,0,22.89333333,22.57391304,20.44545455,19.81153846,16.39130435,14.80003333,0,0,1,0,0,0,3.5294897389999997
496,0,0,0,1,1,0,1,0,20.48333333,20.89259259,16.155,20.29583333,15.8,15.184000000000001,0,0,1,0,0,0,2.494877184
497,0,1,0,1,1,0,1,0,15.68333333,14.28571429,18.72608696,15.72380952,14.63640909,21.91818182,0,0,1,0,0,0,2.5836877769999997
498,0,0,1,0,0,0,1,0,19.552,18.35172414,22.88148148,21.56428571,19.62857143,18.80384615,0,0,1,0,0,0,7.450822869
499,0,0,1,0,1,0,1,0,20.30769231,22.3,18.94814815,18.41111111,21.70348276,17.048,0,0,1,0,0,0,7.072506572999999
500,0,1,0,1,0,0,1,0,21.25,18.66956522,18.69259259,18.81875,19.52307692,21.165,0,0,1,0,0,0,5.714571766000001
501,0,0,1,0,1,0,1,0,18.41111111,21.70348276,17.048,22.55656522,22.95666667,19.5173913,0,0,1,0,0,0,7.404180761
502,0,1,0,0,1,0,1,0,20.87920833,22.5,22.30714286,22.40344828,22.40344828,18.116,0,0,1,0,0,0,7.3724990770000005
503,0,0,1,0,0,0,1,0,18.80384615,15.34583333,21.17307692,14.43928571,17.55217391,15.06666667,0,0,1,0,0,0,5.347625394
504,0,0,1,0,0,0,1,0,19.62857143,18.80384615,15.34583333,21.17307692,14.43928571,17.55217391,0,0,1,0,0,0,3.568858469
505,0,0,1,0,1,0,1,0,16.14077778,22.2037037,18.9862069,17.70895833,14.84085417,15.11041667,0,0,1,0,0,0,7.148938756000001
506,0,0,1,0,0,0,1,0,19.96206897,19.552,18.35172414,22.88148148,21.56428571,19.62857143,0,0,1,0,0,0,6.327715961
507,0,1,0,1,0,0,1,0,20.66666667,21.21578947,21.51304348,22.56153846,22.700039999999998,22.116,0,0,1,0,0,0,5.812016071
508,0,1,0,1,1,0,1,0,16.64545455,18.10588235,19.06666667,19.38461538,20.06153846,23.04615385,0,0,1,0,0,0,2.498372961
509,0,1,1,0,0,0,1,0,14.24761905,15.68333333,14.28571429,18.72608696,15.72380952,14.63640909,0,0,1,0,0,0,1.170623905
510,0,0,0,1,1,0,1,0,14.22731818,23.05714286,22.51481481,19.084039999999998,14.60952381,14.10526316,0,0,1,0,0,0,4.87989465
511,0,0,1,0,0,0,1,0,19.5173913,14.527999999999999,15.90869565,19.68846154,16.94117647,14.97727273,0,0,1,0,0,0,6.630314155
512,0,1,0,1,0,0,1,0,22.46470588,21.25,18.66956522,18.69259259,18.81875,19.52307692,0,0,1,0,0,0,4.886635548
513,0,1,0,1,0,0,1,0,18.72608696,15.72380952,14.63640909,21.91818182,18.33793103,22.02608696,0,0,1,0,0,0,3.812849773
514,0,0,1,0,1,0,1,0,21.38148148,20.27586207,20.27586207,19.88888889,20.12758621,21.23571429,0,0,1,0,0,0,7.1223232670000005
515,0,1,0,0,0,0,1,0,22.116,22.116,20.124000000000002,20.74193548,23.27586207,23.208000000000002,0,0,1,0,0,0,9.00027881
516,0,0,0,1,1,0,1,0,19.96005,15.536,14.56190476,14.87619048,14.77142857,18.91071429,0,0,1,0,0,0,2.602594739
517,0,1,0,1,1,0,1,0,18.028,15.885,14.77,23.25416667,19.04,18.948,0,0,1,0,0,0,1.457395683
518,0,1,0,1,1,0,1,0,23.25416667,19.04,18.948,17.27272727,15.55,14.49,0,0,1,0,0,0,1.6363905619999999
519,0,0,1,0,1,0,1,0,20.27586207,19.88888889,20.12758621,21.23571429,21.76,18.3487027,0,0,1,0,0,0,6.220702548999999
520,0,0,1,0,0,0,1,0,17.048,22.55656522,22.95666667,19.5173913,14.527999999999999,15.90869565,0,0,1,0,0,0,6.633291233
521,0,1,0,1,1,0,1,0,14.77,23.25416667,19.04,18.948,17.27272727,15.55,0,0,1,0,0,0,1.512777824
522,0,0,1,0,1,0,1,0,22.40344828,22.40344828,18.116,20.30769231,22.3,18.94814815,0,0,1,0,0,0,7.09053611
523,0,0,1,0,0,0,1,0,15.90869565,19.68846154,16.94117647,14.97727273,21.1173913,15.315999999999999,0,0,1,0,0,0,5.26736687
524,0,0,1,0,1,0,1,0,20.44545455,19.81153846,16.39130435,14.80003333,16.60454545,16.60454545,0,0,1,0,0,0,3.885350327
525,0,0,1,0,0,0,1,0,15.34583333,21.17307692,14.43928571,17.55217391,15.06666667,14.22731818,0,0,1,0,0,0,5.486163400000001
526,0,0,0,1,1,0,0,1,17.71384615,14.16657143,17.69857143,16.14583333,15.57733333,21.23666667,0,1,0,0,0,1,6.204844832000001
527,0,0,0,1,1,0,0,1,17.69857143,16.14583333,15.57733333,21.23666667,18.2241,18.91578947,0,1,0,0,0,1,3.891369015
528,0,0,0,1,1,0,0,1,18.45,23.07555556,22.6875,17.993125,16.92578947,21.94083333,0,1,0,0,0,1,1.468984495
529,0,0,1,0,0,0,0,1,16.43,20.168,18.45,23.07555556,22.6875,17.993125,0,1,0,0,0,1,9.290204761
530,0,1,0,1,0,0,0,1,14.9635,18.85833333,18.85833333,23.07736842,21.87071429,21.05736842,0,1,0,0,0,1,4.991731794
531,0,0,1,0,0,0,0,1,20.06,20.47,20.91,21.69,16.675,16.43,0,1,0,0,0,1,8.774720177999999
532,0,1,0,0,1,0,0,1,21.87071429,21.05736842,19.5,22.79,20.435,20.06,0,1,0,0,0,1,5.748291142
533,0,1,0,1,0,0,0,1,18.85888889,14.9635,18.85833333,18.85833333,23.07736842,21.87071429,0,1,0,0,0,1,4.751119082
534,0,1,0,1,0,0,0,1,22.57578947,19.9745,18.85888889,14.9635,18.85833333,18.85833333,0,1,0,0,0,1,4.519146222
535,0,1,0,1,0,0,0,1,16.92578947,21.94083333,22.88777778,22.88777778,21.14611111,21.17,0,1,0,0,0,1,3.741326982
536,0,0,0,1,0,0,0,1,18.2241,18.91578947,19.67222222,19.22799792,14.08159896,19.23273542,0,1,0,0,0,1,2.061874939
537,0,1,0,1,0,0,0,1,19.00333333,17.43071429,14.91,14.91,23.24125,19.39,0,1,0,0,0,1,2.321160636
538,0,1,0,1,0,0,0,1,18.85833333,18.85833333,23.07736842,21.87071429,21.05736842,19.5,0,1,0,0,0,1,3.1617787219999998
539,0,0,1,0,0,0,0,1,16.43,16.43,20.168,18.45,23.07555556,22.6875,0,1,0,0,0,1,9.290204761
540,0,0,1,0,0,0,0,1,20.24833333,20.74583333,17.71384615,14.16657143,17.69857143,16.14583333,0,1,0,0,0,1,2.617297138
541,1,0,0,1,1,0,1,0,15.96626316,15.96626316,18.84666667,18.84666667,17.63458824,21.8245,0,0,0,0,1,1,3.360411763
542,1,0,0,1,1,0,1,0,18.19444444,14.7635,15.96626316,15.96626316,18.84666667,18.84666667,0,0,0,0,1,1,4.994773265
543,1,1,0,1,0,0,1,0,21.8245,18.10647059,23.1825,21.38933333,16.42,22.034000000000002,0,0,0,0,1,1,1.174030313
544,1,0,1,0,0,0,1,0,19.99495833,18.39625,18.39625,22.37,14.60055556,14.61022727,0,0,0,0,1,1,3.98884009
545,1,1,0,1,0,0,1,0,18.10647059,23.1825,21.38933333,16.42,22.034000000000002,19.885,0,0,0,0,1,1,2.513547664
546,1,0,0,1,1,0,1,0,14.61022727,18.19444444,14.7635,15.96626316,15.96626316,18.84666667,0,0,0,0,1,1,3.019428729
547,1,1,0,1,1,0,1,0,16.24125,20.09294118,23.03666667,22.89071429,18.60529412,16.97894737,0,0,0,0,1,1,3.689490623
548,1,0,1,0,1,0,1,0,16.1836,20.59695652,22.785999999999998,14.14,18.37761905,16.638125,0,0,0,0,1,1,6.586033801
549,1,0,1,0,1,0,1,0,16.638125,19.156,23.0464,22.83318182,17.08571429,17.90521739,0,0,0,0,1,1,8.314736222999999
550,1,0,1,0,1,0,1,0,22.785999999999998,14.14,18.37761905,16.638125,19.156,23.0464,0,0,0,0,1,1,7.359707222999999
551,1,1,0,1,0,0,1,0,14.52690476,20.43545455,20.506875,21.94636364,22.29545455,20.96181818,0,0,0,0,1,1,4.599876939
552,1,0,1,1,0,0,1,0,21.595,18.52375,15.88,15.88,19.753125,21.77,0,0,0,0,1,1,2.178385722
553,1,0,1,0,0,0,1,0,22.68,18.65059091,14.91,14.46558333,14.46558333,18.18,0,0,0,0,1,1,6.274463214
554,1,0,1,0,1,0,1,0,14.14,18.37761905,16.638125,19.156,23.0464,22.83318182,0,0,0,0,1,1,3.6732468369999998
555,1,0,0,1,0,0,1,0,19.85375,16.11566667,16.11566667,14.2394375,15.8925,18.37533333,0,0,0,0,1,1,2.447612104
556,1,0,1,0,0,0,1,0,22.83318182,17.08571429,17.90521739,17.90521739,22.68,18.65059091,0,0,0,0,1,1,7.83538442
557,1,0,1,0,0,0,1,0,18.39625,18.39625,22.37,14.60055556,14.61022727,18.19444444,0,0,0,0,1,1,4.104471736
558,1,0,1,0,0,0,1,0,19.156,23.0464,22.83318182,17.08571429,17.90521739,17.90521739,0,0,0,0,1,1,2.691377544
559,1,0,1,0,0,0,1,0,17.90521739,22.68,18.65059091,14.91,14.46558333,14.46558333,0,0,0,0,1,1,5.299572671
560,1,1,0,0,1,0,1,0,20.506875,21.94636364,22.29545455,20.96181818,18.773,19.99495833,0,0,0,0,1,1,6.50540894
561,1,1,0,1,1,0,1,0,18.37533333,14.98578947,14.88421053,18.2525,16.24125,20.09294118,0,0,0,0,1,1,2.8051303639999996
562,1,1,0,1,0,0,1,0,23.00947368,21.273000000000003,20.16428571,14.52690476,20.43545455,20.506875,0,0,0,0,1,1,5.104743175
563,1,1,0,1,0,0,1,0,21.273000000000003,20.16428571,14.52690476,20.43545455,20.506875,21.94636364,0,0,0,0,1,1,4.041982282
564,1,0,0,0,1,0,1,0,16.11566667,14.2394375,15.8925,18.37533333,14.98578947,14.88421053,0,0,0,0,1,1,2.170742246
565,1,0,1,0,1,1,0,0,18.91310345,22.01896552,20.67968966,19.64103448,14.68037037,17.7275,0,1,0,1,0,1,3.046401186
566,1,0,1,0,1,1,0,0,14.720999999999998,18.07375,18.07375,21.69357143,16.99963333,21.34866667,0,1,0,1,0,1,3.4005251989999996
567,1,0,1,0,0,1,0,0,15.89814815,20.45962963,15.43173913,17.41,16.24588235,15.83125,0,1,0,1,0,1,2.663171459
568,1,0,1,0,1,1,0,0,23.1175,18.89137931,19.883793100000002,19.883793100000002,20.09586207,15.53768966,0,1,0,1,0,1,3.94222259
569,1,0,0,1,0,1,0,0,17.30875,18.2675,16.3025,16.3025,16.72041667,14.13418182,0,1,0,1,0,1,1.475834238
570,1,0,1,0,0,1,0,0,15.43173913,17.41,16.24588235,15.83125,17.30875,18.2675,0,1,0,1,0,1,3.023763766
571,1,0,0,1,0,1,0,0,18.2675,16.3025,16.3025,16.72041667,14.13418182,14.10555556,0,1,0,1,0,1,1.436049775
572,1,0,1,0,1,1,0,0,21.34866667,23.10933333,22.30703704,23.1175,18.89137931,19.883793100000002,0,1,0,1,0,1,3.755100878
573,1,0,1,1,0,1,0,0,21.00354839,21.00354839,21.00354839,19.88555172,20.82785714,20.82785714,0,1,0,1,0,1,2.820214076
574,1,0,0,1,0,1,0,0,16.72041667,14.13418182,14.10555556,15.67045455,18.71,21.21,0,1,0,1,0,1,1.241439673
575,1,1,1,0,0,1,0,0,14.411,17.92448148,23.30083333,21.56833333,23.17758621,21.86862069,0,1,0,1,0,1,1.049467933
576,1,0,1,1,0,1,0,0,20.82785714,20.82785714,19.94064516,19.7116129,21.76612903,21.58032258,0,1,0,1,0,1,2.741283301
577,1,0,1,1,0,1,0,0,19.88555172,20.82785714,20.82785714,19.94064516,19.7116129,21.76612903,0,1,0,1,0,1,2.6809223230000003
578,1,0,1,0,1,1,0,0,22.01896552,20.67968966,19.64103448,14.68037037,17.7275,15.89814815,0,1,0,1,0,1,3.33502996
579,1,0,1,1,1,1,0,0,21.86862069,20.28258065,21.00354839,21.00354839,21.00354839,19.88555172,0,1,0,1,0,1,1.5212497759999999
580,1,0,0,1,0,1,0,0,16.24588235,15.83125,17.30875,18.2675,16.3025,16.3025,0,1,0,1,0,1,1.150469019
581,1,0,1,0,0,1,0,0,20.45962963,15.43173913,17.41,16.24588235,15.83125,17.30875,0,1,0,1,0,1,3.5169930239999996
582,1,1,0,1,1,0,1,1,16.01604,21.62571429,19.78181818,21.6425,20.99294118,21.30454545,0,0,1,0,0,1,4.57107082
583,1,0,1,0,1,0,1,1,22.89294118,16.95169231,16.95169231,20.83253125,20.8525,15.5613913,0,0,1,0,0,1,10.70245671
584,1,1,1,0,0,0,1,1,20.188,16.07238462,16.65,17.88857143,19.75,16.01604,0,0,1,0,0,1,4.291525914
585,1,1,0,0,0,0,1,1,23.084,17.63,21.68535714,20.43185185,20.73178261,20.73178261,0,0,1,0,0,1,2.708893097
586,1,1,0,1,0,0,1,1,20.95642857,21.76416667,15.92874074,15.82528571,15.88840909,17.4864375,0,0,1,0,0,1,8.024467174
587,1,1,0,1,1,0,1,1,19.16681818,21.574,19.19833333,21.23,21.04166667,22.665,0,0,1,0,0,1,1.9865318109999999
588,1,0,0,0,1,0,1,1,15.32,17.74111111,22.750999999999998,23.1475,22.89294118,16.95169231,0,0,1,0,0,1,3.8158861789999996
589,1,0,0,1,0,0,1,1,15.77788889,21.34888889,22.8225,17.32133333,14.517999999999999,15.05454545,0,0,1,0,0,1,5.768561031
590,1,0,1,0,0,0,1,1,22.2725,22.2725,18.07486957,17.75466667,20.93,15.4631,0,0,1,0,0,1,4.261491641
591,1,0,1,0,1,0,1,1,23.1475,22.89294118,16.95169231,16.95169231,20.83253125,20.8525,0,0,1,0,0,1,11.84039714
592,1,1,0,1,1,0,1,1,15.76954545,22.1845,21.12,18.75441176,15.86545455,21.559,0,0,1,0,0,1,2.944933165
593,1,1,0,1,1,0,1,1,21.574,19.19833333,21.23,21.04166667,22.665,18.64454545,0,0,1,0,0,1,3.347377075
594,1,1,1,0,0,0,1,1,14.87841667,19.38235294,14.36714286,19.45125,18.59391304,21.38380952,0,0,1,0,0,1,4.056869997
595,1,0,1,0,0,0,1,1,15.86545455,21.559,21.43391304,19.43944444,16.26222222,20.85769231,0,0,1,0,0,1,2.1455152930000003
596,1,0,1,0,0,0,1,1,20.43185185,20.73178261,20.73178261,22.506999999999998,23.160625,22.37571429,0,0,1,0,0,1,5.308925324
597,1,1,1,0,0,0,1,1,16.86788235,19.52725,23.26172414,19.16681818,21.574,19.19833333,0,0,1,0,0,1,2.442529264
598,1,0,0,0,1,0,1,1,17.615,15.59,22.89916667,22.296999999999997,22.6225,21.97645455,0,0,1,0,0,1,4.185723811
599,1,0,0,0,1,0,1,1,15.38076923,18.46230769,19.344375,15.32,17.74111111,22.750999999999998,0,0,1,0,0,1,6.9888870139999995
600,1,1,0,1,1,0,1,1,23.26172414,19.16681818,21.574,19.19833333,21.23,21.04166667,0,0,1,0,0,1,1.8961735290000001
601,1,0,0,0,1,0,1,1,22.750999999999998,23.1475,22.89294118,16.95169231,16.95169231,20.83253125,0,0,1,0,0,1,6.660142209
602,1,1,1,0,0,0,1,1,18.59391304,21.38380952,18.43214286,15.38333333,21.36,17.034000000000002,0,0,1,0,0,1,3.045244471
603,1,0,0,1,0,0,1,1,17.15681818,17.23,17.23,15.38076923,18.46230769,19.344375,0,0,1,0,0,1,3.34003253
604,1,0,1,0,0,0,1,1,21.68535714,20.43185185,20.73178261,20.73178261,22.506999999999998,23.160625,0,0,1,0,0,1,2.75022478
605,1,1,1,0,0,0,1,1,15.88840909,17.4864375,16.86788235,19.52725,23.26172414,19.16681818,0,0,1,0,0,1,1.0192129079999999
606,1,0,0,0,1,0,1,1,22.89916667,22.296999999999997,22.6225,21.97645455,21.2925,18.72476471,0,0,1,0,0,1,6.970116032000001
607,1,1,0,1,1,0,1,1,23.10733333,14.69833333,17.16263158,21.30809524,20.95642857,21.76416667,0,0,1,0,0,1,4.126684737
608,1,1,1,0,0,0,1,1,17.88857143,19.75,16.01604,21.62571429,19.78181818,21.6425,0,0,1,0,0,1,6.469208301
609,1,1,0,1,1,0,1,1,19.182000000000002,15.76954545,22.1845,21.12,18.75441176,15.86545455,0,0,1,0,0,1,8.160555866000001
610,1,0,0,0,1,0,1,1,21.2925,18.72476471,20.188,16.07238462,16.65,17.88857143,0,0,1,0,0,1,6.029521589
611,1,0,0,1,0,0,1,1,21.43391304,19.43944444,16.26222222,20.85769231,17.88285714,14.88463636,0,0,1,0,0,1,5.047438755
612,1,0,0,0,1,0,1,1,22.8225,17.32133333,14.517999999999999,15.05454545,14.87841667,19.38235294,0,0,1,0,0,1,5.7429660689999995
613,1,1,0,1,1,0,1,1,20.99294118,21.30454545,19.182000000000002,15.76954545,22.1845,21.12,0,0,1,0,0,1,4.952688821000001
614,1,0,0,1,0,0,1,1,21.34888889,22.8225,17.32133333,14.517999999999999,15.05454545,14.87841667,0,0,1,0,0,1,5.851393406000001
615,1,0,1,0,1,0,1,1,21.76,19.72789474,19.98795833,22.2725,22.2725,18.07486957,0,0,1,0,0,1,8.856935627
616,1,0,0,0,1,0,1,1,14.517999999999999,15.05454545,14.87841667,19.38235294,14.36714286,19.45125,0,0,1,0,0,1,4.31932266
617,1,1,0,1,1,0,1,1,14.47727273,19.71833333,23.10733333,14.69833333,17.16263158,21.30809524,0,0,1,0,0,1,7.336349985
618,1,1,0,1,1,0,1,1,19.75,16.01604,21.62571429,19.78181818,21.6425,20.99294118,0,0,1,0,0,1,8.184677007000001
619,1,0,0,1,0,0,1,1,16.26222222,20.85769231,17.88285714,14.88463636,15.19631579,18.64043478,0,0,1,0,0,1,4.173108621
620,1,1,0,1,0,0,1,0,15.22065957,15.22065957,22.36119565,19.44512766,21.64132609,20.74340426,0,0,1,0,1,0,1.625274675
621,1,1,0,1,0,0,1,0,17.25458333,15.10425532,18.68978261,19.47004348,14.78145833,20.23191489,0,0,1,0,1,0,1.313374051
622,1,0,1,0,1,0,1,0,18.5750625,14.7485625,21.52414583,15.150625,15.1598125,20.21339583,0,0,1,0,1,0,2.2186568540000002
623,1,0,0,1,1,0,1,0,20.25089362,20.25089362,19.85964583,14.307375,19.78502083,18.04576087,0,0,1,0,1,0,1.750527021
624,1,0,1,0,0,0,1,0,15.1598125,20.21339583,21.45645833,21.45645833,17.62122917,19.49502083,0,0,1,0,1,0,1.1183172559999999
625,1,0,1,0,1,0,1,0,16.15378261,18.5750625,18.5750625,14.7485625,21.52414583,15.150625,0,0,1,0,1,0,1.8526719459999998
626,1,1,0,1,0,0,1,0,19.78502083,18.04576087,21.0915,16.15378261,18.5750625,18.5750625,0,0,1,0,1,0,1.12485875
627,1,0,0,1,0,0,1,0,18.61965957,22.783125,21.25666667,17.25458333,15.10425532,18.68978261,0,0,1,0,1,0,1.275646818
628,1,1,0,0,1,0,1,0,22.36119565,19.44512766,21.64132609,20.74340426,19.42334783,16.96546809,0,0,1,0,1,0,1.114750857
629,1,1,0,0,1,0,1,0,19.47004348,14.78145833,20.23191489,23.31354167,18.13446809,16.29531915,0,0,1,0,1,0,2.215529408
630,1,0,1,0,0,0,1,0,21.0042766,19.23297872,15.11176596,16.44458333,19.36086957,18.75979167,0,0,1,0,1,0,2.229166491
631,1,0,1,0,1,0,1,0,18.13446809,16.29531915,16.54673913,15.95597872,21.0042766,19.23297872,0,0,1,0,1,0,1.242067173
632,1,0,0,1,1,0,1,0,14.307375,19.78502083,18.04576087,21.0915,16.15378261,18.5750625,0,0,1,0,1,0,1.480421723
633,1,1,0,1,0,0,1,0,15.10425532,18.68978261,19.47004348,14.78145833,20.23191489,23.31354167,0,0,1,0,1,0,1.283803726
634,1,1,0,1,0,0,1,0,17.75922917,21.5645,15.22065957,15.22065957,22.36119565,19.44512766,0,0,1,0,1,0,1.3035166409999999
635,1,0,0,1,1,0,1,0,20.74340426,19.42334783,16.96546809,20.31172917,20.25089362,20.25089362,0,0,1,0,1,0,2.979626618
636,1,1,0,0,0,0,1,0,19.09219565,22.33541667,22.94565217,23.22166667,20.63384615,21.405,0,0,1,0,1,0,1.753381184
637,1,0,1,0,0,0,1,0,16.54673913,15.95597872,21.0042766,19.23297872,15.11176596,16.44458333,0,0,1,0,1,0,1.280228176
638,1,0,0,1,1,0,1,0,14.22083333,19.82291667,17.30833333,21.28125,18.775,16.41666667,0,0,0,1,0,0,1.454984015
639,1,1,0,1,0,0,1,0,16.70625,18.31666667,22.83541667,16.12291667,14.22083333,19.82291667,0,0,0,1,0,0,2.872565191
640,1,0,1,0,1,0,1,0,21.54583333,22.82083333,23.15416667,23.15416667,20.68333333,15.73333333,0,0,0,1,0,0,4.75358067
641,1,1,0,0,0,0,1,0,18.4375,20.425,18.61875,19.83958333,19.83958333,18.0375,0,0,0,1,0,0,5.341447001000001
642,1,1,0,1,0,0,1,0,18.775,16.41666667,18.10416667,17.8375,21.6125,21.84375,0,0,0,1,0,0,2.0945307619999998
643,1,0,1,0,1,0,1,0,15.925,18.38125,22.54375,20.74791667,18.64166667,16.54375,0,0,0,1,0,0,4.77459501
644,1,1,0,1,0,0,1,0,19.82291667,17.30833333,21.28125,18.775,16.41666667,18.10416667,0,0,0,1,0,0,1.053744118
645,1,0,1,0,0,0,1,0,22.54375,20.74791667,18.64166667,16.54375,16.36458333,16.70625,0,0,0,1,0,0,2.143184088
646,1,1,0,0,1,0,1,0,22.63958333,23.075,20.90416667,20.60208333,20.60208333,22.78333333,0,0,0,1,0,0,1.9117983809999999
647,1,0,1,0,0,0,1,0,16.12291667,14.22083333,19.82291667,17.30833333,21.28125,18.775,0,0,0,1,0,0,3.247535006
648,1,1,0,0,1,0,1,0,18.10416667,17.8375,21.6125,21.84375,16.73583333,19.32125,0,0,0,1,0,0,2.601387179
649,1,1,0,0,1,0,1,0,18.31666667,22.83541667,16.12291667,14.22083333,19.82291667,17.30833333,0,0,0,1,0,0,2.808444772
650,1,0,1,0,1,0,1,0,20.79166667,15.925,18.38125,22.54375,20.74791667,18.64166667,0,0,0,1,0,0,4.967745309
651,1,0,1,1,1,0,0,1,19.73083333,19.63729167,17.3975,16.30979167,15.40020833,15.32270833,0,0,1,1,0,1,2.152589952
652,1,0,1,1,0,0,0,1,14.76916667,15.07375,15.152625,14.79520833,15.043125,15.22,0,0,1,1,0,1,3.817601152
653,1,1,0,0,1,0,0,1,15.02708333,15.00333333,15.96,16.778125,15.05354167,15.21395833,0,0,1,1,0,1,1.507028314
654,1,0,1,1,1,0,0,1,20.11583333,19.73083333,19.63729167,17.3975,16.30979167,15.40020833,0,0,1,1,0,1,1.746388679
655,1,1,0,0,0,0,0,1,16.5325,15.17833333,18.34854167,19.97895833,19.80041667,19.65020833,0,0,1,1,0,1,3.0077320430000003
656,1,0,1,1,1,0,0,1,19.63729167,17.3975,16.30979167,15.40020833,15.32270833,19.104375,0,0,1,1,0,1,1.889710724
657,1,0,1,1,0,0,0,1,16.74458333,19.10291667,16.43764583,15.643125,15.5776087,21.475,0,0,1,1,0,1,3.5932727780000002
658,1,1,0,0,0,0,0,1,15.21395833,16.5325,15.17833333,18.34854167,19.97895833,19.80041667,0,0,1,1,0,1,1.181680066
659,1,1,0,0,0,0,0,1,15.96,16.778125,15.05354167,15.21395833,16.5325,15.17833333,0,0,1,1,0,1,1.882264215
660,1,0,1,1,1,0,0,1,15.05354167,15.21395833,16.5325,15.17833333,18.34854167,19.97895833,0,0,1,1,0,1,2.908198664
661,1,1,0,0,0,0,0,1,19.97895833,19.80041667,19.65020833,19.65020833,16.95916667,16.12604167,0,0,1,1,0,1,1.616226775
662,1,0,1,1,1,0,0,1,19.104375,21.96541667,18.16541667,17.52479167,16.78958333,16.10125,0,0,1,1,0,1,2.21533713
663,1,1,0,0,1,0,0,1,15.00333333,15.96,16.778125,15.05354167,15.21395833,16.5325,0,0,1,1,0,1,1.307781375
664,1,1,0,0,0,0,0,1,16.12604167,20.74083333,20.37979167,20.11583333,19.73083333,19.63729167,0,0,1,1,0,1,1.68617537
665,1,0,1,1,1,0,0,1,18.16541667,17.52479167,16.78958333,16.10125,17.36833333,14.62770833,0,0,1,1,0,1,2.768282681
666,1,0,1,1,1,0,0,1,19.23273542,21.29576563,18.245379999999997,20.70702813,16.5217125,15.36528719,0,1,0,0,0,0,5.708815471
667,1,0,1,0,1,0,0,1,16.5217125,15.36528719,18.36037813,17.46214281,15.21465521,18.57572469,0,1,0,0,0,0,2.166416969
668,1,0,1,1,0,0,0,1,18.245379999999997,20.70702813,16.5217125,15.36528719,18.36037813,17.46214281,0,1,0,0,0,0,5.495790765
669,1,1,0,0,1,0,0,1,15.21465521,18.57572469,17.84465208,21.32070729,15.45627917,15.62539156,0,1,0,0,0,0,1.878661444
670,1,1,0,0,1,0,0,1,17.46214281,15.21465521,18.57572469,17.84465208,21.32070729,15.45627917,0,1,0,0,0,0,2.512976632
671,1,0,1,0,1,0,0,1,19.73104167,18.56166667,15.29770833,15.29770833,18.51833333,16.98458333,0,0,1,1,1,1,2.623914055
672,1,0,1,0,1,0,0,1,15.29770833,15.29770833,18.51833333,16.98458333,14.27333333,16.475,0,0,1,1,1,1,1.7306547730000001
673,1,1,0,1,0,0,0,1,19.83333333,18.93958333,17.91,16.70770833,15.21416667,15.23854167,0,0,1,1,1,1,1.265614938
674,1,1,0,1,0,0,0,1,18.93958333,17.91,16.70770833,15.21416667,15.23854167,17.30020833,0,0,1,1,1,1,1.456323759
675,1,0,1,1,0,0,0,1,18.67520833,18.26708333,21.99208333,19.095625,19.03875,19.69520833,0,0,1,1,1,1,1.4022565059999998
676,1,1,0,1,0,0,0,1,17.30604167,18.76604167,19.83333333,18.93958333,17.91,16.70770833,0,0,1,1,1,1,1.305822431
677,1,0,1,1,0,0,0,1,19.69520833,18.27208333,17.97958333,16.74875,20.70770833,20.70770833,0,0,1,1,1,1,2.123042094
678,1,0,1,0,1,0,0,1,20.70770833,20.70770833,20.326875,16.99854167,16.99854167,19.555,0,0,1,1,1,1,3.5450732719999998
679,1,0,1,0,0,0,0,1,18.51833333,16.98458333,14.27333333,16.475,14.720625,15.05145833,0,0,1,1,1,1,3.720926632
680,1,1,0,1,0,0,0,1,15.05145833,23.12416667,20.535625,15.57125,19.81270833,19.81270833,0,0,1,1,1,1,2.066940705
681,1,0,1,0,1,0,0,1,18.56166667,15.29770833,15.29770833,18.51833333,16.98458333,14.27333333,0,0,1,1,1,1,2.5678422999999997
682,1,0,1,0,0,0,0,1,14.27333333,16.475,14.720625,15.05145833,23.12416667,20.535625,0,0,1,1,1,1,3.8588412130000003
683,1,0,1,0,1,0,0,1,16.74875,20.70770833,20.70770833,20.326875,16.99854167,16.99854167,0,0,1,1,1,1,3.0637689960000003
684,0,1,0,1,0,0,1,0,16.62835417,16.91229167,23.04354167,22.4654375,17.97645833,21.1366875,0,1,0,0,1,0,1.1173176999999999
685,0,0,0,1,1,0,1,0,17.32835417,16.07047917,17.203125,17.203125,19.9925625,17.90433333,0,1,0,0,1,0,1.5598347590000001
686,0,0,1,0,1,0,1,0,21.3166875,20.97666667,19.320625,14.49145833,22.57578947,22.57578947,0,1,0,0,1,0,1.223662204
687,0,0,0,1,1,0,1,0,19.72670833,20.82295833,16.62835417,16.91229167,23.04354167,22.4654375,0,1,0,0,1,0,1.273696581
688,0,0,0,1,1,0,1,0,20.82295833,16.62835417,16.91229167,23.04354167,22.4654375,17.97645833,0,1,0,0,1,0,2.1255002569999997
689,0,0,1,0,1,0,1,0,20.97666667,19.320625,14.49145833,22.57578947,22.57578947,19.9745,0,1,0,0,1,0,1.441910085
690,0,0,1,0,0,0,1,0,19.25291667,19.25291667,17.28141667,19.72670833,20.82295833,16.62835417,0,1,0,0,1,0,1.0143227320000001
691,0,0,0,1,1,0,1,0,22.57479167,19.99770833,15.1906875,23.19270833,21.3166875,20.97666667,0,1,0,0,1,0,1.4915514419999998
692,0,0,1,0,0,0,1,0,14.25164583,21.85652083,19.6574375,19.25291667,19.25291667,17.28141667,0,1,0,0,1,0,1.744612122
693,0,0,1,0,0,0,1,0,21.85652083,19.6574375,19.25291667,19.25291667,17.28141667,19.72670833,0,1,0,0,1,0,2.151654751
694,0,1,0,1,0,0,1,0,15.1906875,23.19270833,21.3166875,20.97666667,19.320625,14.49145833,0,1,0,0,1,0,1.2241340459999999
695,0,0,0,1,1,0,1,0,22.0960625,22.0960625,20.1050625,20.30975,19.705625,17.32835417,0,1,0,0,1,0,2.61395965
696,0,1,0,0,0,0,0,1,18.8674359,18.84305556,17.71,16.91583333,16.95791667,18.86333333,0,1,1,0,0,0,4.05822585
697,0,0,1,1,1,0,0,1,16.95791667,18.86333333,19.24725,17.119375,17.4706383,18.36541667,0,1,1,0,0,0,3.295754558
698,0,0,0,1,0,0,0,1,18.03157895,16.59077778,14.83680851,14.81088235,15.966875,18.79333333,0,1,1,0,0,0,3.529451295
699,0,0,0,1,1,0,0,1,14.64270833,16.00375,20.74942857,14.94370833,17.28105714,16.28769231,0,1,1,0,0,0,2.834679739
700,0,0,1,0,1,0,0,1,17.75125,20.51319149,18.32488889,19.42181818,22.14458333,22.14458333,0,1,1,0,0,0,1.5661694640000001
701,0,1,0,0,0,0,0,1,18.79333333,20.00113636,22.14813953,23.05727273,23.05727273,21.2285,0,1,1,0,0,0,1.4797006730000002
702,0,0,0,1,0,0,0,1,16.59077778,14.83680851,14.81088235,15.966875,18.79333333,20.00113636,0,1,1,0,0,0,3.077570896
703,0,0,0,1,1,0,0,1,14.94370833,17.28105714,16.28769231,15.52309524,14.99697917,15.526875,0,1,1,0,0,0,3.1862792310000003
704,0,1,0,0,0,0,0,1,22.14813953,23.05727273,23.05727273,21.2285,20.72804878,17.80931034,0,1,1,0,0,0,3.951893103
705,0,0,1,1,1,0,0,1,17.71,16.91583333,16.95791667,18.86333333,19.24725,17.119375,0,1,1,0,0,0,3.4030092819999997
706,0,1,0,0,0,0,0,1,21.800243899999998,18.8674359,18.8674359,18.84305556,17.71,16.91583333,0,1,1,0,0,0,4.390237558
707,0,0,0,1,1,0,0,1,14.99697917,15.526875,17.08567568,19.03764706,18.03157895,16.59077778,0,1,1,0,0,0,3.11038151
708,0,1,0,0,1,0,0,1,18.54307692,18.33435897,21.800243899999998,18.8674359,18.8674359,18.84305556,0,1,1,0,0,0,1.1032147840000002
709,0,0,1,1,0,0,0,1,17.348125,18.83125,18.76541667,21.9025,20.22914286,19.50888889,0,1,1,0,0,0,4.232056136000001
710,0,0,1,1,0,0,0,1,21.435,22.89333333,22.89333333,20.74,17.348125,18.83125,0,1,1,0,0,0,6.243894578
711,0,0,1,0,0,0,0,1,20.39171429,19.03510638,15.29270833,17.50276596,15.04913636,15.04913636,0,1,1,0,0,0,3.414516648
712,0,0,1,1,0,0,0,1,22.52594595,22.21125,21.93791667,22.27458333,22.63979167,22.276,0,1,1,0,0,0,6.008487421
713,0,0,0,1,1,0,0,1,16.00375,20.74942857,14.94370833,17.28105714,16.28769231,15.52309524,0,1,1,0,0,0,2.785531404
714,0,0,1,0,0,0,0,1,15.04913636,14.69212766,14.64270833,16.00375,20.74942857,14.94370833,0,1,1,0,0,0,2.648324331
715,0,0,1,1,1,0,0,1,22.23102564,21.9452381,22.52594595,22.21125,21.93791667,22.27458333,0,1,1,0,0,0,8.00165307
716,0,0,1,0,1,0,0,1,19.50229167,20.7423913,19.404375,17.65695652,16.83361702,19.01452381,0,1,1,0,0,0,2.695980637
717,0,0,1,0,1,0,0,1,19.404375,17.65695652,16.83361702,19.01452381,22.24974359,21.66,0,1,1,0,0,0,2.1843228569999997
718,0,0,0,1,1,0,0,1,16.28769231,15.52309524,14.99697917,15.526875,17.08567568,19.03764706,0,1,1,0,0,0,3.542915405
719,0,0,0,1,1,0,0,1,17.08567568,19.03764706,18.03157895,16.59077778,14.83680851,14.81088235,0,1,1,0,0,0,4.059835802
720,0,0,1,1,0,0,0,1,21.9025,20.22914286,19.50888889,21.309375,22.34205128,19.50229167,0,1,1,0,0,0,4.588281648
721,0,0,1,1,0,0,0,1,22.89333333,20.74,17.348125,18.83125,18.76541667,21.9025,0,1,1,0,0,0,6.377877007
722,0,0,0,1,1,0,0,1,17.28105714,16.28769231,15.52309524,14.99697917,15.526875,17.08567568,0,1,1,0,0,0,4.415554069
723,1,0,0,1,1,0,1,0,18.71,21.21,17.3,18.678125,17.28878472,22.0960625,0,1,0,1,0,0,3.453986027
724,1,0,1,0,1,0,0,1,17.428125,17.428125,16.64060417,14.15141667,14.15141667,14.76916667,0,0,1,1,1,0,6.203705557999999
725,1,0,1,0,1,0,0,1,15.13427083,18.29645833,16.49354167,17.87854167,18.183125,19.57270833,0,0,1,1,1,0,1.506894046
726,1,1,0,0,0,0,0,1,20.535625,15.57125,19.81270833,19.81270833,19.55041667,20.59395833,0,0,1,1,1,0,2.404763163
727,1,0,1,1,0,0,0,1,21.103125,17.80916667,17.428125,17.428125,16.64060417,14.15141667,0,0,1,1,1,0,4.8122614960000005
728,1,0,1,1,1,0,0,1,19.55041667,20.59395833,18.8228125,14.84489583,21.2484375,14.87635417,0,0,1,1,1,0,2.311239251
729,1,0,1,1,0,0,0,1,14.84489583,21.2484375,14.87635417,17.63427083,15.13427083,18.29645833,0,0,1,1,1,0,1.8841777880000001
730,1,0,1,0,1,0,0,1,17.428125,16.64060417,14.15141667,14.15141667,14.76916667,15.07375,0,0,1,1,1,0,6.203705557999999
731,0,0,1,1,1,0,0,1,22.51952083,18.1299375,17.24970833,16.65020833,16.65020833,15.3335,0,0,0,0,0,1,5.862500511
732,0,0,1,1,1,0,0,1,19.36402083,18.41883333,14.14864583,15.85508333,15.85508333,16.88079167,0,0,0,0,0,1,2.898956386
733,0,1,0,0,1,0,0,1,16.65020833,16.65020833,15.3335,19.36402083,19.36402083,18.41883333,0,0,0,0,0,1,2.420010544
734,0,0,1,1,1,0,0,1,18.41883333,14.14864583,15.85508333,15.85508333,16.88079167,16.14197917,0,0,0,0,0,1,2.4657200180000003
735,0,1,0,0,0,0,0,1,15.3335,19.36402083,19.36402083,18.41883333,14.14864583,15.85508333,0,0,0,0,0,1,3.487248212
736,0,1,0,1,0,1,0,0,17.71604167,21.15717391,20.795625,14.92404255,15.11082979,21.82369565,0,0,1,1,0,0,2.624549906
737,0,0,1,0,1,1,0,0,21.00147917,23.01064583,17.64567391,17.89962083,16.06354167,16.06354167,0,0,1,1,0,0,3.607031526
738,0,0,1,1,1,1,0,0,21.475,18.09502083,20.398125,17.71604167,21.15717391,20.795625,0,0,1,1,0,0,5.034909466
739,0,1,0,1,0,1,0,0,20.398125,17.71604167,21.15717391,20.795625,14.92404255,15.11082979,0,0,1,1,0,0,2.573033886
740,0,0,1,1,0,1,0,0,18.09502083,20.398125,17.71604167,21.15717391,20.795625,14.92404255,0,0,1,1,0,0,4.506406486
741,0,0,1,0,0,1,0,0,21.411875,14.90597872,15.41387234,23.00361702,23.00361702,22.29833333,0,0,1,1,0,0,1.766587212
742,0,0,1,0,1,1,0,0,23.01064583,17.64567391,17.89962083,16.06354167,16.06354167,21.80308696,0,0,1,1,0,0,3.839912164
743,0,0,1,1,1,0,0,1,18.678125,17.28878472,22.0960625,22.0960625,20.1050625,20.30975,0,1,0,0,1,1,2.1547420269999997
