For param {'n_trees': 100, 'max_depth': 7, 'learning_rate': 0.1}
 *************************FOLDS Average***************************** 

Utility Based Metrics Across All
F1:  0.5735906204216628
F2:  0.5756621850086645
F05: 0.5761775531243422
precision:  0.5809356582273315
recall: 0.7038026254516607

Regression Error Metrics Across All
R2: 0.3084175475047866
Adj-R2: 0.2661224223108645
RMSE: 1.9024340939894984
MSE: 3.813530135625611
MAE: 1.4444875304236784
MAPE: 43.622221548390996

Correlations Across All
Pearson: 0.5959087470566757
Spearman: 0.571525776629396
Distance: 0.40409125294332426
************************REPETITIONS Average*******************************

Utility Based Metrics Across All
F1:  0.5735906204216628
F2:  0.5756621850086645
F05: 0.5761775531243422
precision:  0.5809356582273315
recall: 0.7038026254516607

Regression Error Metrics Across All
R2: 0.3084175475047866
Adj-R2: 0.2661224223108645
RMSE: 1.9024340939894984
MSE: 3.813530135625611
MAE: 1.4444875304236784
MAPE: 43.622221548390996

Correlations Across All
Pearson: 0.5959087470566757
Spearman: 0.571525776629396
Distance: 0.40409125294332426
For param {'n_trees': 100, 'max_depth': 6, 'learning_rate': 0.1}
 *************************FOLDS Average***************************** 

Utility Based Metrics Across All
F1:  0.5964145092454843
F2:  0.5843200587987532
F05: 0.6197196404817952
precision:  0.6455493396625835
recall: 0.702813146267715

Regression Error Metrics Across All
R2: 0.33447947083114127
Adj-R2: 0.2937782153282523
RMSE: 1.8677105749460208
MSE: 3.6997781552058386
MAE: 1.4201232491213083
MAPE: 42.932326922415086

Correlations Across All
Pearson: 0.612104204869147
Spearman: 0.5817340060707679
Distance: 0.38789579513085304
************************REPETITIONS Average*******************************

Utility Based Metrics Across All
F1:  0.5964145092454843
F2:  0.5843200587987532
F05: 0.6197196404817952
precision:  0.6455493396625835
recall: 0.702813146267715

Regression Error Metrics Across All
R2: 0.33447947083114127
Adj-R2: 0.2937782153282523
RMSE: 1.8677105749460208
MSE: 3.6997781552058386
MAE: 1.4201232491213083
MAPE: 42.932326922415086

Correlations Across All
Pearson: 0.612104204869147
Spearman: 0.5817340060707679
Distance: 0.38789579513085304
