For param {'n_trees': 100, 'max_depth': 7, 'learning_rate': 0.1}
 *************************FOLDS Average***************************** 

Utility Based Metrics Across All
F1:  0.44940513418171674
F2:  0.4540082941236239
F05: 0.4479327243363393
precision:  0.4487476835930151
recall: 0.5770520092744903

Regression Error Metrics Across All
R2: 0.4381236005094049
Adj-R2: 0.40683137480050907
RMSE: 1.427346578253056
MSE: 2.104433019773434
MAE: 1.0665605832749927
MAPE: 35.7159223852126
Accuracy: 64.2840776147874
AIC: 629.0027895497958
BIC: 629.0027895497958
NMI: 0.9883478913123238

Correlations Across All
Pearson: 0.7052896719200354
Spearman: 0.7239325506882379
Distance: 0.29471032807996417
************************REPETITIONS Average*******************************

Utility Based Metrics Across All
F1:  0.44940513418171674
F2:  0.4540082941236239
F05: 0.4479327243363393
precision:  0.4487476835930151
recall: 0.5770520092744903

Regression Error Metrics Across All
R2: 0.4381236005094049
Adj-R2: 0.40683137480050907
RMSE: 1.427346578253056
MSE: 2.104433019773434
MAE: 1.0665605832749927
MAPE: 35.7159223852126
Accuracy: 64.2840776147874
AIC: 629.0027895497958
BIC: 629.0027895497958
NMI: 0.9883478913123238

Correlations Across All
Pearson: 0.7052896719200354
Spearman: 0.7239325506882379
Distance: 0.29471032807996417
For param {'n_trees': 100, 'max_depth': 6, 'learning_rate': 0.1}
 *************************FOLDS Average***************************** 

Utility Based Metrics Across All
F1:  0.43479638080587374
F2:  0.44040350928177646
F05: 0.4301943363273949
precision:  0.42763005981279223
recall: 0.5594217240011174

Regression Error Metrics Across All
R2: 0.45790210835355316
Adj-R2: 0.4277107969523053
RMSE: 1.4050619372902164
MSE: 2.0421363111387287
MAE: 1.0424212317476134
MAPE: 34.840518434403805
Accuracy: 65.1594815655962
AIC: 599.8774716146371
BIC: 599.8774716146371
NMI: 0.9842557127572565

Correlations Across All
Pearson: 0.704252537401286
Spearman: 0.7254886587782075
Distance: 0.2957474625987139
************************REPETITIONS Average*******************************

Utility Based Metrics Across All
F1:  0.43479638080587374
F2:  0.44040350928177646
F05: 0.4301943363273949
precision:  0.42763005981279223
recall: 0.5594217240011174

Regression Error Metrics Across All
R2: 0.45790210835355316
Adj-R2: 0.4277107969523053
RMSE: 1.4050619372902164
MSE: 2.0421363111387287
MAE: 1.0424212317476134
MAPE: 34.840518434403805
Accuracy: 65.1594815655962
AIC: 599.8774716146371
BIC: 599.8774716146371
NMI: 0.9842557127572565

Correlations Across All
Pearson: 0.704252537401286
Spearman: 0.7254886587782075
Distance: 0.2957474625987139
