Total Number of rare cases: 256 out of 2445
Percentage of Rare Cases: 10.47%

number of rare in train: 178/1701
==> 10.46443268665491%%
number of rare in test: 78/744
==> 10.483870967741936%%
The size of the original data is (1701, 51)
The size of the oversampled data is (1736, 51)
Total Number of rare cases: 215 out of 1736
Percentage of Rare Cases: 12.38%

The percentage of rare values in dataset after smogn are 12.38479262672811
Total Number of rare cases: 256 out of 2445
Percentage of Rare Cases: 10.47%

number of rare in train: 178/1701
==> 10.46443268665491%%
number of rare in test: 78/744
==> 10.483870967741936%%
The size of the original data is (1701, 51)
The size of the oversampled data is (1735, 51)
Total Number of rare cases: 205 out of 1735
Percentage of Rare Cases: 11.82%

The percentage of rare values in dataset after smogn are 11.815561959654179
