,Month_1,Month_2,Month_3,Month_4,Vegetation_1,Vegetation_2,Vegetation_3,WS,WS-1,WS-2,WS-3,WS-4,WS-5,RH,RH-1,RH-2,RH-3,RH-4,RH-5,TA,TA-1,TA-2,TA-3,TA-4,TA-5,Eeflux_LST,Eeflux_LST-1,Eeflux_LST-2,Eeflux_LST-3,Eeflux_LST-4,Eeflux_LST-5,Eeflux_NDVI,Eeflux_NDVI-1,Eeflux_NDVI-2,Eeflux_NDVI-3,Eeflux_NDVI-4,Eeflux_NDVI-5,Eeflux_Albedo,Eeflux_Albedo_1,Eeflux_Albedo-2,Eeflux_Albedo-3,Eeflux_Albedo-4,Eeflux_Albedo-5,Eeflux_Albedo-1,Site_1,LE_bowen_corr_mm
0,0,1,1,0,0,1,1,4.060941454,2.262194415,3.217085912,3.431960585,2.2860226519999998,4.0320102669999995,51.1496875,47.2444375,55.23066667,43.61177083,49.79214583,64.98785417,10.37791667,8.681041667,10.306875,15.97541667,14.2325,8.56,291.72,288.54,294.1,298.38,296.26,289.28,0.763,0.758,0.7,0.73,0.742,0.184,0.106,0.10400000000000001,0.105,0.105,0.105,0.105,0.10400000000000001,1,2.7855691589999996
1,0,1,1,0,0,1,1,1.8178645480000002,4.060941454,2.262194415,3.217085912,3.431960585,2.2860226519999998,39.74483333,51.1496875,47.2444375,55.23066667,43.61177083,49.79214583,16.59770833,10.37791667,8.681041667,10.306875,15.97541667,14.2325,302.1,291.72,288.54,294.1,298.38,296.26,0.659,0.763,0.758,0.7,0.73,0.742,0.105,0.106,0.10400000000000001,0.105,0.105,0.105,0.106,1,3.3338250780000003
2,0,1,1,0,0,1,1,3.814828678,1.8178645480000002,4.060941454,2.262194415,3.217085912,3.431960585,58.1854375,39.74483333,51.1496875,47.2444375,55.23066667,43.61177083,9.92125,16.59770833,10.37791667,8.681041667,10.306875,15.97541667,292.58,302.1,291.72,288.54,294.1,298.38,0.7070000000000001,0.659,0.763,0.758,0.7,0.73,0.106,0.105,0.106,0.10400000000000001,0.105,0.105,0.105,1,2.5095336219999997
3,0,1,1,0,0,1,1,3.2365768310000003,3.814828678,1.8178645480000002,4.060941454,2.262194415,3.217085912,44.95420833,58.1854375,39.74483333,51.1496875,47.2444375,55.23066667,11.61979167,9.92125,16.59770833,10.37791667,8.681041667,10.306875,295.5,292.58,302.1,291.72,288.54,294.1,0.684,0.7070000000000001,0.659,0.763,0.758,0.7,0.106,0.106,0.105,0.106,0.10400000000000001,0.105,0.106,1,2.772895005
4,0,1,1,0,0,1,1,4.011814567,3.2365768310000003,3.814828678,1.8178645480000002,4.060941454,2.262194415,71.55125,44.95420833,58.1854375,39.74483333,51.1496875,47.2444375,5.308541667,11.61979167,9.92125,16.59770833,10.37791667,8.681041667,291.44,295.5,292.58,302.1,291.72,288.54,0.262,0.684,0.7070000000000001,0.659,0.763,0.758,0.107,0.106,0.106,0.105,0.106,0.10400000000000001,0.106,1,1.722541776
5,0,1,1,0,0,1,1,2.340584225,4.011814567,3.2365768310000003,3.814828678,1.8178645480000002,4.060941454,37.3875625,71.55125,44.95420833,58.1854375,39.74483333,51.1496875,15.68875,5.308541667,11.61979167,9.92125,16.59770833,10.37791667,293.22,291.44,295.5,292.58,302.1,291.72,0.731,0.262,0.684,0.7070000000000001,0.659,0.763,0.11199999999999999,0.107,0.106,0.106,0.105,0.106,0.107,1,3.4364077230000003
6,0,1,1,0,0,1,1,5.412216546,2.340584225,4.011814567,3.2365768310000003,3.814828678,1.8178645480000002,56.54577083,37.3875625,71.55125,44.95420833,58.1854375,39.74483333,11.53041667,15.68875,5.308541667,11.61979167,9.92125,16.59770833,296.6,293.22,291.44,295.5,292.58,302.1,0.664,0.731,0.262,0.684,0.7070000000000001,0.659,0.11199999999999999,0.11199999999999999,0.107,0.106,0.106,0.105,0.11199999999999999,1,2.40179898
7,0,1,1,0,0,1,1,2.466224096,5.412216546,2.340584225,4.011814567,3.2365768310000003,3.814828678,58.22654167,56.54577083,37.3875625,71.55125,44.95420833,58.1854375,11.18979167,11.53041667,15.68875,5.308541667,11.61979167,9.92125,288.26,296.6,293.22,291.44,295.5,292.58,0.757,0.664,0.731,0.262,0.684,0.7070000000000001,0.111,0.11199999999999999,0.11199999999999999,0.107,0.106,0.106,0.11199999999999999,1,3.201609538
8,0,1,1,0,0,1,1,3.212800669,2.466224096,5.412216546,2.340584225,4.011814567,3.2365768310000003,58.999625,58.22654167,56.54577083,37.3875625,71.55125,44.95420833,11.253125,11.18979167,11.53041667,15.68875,5.308541667,11.61979167,292.9,288.26,296.6,293.22,291.44,295.5,0.379,0.757,0.664,0.731,0.262,0.684,0.111,0.111,0.11199999999999999,0.11199999999999999,0.107,0.106,0.111,1,2.765712111
9,0,1,1,0,0,1,1,2.351736411,3.212800669,2.466224096,5.412216546,2.340584225,4.011814567,45.50197917,58.999625,58.22654167,56.54577083,37.3875625,71.55125,17.07541667,11.253125,11.18979167,11.53041667,15.68875,5.308541667,300.56,292.9,288.26,296.6,293.22,291.44,0.737,0.379,0.757,0.664,0.731,0.262,0.106,0.111,0.111,0.11199999999999999,0.11199999999999999,0.107,0.111,1,3.24088018
10,0,1,1,0,0,1,1,2.081524523,2.351736411,3.212800669,2.466224096,5.412216546,2.340584225,40.15029167,45.50197917,58.999625,58.22654167,56.54577083,37.3875625,19.35854167,17.07541667,11.253125,11.18979167,11.53041667,15.68875,303.06,300.56,292.9,288.26,296.6,293.22,0.726,0.737,0.379,0.757,0.664,0.731,0.10400000000000001,0.106,0.111,0.111,0.11199999999999999,0.11199999999999999,0.106,1,3.444604285
11,0,1,1,0,0,1,1,2.39525002,2.081524523,2.351736411,3.212800669,2.466224096,5.412216546,48.39064583,40.15029167,45.50197917,58.999625,58.22654167,56.54577083,18.17041667,19.35854167,17.07541667,11.253125,11.18979167,11.53041667,298.7,303.06,300.56,292.9,288.26,296.6,0.69,0.726,0.737,0.379,0.757,0.664,0.105,0.10400000000000001,0.106,0.111,0.111,0.11199999999999999,0.10400000000000001,1,3.693973365
12,0,1,1,0,0,1,1,3.859913063,2.39525002,2.081524523,2.351736411,3.212800669,2.466224096,52.95875,48.39064583,40.15029167,45.50197917,58.999625,58.22654167,17.48625,18.17041667,19.35854167,17.07541667,11.253125,11.18979167,296.98,298.7,303.06,300.56,292.9,288.26,0.763,0.69,0.726,0.737,0.379,0.757,0.10400000000000001,0.105,0.10400000000000001,0.106,0.111,0.111,0.105,1,5.116497645
13,0,1,1,0,0,1,1,3.745277955,3.859913063,2.39525002,2.081524523,2.351736411,3.212800669,44.65077083,52.95875,48.39064583,40.15029167,45.50197917,58.999625,15.50270833,17.48625,18.17041667,19.35854167,17.07541667,11.253125,301.06,296.98,298.7,303.06,300.56,292.9,0.379,0.763,0.69,0.726,0.737,0.379,0.10400000000000001,0.10400000000000001,0.105,0.10400000000000001,0.106,0.111,0.10400000000000001,1,3.879565293
14,0,1,1,0,0,1,1,2.524050184,3.745277955,3.859913063,2.39525002,2.081524523,2.351736411,49.74964583,44.65077083,52.95875,48.39064583,40.15029167,45.50197917,15.65375,15.50270833,17.48625,18.17041667,19.35854167,17.07541667,300.3,301.06,296.98,298.7,303.06,300.56,0.764,0.379,0.763,0.69,0.726,0.737,0.10400000000000001,0.10400000000000001,0.10400000000000001,0.105,0.10400000000000001,0.106,0.10400000000000001,1,3.258208358
15,0,1,1,0,0,1,1,2.8810044269999997,2.524050184,3.745277955,3.859913063,2.39525002,2.081524523,38.2923125,49.74964583,44.65077083,52.95875,48.39064583,40.15029167,20.404375,15.65375,15.50270833,17.48625,18.17041667,19.35854167,300.66,300.3,301.06,296.98,298.7,303.06,0.662,0.764,0.379,0.763,0.69,0.726,0.10400000000000001,0.10400000000000001,0.10400000000000001,0.10400000000000001,0.105,0.10400000000000001,0.10400000000000001,1,4.491864983999999
16,0,1,1,0,0,1,1,5.291734228999999,2.8810044269999997,2.524050184,3.745277955,3.859913063,2.39525002,55.69089583,38.2923125,49.74964583,44.65077083,52.95875,48.39064583,12.90770833,20.404375,15.65375,15.50270833,17.48625,18.17041667,296.62,300.66,300.3,301.06,296.98,298.7,0.7490000000000001,0.662,0.764,0.379,0.763,0.69,0.105,0.10400000000000001,0.10400000000000001,0.10400000000000001,0.10400000000000001,0.105,0.10400000000000001,1,2.98225341
17,0,1,1,0,0,1,1,2.5899187130000003,5.291734228999999,2.8810044269999997,2.524050184,3.745277955,3.859913063,48.8535,55.69089583,38.2923125,49.74964583,44.65077083,52.95875,14.32979167,12.90770833,20.404375,15.65375,15.50270833,17.48625,301.5,296.62,300.66,300.3,301.06,296.98,0.6829999999999999,0.7490000000000001,0.662,0.764,0.379,0.763,0.105,0.105,0.10400000000000001,0.10400000000000001,0.10400000000000001,0.10400000000000001,0.105,1,2.875944127
18,0,1,1,0,0,1,1,3.518258897,2.5899187130000003,5.291734228999999,2.8810044269999997,2.524050184,3.745277955,41.71291667,48.8535,55.69089583,38.2923125,49.74964583,44.65077083,15.6175,14.32979167,12.90770833,20.404375,15.65375,15.50270833,296.22,301.5,296.62,300.66,300.3,301.06,0.713,0.6829999999999999,0.7490000000000001,0.662,0.764,0.379,0.10400000000000001,0.105,0.105,0.10400000000000001,0.10400000000000001,0.10400000000000001,0.105,1,3.489864097
19,0,1,1,0,0,1,1,3.01507897,3.518258897,2.5899187130000003,5.291734228999999,2.8810044269999997,2.524050184,52.86777083,41.71291667,48.8535,55.69089583,38.2923125,49.74964583,14.61125,15.6175,14.32979167,12.90770833,20.404375,15.65375,303.42,296.22,301.5,296.62,300.66,300.3,0.643,0.713,0.6829999999999999,0.7490000000000001,0.662,0.764,0.10400000000000001,0.10400000000000001,0.105,0.105,0.10400000000000001,0.10400000000000001,0.10400000000000001,1,2.90570102
20,0,1,1,1,0,1,1,3.172347423,3.01507897,3.518258897,2.5899187130000003,5.291734228999999,2.8810044269999997,48.76779167,52.86777083,41.71291667,48.8535,55.69089583,38.2923125,16.4275,14.61125,15.6175,14.32979167,12.90770833,20.404375,295.06,303.42,296.22,301.5,296.62,300.66,0.759,0.643,0.713,0.6829999999999999,0.7490000000000001,0.662,0.105,0.10400000000000001,0.10400000000000001,0.105,0.105,0.10400000000000001,0.10400000000000001,1,3.430493124
21,0,1,1,1,0,1,1,4.455797414,3.172347423,3.01507897,3.518258897,2.5899187130000003,5.291734228999999,51.17260417,48.76779167,52.86777083,41.71291667,48.8535,55.69089583,15.941875,16.4275,14.61125,15.6175,14.32979167,12.90770833,299.02,295.06,303.42,296.22,301.5,296.62,0.618,0.759,0.643,0.713,0.6829999999999999,0.7490000000000001,0.105,0.105,0.10400000000000001,0.10400000000000001,0.105,0.105,0.105,1,2.890995169
22,0,1,1,1,0,1,1,4.038312616,4.455797414,3.172347423,3.01507897,3.518258897,2.5899187130000003,52.33835417,51.17260417,48.76779167,52.86777083,41.71291667,48.8535,11.093125,15.941875,16.4275,14.61125,15.6175,14.32979167,293.86,299.02,295.06,303.42,296.22,301.5,0.759,0.618,0.759,0.643,0.713,0.6829999999999999,0.107,0.105,0.105,0.10400000000000001,0.10400000000000001,0.105,0.105,1,2.6355845209999997
23,0,1,1,1,0,1,1,3.1957136619999997,4.038312616,4.455797414,3.172347423,3.01507897,3.518258897,30.3351875,52.33835417,51.17260417,48.76779167,52.86777083,41.71291667,17.618125,11.093125,15.941875,16.4275,14.61125,15.6175,302.04,293.86,299.02,295.06,303.42,296.22,0.715,0.759,0.618,0.759,0.643,0.713,0.107,0.107,0.105,0.105,0.10400000000000001,0.10400000000000001,0.107,1,3.122258501
24,0,1,1,1,0,1,1,4.362546532,3.1957136619999997,4.038312616,4.455797414,3.172347423,3.01507897,53.92729167,30.3351875,52.33835417,51.17260417,48.76779167,52.86777083,16.78,17.618125,11.093125,15.941875,16.4275,14.61125,300.52,302.04,293.86,299.02,295.06,303.42,0.6659999999999999,0.715,0.759,0.618,0.759,0.643,0.10800000000000001,0.107,0.107,0.105,0.105,0.10400000000000001,0.107,1,2.502915808
25,0,1,1,1,0,1,1,2.8060626539999998,4.362546532,3.1957136619999997,4.038312616,4.455797414,3.172347423,47.645,53.92729167,30.3351875,52.33835417,51.17260417,48.76779167,16.46020833,16.78,17.618125,11.093125,15.941875,16.4275,299.34,300.52,302.04,293.86,299.02,295.06,0.759,0.6659999999999999,0.715,0.759,0.618,0.759,0.10800000000000001,0.10800000000000001,0.107,0.107,0.105,0.105,0.10800000000000001,1,2.88429564
26,0,1,1,1,0,1,1,3.069376127,2.8060626539999998,4.362546532,3.1957136619999997,4.038312616,4.455797414,40.91308333,47.645,53.92729167,30.3351875,52.33835417,51.17260417,18.848125,16.46020833,16.78,17.618125,11.093125,15.941875,306.3,299.34,300.52,302.04,293.86,299.02,0.675,0.759,0.6659999999999999,0.715,0.759,0.618,0.10800000000000001,0.10800000000000001,0.10800000000000001,0.107,0.107,0.105,0.10800000000000001,1,2.8409627630000003
27,0,1,1,1,0,1,1,4.270815549,3.069376127,2.8060626539999998,4.362546532,3.1957136619999997,4.038312616,44.43575,40.91308333,47.645,53.92729167,30.3351875,52.33835417,18.15270833,18.848125,16.46020833,16.78,17.618125,11.093125,296.0,306.3,299.34,300.52,302.04,293.86,0.7859999999999999,0.675,0.759,0.6659999999999999,0.715,0.759,0.10800000000000001,0.10800000000000001,0.10800000000000001,0.10800000000000001,0.107,0.107,0.10800000000000001,1,2.605122391
28,0,1,1,1,0,1,1,2.5523817330000003,4.270815549,3.069376127,2.8060626539999998,4.362546532,3.1957136619999997,55.796625,44.43575,40.91308333,47.645,53.92729167,30.3351875,15.796875,18.15270833,18.848125,16.46020833,16.78,17.618125,304.14,296.0,306.3,299.34,300.52,302.04,0.636,0.7859999999999999,0.675,0.759,0.6659999999999999,0.715,0.10800000000000001,0.10800000000000001,0.10800000000000001,0.10800000000000001,0.10800000000000001,0.107,0.10800000000000001,1,2.557838356
29,0,1,1,1,0,1,1,2.340735929,2.5523817330000003,4.270815549,3.069376127,2.8060626539999998,4.362546532,43.4074375,55.796625,44.43575,40.91308333,47.645,53.92729167,17.989375,15.796875,18.15270833,18.848125,16.46020833,16.78,303.04,304.14,296.0,306.3,299.34,300.52,0.77,0.636,0.7859999999999999,0.675,0.759,0.6659999999999999,0.10800000000000001,0.10800000000000001,0.10800000000000001,0.10800000000000001,0.10800000000000001,0.10800000000000001,0.10800000000000001,1,2.529947603
30,0,1,1,1,0,1,1,2.181064009,2.340735929,2.5523817330000003,4.270815549,3.069376127,2.8060626539999998,25.81916667,43.4074375,55.796625,44.43575,40.91308333,47.645,22.97916667,17.989375,15.796875,18.15270833,18.848125,16.46020833,303.3,303.04,304.14,296.0,306.3,299.34,0.648,0.77,0.636,0.7859999999999999,0.675,0.759,0.10800000000000001,0.10800000000000001,0.10800000000000001,0.10800000000000001,0.10800000000000001,0.10800000000000001,0.10800000000000001,1,2.988926331
31,0,1,1,1,0,1,1,3.4567673880000003,2.181064009,2.340735929,2.5523817330000003,4.270815549,3.069376127,23.94527083,25.81916667,43.4074375,55.796625,44.43575,40.91308333,25.27125,22.97916667,17.989375,15.796875,18.15270833,18.848125,305.98,303.3,303.04,304.14,296.0,306.3,0.7559999999999999,0.648,0.77,0.636,0.7859999999999999,0.675,0.10800000000000001,0.10800000000000001,0.10800000000000001,0.10800000000000001,0.10800000000000001,0.10800000000000001,0.10800000000000001,1,3.3115738660000003
32,0,1,1,1,0,1,1,2.3697889880000003,3.4567673880000003,2.181064009,2.340735929,2.5523817330000003,4.270815549,24.03991667,23.94527083,25.81916667,43.4074375,55.796625,44.43575,23.760625,25.27125,22.97916667,17.989375,15.796875,18.15270833,305.38,305.98,303.3,303.04,304.14,296.0,0.753,0.7559999999999999,0.648,0.77,0.636,0.7859999999999999,0.107,0.10800000000000001,0.10800000000000001,0.10800000000000001,0.10800000000000001,0.10800000000000001,0.10800000000000001,1,2.708472565
33,0,1,1,1,0,1,1,2.730852375,2.3697889880000003,3.4567673880000003,2.181064009,2.340735929,2.5523817330000003,23.308875,24.03991667,23.94527083,25.81916667,43.4074375,55.796625,24.864375,23.760625,25.27125,22.97916667,17.989375,15.796875,309.24,305.38,305.98,303.3,303.04,304.14,0.7020000000000001,0.753,0.7559999999999999,0.648,0.77,0.636,0.107,0.107,0.10800000000000001,0.10800000000000001,0.10800000000000001,0.10800000000000001,0.107,1,2.483350503
34,0,1,1,1,0,1,1,2.627935839,2.730852375,2.3697889880000003,3.4567673880000003,2.181064009,2.340735929,26.86591667,23.308875,24.03991667,23.94527083,25.81916667,43.4074375,25.39541667,24.864375,23.760625,25.27125,22.97916667,17.989375,303.36,309.24,305.38,305.98,303.3,303.04,0.782,0.7020000000000001,0.753,0.7559999999999999,0.648,0.77,0.107,0.107,0.107,0.10800000000000001,0.10800000000000001,0.10800000000000001,0.107,1,2.7123626460000003
35,0,1,1,1,0,1,1,4.27709018,2.627935839,2.730852375,2.3697889880000003,3.4567673880000003,2.181064009,27.15978542,26.86591667,23.308875,24.03991667,23.94527083,25.81916667,23.490625,25.39541667,24.864375,23.760625,25.27125,22.97916667,307.58,303.36,309.24,305.38,305.98,303.3,0.622,0.782,0.7020000000000001,0.753,0.7559999999999999,0.648,0.107,0.107,0.107,0.107,0.10800000000000001,0.10800000000000001,0.107,1,2.730949452
36,0,1,1,1,0,1,1,3.269420072,4.27709018,2.627935839,2.730852375,2.3697889880000003,3.4567673880000003,38.17689583,27.15978542,26.86591667,23.308875,24.03991667,23.94527083,20.41375,23.490625,25.39541667,24.864375,23.760625,25.27125,300.72,307.58,303.36,309.24,305.38,305.98,0.7909999999999999,0.622,0.782,0.7020000000000001,0.753,0.7559999999999999,0.106,0.107,0.107,0.107,0.107,0.10800000000000001,0.107,1,2.281101566
37,0,1,1,1,0,1,1,4.50279147,3.269420072,4.27709018,2.627935839,2.730852375,2.3697889880000003,43.19202083,38.17689583,27.15978542,26.86591667,23.308875,24.03991667,18.63458333,20.41375,23.490625,25.39541667,24.864375,23.760625,305.8,300.72,307.58,303.36,309.24,305.38,0.66,0.7909999999999999,0.622,0.782,0.7020000000000001,0.753,0.106,0.106,0.107,0.107,0.107,0.107,0.106,1,2.290925844
38,0,1,1,1,0,1,1,2.185090991,4.50279147,3.269420072,4.27709018,2.627935839,2.730852375,26.89558333,43.19202083,38.17689583,27.15978542,26.86591667,23.308875,18.08333333,18.63458333,20.41375,23.490625,25.39541667,24.864375,300.58,305.8,300.72,307.58,303.36,309.24,0.753,0.66,0.7909999999999999,0.622,0.782,0.7020000000000001,0.106,0.106,0.106,0.107,0.107,0.107,0.106,1,2.3910182669999998
39,0,1,1,1,0,1,1,2.39583199,2.185090991,4.50279147,3.269420072,4.27709018,2.627935839,25.92695833,26.89558333,43.19202083,38.17689583,27.15978542,26.86591667,17.89520833,18.08333333,18.63458333,20.41375,23.490625,25.39541667,302.38,300.58,305.8,300.72,307.58,303.36,0.703,0.753,0.66,0.7909999999999999,0.622,0.782,0.106,0.106,0.106,0.106,0.107,0.107,0.106,1,2.150708125
40,0,1,1,1,0,1,1,2.3664841930000002,2.39583199,2.185090991,4.50279147,3.269420072,4.27709018,26.64322917,25.92695833,26.89558333,43.19202083,38.17689583,27.15978542,20.44416667,17.89520833,18.08333333,18.63458333,20.41375,23.490625,306.48,302.38,300.58,305.8,300.72,307.58,0.736,0.703,0.753,0.66,0.7909999999999999,0.622,0.106,0.106,0.106,0.106,0.106,0.107,0.106,1,2.0440431180000003
41,0,1,1,1,0,1,1,2.609332153,2.3664841930000002,2.39583199,2.185090991,4.50279147,3.269420072,25.19777083,26.64322917,25.92695833,26.89558333,43.19202083,38.17689583,23.42354167,20.44416667,17.89520833,18.08333333,18.63458333,20.41375,303.42,306.48,302.38,300.58,305.8,300.72,0.778,0.736,0.703,0.753,0.66,0.7909999999999999,0.106,0.106,0.106,0.106,0.106,0.106,0.106,1,1.783158798
42,0,1,1,1,0,1,1,2.93154416,2.609332153,2.3664841930000002,2.39583199,2.185090991,4.50279147,24.45779792,25.19777083,26.64322917,25.92695833,26.89558333,43.19202083,24.56958333,23.42354167,20.44416667,17.89520833,18.08333333,18.63458333,310.28,303.42,306.48,302.38,300.58,305.8,0.655,0.778,0.736,0.703,0.753,0.66,0.106,0.106,0.106,0.106,0.106,0.106,0.106,1,2.289433564
43,0,1,1,1,0,1,1,3.068506788,2.93154416,2.609332153,2.3664841930000002,2.39583199,2.185090991,20.05914583,24.45779792,25.19777083,26.64322917,25.92695833,26.89558333,25.186875,24.56958333,23.42354167,20.44416667,17.89520833,18.08333333,304.64,310.28,303.42,306.48,302.38,300.58,0.7979999999999999,0.655,0.778,0.736,0.703,0.753,0.107,0.106,0.106,0.106,0.106,0.106,0.106,1,2.021084426
44,0,1,1,1,0,1,1,2.943597165,3.068506788,2.93154416,2.609332153,2.3664841930000002,2.39583199,20.66989583,20.05914583,24.45779792,25.19777083,26.64322917,25.92695833,24.43333333,25.186875,24.56958333,23.42354167,20.44416667,17.89520833,310.34,304.64,310.28,303.42,306.48,302.38,0.636,0.7979999999999999,0.655,0.778,0.736,0.703,0.107,0.107,0.106,0.106,0.106,0.106,0.107,1,2.0197395080000002
45,0,1,1,1,0,1,1,4.085940336,2.943597165,3.068506788,2.93154416,2.609332153,2.3664841930000002,22.63420833,20.66989583,20.05914583,24.45779792,25.19777083,26.64322917,23.42541667,24.43333333,25.186875,24.56958333,23.42354167,20.44416667,303.84,310.34,304.64,310.28,303.42,306.48,0.7809999999999999,0.636,0.7979999999999999,0.655,0.778,0.736,0.107,0.107,0.107,0.106,0.106,0.106,0.107,1,2.085572211
46,0,1,1,1,0,1,1,3.370164925,4.085940336,2.943597165,3.068506788,2.93154416,2.609332153,27.977375,22.63420833,20.66989583,20.05914583,24.45779792,25.19777083,22.65604167,23.42541667,24.43333333,25.186875,24.56958333,23.42354167,308.6,303.84,310.34,304.64,310.28,303.42,0.701,0.7809999999999999,0.636,0.7979999999999999,0.655,0.778,0.107,0.107,0.107,0.107,0.106,0.106,0.107,1,1.47372295
47,0,1,1,1,0,1,1,2.533384001,3.370164925,4.085940336,2.943597165,3.068506788,2.93154416,23.80435417,27.977375,22.63420833,20.66989583,20.05914583,24.45779792,25.070625,22.65604167,23.42541667,24.43333333,25.186875,24.56958333,306.52,308.6,303.84,310.34,304.64,310.28,0.616,0.701,0.7809999999999999,0.636,0.7979999999999999,0.655,0.10800000000000001,0.107,0.107,0.107,0.107,0.106,0.107,1,1.696486149
48,0,1,1,1,0,1,1,3.249693321,2.533384001,3.370164925,4.085940336,2.943597165,3.068506788,27.5105,23.80435417,27.977375,22.63420833,20.66989583,20.05914583,25.69458333,25.070625,22.65604167,23.42541667,24.43333333,25.186875,303.48,306.52,308.6,303.84,310.34,304.64,0.83,0.616,0.701,0.7809999999999999,0.636,0.7979999999999999,0.10800000000000001,0.10800000000000001,0.107,0.107,0.107,0.107,0.10800000000000001,1,1.522821565
49,1,0,0,0,0,1,1,3.300238007,3.249693321,2.533384001,3.370164925,4.085940336,2.943597165,29.31208333,27.5105,23.80435417,27.977375,22.63420833,20.66989583,21.46041667,25.69458333,25.070625,22.65604167,23.42541667,24.43333333,299.38,303.48,306.52,308.6,303.84,310.34,0.78,0.83,0.616,0.701,0.7809999999999999,0.636,0.109,0.10800000000000001,0.10800000000000001,0.107,0.107,0.107,0.10800000000000001,1,1.8433493230000002
50,1,0,0,0,0,1,1,2.89787234,3.0729787230000003,1.859130435,1.720217391,1.7083333330000001,1.544782609,32.55446809,44.41255319,41.64173913,37.14630435,33.58083333,37.35326087,21.4287234,21.83212766,23.46021739,23.29195652,23.70916667,22.93521739,305.86,308.66,310.34,311.24,316.3,309.14,0.556,0.63,0.34700000000000003,0.529,0.44299999999999995,0.575,0.10400000000000001,0.10400000000000001,0.105,0.10400000000000001,0.105,0.10400000000000001,0.105,0,1.119222434
51,1,0,0,1,0,1,1,1.508043478,2.89787234,3.0729787230000003,1.859130435,1.720217391,1.7083333330000001,64.52804348,32.55446809,44.41255319,41.64173913,37.14630435,33.58083333,18.23152174,21.4287234,21.83212766,23.46021739,23.29195652,23.70916667,299.5,305.86,308.66,310.34,311.24,316.3,0.019,0.556,0.63,0.34700000000000003,0.529,0.44299999999999995,0.12300000000000001,0.121,0.105,0.105,0.10400000000000001,0.105,0.10400000000000001,0,1.0086232640000001
52,1,0,0,1,0,1,1,1.195208333,1.508043478,2.89787234,3.0729787230000003,1.859130435,1.720217391,64.555625,64.52804348,32.55446809,44.41255319,41.64173913,37.14630435,7.53,18.23152174,21.4287234,21.83212766,23.46021739,23.29195652,290.74,299.5,305.86,308.66,310.34,311.24,0.439,0.019,0.556,0.63,0.34700000000000003,0.529,0.114,0.121,0.10400000000000001,0.105,0.105,0.10400000000000001,0.12300000000000001,0,1.82920048
53,1,0,0,1,0,1,1,1.31875,1.195208333,1.508043478,2.89787234,3.0729787230000003,1.859130435,71.12166667,64.555625,64.52804348,32.55446809,44.41255319,41.64173913,10.41979167,7.53,18.23152174,21.4287234,21.83212766,23.46021739,295.92,290.74,299.5,305.86,308.66,310.34,0.473,0.439,0.019,0.556,0.63,0.34700000000000003,0.114,0.114,0.12300000000000001,0.10400000000000001,0.105,0.105,0.114,0,1.728529514
54,1,0,0,1,0,1,1,1.3922916669999998,1.31875,1.195208333,1.508043478,2.89787234,3.0729787230000003,64.88770833,71.12166667,64.555625,64.52804348,32.55446809,44.41255319,11.35479167,10.41979167,7.53,18.23152174,21.4287234,21.83212766,295.54,295.92,290.74,299.5,305.86,308.66,0.5720000000000001,0.473,0.439,0.019,0.556,0.63,0.113,0.114,0.114,0.12300000000000001,0.10400000000000001,0.105,0.114,0,1.683856069
55,1,0,0,1,0,1,1,1.271914894,1.3922916669999998,1.31875,1.195208333,1.508043478,2.89787234,59.06808511,64.88770833,71.12166667,64.555625,64.52804348,32.55446809,12.66191489,11.35479167,10.41979167,7.53,18.23152174,21.4287234,297.06,295.54,295.92,290.74,299.5,305.86,0.47200000000000003,0.5720000000000001,0.473,0.439,0.019,0.556,0.113,0.113,0.114,0.114,0.12300000000000001,0.10400000000000001,0.113,0,1.807638295
56,1,0,1,0,0,1,1,2.945416667,1.271914894,1.3922916669999998,1.31875,1.195208333,1.508043478,63.6125,59.06808511,64.88770833,71.12166667,64.555625,64.52804348,7.1547916670000005,12.66191489,11.35479167,10.41979167,7.53,18.23152174,289.52,297.06,295.54,295.92,290.74,299.5,0.49700000000000005,0.47200000000000003,0.5720000000000001,0.473,0.439,0.019,0.114,0.113,0.113,0.114,0.114,0.12300000000000001,0.113,0,1.005128384
57,1,0,1,0,0,1,1,2.098125,2.945416667,1.271914894,1.3922916669999998,1.31875,1.195208333,65.58125,63.6125,59.06808511,64.88770833,71.12166667,64.555625,3.115625,7.1547916670000005,12.66191489,11.35479167,10.41979167,7.53,286.48,289.52,297.06,295.54,295.92,290.74,0.1,0.49700000000000005,0.47200000000000003,0.5720000000000001,0.473,0.439,0.114,0.114,0.113,0.113,0.114,0.114,0.114,0,1.207393111
58,1,0,1,0,0,1,1,1.32375,2.098125,2.945416667,1.271914894,1.3922916669999998,1.31875,61.51083333,65.58125,63.6125,59.06808511,64.88770833,71.12166667,3.8127083330000002,3.115625,7.1547916670000005,12.66191489,11.35479167,10.41979167,284.94,286.48,289.52,297.06,295.54,295.92,0.562,0.1,0.49700000000000005,0.47200000000000003,0.5720000000000001,0.473,0.114,0.114,0.114,0.113,0.113,0.114,0.114,0,1.190432889
59,1,0,1,0,0,1,1,1.231458333,1.32375,2.098125,2.945416667,1.271914894,1.3922916669999998,60.70833333,61.51083333,65.58125,63.6125,59.06808511,64.88770833,4.735,3.8127083330000002,3.115625,7.1547916670000005,12.66191489,11.35479167,291.58,284.94,286.48,289.52,297.06,295.54,0.451,0.562,0.1,0.49700000000000005,0.47200000000000003,0.5720000000000001,0.114,0.114,0.114,0.114,0.113,0.113,0.114,0,1.149553775
60,1,0,1,0,0,1,1,1.083541667,1.231458333,1.32375,2.098125,2.945416667,1.271914894,74.126875,60.70833333,61.51083333,65.58125,63.6125,59.06808511,0.1875,4.735,3.8127083330000002,3.115625,7.1547916670000005,12.66191489,280.24,291.58,284.94,286.48,289.52,297.06,0.521,0.451,0.562,0.1,0.49700000000000005,0.47200000000000003,0.114,0.114,0.114,0.114,0.114,0.113,0.114,0,1.233269993
61,1,0,1,0,0,1,1,1.067291667,1.083541667,1.231458333,1.32375,2.098125,2.945416667,75.28895833,74.126875,60.70833333,61.51083333,65.58125,63.6125,1.64125,0.1875,4.735,3.8127083330000002,3.115625,7.1547916670000005,279.42,280.24,291.58,284.94,286.48,289.52,0.348,0.521,0.451,0.562,0.1,0.49700000000000005,0.114,0.114,0.114,0.114,0.114,0.114,0.114,0,1.211239328
62,1,0,1,0,0,1,1,1.239375,1.067291667,1.083541667,1.231458333,1.32375,2.098125,63.38291667,75.28895833,74.126875,60.70833333,61.51083333,65.58125,5.061458333,1.64125,0.1875,4.735,3.8127083330000002,3.115625,287.38,279.42,280.24,291.58,284.94,286.48,0.5329999999999999,0.348,0.521,0.451,0.562,0.1,0.113,0.114,0.114,0.114,0.114,0.114,0.114,0,1.403227581
63,1,0,1,0,0,1,1,2.632291667,1.239375,1.067291667,1.083541667,1.231458333,1.32375,45.18833333,63.38291667,75.28895833,74.126875,60.70833333,61.51083333,8.51,5.061458333,1.64125,0.1875,4.735,3.8127083330000002,292.46,287.38,279.42,280.24,291.58,284.94,0.49,0.5329999999999999,0.348,0.521,0.451,0.562,0.11199999999999999,0.113,0.114,0.114,0.114,0.114,0.113,0,1.38312307
64,1,0,1,0,0,1,1,3.3628571430000003,2.632291667,1.239375,1.067291667,1.083541667,1.231458333,72.95452381,45.18833333,63.38291667,75.28895833,74.126875,60.70833333,9.068095238,8.51,5.061458333,1.64125,0.1875,4.735,278.0,292.46,287.38,279.42,280.24,291.58,0.35,0.49,0.5329999999999999,0.348,0.521,0.451,0.111,0.11,0.113,0.114,0.114,0.114,0.11199999999999999,0,1.675413602
65,1,0,1,0,0,1,1,1.115625,3.3628571430000003,2.632291667,1.239375,1.067291667,1.083541667,78.140625,72.95452381,45.18833333,63.38291667,75.28895833,74.126875,5.652916667,9.068095238,8.51,5.061458333,1.64125,0.1875,286.78,278.0,292.46,287.38,279.42,280.24,0.547,0.35,0.49,0.5329999999999999,0.348,0.521,0.111,0.111,0.11199999999999999,0.113,0.114,0.114,0.111,0,1.707927067
66,1,0,1,0,0,1,1,0.985833333,1.115625,3.3628571430000003,2.632291667,1.239375,1.067291667,79.17583333,78.140625,72.95452381,45.18833333,63.38291667,75.28895833,5.402708333,5.652916667,9.068095238,8.51,5.061458333,1.64125,285.08,286.78,278.0,292.46,287.38,279.42,0.498,0.547,0.35,0.49,0.5329999999999999,0.348,0.111,0.111,0.111,0.11199999999999999,0.113,0.114,0.111,0,1.389458915
67,1,0,1,0,0,1,1,1.795,0.985833333,1.115625,3.3628571430000003,2.632291667,1.239375,63.08208333,79.17583333,78.140625,72.95452381,45.18833333,63.38291667,9.195,5.402708333,5.652916667,9.068095238,8.51,5.061458333,289.78,285.08,286.78,278.0,292.46,287.38,0.508,0.498,0.547,0.35,0.49,0.5329999999999999,0.111,0.111,0.111,0.111,0.11199999999999999,0.113,0.111,0,1.7461645590000001
68,1,0,1,0,0,1,1,0.934791667,1.795,0.985833333,1.115625,3.3628571430000003,2.632291667,81.52354167,63.08208333,79.17583333,78.140625,72.95452381,45.18833333,5.613958332999999,9.195,5.402708333,5.652916667,9.068095238,8.51,288.12,289.78,285.08,286.78,278.0,292.46,0.503,0.508,0.498,0.547,0.35,0.49,0.11,0.11,0.111,0.111,0.111,0.11199999999999999,0.111,0,1.078230644
69,1,0,1,0,0,1,1,1.353958333,0.934791667,1.795,0.985833333,1.115625,3.3628571430000003,49.49833333,81.52354167,63.08208333,79.17583333,78.140625,72.95452381,4.8575,5.613958332999999,9.195,5.402708333,5.652916667,9.068095238,285.24,288.12,289.78,285.08,286.78,278.0,0.614,0.503,0.508,0.498,0.547,0.35,0.111,0.111,0.111,0.111,0.111,0.111,0.11,0,1.300056217
70,1,0,1,1,0,1,1,1.133958333,1.353958333,0.934791667,1.795,0.985833333,1.115625,74.30854167,49.49833333,81.52354167,63.08208333,79.17583333,78.140625,-0.705416667,4.8575,5.613958332999999,9.195,5.402708333,5.652916667,275.84,285.24,288.12,289.78,285.08,286.78,0.44299999999999995,0.614,0.503,0.508,0.498,0.547,0.11199999999999999,0.111,0.11,0.111,0.111,0.111,0.111,0,1.085422829
71,0,0,0,1,0,1,1,3.223946901,1.133958333,1.353958333,0.934791667,1.795,0.985833333,45.03964706,74.30854167,49.49833333,81.52354167,63.08208333,79.17583333,8.287202941,-0.705416667,4.8575,5.613958332999999,9.195,5.402708333,277.5,275.84,285.24,288.12,289.78,285.08,0.5539999999999999,0.44299999999999995,0.614,0.503,0.508,0.498,0.11599999999999999,0.11900000000000001,0.111,0.11,0.111,0.111,0.11199999999999999,0,1.1228000040000001
72,0,0,1,0,0,1,1,1.5454850340000001,3.223946901,1.133958333,1.353958333,0.934791667,1.795,57.93889583,45.03964706,74.30854167,49.49833333,81.52354167,63.08208333,6.649485146,8.287202941,-0.705416667,4.8575,5.613958332999999,9.195,281.12,277.5,275.84,285.24,288.12,289.78,0.59,0.5539999999999999,0.44299999999999995,0.614,0.503,0.508,0.11,0.10800000000000001,0.11199999999999999,0.111,0.11,0.111,0.11599999999999999,0,1.116873993
73,0,0,1,1,0,1,1,2.192516699,1.5454850340000001,3.223946901,1.133958333,1.353958333,0.934791667,63.63034483,57.93889583,45.03964706,74.30854167,49.49833333,81.52354167,1.239605517,6.649485146,8.287202941,-0.705416667,4.8575,5.613958332999999,273.62,281.12,277.5,275.84,285.24,288.12,0.14400000000000002,0.59,0.5539999999999999,0.44299999999999995,0.614,0.503,0.397,0.42100000000000004,0.11599999999999999,0.11199999999999999,0.111,0.11,0.11,0,1.054774356
74,0,0,1,1,0,1,1,1.151046981,2.192516699,1.5454850340000001,3.223946901,1.133958333,1.353958333,68.32383333,63.63034483,57.93889583,45.03964706,74.30854167,49.49833333,3.013504792,1.239605517,6.649485146,8.287202941,-0.705416667,4.8575,282.72,273.62,281.12,277.5,275.84,285.24,0.568,0.14400000000000002,0.59,0.5539999999999999,0.44299999999999995,0.614,0.10300000000000001,0.38799999999999996,0.11,0.11599999999999999,0.11199999999999999,0.111,0.397,0,1.193651037
75,0,0,1,1,0,1,1,1.122882888,1.151046981,2.192516699,1.5454850340000001,3.223946901,1.133958333,70.17797917,68.32383333,63.63034483,57.93889583,45.03964706,74.30854167,3.060144375,3.013504792,1.239605517,6.649485146,8.287202941,-0.705416667,279.78,282.72,273.62,281.12,277.5,275.84,0.335,0.568,0.14400000000000002,0.59,0.5539999999999999,0.44299999999999995,0.107,0.10300000000000001,0.397,0.11,0.11599999999999999,0.11199999999999999,0.10300000000000001,0,1.014906801
76,0,1,0,0,0,1,1,1.44866269,1.122882888,1.151046981,2.192516699,1.5454850340000001,3.223946901,56.49309091,70.17797917,68.32383333,63.63034483,57.93889583,45.03964706,2.9852173410000002,3.060144375,3.013504792,1.239605517,6.649485146,8.287202941,297.66,279.78,282.72,273.62,281.12,277.5,0.38799999999999996,0.335,0.568,0.14400000000000002,0.59,0.5539999999999999,0.107,0.107,0.10300000000000001,0.397,0.11,0.11599999999999999,0.107,0,1.114857129
77,0,1,0,0,0,1,1,1.431879378,1.44866269,1.122882888,1.151046981,2.192516699,1.5454850340000001,49.36627273,56.49309091,70.17797917,68.32383333,63.63034483,57.93889583,12.43604409,2.9852173410000002,3.060144375,3.013504792,1.239605517,6.649485146,304.02,297.66,279.78,282.72,273.62,281.12,0.42100000000000004,0.38799999999999996,0.335,0.568,0.14400000000000002,0.59,0.107,0.107,0.107,0.10300000000000001,0.397,0.11,0.107,0,1.418540069
78,0,1,0,0,0,1,1,1.5953040809999999,1.431879378,1.44866269,1.122882888,1.151046981,2.192516699,50.63193478,49.36627273,56.49309091,70.17797917,68.32383333,63.63034483,13.15947826,12.43604409,2.9852173410000002,3.060144375,3.013504792,1.239605517,301.34,304.02,297.66,279.78,282.72,273.62,0.474,0.42100000000000004,0.38799999999999996,0.335,0.568,0.14400000000000002,0.10800000000000001,0.107,0.107,0.107,0.10300000000000001,0.397,0.107,0,1.097054435
79,0,1,0,1,0,1,1,1.346094994,1.5953040809999999,1.431879378,1.44866269,1.122882888,1.151046981,61.72483721,50.63193478,49.36627273,56.49309091,70.17797917,68.32383333,7.400818605,13.15947826,12.43604409,2.9852173410000002,3.060144375,3.013504792,298.88,301.34,304.02,297.66,279.78,282.72,0.49,0.474,0.42100000000000004,0.38799999999999996,0.335,0.568,0.109,0.10800000000000001,0.107,0.107,0.107,0.10300000000000001,0.10800000000000001,0,1.37544755
80,0,1,0,1,0,1,1,2.549011765,1.346094994,1.5953040809999999,1.431879378,1.44866269,1.122882888,55.76095556,61.72483721,50.63193478,49.36627273,56.49309091,70.17797917,12.10084378,7.400818605,13.15947826,12.43604409,2.9852173410000002,3.060144375,296.1,298.88,301.34,304.02,297.66,279.78,0.469,0.49,0.474,0.42100000000000004,0.38799999999999996,0.335,0.109,0.109,0.10800000000000001,0.107,0.107,0.107,0.109,0,1.126783027
81,0,1,0,1,0,1,1,1.466311673,2.549011765,1.346094994,1.5953040809999999,1.431879378,1.44866269,63.003625,55.76095556,61.72483721,50.63193478,49.36627273,56.49309091,11.08284283,12.10084378,7.400818605,13.15947826,12.43604409,2.9852173410000002,298.58,296.1,298.88,301.34,304.02,297.66,0.52,0.469,0.49,0.474,0.42100000000000004,0.38799999999999996,0.11199999999999999,0.109,0.109,0.10800000000000001,0.107,0.107,0.109,0,1.03122512
82,0,1,0,1,0,1,1,1.7118923,1.466311673,2.549011765,1.346094994,1.5953040809999999,1.431879378,51.93816667,63.003625,55.76095556,61.72483721,50.63193478,49.36627273,12.6774881,11.08284283,12.10084378,7.400818605,13.15947826,12.43604409,308.96,298.58,296.1,298.88,301.34,304.02,0.389,0.52,0.469,0.49,0.474,0.42100000000000004,0.10800000000000001,0.107,0.109,0.109,0.10800000000000001,0.107,0.11199999999999999,0,1.975281219
83,0,1,0,1,0,1,1,1.6303554169999999,1.7118923,1.466311673,2.549011765,1.346094994,1.5953040809999999,48.00261364,51.93816667,63.003625,55.76095556,61.72483721,50.63193478,14.11475,12.6774881,11.08284283,12.10084378,7.400818605,13.15947826,300.9,308.96,298.58,296.1,298.88,301.34,0.5670000000000001,0.389,0.52,0.469,0.49,0.474,0.11,0.10800000000000001,0.11199999999999999,0.109,0.109,0.10800000000000001,0.10800000000000001,0,2.281547816
84,0,1,0,1,0,1,1,2.052017724,1.6303554169999999,1.7118923,1.466311673,2.549011765,1.346094994,50.82573913,48.00261364,51.93816667,63.003625,55.76095556,61.72483721,16.12831739,14.11475,12.6774881,11.08284283,12.10084378,7.400818605,313.5,300.9,308.96,298.58,296.1,298.88,0.389,0.5670000000000001,0.389,0.52,0.469,0.49,0.11,0.11,0.10800000000000001,0.11199999999999999,0.109,0.109,0.11,0,1.630056344
85,0,1,0,1,0,1,1,2.044101454,2.052017724,1.6303554169999999,1.7118923,1.466311673,2.549011765,52.39195455,50.82573913,48.00261364,51.93816667,63.003625,55.76095556,12.53638636,16.12831739,14.11475,12.6774881,11.08284283,12.10084378,301.52,313.5,300.9,308.96,298.58,296.1,0.494,0.389,0.5670000000000001,0.389,0.52,0.469,0.111,0.111,0.11,0.10800000000000001,0.11199999999999999,0.109,0.11,0,1.902521004
86,0,1,0,1,0,1,1,1.3506285130000002,2.044101454,2.052017724,1.6303554169999999,1.7118923,1.466311673,59.71947619,52.39195455,50.82573913,48.00261364,51.93816667,63.003625,11.55921762,12.53638636,16.12831739,14.11475,12.6774881,11.08284283,300.4,301.52,313.5,300.9,308.96,298.58,0.5329999999999999,0.494,0.389,0.5670000000000001,0.389,0.52,0.109,0.111,0.11,0.11,0.10800000000000001,0.11199999999999999,0.111,0,2.068393061
87,0,1,0,1,0,1,1,1.4882312469999999,1.3506285130000002,2.044101454,2.052017724,1.6303554169999999,1.7118923,56.27812195,59.71947619,52.39195455,50.82573913,48.00261364,51.93816667,14.75827073,11.55921762,12.53638636,16.12831739,14.11475,12.6774881,310.86,300.4,301.52,313.5,300.9,308.96,0.401,0.5329999999999999,0.494,0.389,0.5670000000000001,0.389,0.109,0.109,0.111,0.11,0.11,0.10800000000000001,0.109,0,2.09229939
88,0,1,0,1,0,1,1,1.891404254,1.4882312469999999,1.3506285130000002,2.044101454,2.052017724,1.6303554169999999,54.69495349,56.27812195,59.71947619,52.39195455,50.82573913,48.00261364,12.39762907,14.75827073,11.55921762,12.53638636,16.12831739,14.11475,302.14,310.86,300.4,301.52,313.5,300.9,0.467,0.401,0.5329999999999999,0.494,0.389,0.5670000000000001,0.109,0.109,0.109,0.111,0.11,0.11,0.109,0,1.600350049
89,0,1,0,1,0,1,1,3.128357583,1.891404254,1.4882312469999999,1.3506285130000002,2.044101454,2.052017724,49.57582609,54.69495349,56.27812195,59.71947619,52.39195455,50.82573913,15.08914783,12.39762907,14.75827073,11.55921762,12.53638636,16.12831739,302.96,302.14,310.86,300.4,301.52,313.5,0.49,0.467,0.401,0.5329999999999999,0.494,0.389,0.10800000000000001,0.109,0.109,0.109,0.111,0.11,0.109,0,1.363285738
90,0,1,0,1,0,1,1,1.934510336,3.128357583,1.891404254,1.4882312469999999,1.3506285130000002,2.044101454,53.03048936,49.57582609,54.69495349,56.27812195,59.71947619,52.39195455,7.634200637999999,15.08914783,12.39762907,14.75827073,11.55921762,12.53638636,292.94,302.96,302.14,310.86,300.4,301.52,0.588,0.49,0.467,0.401,0.5329999999999999,0.494,0.107,0.10800000000000001,0.109,0.109,0.109,0.111,0.10800000000000001,0,2.294717495
91,0,1,1,0,0,1,1,1.758557075,1.934510336,3.128357583,1.891404254,1.4882312469999999,1.3506285130000002,50.32402273,53.03048936,49.57582609,54.69495349,56.27812195,59.71947619,14.02527955,7.634200637999999,15.08914783,12.39762907,14.75827073,11.55921762,308.58,292.94,302.96,302.14,310.86,300.4,0.40299999999999997,0.588,0.49,0.467,0.401,0.5329999999999999,0.105,0.106,0.10800000000000001,0.109,0.109,0.109,0.107,0,1.567364939
92,0,1,1,0,0,1,1,1.803779232,1.758557075,1.934510336,3.128357583,1.891404254,1.4882312469999999,49.67729167,50.32402273,53.03048936,49.57582609,54.69495349,56.27812195,13.83013813,14.02527955,7.634200637999999,15.08914783,12.39762907,14.75827073,294.56,308.58,292.94,302.96,302.14,310.86,0.301,0.40299999999999997,0.588,0.49,0.467,0.401,0.10400000000000001,0.10400000000000001,0.107,0.10800000000000001,0.109,0.109,0.105,0,1.6670638080000002
93,0,1,1,0,0,1,1,2.76723183,1.803779232,1.758557075,1.934510336,3.128357583,1.891404254,49.33954167,49.67729167,50.32402273,53.03048936,49.57582609,54.69495349,16.6051875,13.83013813,14.02527955,7.634200637999999,15.08914783,12.39762907,308.4,294.56,308.58,292.94,302.96,302.14,0.39399999999999996,0.301,0.40299999999999997,0.588,0.49,0.467,0.109,0.10800000000000001,0.105,0.107,0.10800000000000001,0.109,0.10400000000000001,0,1.097827913
94,0,1,1,0,0,1,1,1.96309558,2.76723183,1.803779232,1.758557075,1.934510336,3.128357583,48.56633333,49.33954167,49.67729167,50.32402273,53.03048936,49.57582609,18.73719792,16.6051875,13.83013813,14.02527955,7.634200637999999,15.08914783,304.9,308.4,294.56,308.58,292.94,302.96,0.586,0.39399999999999996,0.301,0.40299999999999997,0.588,0.49,0.10800000000000001,0.109,0.10400000000000001,0.105,0.107,0.10800000000000001,0.109,0,1.144196927
95,0,1,1,0,0,1,1,1.563450276,1.96309558,2.76723183,1.803779232,1.758557075,1.934510336,49.095875,48.56633333,49.33954167,49.67729167,50.32402273,53.03048936,13.51386729,18.73719792,16.6051875,13.83013813,14.02527955,7.634200637999999,303.42,304.9,308.4,294.56,308.58,292.94,0.519,0.586,0.39399999999999996,0.301,0.40299999999999997,0.588,0.106,0.10800000000000001,0.109,0.10400000000000001,0.105,0.107,0.10800000000000001,0,1.0758026790000002
96,0,1,1,1,0,1,1,1.4925164469999999,1.563450276,1.96309558,2.76723183,1.803779232,1.758557075,41.27960417,49.095875,48.56633333,49.33954167,49.67729167,50.32402273,11.91200694,13.51386729,18.73719792,16.6051875,13.83013813,14.02527955,299.76,303.42,304.9,308.4,294.56,308.58,0.575,0.519,0.586,0.39399999999999996,0.301,0.40299999999999997,0.105,0.106,0.10800000000000001,0.109,0.10400000000000001,0.105,0.106,0,2.5306507000000003
97,0,1,1,1,0,1,1,2.172657455,1.4925164469999999,1.563450276,1.96309558,2.76723183,1.803779232,39.11458333,41.27960417,49.095875,48.56633333,49.33954167,49.67729167,20.42516667,11.91200694,13.51386729,18.73719792,16.6051875,13.83013813,302.04,299.76,303.42,304.9,308.4,294.56,0.639,0.575,0.519,0.586,0.39399999999999996,0.301,0.106,0.106,0.106,0.10800000000000001,0.109,0.10400000000000001,0.105,0,1.7425022469999998
98,0,1,1,1,0,1,1,1.670821388,2.172657455,1.4925164469999999,1.563450276,1.96309558,2.76723183,49.7246875,39.11458333,41.27960417,49.095875,48.56633333,49.33954167,16.5458125,20.42516667,11.91200694,13.51386729,18.73719792,16.6051875,313.0,302.04,299.76,303.42,304.9,308.4,0.39799999999999996,0.639,0.575,0.519,0.586,0.39399999999999996,0.106,0.106,0.105,0.106,0.10800000000000001,0.109,0.106,0,2.287629339
99,0,1,1,1,0,1,1,1.517598049,1.670821388,2.172657455,1.4925164469999999,1.563450276,1.96309558,37.81879167,49.7246875,39.11458333,41.27960417,49.095875,48.56633333,20.01205417,16.5458125,20.42516667,11.91200694,13.51386729,18.73719792,309.48,313.0,302.04,299.76,303.42,304.9,0.518,0.39799999999999996,0.639,0.575,0.519,0.586,0.106,0.106,0.106,0.105,0.106,0.10800000000000001,0.106,0,2.271998866
100,0,1,1,1,0,1,1,2.663664158,1.517598049,1.670821388,2.172657455,1.4925164469999999,1.563450276,34.6599375,37.81879167,49.7246875,39.11458333,41.27960417,49.095875,22.87854792,20.01205417,16.5458125,20.42516667,11.91200694,13.51386729,302.9,309.48,313.0,302.04,299.76,303.42,0.433,0.518,0.39799999999999996,0.639,0.575,0.519,0.106,0.106,0.106,0.106,0.105,0.106,0.106,0,2.182147697
101,0,1,1,1,0,1,1,1.650654349,2.663664158,1.517598049,1.670821388,2.172657455,1.4925164469999999,29.25364583,34.6599375,37.81879167,49.7246875,39.11458333,41.27960417,23.03471667,22.87854792,20.01205417,16.5458125,20.42516667,11.91200694,313.06,302.9,309.48,313.0,302.04,299.76,0.46399999999999997,0.433,0.518,0.39799999999999996,0.639,0.575,0.106,0.106,0.106,0.106,0.106,0.105,0.106,0,2.6383176219999998
102,0,1,1,1,0,1,1,1.8864421219999998,1.650654349,2.663664158,1.517598049,1.670821388,2.172657455,34.89485417,29.25364583,34.6599375,37.81879167,49.7246875,39.11458333,22.63945208,23.03471667,22.87854792,20.01205417,16.5458125,20.42516667,310.12,313.06,302.9,309.48,313.0,302.04,0.551,0.46399999999999997,0.433,0.518,0.39799999999999996,0.639,0.106,0.106,0.106,0.106,0.106,0.106,0.106,0,2.1846911159999998
103,0,1,1,1,0,1,1,2.042653498,1.8864421219999998,1.650654349,2.663664158,1.517598049,1.670821388,35.33622917,34.89485417,29.25364583,34.6599375,37.81879167,49.7246875,23.81939583,22.63945208,23.03471667,22.87854792,20.01205417,16.5458125,316.7,310.12,313.06,302.9,309.48,313.0,0.39299999999999996,0.551,0.46399999999999997,0.433,0.518,0.39799999999999996,0.106,0.106,0.106,0.106,0.106,0.106,0.106,0,1.899314055
104,0,1,1,1,0,1,1,2.552069655,2.042653498,1.8864421219999998,1.650654349,2.663664158,1.517598049,34.42561667,35.33622917,34.89485417,29.25364583,34.6599375,37.81879167,22.62119375,23.81939583,22.63945208,23.03471667,22.87854792,20.01205417,309.36,316.7,310.12,313.06,302.9,309.48,0.5579999999999999,0.39299999999999996,0.551,0.46399999999999997,0.433,0.518,0.105,0.106,0.106,0.106,0.106,0.106,0.106,0,2.166575472
105,0,1,1,1,0,1,1,3.206378123,2.552069655,2.042653498,1.8864421219999998,1.650654349,2.663664158,38.29285417,34.42561667,35.33622917,34.89485417,29.25364583,34.6599375,21.76064583,22.62119375,23.81939583,22.63945208,23.03471667,22.87854792,315.8,309.36,316.7,310.12,313.06,302.9,0.39,0.5579999999999999,0.39299999999999996,0.551,0.46399999999999997,0.433,0.106,0.105,0.106,0.106,0.106,0.106,0.105,0,1.934112165
106,0,1,1,1,0,1,1,3.3531922180000002,3.206378123,2.552069655,2.042653498,1.8864421219999998,1.650654349,41.29214583,38.29285417,34.42561667,35.33622917,34.89485417,29.25364583,19.66177708,21.76064583,22.62119375,23.81939583,22.63945208,23.03471667,308.16,315.8,309.36,316.7,310.12,313.06,0.555,0.39,0.5579999999999999,0.39299999999999996,0.551,0.46399999999999997,0.106,0.106,0.105,0.106,0.106,0.106,0.106,0,1.658503932
107,0,1,1,1,0,1,1,1.817667965,3.3531922180000002,3.206378123,2.552069655,2.042653498,1.8864421219999998,38.15991667,41.29214583,38.29285417,34.42561667,35.33622917,34.89485417,16.9033125,19.66177708,21.76064583,22.62119375,23.81939583,22.63945208,313.96,308.16,315.8,309.36,316.7,310.12,0.41,0.555,0.39,0.5579999999999999,0.39299999999999996,0.551,0.106,0.106,0.106,0.105,0.106,0.106,0.106,0,1.9099354869999998
108,0,1,1,1,0,1,1,2.038959788,1.817667965,3.3531922180000002,3.206378123,2.552069655,2.042653498,41.095625,38.15991667,41.29214583,38.29285417,34.42561667,35.33622917,15.65768542,16.9033125,19.66177708,21.76064583,22.62119375,23.81939583,307.22,313.96,308.16,315.8,309.36,316.7,0.524,0.41,0.555,0.39,0.5579999999999999,0.39299999999999996,0.106,0.106,0.106,0.106,0.105,0.106,0.106,0,1.6244635269999999
109,0,1,1,1,0,1,1,1.5232132269999998,2.038959788,1.817667965,3.3531922180000002,3.206378123,2.552069655,38.45629167,41.095625,38.15991667,41.29214583,38.29285417,34.42561667,17.78118125,15.65768542,16.9033125,19.66177708,21.76064583,22.62119375,308.52,307.22,313.96,308.16,315.8,309.36,0.48,0.524,0.41,0.555,0.39,0.5579999999999999,0.106,0.106,0.106,0.106,0.106,0.105,0.106,0,1.567801468
110,0,1,1,1,0,1,1,2.079970611,1.5232132269999998,2.038959788,1.817667965,3.3531922180000002,3.206378123,35.00552083,38.45629167,41.095625,38.15991667,41.29214583,38.29285417,21.00018125,17.78118125,15.65768542,16.9033125,19.66177708,21.76064583,313.78,308.52,307.22,313.96,308.16,315.8,0.43700000000000006,0.48,0.524,0.41,0.555,0.39,0.106,0.106,0.106,0.106,0.106,0.106,0.106,0,1.396353041
111,0,1,1,1,0,1,1,2.112705482,2.079970611,1.5232132269999998,2.038959788,1.817667965,3.3531922180000002,36.46229167,35.00552083,38.45629167,41.095625,38.15991667,41.29214583,22.75944375,21.00018125,17.78118125,15.65768542,16.9033125,19.66177708,307.04,313.78,308.52,307.22,313.96,308.16,0.53,0.43700000000000006,0.48,0.524,0.41,0.555,0.106,0.106,0.106,0.106,0.106,0.106,0.106,0,1.8033873219999998
112,0,1,1,1,0,1,1,2.348079947,2.112705482,2.079970611,1.5232132269999998,2.038959788,1.817667965,29.84070833,36.46229167,35.00552083,38.45629167,41.095625,38.15991667,23.53192292,22.75944375,21.00018125,17.78118125,15.65768542,16.9033125,318.56,307.04,313.78,308.52,307.22,313.96,0.39399999999999996,0.53,0.43700000000000006,0.48,0.524,0.41,0.106,0.106,0.106,0.106,0.106,0.106,0.106,0,1.489868652
113,0,1,1,1,0,1,1,2.315169931,2.348079947,2.112705482,2.079970611,1.5232132269999998,2.038959788,28.23539583,29.84070833,36.46229167,35.00552083,38.45629167,41.095625,22.78941667,23.53192292,22.75944375,21.00018125,17.78118125,15.65768542,308.82,318.56,307.04,313.78,308.52,307.22,0.618,0.39399999999999996,0.53,0.43700000000000006,0.48,0.524,0.106,0.106,0.106,0.106,0.106,0.106,0.106,0,1.7102355569999999
114,0,1,1,1,0,1,1,2.6715041619999997,2.315169931,2.348079947,2.112705482,2.079970611,1.5232132269999998,29.4825,28.23539583,29.84070833,36.46229167,35.00552083,38.45629167,21.71288125,22.78941667,23.53192292,22.75944375,21.00018125,17.78118125,319.24,308.82,318.56,307.04,313.78,308.52,0.39299999999999996,0.618,0.39399999999999996,0.53,0.43700000000000006,0.48,0.106,0.106,0.106,0.106,0.106,0.106,0.106,0,1.21781919
115,0,1,1,1,0,1,1,2.456544036,2.6715041619999997,2.315169931,2.348079947,2.112705482,2.079970611,33.09252083,29.4825,28.23539583,29.84070833,36.46229167,35.00552083,21.72082708,21.71288125,22.78941667,23.53192292,22.75944375,21.00018125,310.66,319.24,308.82,318.56,307.04,313.78,0.563,0.39299999999999996,0.618,0.39399999999999996,0.53,0.43700000000000006,0.106,0.106,0.106,0.106,0.106,0.106,0.106,0,1.379626595
116,0,1,1,1,0,1,1,1.5555891290000001,2.456544036,2.6715041619999997,2.315169931,2.348079947,2.112705482,32.71352083,33.09252083,29.4825,28.23539583,29.84070833,36.46229167,22.71355625,21.72082708,21.71288125,22.78941667,23.53192292,22.75944375,315.26,310.66,319.24,308.82,318.56,307.04,0.431,0.563,0.39299999999999996,0.618,0.39399999999999996,0.53,0.106,0.106,0.106,0.106,0.106,0.106,0.106,0,1.2838507209999999
117,0,1,1,1,0,1,1,2.1609459159999997,1.5555891290000001,2.456544036,2.6715041619999997,2.315169931,2.348079947,35.378125,32.71352083,33.09252083,29.4825,28.23539583,29.84070833,23.848625,22.71355625,21.72082708,21.71288125,22.78941667,23.53192292,311.58,315.26,310.66,319.24,308.82,318.56,0.47,0.431,0.563,0.39299999999999996,0.618,0.39399999999999996,0.106,0.106,0.106,0.106,0.106,0.106,0.106,0,1.316036897
118,0,1,1,1,0,1,1,2.9259540680000002,2.1609459159999997,1.5555891290000001,2.456544036,2.6715041619999997,2.315169931,37.5501875,35.378125,32.71352083,33.09252083,29.4825,28.23539583,23.08385417,23.848625,22.71355625,21.72082708,21.71288125,22.78941667,306.72,311.58,315.26,310.66,319.24,308.82,0.532,0.47,0.431,0.563,0.39299999999999996,0.618,0.106,0.106,0.106,0.106,0.106,0.106,0.106,0,1.283947328
119,1,0,0,0,0,1,1,3.260012288,2.9259540680000002,2.1609459159999997,1.5555891290000001,2.456544036,2.6715041619999997,36.26879167,37.5501875,35.378125,32.71352083,33.09252083,29.4825,18.93786667,23.08385417,23.848625,22.71355625,21.72082708,21.71288125,304.54,306.72,311.58,315.26,310.66,319.24,0.545,0.532,0.47,0.431,0.563,0.39299999999999996,0.106,0.106,0.106,0.106,0.106,0.106,0.106,0,1.059057795
120,1,0,0,0,0,1,1,2.156664104,3.260012288,2.9259540680000002,2.1609459159999997,1.5555891290000001,2.456544036,35.425,36.26879167,37.5501875,35.378125,32.71352083,33.09252083,24.531625,18.93786667,23.08385417,23.848625,22.71355625,21.72082708,313.62,304.54,306.72,311.58,315.26,310.66,0.488,0.545,0.532,0.47,0.431,0.563,0.111,0.111,0.106,0.106,0.106,0.106,0.106,0,1.079639533
121,1,0,0,0,0,1,1,1.947831795,2.156664104,3.260012288,2.9259540680000002,2.1609459159999997,1.5555891290000001,47.60602083,35.425,36.26879167,37.5501875,35.378125,32.71352083,21.59310417,24.531625,18.93786667,23.08385417,23.848625,22.71355625,306.42,313.62,304.54,306.72,311.58,315.26,0.593,0.488,0.545,0.532,0.47,0.431,0.114,0.114,0.106,0.106,0.106,0.106,0.111,0,1.80956277
122,1,0,0,0,0,1,1,2.759917113,1.947831795,2.156664104,3.260012288,2.9259540680000002,2.1609459159999997,40.14,47.60602083,35.425,36.26879167,37.5501875,35.378125,19.81852083,21.59310417,24.531625,18.93786667,23.08385417,23.848625,308.96,306.42,313.62,304.54,306.72,311.58,0.451,0.593,0.488,0.545,0.532,0.47,0.114,0.114,0.111,0.106,0.106,0.106,0.114,0,1.136590997
