,Month_1,Month_2,Month_3,Month_4,Vegetation_1,Vegetation_2,Vegetation_3,WS,RH,TA,Eeflux_LST,Eeflux_NDVI,Eeflux_Albedo,WS-1,WS-2,RH-1,RH-2,RH-3,TA-1,TA-2,TA-3,TA-4,TA-5,Eeflux_LST-1,Eeflux_LST-2,Eeflux_LST-3,Eeflux_LST-4,Eeflux_LST-5,Eeflux_Albedo-1,Eeflux_Albedo-2,Eeflux_NDVI-1,Eeflux_NDVI-2,LE_bowen_corr_mm
0,1,0,0,1,1,0,1,3.283833333,82.50252381,25.38730952,295.8,0.61,0.105,3.064361702,1.66340625,80.08940426,83.3271875,82.87495745,25.50804255,26.6298125,27.10025532,27.63959091,28.44303448,298.44,298.02,296.2,299.58,300.6,0.10400000000000001,0.10400000000000001,0.669,0.473,4.793474486
1,0,0,0,1,1,0,1,2.42825641,83.71789744,24.8464359,298.42,0.758,0.102,2.408186047,2.190560976,85.8585814,81.33246341,62.25436364,22.58904651,22.19480488,23.38013636,19.08254286,19.08254286,287.02,295.8,296.18,294.94,294.94,0.105,0.10400000000000001,0.639,0.74,2.678575923
2,0,0,0,1,1,0,1,2.603145833,71.15122917,15.64483333,292.54,0.725,0.113,2.771219512,2.213431818,62.02578049,82.4395,72.5035,17.49239024,21.27063636,18.61589474,16.667,21.42963889,293.26,295.36,294.76,294.46,297.66,0.113,0.11199999999999999,0.8240000000000001,0.7120000000000001,2.3480288380000003
3,0,0,0,1,1,0,1,2.066230769,77.63084615,25.3075,297.78,0.86,0.107,2.5403404259999998,2.407113636,84.30063829999999,84.61336364,79.35802941,22.35378723,22.67781818,23.11605882,22.76290323,22.30412903,296.92,296.9,292.6,296.62,295.42,0.10300000000000001,0.10300000000000001,0.8490000000000001,0.633,4.775314699
4,1,0,1,1,1,0,1,2.0829,80.9577,21.45645,295.42,0.715,0.10400000000000001,2.010823529,2.001783784,76.51502941,82.35824324,82.88704762,23.98961765,23.52354054,24.505238100000003,24.97091176,24.555761899999997,298.04,294.74,296.92,295.92,296.72,0.10400000000000001,0.1,0.841,0.442,2.385110178
5,0,0,0,1,1,0,1,2.407113636,84.61336364,22.67781818,296.9,0.633,0.10300000000000001,2.159352941,1.651096774,79.35802941,77.73412903,76.30241935,23.11605882,22.76290323,22.30412903,12.67486207,22.760525,292.6,296.62,295.42,294.06,294.5,0.105,0.10400000000000001,0.177,0.82,2.670262064
6,0,1,1,1,1,0,1,1.6607666669999999,72.1107,28.9618,301.4,0.8079999999999999,0.091,1.8479428569999998,1.682757576,71.18025714,79.22578788,77.48102703,29.18474286,28.69481818,29.03064865,28.8264,27.85364286,299.62,301.46,294.18,296.28,298.0,0.091,0.094,0.54,0.33799999999999997,7.55030422
7,1,0,1,0,1,0,1,2.338081081,73.314,20.32475676,296.02,0.754,0.102,2.5474583330000002,2.551625,76.67341667,78.240975,75.04869767,19.08658333,19.316325,21.27455814,21.18097143,20.14881818,294.72,296.96,295.56,297.78,292.7,0.102,0.10300000000000001,0.846,0.873,3.7891913510000004
8,0,0,1,0,1,0,1,1.967304348,63.32408696,22.48556522,290.14,0.32299999999999995,0.102,2.7653404260000003,2.701333333,67.53989362,54.45204762,78.3741875,16.67829787,12.26995238,25.741,25.68522222,24.8464359,291.78,290.54,296.32,295.8,298.42,0.102,0.10300000000000001,0.502,0.8959999999999999,4.758250594
9,0,1,0,1,1,0,1,2.846878049,67.61217073,28.2092439,298.24,0.249,0.107,2.902479167,2.7498085110000003,75.265,77.87770213,74.15086957,27.92783333,27.54425532,27.84347826,28.44725581,22.84120833,298.58,300.68,301.62,300.58,300.12,0.107,0.106,0.644,0.805,6.265822582
10,0,0,0,1,1,0,1,2.227805556,80.49555556,25.68522222,295.8,0.72,0.10300000000000001,2.42825641,2.408186047,83.71789744,85.8585814,81.33246341,24.8464359,22.58904651,22.19480488,23.38013636,19.08254286,298.42,287.02,295.8,296.18,294.94,0.102,0.105,0.758,0.639,4.04096029
11,1,0,0,0,1,0,1,3.622,73.78588889,28.42227778,299.18,0.784,0.115,3.5737073169999998,3.542395833,80.10436585,79.64625,73.69811538,28.716512199999997,28.7121875,29.66876923,28.97663333,30.1138,302.08,294.74,301.18,300.28,302.26,0.154,0.154,0.843,0.445,6.591821026
12,0,0,1,0,1,0,1,2.958740741,57.29322222,23.56314815,296.3,0.579,0.105,2.954625,2.8410833330000003,54.77620833,55.10958333,88.94123529,22.34658333,19.83341667,22.70432353,25.826612899999997,24.13386364,294.56,294.14,297.72,300.22,298.24,0.10400000000000001,0.102,0.706,0.795,5.939636209
13,0,0,1,1,1,0,1,2.454285714,59.07233333,25.53019048,299.82,0.374,0.114,3.857416667,3.663055556,54.84433333,65.10044444,74.46984615,28.54083333,28.60116667,26.42526923,24.82913636,22.62763889,296.6,299.12,297.48,297.94,298.86,0.113,0.106,0.851,0.7020000000000001,7.253508936
14,0,0,0,1,1,0,1,2.408186047,85.8585814,22.58904651,287.02,0.639,0.105,2.190560976,1.792954545,81.33246341,62.25436364,69.88157143,22.19480488,23.38013636,19.08254286,19.08254286,18.71185417,295.8,296.18,294.94,294.94,295.94,0.10400000000000001,0.105,0.74,0.8420000000000001,3.05585867
15,0,0,0,1,1,0,1,2.51675,78.3741875,25.741,296.32,0.8320000000000001,0.10400000000000001,2.227805556,2.42825641,80.49555556,83.71789744,85.8585814,25.68522222,24.8464359,22.58904651,22.19480488,23.38013636,295.8,298.42,287.02,295.8,296.18,0.10300000000000001,0.102,0.72,0.758,4.807747743
16,0,0,0,1,1,0,1,2.159352941,79.35802941,23.11605882,292.6,0.177,0.105,1.651096774,1.958322581,77.73412903,76.30241935,73.92196552,22.76290323,22.30412903,12.67486207,22.760525,24.05006667,296.62,295.42,294.06,294.5,296.34,0.10400000000000001,0.10400000000000001,0.82,0.847,3.198736458
17,1,0,0,1,1,0,1,1.66340625,83.3271875,26.6298125,298.02,0.473,0.10400000000000001,2.116234043,2.329522727,82.87495745,80.82345455,79.08286207,27.10025532,27.63959091,28.44303448,26.43011111,28.03807143,296.2,299.58,300.6,298.92,297.88,0.10400000000000001,0.107,0.845,0.366,4.992502996
18,0,0,1,0,1,0,1,1.6029333330000002,76.66966667,23.54763333,295.48,0.62,0.11199999999999999,2.361295455,2.528375,81.68993182,79.140975,70.38454839,23.21852273,22.8707,22.96841935,23.14803571,21.4437381,297.86,296.48,296.68,297.64,294.94,0.11,0.11,0.792,0.716,4.924552703
19,1,0,1,1,1,0,1,1.5501379309999999,77.82151724,23.09255172,295.08,0.892,0.10300000000000001,2.1459354840000002,2.0829,75.30838709999999,80.9577,76.51502941,19.86393548,21.45645,23.98961765,23.52354054,24.505238100000003,295.04,295.42,298.04,294.74,296.92,0.10300000000000001,0.10400000000000001,0.8690000000000001,0.715,4.77956726
20,0,1,0,1,1,0,1,2.7498085110000003,77.87770213,27.54425532,300.68,0.805,0.106,1.9837826090000001,2.75472093,74.15086957,78.53767442,71.340625,27.84347826,28.44725581,22.84120833,24.34204545,27.52310526,301.62,300.58,300.12,298.34,301.52,0.10800000000000001,0.10099999999999999,0.7609999999999999,0.718,5.221224682
21,0,1,0,1,1,0,1,2.902479167,75.265,27.92783333,298.58,0.644,0.107,2.7498085110000003,1.9837826090000001,77.87770213,74.15086957,78.53767442,27.54425532,27.84347826,28.44725581,22.84120833,24.34204545,300.68,301.62,300.58,300.12,298.34,0.106,0.10800000000000001,0.805,0.7609999999999999,5.174668679
22,1,0,1,0,1,0,1,2.62745,70.51245,22.642075,297.32,0.899,0.10300000000000001,2.141897436,2.549,73.55076923,74.10229268,57.09393023,21.37782051,17.81912195,16.45409302,21.94276923,22.18820513,296.28,295.28,293.22,295.14,293.16,0.10300000000000001,0.10300000000000001,0.502,0.841,3.345877357
23,0,0,0,1,1,0,1,1.958322581,76.30241935,22.30412903,295.42,0.847,0.10400000000000001,3.067310345,2.03775,73.92196552,82.36995,77.80206667,12.67486207,22.760525,24.05006667,22.94502128,23.88916216,294.06,294.5,296.34,297.36,297.98,0.105,0.105,0.927,0.145,3.104707715
24,0,0,1,0,1,0,1,2.62625,66.2294375,24.8998125,293.82,0.836,0.106,4.117636364,4.117636364,86.20363636,86.20363636,81.47897917,25.47409091,25.47409091,25.63408333,24.50588889,23.00891892,291.5,291.5,298.1,297.56,297.9,0.106,0.106,0.621,0.621,5.7637369839999995
25,0,1,1,1,1,0,1,1.7114666669999998,65.86903333,29.97686667,297.98,0.589,0.125,1.60804,1.587451613,68.00404,75.95693548,74.20744737,30.547040000000003,28.81593548,28.54868421,28.37208333,28.94371429,302.1,300.28,301.48,301.48,298.78,0.125,0.12300000000000001,1.0,0.778,9.283782794
26,0,0,1,0,1,0,1,4.117636364,86.20363636,25.47409091,291.5,0.621,0.106,3.472125,2.12225,81.47897917,88.891,73.74635135,25.63408333,24.50588889,23.00891892,22.48556522,16.67829787,298.1,297.56,297.9,290.14,291.78,0.105,0.107,0.828,0.654,1.535185695
27,0,1,0,0,1,0,1,2.5468666669999998,80.33226667,27.19213333,297.08,0.8240000000000001,0.10300000000000001,2.6659375,2.173451613,76.37147917,63.30732258,63.30732258,26.214375,26.43393548,26.43393548,29.56494444,26.6992963,300.6,300.32,300.32,299.82,299.38,0.10300000000000001,0.10300000000000001,0.531,0.887,4.262089331
28,0,0,1,1,1,0,1,2.193722222,80.65016667,24.75622222,298.24,0.8029999999999999,0.10099999999999999,3.651741935,1.8166923080000001,68.0676129,63.61988462,66.82674286,25.24116129,24.22934615,22.8332,23.56314815,22.34658333,294.38,294.72,299.48,296.3,294.56,0.10400000000000001,0.105,0.214,0.551,3.6568772110000003
29,0,0,1,0,1,0,1,2.201477273,79.28236364,24.13386364,298.24,0.83,0.106,2.468047619,2.62625,73.93604762,66.2294375,86.20363636,23.90461905,24.8998125,25.47409091,25.47409091,25.63408333,292.28,293.82,291.5,291.5,298.1,0.106,0.106,0.62,0.836,3.478001508
30,1,0,0,1,1,0,1,2.4944583330000003,81.6466875,26.76020833,295.94,0.278,0.11599999999999999,2.775422222,2.5533541669999997,79.47791111,86.27395833,92.67056667,27.51257778,27.21029167,27.06176667,24.471,27.569000000000003,297.78,297.48,298.78,298.46,298.64,0.12,0.12,0.722,0.828,3.7558566719999997
31,1,0,1,0,1,0,1,1.417666667,76.643,24.555761899999997,296.72,0.488,0.102,1.710515152,2.62745,76.80557576,70.51245,73.55076923,23.17260606,22.642075,21.37782051,17.81912195,16.45409302,295.26,297.32,296.28,295.28,293.22,0.102,0.10300000000000001,0.9,0.899,5.8242110910000005
32,0,1,0,1,1,0,1,2.009870968,72.31070968,29.11825806,303.46,0.8,0.11199999999999999,2.1657878790000002,2.884575758,78.20963636,79.24669697,67.06691667,28.13869697,28.0740303,28.992125,27.2719,27.89110714,301.54,302.34,298.58,301.12,298.08,0.114,0.10400000000000001,0.755,0.66,8.752124538
33,1,0,1,0,1,0,1,2.497318182,61.74327273,20.14881818,292.7,0.747,0.10300000000000001,2.416086957,2.464,78.04356522,83.78271429,86.25754545,22.22747826,24.98328571,25.46063636,25.38730952,25.50804255,297.96,295.78,295.96,295.8,298.44,0.10300000000000001,0.10400000000000001,0.887,0.597,3.3437563710000004
34,1,0,0,0,1,0,1,1.862837209,84.47200000000001,26.86246512,302.62,0.8540000000000001,0.096,1.523322581,1.855,83.68183871,81.63183871,86.34572973,27.59483871,28.35529032,25.20454054,25.96308696,27.953000000000003,292.76,301.74,299.54,300.28,301.48,0.096,0.091,0.48700000000000004,0.7490000000000001,4.70084314
35,1,0,1,0,1,0,1,1.8691764709999998,82.39817647,24.97091176,295.92,0.9440000000000001,0.1,1.417666667,1.710515152,76.643,76.80557576,70.51245,24.555761899999997,23.17260606,22.642075,21.37782051,17.81912195,296.72,295.26,297.32,296.28,295.28,0.102,0.102,0.488,0.9,3.973081773
36,0,0,0,1,1,0,1,2.213431818,82.4395,21.27063636,295.36,0.7120000000000001,0.11199999999999999,2.442763158,2.541958333,72.5035,66.49983333,86.87930556,18.61589474,16.667,21.42963889,23.25220833,22.75383333,294.76,294.46,297.66,292.68,294.14,0.111,0.11199999999999999,0.914,0.8370000000000001,2.269456317
37,1,0,0,1,1,0,1,2.329522727,80.82345455,27.63959091,299.58,0.366,0.107,1.552275862,1.906044444,79.08286207,86.16288889,71.51032143,28.44303448,26.43011111,28.03807143,26.76020833,27.51257778,300.6,298.92,297.88,295.94,297.78,0.10800000000000001,0.107,0.8170000000000001,0.858,4.430171208
38,0,1,1,1,1,0,1,1.3966666669999999,74.83296667,28.97663333,300.28,1.0,0.14400000000000002,2.14356,2.0068064519999997,72.20056,78.70032258,75.02639286,30.1138,28.718612899999997,29.31425,29.85613333,30.03548276,302.26,299.96,301.58,299.76,301.36,0.14400000000000002,0.142,0.782,0.7290000000000001,7.930794219
39,0,0,1,1,1,0,1,3.663055556,65.10044444,28.60116667,299.12,0.7020000000000001,0.106,2.6341923080000003,2.209727273,74.46984615,70.59790909,66.53444444,26.42526923,24.82913636,22.62763889,22.99569231,26.58555556,297.48,297.94,298.86,295.38,300.64,0.106,0.10800000000000001,0.741,0.818,9.11391102
40,0,1,0,1,1,0,1,2.884575758,79.24669697,28.0740303,302.34,0.66,0.10400000000000001,1.8055,2.45175,67.06691667,76.828,74.96517857,28.992125,27.2719,27.89110714,28.2092439,27.92783333,298.58,301.12,298.08,298.24,298.58,0.106,0.107,0.408,0.7759999999999999,5.777464663
41,0,1,1,1,1,0,1,3.542395833,79.64625,28.7121875,294.74,0.445,0.154,1.331346154,1.3966666669999999,73.69811538,74.83296667,72.20056,29.66876923,28.97663333,30.1138,28.718612899999997,29.31425,301.18,300.28,302.26,299.96,301.58,0.15,0.14400000000000002,0.408,1.0,5.4523052739999995
42,0,0,1,1,1,0,1,2.24778125,70.2124375,25.7554375,299.18,0.809,0.107,2.0667,1.887088235,63.0469,79.50820588,84.34669697,25.54643333,24.17767647,24.10290909,25.308275,24.81670732,299.42,296.48,296.74,299.4,298.56,0.10800000000000001,0.11,0.8059999999999999,0.6829999999999999,6.485170095
43,0,0,0,1,1,0,1,2.583195122,84.22502439,21.47236585,295.98,0.838,0.107,2.435875,2.8986511630000003,70.466625,65.62246512,56.058875,15.4645,12.48334884,13.3579,26.90661538,28.42227778,288.72,289.96,291.44,298.12,299.18,0.106,0.107,0.324,0.8170000000000001,2.523912638
44,0,0,1,1,1,0,1,2.9159393939999996,84.34669697,24.10290909,296.74,0.8290000000000001,0.111,2.860075,3.098682927,83.000025,77.98021951,80.65016667,25.308275,24.81670732,24.75622222,25.24116129,24.22934615,299.4,298.56,298.24,294.38,294.72,0.11,0.102,0.8440000000000001,0.5379999999999999,6.9690823029999995
45,1,0,1,0,1,0,1,2.149761905,71.04126190000001,20.62552381,296.82,0.865,0.1,2.136973684,2.338081081,75.68631579,73.314,76.67341667,19.85452632,20.32475676,19.08658333,19.316325,21.27455814,296.6,296.02,294.72,296.96,295.56,0.10300000000000001,0.102,0.917,0.754,3.1236586610000003
46,1,0,0,0,1,0,1,1.8570270269999998,86.34572973,25.20454054,299.54,0.856,0.083,2.138565217,1.8188799999999998,90.79726087,79.25148,73.86226667,25.96308696,27.953000000000003,29.51966667,28.47136364,28.15883333,300.28,301.48,298.14,295.44,302.98,0.08199999999999999,0.085,0.772,0.161,5.965199077
47,0,1,1,0,1,0,1,1.525071429,77.87421429,28.94371429,298.78,0.865,0.12300000000000001,1.96215,1.535096774,74.332625,77.02964516,80.333925,29.032975,28.78970968,27.617675,27.37951613,28.2578,301.4,299.46,300.12,303.18,298.66,0.109,0.105,0.626,0.401,6.108867984
48,0,0,1,0,1,0,1,4.117636364,86.20363636,25.47409091,291.5,0.621,0.106,4.117636364,3.472125,86.20363636,81.47897917,88.891,25.47409091,25.63408333,24.50588889,23.00891892,22.48556522,291.5,298.1,297.56,297.9,290.14,0.106,0.105,0.621,0.828,1.535185695
49,0,0,1,0,1,0,1,4.698,61.85333333,18.8255,288.98,0.7559999999999999,0.115,3.13752381,2.16828125,83.99290476,71.1761875,63.4276,22.74933333,21.99715625,19.28685714,18.368625,20.65872414,296.6,293.92,293.1,295.5,294.62,0.11800000000000001,0.11699999999999999,0.81,0.812,5.5053962489999995
50,1,0,1,0,1,0,1,2.5089714290000003,67.51231429,21.18097143,297.78,0.841,0.10300000000000001,2.497318182,2.416086957,61.74327273,78.04356522,83.78271429,20.14881818,22.22747826,24.98328571,25.46063636,25.38730952,292.7,297.96,295.78,295.96,295.8,0.10300000000000001,0.10300000000000001,0.747,0.887,4.459910394
51,0,1,1,1,1,0,1,1.60804,68.00404,30.547040000000003,302.1,1.0,0.125,1.587451613,2.052736842,75.95693548,74.20744737,78.19225,28.81593548,28.54868421,28.37208333,28.94371429,29.032975,300.28,301.48,301.48,298.78,301.4,0.12300000000000001,0.12300000000000001,0.778,0.721,9.152753809
52,0,0,0,1,1,0,1,1.9578285709999999,69.88157143,19.08254286,294.94,0.853,0.10400000000000001,3.062166667,1.448769231,62.028375,80.24126923,77.63084615,18.71185417,24.165,25.3075,22.35378723,22.67781818,295.94,297.66,297.78,296.92,296.9,0.10300000000000001,0.10400000000000001,0.85,0.376,4.191772612
53,1,0,0,0,1,0,1,1.523322581,83.68183871,27.59483871,292.76,0.48700000000000004,0.096,1.855,1.8570270269999998,81.63183871,86.34572973,90.79726087,28.35529032,25.20454054,25.96308696,27.953000000000003,29.51966667,301.74,299.54,300.28,301.48,298.14,0.091,0.083,0.7490000000000001,0.856,5.452549017000001
54,1,0,0,1,1,0,1,1.2766,92.67056667,27.06176667,298.78,0.565,0.11199999999999999,1.646,1.652681818,98.927,83.22877273,76.421,24.471,27.569000000000003,28.70519048,27.02084375,26.86246512,298.46,298.64,300.5,300.12,302.62,0.096,0.096,0.797,0.6659999999999999,4.5639049080000005
55,0,0,0,1,1,0,1,2.5389375,75.78814583,18.368625,295.5,0.8490000000000001,0.115,2.103,2.603145833,73.26675862,71.15122917,62.02578049,20.65872414,15.64483333,17.49239024,21.27063636,18.61589474,294.62,292.54,293.26,295.36,294.76,0.114,0.113,0.25,0.725,2.642721646
56,0,1,0,0,1,0,1,2.6659375,76.37147917,26.214375,300.6,0.531,0.10300000000000001,2.173451613,2.173451613,63.30732258,63.30732258,58.44938889,26.43393548,26.43393548,29.56494444,26.6992963,23.78861364,300.32,300.32,299.82,299.38,299.12,0.10300000000000001,0.10300000000000001,0.887,0.887,4.337266566
57,1,0,0,0,1,0,1,1.652681818,83.22877273,27.569000000000003,298.64,0.6659999999999999,0.096,1.281571429,1.5123125,76.421,84.7429375,84.47200000000001,28.70519048,27.02084375,26.86246512,27.59483871,28.35529032,300.5,300.12,302.62,292.76,301.74,0.096,0.096,0.7440000000000001,0.899,7.452747025
58,0,0,1,1,1,0,1,2.6341923080000003,74.46984615,26.42526923,297.48,0.741,0.106,2.209727273,2.3031111109999998,70.59790909,66.53444444,54.84007692,24.82913636,22.62763889,22.99569231,26.58555556,26.44903333,297.94,298.86,295.38,300.64,299.56,0.10800000000000001,0.10800000000000001,0.818,0.805,7.284017924
59,1,0,1,1,1,0,1,2.03775,82.36995,22.760525,294.5,0.145,0.105,3.709533333,2.324978723,77.80206667,82.75085106,84.70294595,24.05006667,22.94502128,23.88916216,23.09255172,19.86393548,296.34,297.36,297.98,295.08,295.04,0.105,0.107,0.26,0.738,2.5529825809999998
60,1,0,0,1,1,0,1,3.064361702,80.08940426,25.50804255,298.44,0.669,0.10400000000000001,1.66340625,2.116234043,83.3271875,82.87495745,80.82345455,26.6298125,27.10025532,27.63959091,28.44303448,26.43011111,298.02,296.2,299.58,300.6,298.92,0.10400000000000001,0.10400000000000001,0.473,0.845,4.385572862
61,0,0,0,1,1,0,1,1.69475,78.90945833,23.25220833,292.68,0.255,0.111,1.547733333,2.583195122,83.66053333,84.22502439,70.466625,22.75383333,21.47236585,15.4645,12.48334884,13.3579,294.14,295.98,288.72,289.96,291.44,0.107,0.107,0.725,0.838,5.3184951
62,0,0,1,0,1,0,1,2.056941176,88.94123529,22.70432353,297.72,0.799,0.105,2.0986129030000003,2.201477273,89.96261290000001,79.28236364,73.93604762,25.826612899999997,24.13386364,23.90461905,24.8998125,25.47409091,300.22,298.24,292.28,293.82,291.5,0.102,0.106,0.804,0.83,4.903546805
63,1,0,1,0,1,0,1,2.464,83.78271429,24.98328571,295.78,0.597,0.10400000000000001,3.542636364,3.283833333,86.25754545,82.50252381,80.08940426,25.46063636,25.38730952,25.50804255,26.6298125,27.10025532,295.96,295.8,298.44,298.02,296.2,0.10400000000000001,0.105,0.604,0.61,3.331774826
64,1,0,1,1,1,0,1,2.010823529,76.51502941,23.98961765,298.04,0.841,0.10400000000000001,2.001783784,1.391047619,82.35824324,82.88704762,82.39817647,23.52354054,24.505238100000003,24.97091176,24.555761899999997,23.17260606,294.74,296.92,295.92,296.72,295.26,0.1,0.1,0.442,0.752,3.231747155
65,0,0,0,1,1,0,1,2.771219512,62.02578049,17.49239024,293.26,0.8240000000000001,0.113,2.213431818,2.442763158,82.4395,72.5035,66.49983333,21.27063636,18.61589474,16.667,21.42963889,23.25220833,295.36,294.76,294.46,297.66,292.68,0.11199999999999999,0.111,0.7120000000000001,0.914,3.6324436639999997
66,0,0,1,1,1,0,1,3.671384615,54.84007692,22.99569231,295.38,0.711,0.106,2.634740741,1.852433333,78.26844444,73.38513333,70.2124375,26.58555556,26.44903333,25.7554375,25.54643333,24.17767647,300.64,299.56,299.18,299.42,296.48,0.105,0.10300000000000001,0.654,0.794,3.914080745
67,0,0,1,0,1,0,1,3.13752381,83.99290476,22.74933333,296.6,0.81,0.11800000000000001,2.16828125,2.4225142859999997,71.1761875,63.4276,75.78814583,21.99715625,19.28685714,18.368625,20.65872414,15.64483333,293.92,293.1,295.5,294.62,292.54,0.11699999999999999,0.115,0.812,0.698,4.768307196
68,0,1,0,0,1,0,1,2.173451613,63.30732258,26.43393548,300.32,0.887,0.10300000000000001,2.5836111109999997,2.1900370369999997,58.44938889,71.72611111,72.17359091,29.56494444,26.6992963,23.78861364,23.4102973,24.76330233,299.82,299.38,299.12,301.06,296.78,0.10300000000000001,0.10300000000000001,0.8079999999999999,0.8029999999999999,7.811760825
69,0,0,0,1,1,0,1,2.103,73.26675862,20.65872414,294.62,0.25,0.114,2.603145833,2.771219512,71.15122917,62.02578049,82.4395,15.64483333,17.49239024,21.27063636,18.61589474,16.667,292.54,293.26,295.36,294.76,294.46,0.113,0.113,0.725,0.8240000000000001,3.944311051
70,1,0,1,0,1,0,1,2.430282051,74.66566667,22.14079487,295.3,0.613,0.1,2.149761905,2.136973684,71.04126190000001,75.68631579,73.314,20.62552381,19.85452632,20.32475676,19.08658333,19.316325,296.82,296.6,296.02,294.72,296.96,0.1,0.10300000000000001,0.865,0.917,3.25641598
71,0,0,1,0,1,0,1,2.068914286,66.82674286,22.8332,299.48,0.861,0.105,2.958740741,2.954625,57.29322222,54.77620833,55.10958333,23.56314815,22.34658333,19.83341667,22.70432353,25.826612899999997,296.3,294.56,294.14,297.72,300.22,0.105,0.10400000000000001,0.579,0.706,4.437197223
72,0,1,0,0,1,0,1,2.349157895,62.66042105,27.52310526,301.52,0.8220000000000001,0.10400000000000001,3.749541667,2.893138889,79.40172917,82.36069444,72.05583333,27.85695833,28.91380556,29.05041667,27.19213333,26.214375,291.76,298.38,303.82,297.08,300.6,0.10400000000000001,0.10400000000000001,0.49200000000000005,0.511,4.861744731
73,1,0,1,1,1,0,1,3.067310345,73.92196552,12.67486207,294.06,0.927,0.105,2.03775,3.709533333,82.36995,77.80206667,82.75085106,22.760525,24.05006667,22.94502128,23.88916216,23.09255172,294.5,296.34,297.36,297.98,295.08,0.105,0.105,0.145,0.26,2.032992713
74,1,0,0,0,1,0,1,1.281571429,76.421,28.70519048,300.5,0.7440000000000001,0.096,1.5123125,1.862837209,84.7429375,84.47200000000001,83.68183871,27.02084375,26.86246512,27.59483871,28.35529032,25.20454054,300.12,302.62,292.76,301.74,299.54,0.096,0.096,0.899,0.8540000000000001,9.876471451
75,0,1,1,0,1,0,1,1.740225806,79.31458065,27.37951613,303.18,0.7120000000000001,0.122,2.387311111,2.443684211,75.08244444,76.38089474,72.31070968,28.2578,28.82605263,29.11825806,28.13869697,28.0740303,298.66,296.34,303.46,301.54,302.34,0.11199999999999999,0.11,0.33799999999999997,0.43200000000000005,8.632383003
76,0,1,1,0,1,0,1,1.96215,74.332625,29.032975,301.4,0.626,0.109,1.535096774,2.505925,77.02964516,80.333925,79.31458065,28.78970968,27.617675,27.37951613,28.2578,28.82605263,299.46,300.12,303.18,298.66,296.34,0.105,0.12300000000000001,0.401,0.679,6.681692854
77,0,0,0,1,1,0,1,1.296166667,86.87930556,21.42963889,297.66,0.8740000000000001,0.111,1.69475,1.547733333,78.90945833,83.66053333,84.22502439,23.25220833,22.75383333,21.47236585,15.4645,12.48334884,292.68,294.14,295.98,288.72,289.96,0.111,0.107,0.255,0.725,3.395337211
78,0,1,0,0,1,0,1,3.005486486,62.23340541,23.4102973,301.06,0.727,0.114,2.391255814,3.1206764710000003,77.37323256,66.96808824,59.07233333,24.76330233,24.85002941,25.53019048,28.54083333,28.60116667,296.78,295.2,299.82,296.6,299.12,0.114,0.114,0.522,0.39899999999999997,6.821244475
79,1,0,0,1,1,0,1,2.116234043,82.87495745,27.10025532,296.2,0.845,0.10400000000000001,2.329522727,1.552275862,80.82345455,79.08286207,86.16288889,27.63959091,28.44303448,26.43011111,28.03807143,26.76020833,299.58,300.6,298.92,297.88,295.94,0.107,0.10800000000000001,0.366,0.8170000000000001,3.7775939060000003
80,0,1,0,1,1,0,1,2.1657878790000002,78.20963636,28.13869697,301.54,0.755,0.114,2.884575758,1.8055,79.24669697,67.06691667,76.828,28.0740303,28.992125,27.2719,27.89110714,28.2092439,302.34,298.58,301.12,298.08,298.24,0.10400000000000001,0.106,0.66,0.408,7.133255846
81,0,0,0,1,1,0,1,2.541958333,66.49983333,16.667,294.46,0.8370000000000001,0.11199999999999999,1.296166667,1.69475,86.87930556,78.90945833,83.66053333,21.42963889,23.25220833,22.75383333,21.47236585,15.4645,297.66,292.68,294.14,295.98,288.72,0.111,0.111,0.8740000000000001,0.255,2.80223405
82,0,1,0,1,1,0,1,1.8055,67.06691667,28.992125,298.58,0.408,0.106,2.45175,1.7490357140000001,76.828,74.96517857,67.61217073,27.2719,27.89110714,28.2092439,27.92783333,27.54425532,301.12,298.08,298.24,298.58,300.68,0.107,0.107,0.7759999999999999,0.9109999999999999,11.00923866
83,1,0,1,1,1,0,1,2.001783784,82.35824324,23.52354054,294.74,0.442,0.1,1.391047619,1.8691764709999998,82.88704762,82.39817647,76.643,24.505238100000003,24.97091176,24.555761899999997,23.17260606,22.642075,296.92,295.92,296.72,295.26,297.32,0.1,0.1,0.752,0.9440000000000001,4.081210138
84,0,0,0,1,1,0,1,2.16828125,71.1761875,21.99715625,293.92,0.812,0.11699999999999999,2.4225142859999997,2.5389375,63.4276,75.78814583,73.26675862,19.28685714,18.368625,20.65872414,15.64483333,17.49239024,293.1,295.5,294.62,292.54,293.26,0.115,0.115,0.698,0.8490000000000001,4.708723947
85,0,1,0,1,1,0,1,2.443684211,76.38089474,28.82605263,296.34,0.43200000000000005,0.11,2.009870968,2.1657878790000002,72.31070968,78.20963636,79.24669697,29.11825806,28.13869697,28.0740303,28.992125,27.2719,303.46,301.54,302.34,298.58,301.12,0.11199999999999999,0.114,0.8,0.755,6.965882045
86,0,0,0,1,1,0,1,1.792954545,62.25436364,23.38013636,296.18,0.8420000000000001,0.105,1.9578285709999999,1.9578285709999999,69.88157143,69.88157143,62.028375,19.08254286,19.08254286,18.71185417,24.165,25.3075,294.94,294.94,295.94,297.66,297.78,0.10400000000000001,0.10400000000000001,0.853,0.853,6.248707002000001
87,0,1,1,1,1,0,1,2.0068064519999997,78.70032258,28.718612899999997,299.96,0.7290000000000001,0.142,2.669607143,2.3514,75.02639286,73.08583333,68.72296552,29.31425,29.85613333,30.03548276,26.21551429,28.07125,301.58,299.76,301.36,302.66,302.34,0.138,0.13699999999999998,0.727,0.6990000000000001,6.4072481660000005
88,1,0,1,0,1,0,1,3.542636364,86.25754545,25.46063636,295.96,0.604,0.10400000000000001,3.283833333,3.064361702,82.50252381,80.08940426,83.3271875,25.38730952,25.50804255,26.6298125,27.10025532,27.63959091,295.8,298.44,298.02,296.2,299.58,0.105,0.10400000000000001,0.61,0.669,3.587615888
89,1,0,1,0,1,0,1,1.391047619,82.88704762,24.505238100000003,296.92,0.752,0.1,1.8691764709999998,1.417666667,82.39817647,76.643,76.80557576,24.97091176,24.555761899999997,23.17260606,22.642075,21.37782051,295.92,296.72,295.26,297.32,296.28,0.1,0.102,0.9440000000000001,0.488,4.781045217
90,0,1,1,1,1,0,1,2.3514,73.08583333,29.85613333,299.76,0.6990000000000001,0.13699999999999998,1.824724138,1.356514286,68.72296552,90.79571429,77.13232143,30.03548276,26.21551429,28.07125,29.97686667,30.547040000000003,301.36,302.66,302.34,297.98,302.1,0.138,0.131,0.494,0.29100000000000004,8.174165481000001
91,1,0,0,1,1,0,1,2.5533541669999997,86.27395833,27.21029167,297.48,0.828,0.12,1.2766,1.646,92.67056667,98.927,83.22877273,27.06176667,24.471,27.569000000000003,28.70519048,27.02084375,298.78,298.46,298.64,300.5,300.12,0.11199999999999999,0.096,0.565,0.797,4.73008288
92,1,0,0,0,1,0,1,1.516472222,78.72375,28.53025,299.82,0.86,0.09,1.516472222,1.6607666669999999,78.72375,72.1107,71.18025714,28.53025,28.9618,29.18474286,28.69481818,29.03064865,299.82,301.4,299.62,301.46,294.18,0.09,0.091,0.86,0.8079999999999999,6.99884673
93,0,1,1,1,1,0,1,1.682757576,79.22578788,28.69481818,301.46,0.33799999999999997,0.094,2.197081081,1.479333333,77.48102703,67.90036667,84.25710714,29.03064865,28.8264,27.85364286,28.555,28.91980952,294.18,296.28,298.0,302.08,303.24,0.094,0.102,0.705,0.5770000000000001,6.148002735
94,1,0,0,0,1,0,1,1.855,81.63183871,28.35529032,301.74,0.7490000000000001,0.091,1.8570270269999998,2.138565217,86.34572973,90.79726087,79.25148,25.20454054,25.96308696,27.953000000000003,29.51966667,28.47136364,299.54,300.28,301.48,298.14,295.44,0.083,0.08199999999999999,0.856,0.772,6.620811359
95,1,0,0,0,1,0,1,1.437966667,80.72213333,28.15883333,302.98,0.8640000000000001,0.092,1.516472222,1.516472222,78.72375,78.72375,72.1107,28.53025,28.53025,28.9618,29.18474286,28.69481818,299.82,299.82,301.4,299.62,301.46,0.09,0.09,0.86,0.86,6.830160203999999
96,1,0,1,1,1,0,1,1.953702703,84.70294595,23.88916216,297.98,0.91,0.107,1.5501379309999999,2.1459354840000002,77.82151724,75.30838709999999,80.9577,23.09255172,19.86393548,21.45645,23.98961765,23.52354054,295.08,295.04,295.42,298.04,294.74,0.10300000000000001,0.10300000000000001,0.892,0.8690000000000001,2.898250575
97,0,0,1,1,1,0,1,3.1206764710000003,66.96808824,24.85002941,295.2,0.39899999999999997,0.114,2.454285714,3.857416667,59.07233333,54.84433333,65.10044444,25.53019048,28.54083333,28.60116667,26.42526923,24.82913636,299.82,296.6,299.12,297.48,297.94,0.114,0.113,0.374,0.851,6.453507711
98,0,0,1,0,1,0,1,2.954625,54.77620833,22.34658333,294.56,0.706,0.10400000000000001,2.8410833330000003,2.056941176,55.10958333,88.94123529,89.96261290000001,19.83341667,22.70432353,25.826612899999997,24.13386364,23.90461905,294.14,297.72,300.22,298.24,292.28,0.102,0.105,0.795,0.799,6.485116295
99,0,1,0,0,1,0,1,3.749541667,79.40172917,27.85695833,291.76,0.49200000000000005,0.10400000000000001,2.893138889,2.029833333,82.36069444,72.05583333,80.33226667,28.91380556,29.05041667,27.19213333,26.214375,26.43393548,298.38,303.82,297.08,300.6,300.32,0.10400000000000001,0.10400000000000001,0.511,0.7959999999999999,4.697786955
100,1,0,1,0,1,0,1,2.5474583330000002,76.67341667,19.08658333,294.72,0.846,0.102,2.551625,2.154651163,78.240975,75.04869767,67.51231429,19.316325,21.27455814,21.18097143,20.14881818,22.22747826,296.96,295.56,297.78,292.7,297.96,0.10300000000000001,0.10300000000000001,0.873,0.9279999999999999,2.539787627
101,0,0,0,1,1,0,1,1.9578285709999999,69.88157143,19.08254286,294.94,0.853,0.10400000000000001,1.9578285709999999,3.062166667,69.88157143,62.028375,80.24126923,19.08254286,18.71185417,24.165,25.3075,22.35378723,294.94,295.94,297.66,297.78,296.92,0.10400000000000001,0.10300000000000001,0.853,0.85,4.191772612
102,0,1,0,0,1,0,1,2.5836111109999997,58.44938889,29.56494444,299.82,0.8079999999999999,0.10300000000000001,2.1900370369999997,2.586818182,71.72611111,72.17359091,62.23340541,26.6992963,23.78861364,23.4102973,24.76330233,24.85002941,299.38,299.12,301.06,296.78,295.2,0.10300000000000001,0.10300000000000001,0.8029999999999999,0.414,9.843986729
103,0,0,1,1,1,0,1,2.3031111109999998,66.53444444,22.62763889,298.86,0.805,0.10800000000000001,3.671384615,2.634740741,54.84007692,78.26844444,73.38513333,22.99569231,26.58555556,26.44903333,25.7554375,25.54643333,295.38,300.64,299.56,299.18,299.42,0.106,0.105,0.711,0.654,5.950489344
104,0,1,0,0,1,0,1,2.394409091,66.4915,24.34204545,298.34,0.581,0.105,2.349157895,3.749541667,62.66042105,79.40172917,82.36069444,27.52310526,27.85695833,28.91380556,29.05041667,27.19213333,301.52,291.76,298.38,303.82,297.08,0.10400000000000001,0.10400000000000001,0.8220000000000001,0.49200000000000005,4.808650344
105,1,0,1,0,1,0,1,3.185023256,57.09393023,16.45409302,293.22,0.843,0.10300000000000001,2.500102564,1.951384615,82.33387179,83.63530769,74.66566667,21.94276923,22.18820513,22.14079487,20.62552381,19.85452632,295.14,293.16,295.3,296.82,296.6,0.102,0.10099999999999999,0.879,0.746,2.833079332
106,0,0,1,0,1,0,1,2.361295455,81.68993182,23.21852273,297.86,0.792,0.11,2.528375,2.3850322580000003,79.140975,70.38454839,65.02975,22.8707,22.96841935,23.14803571,21.4437381,18.59151429,296.48,296.68,297.64,294.94,294.06,0.11,0.111,0.716,0.835,3.4086553
107,0,0,1,0,1,0,1,2.12225,88.891,24.50588889,297.56,0.654,0.107,3.143702703,1.967304348,73.74635135,63.32408696,67.53989362,23.00891892,22.48556522,16.67829787,12.26995238,25.741,297.9,290.14,291.78,290.54,296.32,0.10400000000000001,0.102,0.853,0.32299999999999995,2.041614613
108,0,0,0,1,1,0,1,1.448769231,80.24126923,24.165,297.66,0.376,0.10400000000000001,2.066230769,2.5403404259999998,77.63084615,84.30063829999999,84.61336364,25.3075,22.35378723,22.67781818,23.11605882,22.76290323,297.78,296.92,296.9,292.6,296.62,0.107,0.10300000000000001,0.86,0.8490000000000001,3.747833472
109,0,1,0,0,1,0,1,2.1900370369999997,71.72611111,26.6992963,299.38,0.8029999999999999,0.10300000000000001,2.586818182,3.005486486,72.17359091,62.23340541,77.37323256,23.78861364,23.4102973,24.76330233,24.85002941,25.53019048,299.12,301.06,296.78,295.2,299.82,0.10300000000000001,0.114,0.414,0.727,8.95349271
110,0,0,0,1,1,0,1,2.701333333,54.45204762,12.26995238,290.54,0.8959999999999999,0.10300000000000001,2.51675,2.227805556,78.3741875,80.49555556,83.71789744,25.741,25.68522222,24.8464359,22.58904651,22.19480488,296.32,295.8,298.42,287.02,295.8,0.10400000000000001,0.10300000000000001,0.8320000000000001,0.72,3.260283497
111,1,0,0,0,1,0,1,1.646,98.927,24.471,298.46,0.797,0.096,1.652681818,1.281571429,83.22877273,76.421,84.7429375,27.569000000000003,28.70519048,27.02084375,26.86246512,27.59483871,298.64,300.5,300.12,302.62,292.76,0.096,0.096,0.6659999999999999,0.7440000000000001,2.922351903
112,0,1,1,0,1,0,1,2.052736842,74.20744737,28.54868421,301.48,0.721,0.12300000000000001,1.4458333330000002,1.525071429,78.19225,77.87421429,74.332625,28.37208333,28.94371429,29.032975,28.78970968,27.617675,301.48,298.78,301.4,299.46,300.12,0.12300000000000001,0.12300000000000001,0.722,0.865,6.567146266
113,0,0,1,0,1,0,1,1.657583333,75.2605,23.64041667,298.92,0.867,0.11199999999999999,1.6029333330000002,2.361295455,76.66966667,81.68993182,79.140975,23.54763333,23.21852273,22.8707,22.96841935,23.14803571,295.48,297.86,296.48,296.68,297.64,0.11199999999999999,0.11,0.62,0.792,3.7231128030000002
114,1,0,1,1,1,0,1,2.324978723,82.75085106,22.94502128,297.36,0.738,0.107,1.953702703,1.5501379309999999,84.70294595,77.82151724,75.30838709999999,23.88916216,23.09255172,19.86393548,21.45645,23.98961765,297.98,295.08,295.04,295.42,298.04,0.107,0.10300000000000001,0.91,0.892,2.76665728
115,0,1,1,1,1,0,1,3.5737073169999998,80.10436585,28.716512199999997,302.08,0.843,0.154,3.542395833,1.331346154,79.64625,73.69811538,74.83296667,28.7121875,29.66876923,28.97663333,30.1138,28.718612899999997,294.74,301.18,300.28,302.26,299.96,0.154,0.15,0.445,0.408,5.727566518
116,0,0,0,1,1,0,1,2.4225142859999997,63.4276,19.28685714,293.1,0.698,0.115,2.5389375,2.103,75.78814583,73.26675862,71.15122917,18.368625,20.65872414,15.64483333,17.49239024,21.27063636,295.5,294.62,292.54,293.26,295.36,0.115,0.114,0.8490000000000001,0.25,4.691569747
117,0,0,0,1,1,0,1,1.651096774,77.73412903,22.76290323,296.62,0.82,0.10400000000000001,1.958322581,3.067310345,76.30241935,73.92196552,82.36995,22.30412903,12.67486207,22.760525,24.05006667,22.94502128,295.42,294.06,294.5,296.34,297.36,0.10400000000000001,0.105,0.847,0.927,3.077915843
118,0,1,1,1,1,0,1,2.669607143,75.02639286,29.31425,301.58,0.727,0.138,2.3514,1.824724138,73.08583333,68.72296552,90.79571429,29.85613333,30.03548276,26.21551429,28.07125,29.97686667,299.76,301.36,302.66,302.34,297.98,0.13699999999999998,0.138,0.6990000000000001,0.494,8.992425216
119,0,1,0,1,1,0,1,2.387311111,75.08244444,28.2578,298.66,0.33799999999999997,0.11199999999999999,2.443684211,2.009870968,76.38089474,72.31070968,78.20963636,28.82605263,29.11825806,28.13869697,28.0740303,28.992125,296.34,303.46,301.54,302.34,298.58,0.11,0.11199999999999999,0.43200000000000005,0.8,6.4228736
120,0,0,1,1,1,0,1,2.209727273,70.59790909,24.82913636,297.94,0.818,0.10800000000000001,2.3031111109999998,3.671384615,66.53444444,54.84007692,78.26844444,22.62763889,22.99569231,26.58555556,26.44903333,25.7554375,298.86,295.38,300.64,299.56,299.18,0.10800000000000001,0.106,0.805,0.711,8.307520386
121,1,0,0,1,1,0,1,1.552275862,79.08286207,28.44303448,300.6,0.8170000000000001,0.10800000000000001,1.906044444,2.039928571,86.16288889,71.51032143,81.6466875,26.43011111,28.03807143,26.76020833,27.51257778,27.21029167,298.92,297.88,295.94,297.78,297.48,0.107,0.111,0.858,0.701,6.529374022000001
122,1,0,1,0,1,0,1,2.141897436,73.55076923,21.37782051,296.28,0.502,0.10300000000000001,2.549,3.185023256,74.10229268,57.09393023,82.33387179,17.81912195,16.45409302,21.94276923,22.18820513,22.14079487,295.28,293.22,295.14,293.16,295.3,0.10300000000000001,0.10300000000000001,0.841,0.843,3.640241384
123,0,1,0,0,1,0,1,2.173451613,63.30732258,26.43393548,300.32,0.887,0.10300000000000001,2.173451613,2.5836111109999997,63.30732258,58.44938889,71.72611111,26.43393548,29.56494444,26.6992963,23.78861364,23.4102973,300.32,299.82,299.38,299.12,301.06,0.10300000000000001,0.10300000000000001,0.887,0.8079999999999999,7.811760825
124,0,0,1,0,1,0,1,2.3850322580000003,70.38454839,22.96841935,296.68,0.835,0.111,2.619142857,2.365857143,65.02975,69.48211905,61.48877143,23.14803571,21.4437381,18.59151429,19.5165,16.45318182,297.64,294.94,294.06,293.2,290.46,0.113,0.114,0.8190000000000001,0.196,5.559968249
125,0,0,1,0,1,0,1,2.1926666669999997,54.285,19.5165,293.2,0.835,0.11599999999999999,3.444545455,3.444545455,39.94118182,39.94118182,61.85333333,16.45318182,16.45318182,18.8255,22.74933333,21.99715625,290.46,290.46,288.98,296.6,293.92,0.11599999999999999,0.11599999999999999,0.8420000000000001,0.8420000000000001,5.426659966
126,1,0,0,1,1,0,1,2.775422222,79.47791111,27.51257778,297.78,0.722,0.12,2.5533541669999997,1.2766,86.27395833,92.67056667,98.927,27.21029167,27.06176667,24.471,27.569000000000003,28.70519048,297.48,298.78,298.46,298.64,300.5,0.12,0.11199999999999999,0.828,0.565,5.589706591000001
127,0,1,1,0,1,0,1,1.4458333330000002,78.19225,28.37208333,301.48,0.722,0.12300000000000001,1.525071429,1.96215,77.87421429,74.332625,77.02964516,28.94371429,29.032975,28.78970968,27.617675,27.37951613,298.78,301.4,299.46,300.12,303.18,0.12300000000000001,0.109,0.865,0.626,1.898707765
128,0,1,1,1,1,0,1,1.824724138,68.72296552,30.03548276,301.36,0.494,0.138,1.356514286,2.533142857,90.79571429,77.13232143,65.86903333,26.21551429,28.07125,29.97686667,30.547040000000003,28.81593548,302.66,302.34,297.98,302.1,300.28,0.131,0.11900000000000001,0.29100000000000004,0.759,9.261586774
129,1,0,0,0,1,0,1,1.516472222,78.72375,28.53025,299.82,0.86,0.09,1.6607666669999999,1.8479428569999998,72.1107,71.18025714,79.22578788,28.9618,29.18474286,28.69481818,29.03064865,28.8264,301.4,299.62,301.46,294.18,296.28,0.091,0.091,0.8079999999999999,0.54,6.99884673
130,1,0,1,0,1,0,1,2.500102564,82.33387179,21.94276923,295.14,0.879,0.102,1.951384615,2.430282051,83.63530769,74.66566667,71.04126190000001,22.18820513,22.14079487,20.62552381,19.85452632,20.32475676,293.16,295.3,296.82,296.6,296.02,0.10099999999999999,0.1,0.746,0.613,2.78314125
131,1,0,1,0,1,0,1,2.154651163,75.04869767,21.27455814,295.56,0.9279999999999999,0.10300000000000001,2.5089714290000003,2.497318182,67.51231429,61.74327273,78.04356522,21.18097143,20.14881818,22.22747826,24.98328571,25.46063636,297.78,292.7,297.96,295.78,295.96,0.10300000000000001,0.10300000000000001,0.841,0.747,2.993256529
132,0,1,1,1,1,0,1,1.479333333,67.90036667,28.8264,296.28,0.5770000000000001,0.102,1.576678571,1.6436842109999998,84.25710714,79.26484211,82.43461905,27.85364286,28.555,28.91980952,29.23739394,30.47933333,298.0,302.08,303.24,301.76,303.8,0.102,0.099,0.46299999999999997,0.887,9.18784792
133,1,0,0,0,1,0,1,2.138565217,90.79726087,25.96308696,300.28,0.772,0.08199999999999999,1.8188799999999998,2.0874333330000003,79.25148,73.86226667,77.64978788,27.953000000000003,29.51966667,28.47136364,28.15883333,28.53025,301.48,298.14,295.44,302.98,299.82,0.085,0.091,0.161,0.316,2.980982894
134,0,1,0,1,1,0,1,1.7490357140000001,74.96517857,27.89110714,298.08,0.9109999999999999,0.107,2.846878049,2.902479167,67.61217073,75.265,77.87770213,28.2092439,27.92783333,27.54425532,27.84347826,28.44725581,298.24,298.58,300.68,301.62,300.58,0.107,0.107,0.249,0.644,7.989307505
135,0,0,0,1,1,0,1,2.7653404260000003,67.53989362,16.67829787,291.78,0.502,0.102,2.701333333,2.51675,54.45204762,78.3741875,80.49555556,12.26995238,25.741,25.68522222,24.8464359,22.58904651,290.54,296.32,295.8,298.42,287.02,0.10300000000000001,0.10400000000000001,0.8959999999999999,0.8320000000000001,2.493221718
136,1,0,0,0,1,0,1,2.0874333330000003,73.86226667,29.51966667,298.14,0.316,0.091,1.71030303,1.437966667,77.64978788,80.72213333,78.72375,28.47136364,28.15883333,28.53025,28.53025,28.9618,295.44,302.98,299.82,299.82,301.4,0.092,0.092,0.573,0.8640000000000001,8.329496054
