For param {'n_estimators': 35, 'random_state': 10, 'min_samples_split': 90, 'min_samples_leaf': 60, 'max_features': 0.5, 'max_depth': 4, 'learning_rate': 0.1, 'subsample': 0.6}
 *************************FOLDS Average***************************** 

Utility Based Metrics Across All
F1:  0.9412075346684358
F2:  0.9144353848228658
F05: 0.9697574519541549
precision:  0.9898750695330174
recall: 0.8974893431869466

Regression Error Metrics Across All
R2: 0.4015223296096684
Adj-R2: 0.251961145603119
RMSE: 1.9965531920196153
MSE: 3.9938818680061745
MAE: 1.587011677379604
MAPE: 44.04420124888355
Accuracy: 55.95579875111645
AIC: 146.40010032003752
BIC: 146.40010032003752
NMI: 0.9980608283412848

Correlations Across All
Pearson: 0.6526176353904776
Spearman: 0.6556277823140738
Distance: 0.3473823646095226
************************REPETITIONS Average*******************************

Utility Based Metrics Across All
F1:  0.9412075346684358
F2:  0.9144353848228658
F05: 0.9697574519541549
precision:  0.9898750695330174
recall: 0.8974893431869466

Regression Error Metrics Across All
R2: 0.4015223296096684
Adj-R2: 0.251961145603119
RMSE: 1.9965531920196153
MSE: 3.9938818680061745
MAE: 1.587011677379604
MAPE: 44.04420124888355
Accuracy: 55.95579875111645
AIC: 146.40010032003752
BIC: 146.40010032003752
NMI: 0.9980608283412848

Correlations Across All
Pearson: 0.6526176353904776
Spearman: 0.6556277823140738
Distance: 0.3473823646095226

Utility Based Metrics Across All Std
F1:  0.0067397458995816905
F2:  0.008520939425591475
F05: 0.01313304292525586
precision:  0.0193156618678304
recall: 0.0123757094534599

Regression Error Metrics Across All Std
R2: 0.06780107619345153
Adj-R2: 0.0840073466285717
RMSE: 0.0875055394958466
MSE: 0.3569167795534479
MAE: 0.06523202387054325
MAPE: 6.152604940644016
Accuracy: 6.152604940644016
AIC: 9.446948100652786
BIC: 9.446948100652786
NMI: 0.0017957847767120715

Correlations Across All Std
Pearson: 0.06787677807374007
Spearman: 0.07150056597209199
Distance: 0.06787677807374005
