For param {'eta': 0.2, 'gamma': 4, 'objective': 'reg:squarederror', 'max_depth': 1, 'min_child_weight': 5, 'colsample_bytree': 0.5}
 *************************FOLDS Average***************************** 

Utility Based Metrics Across All
F1:  0.4175780437727338
F2:  0.4128815394873013
F05: 0.4227570888881941
precision:  0.42649933934312917
recall: 0.6250911963678073

Regression Error Metrics Across All
R2: 0.43581866323494145
Adj-R2: 0.357022387150436
RMSE: 1.5941940837419237
MSE: 2.6702671460648957
MAE: 1.2139474512979889
MAPE: 40.0649412487958
Accuracy: 59.9350587512042
AIC: 360.87229441126544
BIC: 360.87229441126544
NMI: 0.9735839398640265

Correlations Across All
Pearson: 0.6903669606793285
Spearman: 0.6865636248713428
Distance: 0.30963303932067143
************************REPETITIONS Average*******************************

Utility Based Metrics Across All
F1:  0.4175780437727338
F2:  0.4128815394873013
F05: 0.4227570888881941
precision:  0.42649933934312917
recall: 0.6250911963678073

Regression Error Metrics Across All
R2: 0.43581866323494145
Adj-R2: 0.357022387150436
RMSE: 1.5941940837419237
MSE: 2.6702671460648957
MAE: 1.2139474512979889
MAPE: 40.0649412487958
Accuracy: 59.9350587512042
AIC: 360.87229441126544
BIC: 360.87229441126544
NMI: 0.9735839398640265

Correlations Across All
Pearson: 0.6903669606793285
Spearman: 0.6865636248713428
Distance: 0.30963303932067143

Utility Based Metrics Across All Std
F1:  0.34480476626915896
F2:  0.34195469996317557
F05: 0.348381911226256
precision:  0.35121893965669204
recall: 0.21845672629120652

Regression Error Metrics Across All Std
R2: 0.12913888929345124
Adj-R2: 0.1471750470160003
RMSE: 0.3589044015154223
MSE: 1.1899585163497353
MAE: 0.24739460960878693
MAPE: 9.148480097304578
Accuracy: 9.148480097304578
AIC: 183.47739744820439
BIC: 183.47739744820439
NMI: 0.0176253997896597

Correlations Across All Std
Pearson: 0.10247384336429878
Spearman: 0.09535684204926752
Distance: 0.10247384336429875
