Error Metrics,Validation Scores,Testing Scores
mean target,3.8237390439622785,3.8237390439622785
F1,0.6100004015255827,0.7624027121901474
F2,0.6068121959530492,0.7402561499145845
F05,0.6142788510669793,0.7859152782876003
Precision,0.6177508444072504,0.8024129348555168
Recall,0.7286701616352811,0.726192997389361
R2,0.37446055205428064,0.48187791321664697
Adjusted R2,0.33811862522258485,0.4583705222422171
RMSE,1.6622478463096386,1.4473704470633737
MSE,2.7719912110740714,2.09488121103243
MAE,1.2271838899865222,1.0780410282921669
MAPE,41.83783365778987,38.90957354317364
Accuracy,58.16216634221013,61.09042645682636
Pearson C.C.,0.6608781197346438,0.7060409850037284
Spearman C.C.,0.6433768556199653,0.7480184045537748
Spatial Distance,0.3391218802653564,0.29395901499627153
NMI,0.986787497125114,0.9929995901135268
AIC,905.0064062121535,835.6314411652206
BIC,905.0064062121535,835.6314411652206
Data Size train,-,4467.0
Data Size test,-,1130.0
Training Time (seconds),-,21.97222352027893
Testing Time (seconds),-,0.6370835304260254
