,Month_1,Month_2,Month_3,Month_4,Vegetation_1,Vegetation_2,Vegetation_3,WS,RH,TA,Eeflux_LST,Eeflux_NDVI,Eeflux_Albedo,TA-1,TA-2,TA-3,TA-4,TA-5,WS-1,WS-2,RH-1,RH-2,RH-3,Eeflux_LST-1,Eeflux_LST-2,Eeflux_LST-3,Eeflux_LST-4,Eeflux_LST-5,Eeflux_Albedo-1,Eeflux_Albedo-2,Eeflux_NDVI-1,Eeflux_NDVI-2,LE_bowen_corr_mm,y_rel
0,1,0,1,0,1,0,1,2.62745,70.51245,22.642075,297.32,0.899,0.10300000000000001,21.37782051,17.81912195,16.45409302,21.94276923,22.18820513,2.141897436,2.549,73.55076923,74.10229268,57.09393023,296.28,295.28,293.22,295.14,293.16,0.10300000000000001,0.10300000000000001,0.502,0.841,3.345877357,0.0
1,0,0,0,1,1,0,1,1.9578285709999999,69.88157143,19.08254286,294.94,0.853,0.10400000000000001,19.08254286,18.71185417,24.165,25.3075,22.35378723,1.9578285709999999,3.062166667,69.88157143,62.028375,80.24126923,294.94,295.94,297.66,297.78,296.92,0.10400000000000001,0.10300000000000001,0.853,0.85,4.191772612,0.0009012221672316943
2,1,0,1,0,1,0,1,2.136973684,75.68631579,19.85452632,296.6,0.917,0.10300000000000001,20.32475676,19.08658333,19.316325,21.27455814,21.18097143,2.338081081,2.5474583330000002,73.314,76.67341667,78.240975,296.02,294.72,296.96,295.56,297.78,0.102,0.102,0.754,0.846,3.180263974,0.0
3,0,0,0,1,1,0,1,2.7653404260000003,67.53989362,16.67829787,291.78,0.502,0.102,12.26995238,25.741,25.68522222,24.8464359,22.58904651,2.701333333,2.51675,54.45204762,78.3741875,80.49555556,290.54,296.32,295.8,298.42,287.02,0.10300000000000001,0.10400000000000001,0.8959999999999999,0.8320000000000001,2.493221718,0.0
4,1,0,0,1,1,0,1,1.66340625,83.3271875,26.6298125,298.02,0.473,0.10400000000000001,27.10025532,27.63959091,28.44303448,26.43011111,28.03807143,2.116234043,2.329522727,82.87495745,80.82345455,79.08286207,296.2,299.58,300.6,298.92,297.88,0.10400000000000001,0.107,0.845,0.366,4.992502996,0.022953943004959874
5,0,0,0,1,1,0,1,1.69475,78.90945833,23.25220833,292.68,0.255,0.111,22.75383333,21.47236585,15.4645,12.48334884,13.3579,1.547733333,2.583195122,83.66053333,84.22502439,70.466625,294.14,295.98,288.72,289.96,291.44,0.107,0.107,0.725,0.838,5.3184951,0.03965736043925959
6,1,0,0,0,1,0,1,1.8570270269999998,86.34572973,25.20454054,299.54,0.856,0.083,25.96308696,27.953000000000003,29.51966667,28.47136364,28.15883333,2.138565217,1.8188799999999998,90.79726087,79.25148,73.86226667,300.28,301.48,298.14,295.44,302.98,0.08199999999999999,0.085,0.772,0.161,5.965199077,0.08434787212634533
7,0,0,1,0,1,0,1,2.068914286,66.82674286,22.8332,299.48,0.861,0.105,23.56314815,22.34658333,19.83341667,22.70432353,25.826612899999997,2.958740741,2.954625,57.29322222,54.77620833,55.10958333,296.3,294.56,294.14,297.72,300.22,0.105,0.10400000000000001,0.579,0.706,4.437197223,0.0046134737794789795
8,1,0,1,0,1,0,1,2.141897436,73.55076923,21.37782051,296.28,0.502,0.10300000000000001,17.81912195,16.45409302,21.94276923,22.18820513,22.14079487,2.549,3.185023256,74.10229268,57.09393023,82.33387179,295.28,293.22,295.14,293.16,295.3,0.10300000000000001,0.10300000000000001,0.841,0.843,3.640241384,0.0
9,0,0,0,1,1,0,1,2.066230769,77.63084615,25.3075,297.78,0.86,0.107,22.35378723,22.67781818,23.11605882,22.76290323,22.30412903,2.5403404259999998,2.407113636,84.30063829999999,84.61336364,79.35802941,296.92,296.9,292.6,296.62,295.42,0.10300000000000001,0.10300000000000001,0.8490000000000001,0.633,4.775314699,0.014203322174997538
10,0,1,1,0,1,0,1,1.4458333330000002,78.19225,28.37208333,301.48,0.722,0.12300000000000001,28.94371429,29.032975,28.78970968,27.617675,27.37951613,1.525071429,1.96215,77.87421429,74.332625,77.02964516,298.78,301.4,299.46,300.12,303.18,0.12300000000000001,0.109,0.865,0.626,1.898707765,0.0
11,0,1,0,0,1,0,1,2.349157895,62.66042105,27.52310526,301.52,0.8220000000000001,0.10400000000000001,27.85695833,28.91380556,29.05041667,27.19213333,26.214375,3.749541667,2.893138889,79.40172917,82.36069444,72.05583333,291.76,298.38,303.82,297.08,300.6,0.10400000000000001,0.10400000000000001,0.49200000000000005,0.511,4.861744731,0.017450083583781906
12,0,0,1,0,1,0,1,3.143702703,73.74635135,23.00891892,297.9,0.853,0.10400000000000001,22.48556522,16.67829787,12.26995238,25.741,25.68522222,1.967304348,2.7653404260000003,63.32408696,67.53989362,54.45204762,290.14,291.78,290.54,296.32,295.8,0.102,0.102,0.32299999999999995,0.502,4.020503635,1.0410164668488657e-05
13,0,0,0,1,1,0,1,2.42825641,83.71789744,24.8464359,298.42,0.758,0.102,22.58904651,22.19480488,23.38013636,19.08254286,19.08254286,2.408186047,2.190560976,85.8585814,81.33246341,62.25436364,287.02,295.8,296.18,294.94,294.94,0.105,0.10400000000000001,0.639,0.74,2.678575923,0.0
14,1,0,0,0,1,0,1,2.014230769,80.72480769,26.90661538,298.12,0.584,0.115,28.42227778,28.716512199999997,28.7121875,29.66876923,28.97663333,3.622,3.5737073169999998,73.78588889,80.10436585,79.64625,299.18,302.08,294.74,301.18,300.28,0.115,0.154,0.784,0.843,5.055060202,0.025834058733232777
15,1,0,0,0,1,0,1,1.5123125,84.7429375,27.02084375,300.12,0.899,0.096,26.86246512,27.59483871,28.35529032,25.20454054,25.96308696,1.862837209,1.523322581,84.47200000000001,83.68183871,81.63183871,302.62,292.76,301.74,299.54,300.28,0.096,0.096,0.8540000000000001,0.48700000000000004,5.436106124,0.0466833760658048
16,0,0,0,1,1,0,1,2.159352941,79.35802941,23.11605882,292.6,0.177,0.105,22.76290323,22.30412903,12.67486207,22.760525,24.05006667,1.651096774,1.958322581,77.73412903,76.30241935,73.92196552,296.62,295.42,294.06,294.5,296.34,0.10400000000000001,0.10400000000000001,0.82,0.847,3.198736458,0.0
17,0,1,0,0,1,0,1,2.651583333,71.340625,22.84120833,300.12,0.495,0.106,24.34204545,27.52310526,27.85695833,28.91380556,29.05041667,2.394409091,2.349157895,66.4915,62.66042105,79.40172917,298.34,301.52,291.76,298.38,303.82,0.105,0.10400000000000001,0.581,0.8220000000000001,5.554029775,0.05423688317907326
18,1,0,1,0,1,0,1,1.951384615,83.63530769,22.18820513,293.16,0.746,0.10099999999999999,22.14079487,20.62552381,19.85452632,20.32475676,19.08658333,2.430282051,2.149761905,74.66566667,71.04126190000001,75.68631579,295.3,296.82,296.6,296.02,294.72,0.1,0.1,0.613,0.865,3.1311133680000003,0.0
19,0,1,0,0,1,0,1,2.893138889,82.36069444,28.91380556,298.38,0.511,0.10400000000000001,29.05041667,27.19213333,26.214375,26.43393548,26.43393548,2.029833333,2.5468666669999998,72.05583333,80.33226667,76.37147917,303.82,297.08,300.6,300.32,300.32,0.10400000000000001,0.10300000000000001,0.7959999999999999,0.8240000000000001,5.08430632,0.027234473912299106
20,0,1,0,0,1,0,1,2.586818182,72.17359091,23.78861364,299.12,0.414,0.10300000000000001,23.4102973,24.76330233,24.85002941,25.53019048,28.54083333,3.005486486,2.391255814,62.23340541,77.37323256,66.96808824,301.06,296.78,295.2,299.82,296.6,0.114,0.114,0.727,0.522,5.0102835269999995,0.02375647236668598
21,0,1,1,0,1,0,1,1.740225806,79.31458065,27.37951613,303.18,0.7120000000000001,0.122,28.2578,28.82605263,29.11825806,28.13869697,28.0740303,2.387311111,2.443684211,75.08244444,76.38089474,72.31070968,298.66,296.34,303.46,301.54,302.34,0.11199999999999999,0.11,0.33799999999999997,0.43200000000000005,8.632383003,0.38266996881325477
22,0,0,0,1,1,0,1,3.062166667,62.028375,18.71185417,295.94,0.85,0.10300000000000001,24.165,25.3075,22.35378723,22.67781818,23.11605882,1.448769231,2.066230769,80.24126923,77.63084615,84.30063829999999,297.66,297.78,296.92,296.9,292.6,0.10400000000000001,0.107,0.376,0.86,3.105436938,0.0
23,0,1,0,0,1,0,1,2.173451613,63.30732258,26.43393548,300.32,0.887,0.10300000000000001,29.56494444,26.6992963,23.78861364,23.4102973,24.76330233,2.5836111109999997,2.1900370369999997,58.44938889,71.72611111,72.17359091,299.82,299.38,299.12,301.06,296.78,0.10300000000000001,0.10300000000000001,0.8079999999999999,0.8029999999999999,7.811760825,0.27701582615477355
24,1,0,0,1,1,0,1,2.775422222,79.47791111,27.51257778,297.78,0.722,0.12,27.21029167,27.06176667,24.471,27.569000000000003,28.70519048,2.5533541669999997,1.2766,86.27395833,92.67056667,98.927,297.48,298.78,298.46,298.64,300.5,0.12,0.11199999999999999,0.828,0.565,5.589706591000001,0.05662028871749976
25,1,0,0,1,1,0,1,1.2766,92.67056667,27.06176667,298.78,0.565,0.11199999999999999,24.471,27.569000000000003,28.70519048,27.02084375,26.86246512,1.646,1.652681818,98.927,83.22877273,76.421,298.46,298.64,300.5,300.12,302.62,0.096,0.096,0.797,0.6659999999999999,4.5639049080000005,0.007614573828328374
26,0,1,1,1,1,0,1,1.3966666669999999,74.83296667,28.97663333,300.28,1.0,0.14400000000000002,30.1138,28.718612899999997,29.31425,29.85613333,30.03548276,2.14356,2.0068064519999997,72.20056,78.70032258,75.02639286,302.26,299.96,301.58,299.76,301.36,0.14400000000000002,0.142,0.782,0.7290000000000001,7.930794219,0.2918235887806183
27,1,0,0,0,1,0,1,1.71030303,77.64978788,28.47136364,295.44,0.573,0.092,28.15883333,28.53025,28.53025,28.9618,29.18474286,1.437966667,1.516472222,80.72213333,78.72375,78.72375,302.98,299.82,299.82,301.4,299.62,0.092,0.09,0.8640000000000001,0.86,7.397434207000001,0.22725340528667443
28,0,0,1,0,1,0,1,3.472125,81.47897917,25.63408333,298.1,0.828,0.105,24.50588889,23.00891892,22.48556522,16.67829787,12.26995238,2.12225,3.143702703,88.891,73.74635135,63.32408696,297.56,297.9,290.14,291.78,290.54,0.107,0.10400000000000001,0.654,0.853,2.957337618,0.0
29,0,0,1,1,1,0,1,2.9159393939999996,84.34669697,24.10290909,296.74,0.8290000000000001,0.111,25.308275,24.81670732,24.75622222,25.24116129,24.22934615,2.860075,3.098682927,83.000025,77.98021951,80.65016667,299.4,298.56,298.24,294.38,294.72,0.11,0.102,0.8440000000000001,0.5379999999999999,6.9690823029999995,0.17923534883585002
30,0,1,1,0,1,0,1,1.525071429,77.87421429,28.94371429,298.78,0.865,0.12300000000000001,29.032975,28.78970968,27.617675,27.37951613,28.2578,1.96215,1.535096774,74.332625,77.02964516,80.333925,301.4,299.46,300.12,303.18,298.66,0.109,0.105,0.626,0.401,6.108867984,0.0961713438093492
31,1,0,1,0,1,0,1,1.8691764709999998,82.39817647,24.97091176,295.92,0.9440000000000001,0.1,24.555761899999997,23.17260606,22.642075,21.37782051,17.81912195,1.417666667,1.710515152,76.643,76.80557576,70.51245,296.72,295.26,297.32,296.28,295.28,0.102,0.102,0.488,0.9,3.973081773,0.0
32,1,0,0,1,1,0,1,2.116234043,82.87495745,27.10025532,296.2,0.845,0.10400000000000001,27.63959091,28.44303448,26.43011111,28.03807143,26.76020833,2.329522727,1.552275862,80.82345455,79.08286207,86.16288889,299.58,300.6,298.92,297.88,295.94,0.107,0.10800000000000001,0.366,0.8170000000000001,3.7775939060000003,0.0
33,0,1,1,0,1,0,1,2.052736842,74.20744737,28.54868421,301.48,0.721,0.12300000000000001,28.37208333,28.94371429,29.032975,28.78970968,27.617675,1.4458333330000002,1.525071429,78.19225,77.87421429,74.332625,301.48,298.78,301.4,299.46,300.12,0.12300000000000001,0.12300000000000001,0.722,0.865,6.567146266,0.13797272623557053
34,1,0,1,1,1,0,1,2.010823529,76.51502941,23.98961765,298.04,0.841,0.10400000000000001,23.52354054,24.505238100000003,24.97091176,24.555761899999997,23.17260606,2.001783784,1.391047619,82.35824324,82.88704762,82.39817647,294.74,296.92,295.92,296.72,295.26,0.1,0.1,0.442,0.752,3.231747155,0.0
35,0,0,1,0,1,0,1,3.444545455,39.94118182,16.45318182,290.46,0.8420000000000001,0.11599999999999999,16.45318182,18.8255,22.74933333,21.99715625,19.28685714,3.444545455,4.698,39.94118182,61.85333333,83.99290476,290.46,288.98,296.6,293.92,293.1,0.11599999999999999,0.115,0.8420000000000001,0.7559999999999999,7.838601831,0.2803365594060972
36,1,0,1,1,1,0,1,2.324978723,82.75085106,22.94502128,297.36,0.738,0.107,23.88916216,23.09255172,19.86393548,21.45645,23.98961765,1.953702703,1.5501379309999999,84.70294595,77.82151724,75.30838709999999,297.98,295.08,295.04,295.42,298.04,0.107,0.10300000000000001,0.91,0.892,2.76665728,0.0
37,0,1,0,0,1,0,1,2.173451613,63.30732258,26.43393548,300.32,0.887,0.10300000000000001,26.43393548,29.56494444,26.6992963,23.78861364,23.4102973,2.173451613,2.5836111109999997,63.30732258,58.44938889,71.72611111,300.32,299.82,299.38,299.12,301.06,0.10300000000000001,0.10300000000000001,0.887,0.8079999999999999,7.811760825,0.27701582615477355
38,1,0,1,1,1,0,1,3.709533333,77.80206667,24.05006667,296.34,0.26,0.105,22.94502128,23.88916216,23.09255172,19.86393548,21.45645,2.324978723,1.953702703,82.75085106,84.70294595,77.82151724,297.36,297.98,295.08,295.04,295.42,0.107,0.107,0.738,0.91,6.083602239,0.0940455666308624
39,0,0,1,1,1,0,1,2.193722222,80.65016667,24.75622222,298.24,0.8029999999999999,0.10099999999999999,25.24116129,24.22934615,22.8332,23.56314815,22.34658333,3.651741935,1.8166923080000001,68.0676129,63.61988462,66.82674286,294.38,294.72,299.48,296.3,294.56,0.10400000000000001,0.105,0.214,0.551,3.6568772110000003,0.0
40,1,0,1,0,1,0,1,2.149761905,71.04126190000001,20.62552381,296.82,0.865,0.1,19.85452632,20.32475676,19.08658333,19.316325,21.27455814,2.136973684,2.338081081,75.68631579,73.314,76.67341667,296.6,296.02,294.72,296.96,295.56,0.10300000000000001,0.102,0.917,0.754,3.1236586610000003,0.0
41,1,0,1,1,1,0,1,1.5501379309999999,77.82151724,23.09255172,295.08,0.892,0.10300000000000001,19.86393548,21.45645,23.98961765,23.52354054,24.505238100000003,2.1459354840000002,2.0829,75.30838709999999,80.9577,76.51502941,295.04,295.42,298.04,294.74,296.92,0.10300000000000001,0.10400000000000001,0.8690000000000001,0.715,4.77956726,0.014355675073156986
42,0,0,1,0,1,0,1,4.117636364,86.20363636,25.47409091,291.5,0.621,0.106,25.63408333,24.50588889,23.00891892,22.48556522,16.67829787,3.472125,2.12225,81.47897917,88.891,73.74635135,298.1,297.56,297.9,290.14,291.78,0.105,0.107,0.828,0.654,1.535185695,0.0
43,0,0,0,1,1,0,1,1.792954545,62.25436364,23.38013636,296.18,0.8420000000000001,0.105,19.08254286,19.08254286,18.71185417,24.165,25.3075,1.9578285709999999,1.9578285709999999,69.88157143,69.88157143,62.028375,294.94,294.94,295.94,297.66,297.78,0.10400000000000001,0.10400000000000001,0.853,0.853,6.248707002000001,0.10828591075621943
44,1,0,1,1,1,0,1,2.03775,82.36995,22.760525,294.5,0.145,0.105,24.05006667,22.94502128,23.88916216,23.09255172,19.86393548,3.709533333,2.324978723,77.80206667,82.75085106,84.70294595,296.34,297.36,297.98,295.08,295.04,0.105,0.107,0.26,0.738,2.5529825809999998,0.0
45,0,1,1,0,1,0,1,2.505925,80.333925,27.617675,300.12,0.679,0.12300000000000001,27.37951613,28.2578,28.82605263,29.11825806,28.13869697,1.740225806,2.387311111,79.31458065,75.08244444,76.38089474,303.18,298.66,296.34,303.46,301.54,0.122,0.11199999999999999,0.7120000000000001,0.33799999999999997,7.203277712999999,0.2050150401858805
46,1,0,0,1,1,0,1,1.906044444,86.16288889,26.43011111,298.92,0.858,0.107,28.03807143,26.76020833,27.51257778,27.21029167,27.06176667,2.039928571,2.4944583330000003,71.51032143,81.6466875,79.47791111,297.88,295.94,297.78,297.48,298.78,0.111,0.11599999999999999,0.701,0.278,3.9788797660000004,0.0
47,0,0,1,1,1,0,1,2.454285714,59.07233333,25.53019048,299.82,0.374,0.114,28.54083333,28.60116667,26.42526923,24.82913636,22.62763889,3.857416667,3.663055556,54.84433333,65.10044444,74.46984615,296.6,299.12,297.48,297.94,298.86,0.113,0.106,0.851,0.7020000000000001,7.253508936,0.2106962464967104
48,0,0,1,0,1,0,1,3.13752381,83.99290476,22.74933333,296.6,0.81,0.11800000000000001,21.99715625,19.28685714,18.368625,20.65872414,15.64483333,2.16828125,2.4225142859999997,71.1761875,63.4276,75.78814583,293.92,293.1,295.5,294.62,292.54,0.11699999999999999,0.115,0.812,0.698,4.768307196,0.013953951177073263
49,0,0,1,0,1,0,1,1.6029333330000002,76.66966667,23.54763333,295.48,0.62,0.11199999999999999,23.21852273,22.8707,22.96841935,23.14803571,21.4437381,2.361295455,2.528375,81.68993182,79.140975,70.38454839,297.86,296.48,296.68,297.64,294.94,0.11,0.11,0.792,0.716,4.924552703,0.02000579494466616
50,0,0,0,1,1,0,1,2.51675,78.3741875,25.741,296.32,0.8320000000000001,0.10400000000000001,25.68522222,24.8464359,22.58904651,22.19480488,23.38013636,2.227805556,2.42825641,80.49555556,83.71789744,85.8585814,295.8,298.42,287.02,295.8,296.18,0.10300000000000001,0.102,0.72,0.758,4.807747743,0.015384689213548715
51,1,0,0,1,1,0,1,1.552275862,79.08286207,28.44303448,300.6,0.8170000000000001,0.10800000000000001,26.43011111,28.03807143,26.76020833,27.51257778,27.21029167,1.906044444,2.039928571,86.16288889,71.51032143,81.6466875,298.92,297.88,295.94,297.78,297.48,0.107,0.111,0.858,0.701,6.529374022000001,0.13430553577180418
52,0,0,1,0,1,0,1,2.201477273,79.28236364,24.13386364,298.24,0.83,0.106,23.90461905,24.8998125,25.47409091,25.47409091,25.63408333,2.468047619,2.62625,73.93604762,66.2294375,86.20363636,292.28,293.82,291.5,291.5,298.1,0.106,0.106,0.62,0.836,3.478001508,0.0
53,0,0,0,1,1,0,1,2.435875,70.466625,15.4645,288.72,0.324,0.106,12.48334884,13.3579,26.90661538,28.42227778,28.716512199999997,2.8986511630000003,3.276675,65.62246512,56.058875,80.72480769,289.96,291.44,298.12,299.18,302.08,0.107,0.107,0.8170000000000001,0.8690000000000001,2.0949409759999997,0.0
54,0,1,0,0,1,0,1,2.394409091,66.4915,24.34204545,298.34,0.581,0.105,27.52310526,27.85695833,28.91380556,29.05041667,27.19213333,2.349157895,3.749541667,62.66042105,79.40172917,82.36069444,301.52,291.76,298.38,303.82,297.08,0.10400000000000001,0.10400000000000001,0.8220000000000001,0.49200000000000005,4.808650344,0.015418204139732149
55,0,1,1,1,1,0,1,1.6607666669999999,72.1107,28.9618,301.4,0.8079999999999999,0.091,29.18474286,28.69481818,29.03064865,28.8264,27.85364286,1.8479428569999998,1.682757576,71.18025714,79.22578788,77.48102703,299.62,301.46,294.18,296.28,298.0,0.091,0.094,0.54,0.33799999999999997,7.55030422,0.24526899040832187
56,1,0,0,1,1,0,1,3.283833333,82.50252381,25.38730952,295.8,0.61,0.105,25.50804255,26.6298125,27.10025532,27.63959091,28.44303448,3.064361702,1.66340625,80.08940426,83.3271875,82.87495745,298.44,298.02,296.2,299.58,300.6,0.10400000000000001,0.10400000000000001,0.669,0.473,4.793474486,0.014859287912917211
57,1,0,0,1,1,0,1,3.064361702,80.08940426,25.50804255,298.44,0.669,0.10400000000000001,26.6298125,27.10025532,27.63959091,28.44303448,26.43011111,1.66340625,2.116234043,83.3271875,82.87495745,80.82345455,298.02,296.2,299.58,300.6,298.92,0.10400000000000001,0.10400000000000001,0.473,0.845,4.385572862,0.0035998112470235467
58,0,0,1,1,1,0,1,1.852433333,73.38513333,26.44903333,299.56,0.794,0.10300000000000001,25.7554375,25.54643333,24.17767647,24.10290909,25.308275,2.24778125,2.0667,70.2124375,63.0469,79.50820588,299.18,299.42,296.48,296.74,299.4,0.107,0.10800000000000001,0.809,0.8059999999999999,6.2219094,0.10591921810805854
59,0,0,1,1,1,0,1,1.887088235,79.50820588,24.17767647,296.48,0.6829999999999999,0.11,24.10290909,25.308275,24.81670732,24.75622222,25.24116129,2.9159393939999996,2.860075,84.34669697,83.000025,77.98021951,296.74,299.4,298.56,298.24,294.38,0.111,0.11,0.8290000000000001,0.8440000000000001,4.849786794,0.016982129721768633
60,1,0,1,0,1,0,1,2.497318182,61.74327273,20.14881818,292.7,0.747,0.10300000000000001,22.22747826,24.98328571,25.46063636,25.38730952,25.50804255,2.416086957,2.464,78.04356522,83.78271429,86.25754545,297.96,295.78,295.96,295.8,298.44,0.10300000000000001,0.10400000000000001,0.887,0.597,3.3437563710000004,0.0
61,1,0,1,1,1,0,1,2.1459354840000002,75.30838709999999,19.86393548,295.04,0.8690000000000001,0.10300000000000001,21.45645,23.98961765,23.52354054,24.505238100000003,24.97091176,2.0829,2.010823529,80.9577,76.51502941,82.35824324,295.42,298.04,294.74,296.92,295.92,0.10400000000000001,0.10400000000000001,0.715,0.841,2.75360608,0.0
62,0,1,1,1,1,0,1,2.533142857,77.13232143,28.07125,302.34,0.759,0.11900000000000001,29.97686667,30.547040000000003,28.81593548,28.54868421,28.37208333,1.7114666669999998,1.60804,65.86903333,68.00404,75.95693548,297.98,302.1,300.28,301.48,301.48,0.125,0.125,0.589,1.0,7.718753862000001,0.2655950684622459
63,1,0,0,0,1,0,1,1.523322581,83.68183871,27.59483871,292.76,0.48700000000000004,0.096,28.35529032,25.20454054,25.96308696,27.953000000000003,29.51966667,1.855,1.8570270269999998,81.63183871,86.34572973,90.79726087,301.74,299.54,300.28,301.48,298.14,0.091,0.083,0.7490000000000001,0.856,5.452549017000001,0.04770638086646953
64,0,0,0,1,1,0,1,2.771219512,62.02578049,17.49239024,293.26,0.8240000000000001,0.113,21.27063636,18.61589474,16.667,21.42963889,23.25220833,2.213431818,2.442763158,82.4395,72.5035,66.49983333,295.36,294.76,294.46,297.66,292.68,0.11199999999999999,0.111,0.7120000000000001,0.914,3.6324436639999997,0.0
65,1,0,1,0,1,0,1,2.464,83.78271429,24.98328571,295.78,0.597,0.10400000000000001,25.46063636,25.38730952,25.50804255,26.6298125,27.10025532,3.542636364,3.283833333,86.25754545,82.50252381,80.08940426,295.96,295.8,298.44,298.02,296.2,0.10400000000000001,0.105,0.604,0.61,3.331774826,0.0
66,1,0,1,0,1,0,1,2.154651163,75.04869767,21.27455814,295.56,0.9279999999999999,0.10300000000000001,21.18097143,20.14881818,22.22747826,24.98328571,25.46063636,2.5089714290000003,2.497318182,67.51231429,61.74327273,78.04356522,297.78,292.7,297.96,295.78,295.96,0.10300000000000001,0.10300000000000001,0.841,0.747,2.993256529,0.0
67,0,0,0,1,1,0,1,2.701333333,54.45204762,12.26995238,290.54,0.8959999999999999,0.10300000000000001,25.741,25.68522222,24.8464359,22.58904651,22.19480488,2.51675,2.227805556,78.3741875,80.49555556,83.71789744,296.32,295.8,298.42,287.02,295.8,0.10400000000000001,0.10300000000000001,0.8320000000000001,0.72,3.260283497,0.0
68,1,0,0,0,1,0,1,2.0874333330000003,73.86226667,29.51966667,298.14,0.316,0.091,28.47136364,28.15883333,28.53025,28.53025,28.9618,1.71030303,1.437966667,77.64978788,80.72213333,78.72375,295.44,302.98,299.82,299.82,301.4,0.092,0.092,0.573,0.8640000000000001,8.329496054,0.3427955677641942
69,0,1,0,0,1,0,1,2.5836111109999997,58.44938889,29.56494444,299.82,0.8079999999999999,0.10300000000000001,26.6992963,23.78861364,23.4102973,24.76330233,24.85002941,2.1900370369999997,2.586818182,71.72611111,72.17359091,62.23340541,299.38,299.12,301.06,296.78,295.2,0.10300000000000001,0.10300000000000001,0.8029999999999999,0.414,9.843986729,0.5468461198856188
70,0,0,1,1,1,0,1,2.860075,83.000025,25.308275,299.4,0.8440000000000001,0.11,24.81670732,24.75622222,25.24116129,24.22934615,22.8332,3.098682927,2.193722222,77.98021951,80.65016667,68.0676129,298.56,298.24,294.38,294.72,299.48,0.102,0.10099999999999999,0.5379999999999999,0.8029999999999999,5.733422732,0.06667158158330729
71,0,0,0,1,1,0,1,2.5403404259999998,84.30063829999999,22.35378723,296.92,0.8490000000000001,0.10300000000000001,22.67781818,23.11605882,22.76290323,22.30412903,12.67486207,2.407113636,2.159352941,84.61336364,79.35802941,77.73412903,296.9,292.6,296.62,295.42,294.06,0.10300000000000001,0.105,0.633,0.177,2.578240494,0.0
72,0,0,0,1,1,0,1,2.5389375,75.78814583,18.368625,295.5,0.8490000000000001,0.115,20.65872414,15.64483333,17.49239024,21.27063636,18.61589474,2.103,2.603145833,73.26675862,71.15122917,62.02578049,294.62,292.54,293.26,295.36,294.76,0.114,0.113,0.25,0.725,2.642721646,0.0
73,0,0,0,1,1,0,1,1.296166667,86.87930556,21.42963889,297.66,0.8740000000000001,0.111,23.25220833,22.75383333,21.47236585,15.4645,12.48334884,1.69475,1.547733333,78.90945833,83.66053333,84.22502439,292.68,294.14,295.98,288.72,289.96,0.111,0.107,0.255,0.725,3.395337211,0.0
74,0,0,0,1,1,0,1,2.541958333,66.49983333,16.667,294.46,0.8370000000000001,0.11199999999999999,21.42963889,23.25220833,22.75383333,21.47236585,15.4645,1.296166667,1.69475,86.87930556,78.90945833,83.66053333,297.66,292.68,294.14,295.98,288.72,0.111,0.111,0.8740000000000001,0.255,2.80223405,0.0
75,0,0,0,1,1,0,1,2.442763158,72.5035,18.61589474,294.76,0.914,0.111,16.667,21.42963889,23.25220833,22.75383333,21.47236585,2.541958333,1.296166667,66.49983333,86.87930556,78.90945833,294.46,297.66,292.68,294.14,295.98,0.11199999999999999,0.111,0.8370000000000001,0.8740000000000001,2.747670176,0.0
76,0,0,1,0,1,0,1,2.361295455,81.68993182,23.21852273,297.86,0.792,0.11,22.8707,22.96841935,23.14803571,21.4437381,18.59151429,2.528375,2.3850322580000003,79.140975,70.38454839,65.02975,296.48,296.68,297.64,294.94,294.06,0.11,0.111,0.716,0.835,3.4086553,0.0
77,0,1,1,1,1,0,1,2.0068064519999997,78.70032258,28.718612899999997,299.96,0.7290000000000001,0.142,29.31425,29.85613333,30.03548276,26.21551429,28.07125,2.669607143,2.3514,75.02639286,73.08583333,68.72296552,301.58,299.76,301.36,302.66,302.34,0.138,0.13699999999999998,0.727,0.6990000000000001,6.4072481660000005,0.12271268916889165
78,0,1,1,1,1,0,1,1.8479428569999998,71.18025714,29.18474286,299.62,0.54,0.091,28.69481818,29.03064865,28.8264,27.85364286,28.555,1.682757576,2.197081081,79.22578788,77.48102703,67.90036667,301.46,294.18,296.28,298.0,302.08,0.094,0.094,0.33799999999999997,0.705,8.012126586,0.30205754047202416
79,0,1,0,1,1,0,1,1.7490357140000001,74.96517857,27.89110714,298.08,0.9109999999999999,0.107,28.2092439,27.92783333,27.54425532,27.84347826,28.44725581,2.846878049,2.902479167,67.61217073,75.265,77.87770213,298.24,298.58,300.68,301.62,300.58,0.107,0.107,0.249,0.644,7.989307505,0.29917707907586627
80,0,1,0,1,1,0,1,2.1657878790000002,78.20963636,28.13869697,301.54,0.755,0.114,28.0740303,28.992125,27.2719,27.89110714,28.2092439,2.884575758,1.8055,79.24669697,67.06691667,76.828,302.34,298.58,301.12,298.08,298.24,0.10400000000000001,0.106,0.66,0.408,7.133255846,0.19718291972289248
81,0,0,1,0,1,0,1,2.1926666669999997,54.285,19.5165,293.2,0.835,0.11599999999999999,16.45318182,16.45318182,18.8255,22.74933333,21.99715625,3.444545455,3.444545455,39.94118182,39.94118182,61.85333333,290.46,290.46,288.98,296.6,293.92,0.11599999999999999,0.11599999999999999,0.8420000000000001,0.8420000000000001,5.426659966,0.04610015499929344
82,0,0,1,1,1,0,1,2.209727273,70.59790909,24.82913636,297.94,0.818,0.10800000000000001,22.62763889,22.99569231,26.58555556,26.44903333,25.7554375,2.3031111109999998,3.671384615,66.53444444,54.84007692,78.26844444,298.86,295.38,300.64,299.56,299.18,0.10800000000000001,0.106,0.805,0.711,8.307520386,0.3399371752652075
83,1,0,0,0,1,0,1,1.437966667,80.72213333,28.15883333,302.98,0.8640000000000001,0.092,28.53025,28.53025,28.9618,29.18474286,28.69481818,1.516472222,1.516472222,78.72375,78.72375,72.1107,299.82,299.82,301.4,299.62,301.46,0.09,0.09,0.86,0.86,6.830160203999999,0.1645270856253768
84,0,0,0,1,1,0,1,2.213431818,82.4395,21.27063636,295.36,0.7120000000000001,0.11199999999999999,18.61589474,16.667,21.42963889,23.25220833,22.75383333,2.442763158,2.541958333,72.5035,66.49983333,86.87930556,294.76,294.46,297.66,292.68,294.14,0.111,0.11199999999999999,0.914,0.8370000000000001,2.269456317,0.0
85,0,0,1,0,1,0,1,2.62625,66.2294375,24.8998125,293.82,0.836,0.106,25.47409091,25.47409091,25.63408333,24.50588889,23.00891892,4.117636364,4.117636364,86.20363636,86.20363636,81.47897917,291.5,291.5,298.1,297.56,297.9,0.106,0.106,0.621,0.621,5.7637369839999995,0.06888219026517213
86,0,1,0,1,1,0,1,2.45175,76.828,27.2719,301.12,0.7759999999999999,0.107,27.89110714,28.2092439,27.92783333,27.54425532,27.84347826,1.7490357140000001,2.846878049,74.96517857,67.61217073,75.265,298.08,298.24,298.58,300.68,301.62,0.107,0.107,0.9109999999999999,0.249,8.712929355,0.39340482892111556
87,1,0,0,0,1,0,1,1.652681818,83.22877273,27.569000000000003,298.64,0.6659999999999999,0.096,28.70519048,27.02084375,26.86246512,27.59483871,28.35529032,1.281571429,1.5123125,76.421,84.7429375,84.47200000000001,300.5,300.12,302.62,292.76,301.74,0.096,0.096,0.7440000000000001,0.899,7.452747025,0.2337225105772097
88,0,0,1,0,1,0,1,2.3850322580000003,70.38454839,22.96841935,296.68,0.835,0.111,23.14803571,21.4437381,18.59151429,19.5165,16.45318182,2.619142857,2.365857143,65.02975,69.48211905,61.48877143,297.64,294.94,294.06,293.2,290.46,0.113,0.114,0.8190000000000001,0.196,5.559968249,0.054630475248890864
89,0,0,1,0,1,0,1,2.468047619,73.93604762,23.90461905,292.28,0.62,0.106,24.8998125,25.47409091,25.47409091,25.63408333,24.50588889,2.62625,4.117636364,66.2294375,86.20363636,86.20363636,293.82,291.5,291.5,298.1,297.56,0.106,0.106,0.836,0.621,5.698322704,0.06415098110790098
90,0,1,0,1,1,0,1,2.884575758,79.24669697,28.0740303,302.34,0.66,0.10400000000000001,28.992125,27.2719,27.89110714,28.2092439,27.92783333,1.8055,2.45175,67.06691667,76.828,74.96517857,298.58,301.12,298.08,298.24,298.58,0.106,0.107,0.408,0.7759999999999999,5.777464663,0.06989345295553644
91,0,0,1,0,1,0,1,1.967304348,63.32408696,22.48556522,290.14,0.32299999999999995,0.102,16.67829787,12.26995238,25.741,25.68522222,24.8464359,2.7653404260000003,2.701333333,67.53989362,54.45204762,78.3741875,291.78,290.54,296.32,295.8,298.42,0.102,0.10300000000000001,0.502,0.8959999999999999,4.758250594,0.013599735225818706
92,0,0,0,1,1,0,1,1.958322581,76.30241935,22.30412903,295.42,0.847,0.10400000000000001,12.67486207,22.760525,24.05006667,22.94502128,23.88916216,3.067310345,2.03775,73.92196552,82.36995,77.80206667,294.06,294.5,296.34,297.36,297.98,0.105,0.105,0.927,0.145,3.104707715,0.0
93,0,1,0,0,1,0,1,2.5468666669999998,80.33226667,27.19213333,297.08,0.8240000000000001,0.10300000000000001,26.214375,26.43393548,26.43393548,29.56494444,26.6992963,2.6659375,2.173451613,76.37147917,63.30732258,63.30732258,300.6,300.32,300.32,299.82,299.38,0.10300000000000001,0.10300000000000001,0.531,0.887,4.262089331,0.001676026081310219
94,0,0,1,0,1,0,1,3.444545455,39.94118182,16.45318182,290.46,0.8420000000000001,0.11599999999999999,18.8255,22.74933333,21.99715625,19.28685714,18.368625,4.698,3.13752381,61.85333333,83.99290476,71.1761875,288.98,296.6,293.92,293.1,295.5,0.115,0.11800000000000001,0.7559999999999999,0.81,7.838601831,0.2803365594060972
95,0,0,1,0,1,0,1,4.698,61.85333333,18.8255,288.98,0.7559999999999999,0.115,22.74933333,21.99715625,19.28685714,18.368625,20.65872414,3.13752381,2.16828125,83.99290476,71.1761875,63.4276,296.6,293.92,293.1,295.5,294.62,0.11800000000000001,0.11699999999999999,0.81,0.812,5.5053962489999995,0.05106091498370116
96,0,0,0,1,1,0,1,2.8986511630000003,65.62246512,12.48334884,289.96,0.8170000000000001,0.107,13.3579,26.90661538,28.42227778,28.716512199999997,28.7121875,3.276675,2.014230769,56.058875,80.72480769,73.78588889,291.44,298.12,299.18,302.08,294.74,0.107,0.115,0.8690000000000001,0.584,2.4240941819999997,0.0
97,0,0,1,1,1,0,1,3.671384615,54.84007692,22.99569231,295.38,0.711,0.106,26.58555556,26.44903333,25.7554375,25.54643333,24.17767647,2.634740741,1.852433333,78.26844444,73.38513333,70.2124375,300.64,299.56,299.18,299.42,296.48,0.105,0.10300000000000001,0.654,0.794,3.914080745,0.0
98,0,0,1,0,1,0,1,2.8491714289999996,61.48877143,18.59151429,294.06,0.818,0.11699999999999999,19.5165,16.45318182,16.45318182,18.8255,22.74933333,2.1926666669999997,3.444545455,54.285,39.94118182,39.94118182,293.2,290.46,290.46,288.98,296.6,0.11599999999999999,0.11599999999999999,0.835,0.8420000000000001,4.916379132,0.019663947023036178
99,1,0,0,0,1,0,1,1.516472222,78.72375,28.53025,299.82,0.86,0.09,28.9618,29.18474286,28.69481818,29.03064865,28.8264,1.6607666669999999,1.8479428569999998,72.1107,71.18025714,79.22578788,301.4,299.62,301.46,294.18,296.28,0.091,0.091,0.8079999999999999,0.54,6.99884673,0.18244474010033296
100,0,1,1,1,1,0,1,2.14356,72.20056,30.1138,302.26,0.782,0.14400000000000002,28.718612899999997,29.31425,29.85613333,30.03548276,26.21551429,2.0068064519999997,2.669607143,78.70032258,75.02639286,73.08583333,299.96,301.58,299.76,301.36,302.66,0.142,0.138,0.7290000000000001,0.727,9.342390825,0.4785137227399326
101,0,1,1,0,1,0,1,1.587451613,75.95693548,28.81593548,300.28,0.778,0.12300000000000001,28.54868421,28.37208333,28.94371429,29.032975,28.78970968,2.052736842,1.4458333330000002,74.20744737,78.19225,77.87421429,301.48,301.48,298.78,301.4,299.46,0.12300000000000001,0.12300000000000001,0.721,0.722,7.247842147999999,0.2100527479316199
102,0,1,1,1,1,0,1,2.669607143,75.02639286,29.31425,301.58,0.727,0.138,29.85613333,30.03548276,26.21551429,28.07125,29.97686667,2.3514,1.824724138,73.08583333,68.72296552,90.79571429,299.76,301.36,302.66,302.34,297.98,0.13699999999999998,0.138,0.6990000000000001,0.494,8.992425216,0.4309817519769347
103,0,0,1,1,1,0,1,2.3031111109999998,66.53444444,22.62763889,298.86,0.805,0.10800000000000001,22.99569231,26.58555556,26.44903333,25.7554375,25.54643333,3.671384615,2.634740741,54.84007692,78.26844444,73.38513333,295.38,300.64,299.56,299.18,299.42,0.106,0.105,0.711,0.654,5.950489344,0.08317398143474941
104,0,0,1,1,1,0,1,3.663055556,65.10044444,28.60116667,299.12,0.7020000000000001,0.106,26.42526923,24.82913636,22.62763889,22.99569231,26.58555556,2.6341923080000003,2.209727273,74.46984615,70.59790909,66.53444444,297.48,297.94,298.86,295.38,300.64,0.106,0.10800000000000001,0.741,0.818,9.11391102,0.4474379824239839
105,0,1,0,1,1,0,1,2.387311111,75.08244444,28.2578,298.66,0.33799999999999997,0.11199999999999999,28.82605263,29.11825806,28.13869697,28.0740303,28.992125,2.443684211,2.009870968,76.38089474,72.31070968,78.20963636,296.34,303.46,301.54,302.34,298.58,0.11,0.11199999999999999,0.43200000000000005,0.8,6.4228736,0.12417308357499944
106,0,1,0,0,1,0,1,3.749541667,79.40172917,27.85695833,291.76,0.49200000000000005,0.10400000000000001,28.91380556,29.05041667,27.19213333,26.214375,26.43393548,2.893138889,2.029833333,82.36069444,72.05583333,80.33226667,298.38,303.82,297.08,300.6,300.32,0.10400000000000001,0.10400000000000001,0.511,0.7959999999999999,4.697786955,0.011561536247137806
107,0,1,0,0,1,0,1,2.75472093,78.53767442,28.44725581,300.58,0.718,0.10099999999999999,22.84120833,24.34204545,27.52310526,27.85695833,28.91380556,2.651583333,2.394409091,71.340625,66.4915,62.66042105,300.12,298.34,301.52,291.76,298.38,0.106,0.105,0.495,0.581,5.1085563039999995,0.02842148790643655
108,0,1,1,1,1,0,1,3.5737073169999998,80.10436585,28.716512199999997,302.08,0.843,0.154,28.7121875,29.66876923,28.97663333,30.1138,28.718612899999997,3.542395833,1.331346154,79.64625,73.69811538,74.83296667,294.74,301.18,300.28,302.26,299.96,0.154,0.15,0.445,0.408,5.727566518,0.06624811721685031
109,0,1,0,1,1,0,1,2.7498085110000003,77.87770213,27.54425532,300.68,0.805,0.106,27.84347826,28.44725581,22.84120833,24.34204545,27.52310526,1.9837826090000001,2.75472093,74.15086957,78.53767442,71.340625,301.62,300.58,300.12,298.34,301.52,0.10800000000000001,0.10099999999999999,0.7609999999999999,0.718,5.221224682,0.034239832461967566
110,0,0,1,1,1,0,1,2.6341923080000003,74.46984615,26.42526923,297.48,0.741,0.106,24.82913636,22.62763889,22.99569231,26.58555556,26.44903333,2.209727273,2.3031111109999998,70.59790909,66.53444444,54.84007692,297.94,298.86,295.38,300.64,299.56,0.10800000000000001,0.10800000000000001,0.818,0.805,7.284017924,0.21417186513199296
111,0,0,0,1,1,0,1,1.547733333,83.66053333,22.75383333,294.14,0.725,0.107,21.47236585,15.4645,12.48334884,13.3579,26.90661538,2.583195122,2.435875,84.22502439,70.466625,65.62246512,295.98,288.72,289.96,291.44,298.12,0.107,0.106,0.838,0.324,3.914265785,0.0
112,0,1,1,1,1,0,1,1.824724138,68.72296552,30.03548276,301.36,0.494,0.138,26.21551429,28.07125,29.97686667,30.547040000000003,28.81593548,1.356514286,2.533142857,90.79571429,77.13232143,65.86903333,302.66,302.34,297.98,302.1,300.28,0.131,0.11900000000000001,0.29100000000000004,0.759,9.261586774,0.46750946860226994
113,1,0,0,0,1,0,1,1.281571429,76.421,28.70519048,300.5,0.7440000000000001,0.096,27.02084375,26.86246512,27.59483871,28.35529032,25.20454054,1.5123125,1.862837209,84.7429375,84.47200000000001,83.68183871,300.12,302.62,292.76,301.74,299.54,0.096,0.096,0.899,0.8540000000000001,9.876471451,0.5512568393626737
114,0,0,1,0,1,0,1,2.958740741,57.29322222,23.56314815,296.3,0.579,0.105,22.34658333,19.83341667,22.70432353,25.826612899999997,24.13386364,2.954625,2.8410833330000003,54.77620833,55.10958333,88.94123529,294.56,294.14,297.72,300.22,298.24,0.10400000000000001,0.102,0.706,0.795,5.939636209,0.08231229903092964
115,0,1,1,1,1,0,1,2.3514,73.08583333,29.85613333,299.76,0.6990000000000001,0.13699999999999998,30.03548276,26.21551429,28.07125,29.97686667,30.547040000000003,1.824724138,1.356514286,68.72296552,90.79571429,77.13232143,301.36,302.66,302.34,297.98,302.1,0.138,0.131,0.494,0.29100000000000004,8.174165481000001,0.32270641412752316
116,1,0,1,0,1,0,1,1.710515152,76.80557576,23.17260606,295.26,0.9,0.102,22.642075,21.37782051,17.81912195,16.45409302,21.94276923,2.62745,2.141897436,70.51245,73.55076923,74.10229268,297.32,296.28,295.28,293.22,295.14,0.10300000000000001,0.10300000000000001,0.899,0.502,3.46247406,0.0
117,0,1,0,1,1,0,1,2.443684211,76.38089474,28.82605263,296.34,0.43200000000000005,0.11,29.11825806,28.13869697,28.0740303,28.992125,27.2719,2.009870968,2.1657878790000002,72.31070968,78.20963636,79.24669697,303.46,301.54,302.34,298.58,301.12,0.11199999999999999,0.114,0.8,0.755,6.965882045,0.17889147590667032
118,0,1,0,1,1,0,1,2.009870968,72.31070968,29.11825806,303.46,0.8,0.11199999999999999,28.13869697,28.0740303,28.992125,27.2719,27.89110714,2.1657878790000002,2.884575758,78.20963636,79.24669697,67.06691667,301.54,302.34,298.58,301.12,298.08,0.114,0.10400000000000001,0.755,0.66,8.752124538,0.39864553239936046
119,1,0,0,1,1,0,1,2.4944583330000003,81.6466875,26.76020833,295.94,0.278,0.11599999999999999,27.51257778,27.21029167,27.06176667,24.471,27.569000000000003,2.775422222,2.5533541669999997,79.47791111,86.27395833,92.67056667,297.78,297.48,298.78,298.46,298.64,0.12,0.12,0.722,0.828,3.7558566719999997,0.0
120,0,0,0,1,1,0,1,2.16828125,71.1761875,21.99715625,293.92,0.812,0.11699999999999999,19.28685714,18.368625,20.65872414,15.64483333,17.49239024,2.4225142859999997,2.5389375,63.4276,75.78814583,73.26675862,293.1,295.5,294.62,292.54,293.26,0.115,0.115,0.698,0.8490000000000001,4.708723947,0.011918548841581523
121,0,0,0,1,1,0,1,2.407113636,84.61336364,22.67781818,296.9,0.633,0.10300000000000001,23.11605882,22.76290323,22.30412903,12.67486207,22.760525,2.159352941,1.651096774,79.35802941,77.73412903,76.30241935,292.6,296.62,295.42,294.06,294.5,0.105,0.10400000000000001,0.177,0.82,2.670262064,0.0
122,0,1,1,1,1,0,1,2.197081081,77.48102703,29.03064865,294.18,0.705,0.094,28.8264,27.85364286,28.555,28.91980952,29.23739394,1.479333333,1.576678571,67.90036667,84.25710714,79.26484211,296.28,298.0,302.08,303.24,301.76,0.102,0.102,0.5770000000000001,0.46299999999999997,7.060627056,0.18916978585750113
123,1,0,1,0,1,0,1,2.430282051,74.66566667,22.14079487,295.3,0.613,0.1,20.62552381,19.85452632,20.32475676,19.08658333,19.316325,2.149761905,2.136973684,71.04126190000001,75.68631579,73.314,296.82,296.6,296.02,294.72,296.96,0.1,0.10300000000000001,0.865,0.917,3.25641598,0.0
124,1,0,1,0,1,0,1,2.5089714290000003,67.51231429,21.18097143,297.78,0.841,0.10300000000000001,20.14881818,22.22747826,24.98328571,25.46063636,25.38730952,2.497318182,2.416086957,61.74327273,78.04356522,83.78271429,292.7,297.96,295.78,295.96,295.8,0.10300000000000001,0.10300000000000001,0.747,0.887,4.459910394,0.005098062786193162
125,0,0,0,1,1,0,1,2.103,73.26675862,20.65872414,294.62,0.25,0.114,15.64483333,17.49239024,21.27063636,18.61589474,16.667,2.603145833,2.771219512,71.15122917,62.02578049,82.4395,292.54,293.26,295.36,294.76,294.46,0.113,0.113,0.725,0.8240000000000001,3.944311051,0.0
126,0,0,1,0,1,0,1,1.657583333,75.2605,23.64041667,298.92,0.867,0.11199999999999999,23.54763333,23.21852273,22.8707,22.96841935,23.14803571,1.6029333330000002,2.361295455,76.66966667,81.68993182,79.140975,295.48,297.86,296.48,296.68,297.64,0.11199999999999999,0.11,0.62,0.792,3.7231128030000002,0.0
127,0,1,0,0,1,0,1,2.029833333,72.05583333,29.05041667,303.82,0.7959999999999999,0.10400000000000001,27.19213333,26.214375,26.43393548,26.43393548,29.56494444,2.5468666669999998,2.6659375,80.33226667,76.37147917,63.30732258,297.08,300.6,300.32,300.32,299.82,0.10300000000000001,0.10300000000000001,0.8240000000000001,0.531,8.788118043999999,0.4034672834345146
128,0,1,0,1,1,0,1,2.846878049,67.61217073,28.2092439,298.24,0.249,0.107,27.92783333,27.54425532,27.84347826,28.44725581,22.84120833,2.902479167,2.7498085110000003,75.265,77.87770213,74.15086957,298.58,300.68,301.62,300.58,300.12,0.107,0.106,0.644,0.805,6.265822582,0.10980853980557909
129,0,1,0,0,1,0,1,2.6659375,76.37147917,26.214375,300.6,0.531,0.10300000000000001,26.43393548,26.43393548,29.56494444,26.6992963,23.78861364,2.173451613,2.173451613,63.30732258,63.30732258,58.44938889,300.32,300.32,299.82,299.38,299.12,0.10300000000000001,0.10300000000000001,0.887,0.887,4.337266566,0.002762570258712951
130,0,0,1,0,1,0,1,2.12225,88.891,24.50588889,297.56,0.654,0.107,23.00891892,22.48556522,16.67829787,12.26995238,25.741,3.143702703,1.967304348,73.74635135,63.32408696,67.53989362,297.9,290.14,291.78,290.54,296.32,0.10400000000000001,0.102,0.853,0.32299999999999995,2.041614613,0.0
131,0,1,0,0,1,0,1,3.005486486,62.23340541,23.4102973,301.06,0.727,0.114,24.76330233,24.85002941,25.53019048,28.54083333,28.60116667,2.391255814,3.1206764710000003,77.37323256,66.96808824,59.07233333,296.78,295.2,299.82,296.6,299.12,0.114,0.114,0.522,0.39899999999999997,6.821244475,0.16359874621231493
132,0,0,1,1,1,0,1,3.857416667,54.84433333,28.54083333,296.6,0.851,0.113,28.60116667,26.42526923,24.82913636,22.62763889,22.99569231,3.663055556,2.6341923080000003,65.10044444,74.46984615,70.59790909,299.12,297.48,297.94,298.86,295.38,0.106,0.106,0.7020000000000001,0.741,10.62643997,0.6514577381898
133,1,0,1,0,1,0,1,3.185023256,57.09393023,16.45409302,293.22,0.843,0.10300000000000001,21.94276923,22.18820513,22.14079487,20.62552381,19.85452632,2.500102564,1.951384615,82.33387179,83.63530769,74.66566667,295.14,293.16,295.3,296.82,296.6,0.102,0.10099999999999999,0.879,0.746,2.833079332,0.0
134,0,1,0,1,1,0,1,1.8055,67.06691667,28.992125,298.58,0.408,0.106,27.2719,27.89110714,28.2092439,27.92783333,27.54425532,2.45175,1.7490357140000001,76.828,74.96517857,67.61217073,301.12,298.08,298.24,298.58,300.68,0.107,0.107,0.7759999999999999,0.9109999999999999,11.00923866,0.7006396131685655
135,0,0,1,1,1,0,1,3.098682927,77.98021951,24.81670732,298.56,0.5379999999999999,0.102,24.75622222,25.24116129,24.22934615,22.8332,23.56314815,2.193722222,3.651741935,80.65016667,68.0676129,63.61988462,298.24,294.38,294.72,299.48,296.3,0.10099999999999999,0.10400000000000001,0.8029999999999999,0.214,4.867860756000001,0.017691736230817615
136,1,0,0,1,1,0,1,2.329522727,80.82345455,27.63959091,299.58,0.366,0.107,28.44303448,26.43011111,28.03807143,26.76020833,27.51257778,1.552275862,1.906044444,79.08286207,86.16288889,71.51032143,300.6,298.92,297.88,295.94,297.78,0.10800000000000001,0.107,0.8170000000000001,0.858,4.430171208,0.004468336466229342
