For param {'n_trees': 100, 'max_depth': 7, 'learning_rate': 0.1}
 *************************FOLDS Average***************************** 

Utility Based Metrics Across All
F1:  0.47036970415394797
F2:  0.4522902382800965
F05: 0.4916218965199047
precision:  0.5079016284949602
recall: 0.4417247256620529

Regression Error Metrics Across All
R2: 0.4008928071184146
Adj-R2: -0.02249843208201787
RMSE: 1.5749276322031736
MSE: 2.5175054929417358
MAE: 1.2439416507720347
MAPE: 42.58765769223625
Accuracy: 57.41234230776375
AIC: 119.53123168723555
BIC: 119.53123168723555
NMI: 1.0

Correlations Across All
Pearson: 0.657110121596591
Spearman: 0.6412617704369472
Distance: 0.34288987840340923
************************REPETITIONS Average*******************************

Utility Based Metrics Across All
F1:  0.47036970415394797
F2:  0.4522902382800965
F05: 0.4916218965199047
precision:  0.5079016284949602
recall: 0.4417247256620529

Regression Error Metrics Across All
R2: 0.4008928071184146
Adj-R2: -0.02249843208201787
RMSE: 1.5749276322031736
MSE: 2.5175054929417358
MAE: 1.2439416507720347
MAPE: 42.58765769223625
Accuracy: 57.41234230776375
AIC: 119.53123168723555
BIC: 119.53123168723555
NMI: 1.0

Correlations Across All
Pearson: 0.657110121596591
Spearman: 0.6412617704369472
Distance: 0.34288987840340923
For param {'n_trees': 100, 'max_depth': 6, 'learning_rate': 0.1}
 *************************FOLDS Average***************************** 

Utility Based Metrics Across All
F1:  0.2823839369843459
F2:  0.28496918624654355
F05: 0.28101522795784695
precision:  0.2807287352276924
recall: 0.4313776484115128

Regression Error Metrics Across All
R2: 0.4131857281528816
Adj-R2: -0.001514279281481712
RMSE: 1.5530036305454324
MSE: 2.460734079364955
MAE: 1.2133130574724937
MAPE: 41.63696150333408
Accuracy: 58.36303849666592
AIC: 114.98549065397324
BIC: 114.98549065397324
NMI: 0.9997885513119854

Correlations Across All
Pearson: 0.6593012941439645
Spearman: 0.6465589448715767
Distance: 0.34069870585603557
************************REPETITIONS Average*******************************

Utility Based Metrics Across All
F1:  0.2823839369843459
F2:  0.28496918624654355
F05: 0.28101522795784695
precision:  0.2807287352276924
recall: 0.4313776484115128

Regression Error Metrics Across All
R2: 0.4131857281528816
Adj-R2: -0.001514279281481712
RMSE: 1.5530036305454324
MSE: 2.460734079364955
MAE: 1.2133130574724937
MAPE: 41.63696150333408
Accuracy: 58.36303849666592
AIC: 114.98549065397324
BIC: 114.98549065397324
NMI: 0.9997885513119854

Correlations Across All
Pearson: 0.6593012941439645
Spearman: 0.6465589448715767
Distance: 0.34069870585603557
