Error Metrics,NGBoost Validation Scores,NGBoost Validation Scores std, NGBoost Test Scores
mean target,3.877716,3.877716,3.877716
F1,0.699679,0.404022,0.90521
F2,0.679639,0.0392425,0.87847
F05,0.699679,0.0404022,0.933628
Precision,0.736007,0.0425196,0.953587
Recall,0.847271,0.073136,0.861504
R2,0.556864,0.0357662,0.541646
Adjusted R2,0.142873,0.0365432,0.535939
RMSE,1.642611,0.521867,1.546019
MSE,2.970516,1.849325,2.390175
MAE,1.254276,0.403901,1.145323
MAPE,39.31158,8.134683,38.3856
Accuracy,60.68842,8.134683,61.6144
Pearson C.C.,0.632961,0.204151,0.736801
Spearman C.C.,0.59377,0.160571,0.724057
Spatial Distance,0.367039,0.204151,0.263199
NMI,0.995914,0.001255,0.998167
AIC,799.3161,554.4,1347.133
BIC,799.3161,554.4,1347.133
Probabilistic RMSE,1.642611,0.521867,1.546019
Probabilistic NLL,2.578338,0.853732,1.913148
Data Size train,-,-,"(3572, 19)"
Data Size test,-,-,"(1546, 20)"
Training Time (seconds),-,-,10.23882
Testing Time (seconds),-,-,1.22531
