Error Metrics,Testing Scores
mean target,4.191788236968967
F1,0.768631163619956
F2,0.7467580909620538
F05,0.791824256130433
Precision,0.8080798824583632
Recall,0.7328547725722818
R2,0.4718816014636492
Adjusted R2,0.4554408126909165
RMSE,1.3896024379207792
MSE,1.930994935475373
MAE,1.0689143021065444
MAPE,37.57571198860056
Accuracy,62.42428801139944
Pearson C.C.,0.712819898689689
Spearman C.C.,0.7431929427912906
Spatial Distance,0.28718010131031124
NMI,0.9936666390941641
AIC,1068.6494582500604
BIC,1068.6494582500604
Data Size train,6454.0
Data Size test,1624.0
Training Time (seconds),42.48493480682373
Testing Time (seconds),0.67641282081604
