Date,Site,Month_1,Month_2,Month_3,Month_4,Vegetation_1,Vegetation_2,Vegetation_3,WS,RH,TA,Eeflux_LST,Eeflux_NDVI,Eeflux_Albedo,TA-1,TA-2,TA-3,TA-4,TA-5,WS-1,WS-2,RH-1,RH-2,RH-3,Eeflux_LST-1,Eeflux_LST-2,Eeflux_LST-3,Eeflux_LST-4,Eeflux_LST-5,Eeflux_Albedo-1,Eeflux_Albedo-2,Eeflux_NDVI-1,Eeflux_NDVI-2,Site_1,Site_2,Site_3,LE_bowen_corr_mm,LE_bowen_corr_pred,Eeflux_ET
Date,Site,Month_1,Month_2,Month_3,Month_4,Vegetation_1,Vegetation_2,Vegetation_3,WS,RH,TA,Eeflux_LST,Eeflux_NDVI,Eeflux_Albedo,TA-1,TA-2,TA-3,TA-4,TA-5,WS-1,WS-2,RH-1,RH-2,RH-3,Eeflux_LST-1,Eeflux_LST-2,Eeflux_LST-3,Eeflux_LST-4,Eeflux_LST-5,Eeflux_Albedo-1,Eeflux_Albedo-2,Eeflux_NDVI-1,Eeflux_NDVI-2,Site_1,Site_2,Site_3,LE_bowen_corr_mm,LE_bowen_corr_pred,Eeflux_ET
6/24/2012,US-Tw2,0,1,1,0,0,0,1,5.137191489,53.70276596,16.20044681,302.08,0.413,0.132,15.8412766,15.8412766,16.21388889,25.09808333,22.18236842,5.648638298,5.648638298,59.34597872,59.34597872,61.26975,301.9,301.9,302.38,314.74,312.86,0.133,0.133,0.446,0.446,1,0,0,2.369107803,4.0722365,1.458150387
4/9/2013,US-Tw2,0,1,0,0,0,0,1,7.348021739,35.49891304,16.11673913,295.22,0.594,0.158,13.54621429,14.40720513,14.875625,16.5396087,16.6852381,7.937761905,5.445,44.06,69.18566667,71.96377083,290.82,294.08,295.02,299.14,292.14,0.154,0.154,0.665,0.407,1,0,0,4.888329492,3.8036366,7.467412472
9/28/2012,US-Tw2,1,0,0,1,0,0,1,3.177333333,60.91291667,18.89875,298.66,0.589,0.207,21.59282609,19.49188372,20.18195652,18.97622222,22.22722222,1.676717391,1.588395349,58.10369565,61.31209302,57.14632609,301.1,299.72,299.6,299.82,301.88,0.207,0.207,0.574,0.616,1,0,0,2.155196319,3.7973955,0
6/8/2012,US-Tw2,0,1,1,0,0,0,1,7.698212766,47.55555319,18.55744681,311.02,0.346,0.133,18.89777778,17.65333333,17.65333333,17.22822727,14.411,7.809577778,4.954333333,48.41111111,48.42897917,48.42897917,304.42,311.16,311.16,290.02,289.78,0.133,0.132,0.318,0.43,1,0,0,1.699018427,4.011467,1.973774254
1/2/2013,US-Tw2,0,0,0,1,0,0,1,1.266583333,49.62,10.67158333,281.82,0.295,0.104,4.6405625,8.277333333,7.113,7.296576923,10.31917241,2.2460625,5.2225,73.669375,56.70133333,62.12333333,280.78,281.2,282.48,284.84,285.58,0.104,0.103,0.332,0.331,1,0,0,1.482103264,3.094275,0.082038872
7/5/2010,US-Twt,0,1,1,1,0,0,1,5.66995287,66.0391087,20.50165217,308.44,0.638,0.18,21.40591489,19.8402766,20.76995652,23.73451064,22.29176596,4.728847298,5.419463,56.65612766,56.02974468,50.15954348,305.3,305.08,307.9,307.12,311.92,0.175,0.171,0.602,0.453,0,1,0,7.218336764,4.011467,0
7/24/2011,US-Twt,0,1,1,1,0,0,1,5.484906354,71.86116667,18.5894375,304.94,0.64,0.19,19.10102083,17.95971739,17.95971739,17.491125,21.38279167,4.562470229,5.081422413,70.48570833,72.49873913,72.49873913,301.72,306.26,306.26,298.32,306.7,0.189,0.189,0.714,0.65,0,1,0,7.912428307,4.141218,8.136094093
8/25/2014,US-Twt,1,0,0,0,0,0,1,4.625465553,72.64506383,18.05402128,298.38,0.662,0.198,18.83985106,19.51346809,17.73626087,18.06357447,18.72026087,5.354187128,3.120008426,69.23008511,67.14434043,76.7858913,303.92,303.04,299.98,302.28,303.24,0.199,0.198,0.742,0.739,0,1,0,5.509815245,3.9255328,6.349031925
8/20/2015,US-Twt,1,0,0,0,0,0,1,4.414378271,69.81670833,18.27391667,301.42,0.737,0.203,18.787375,20.35608333,20.35608333,20.56866667,20.47789583,4.982054604,4.368871188,67.820375,63.73847917,63.73847917,300.1,303.26,303.26,303.8,304.2,0.202,0.202,0.67,0.746,0,1,0,5.479134096,4.011467,7.501606703
4/25/2006,US-SO2,0,1,0,0,1,0,0,2.406923077,62.67807692,11.73830769,302.48,0.32,0.15,11.52229167,14.68037037,17.7275,15.89814815,13.31253571,2.260625,2.447777778,66.80083333,43.11148148,31.07107143,294.82,299.5,300.14,299.24,297.72,0.149,0.148,0.38,0.348,0,1,1,2.246105346,1.8870566,0.821206152
5/20/2006,US-SO2,0,1,0,1,1,0,0,2.3765,28.91266667,21.34866667,313.32,0.348,0.152,23.10933333,26.53241379,25.68172414,24.61965517,22.30703704,2.7615,2.01137931,29,29.21034483,22.78551724,308.3,301.66,312.76,311.02,314.26,0.152,0.151,0.487,0.02,0,1,1,3.755100878,3.87424,0.030068479
5/28/2006,US-SO2,0,1,0,1,1,0,0,1.888,34.451,14.721,299.82,0.477,0.154,18.07375,18.07375,21.69357143,16.99963333,21.34866667,2.76125,2.76125,50.83791667,50.83791667,34.46007143,304.96,304.96,311.9,301.58,313.32,0.154,0.154,0.476,0.476,0,1,1,3.400525199,4.011467,0
4/15/2018,US-Bi2,0,0,1,1,0,0,1,4.585773119,62.61595238,13.16047619,297.14,0.402,0.128,17.28105714,12.59008333,9.922041667,16.28769231,12.87354167,1.894364286,3.740849729,50.47314286,60.09270833,67.20625,301.92,297.66,292.68,301.02,297.9,0.128,0.127,0.524,0.422,1,0,1,3.725006256,3.3053248,4.482334614
8/28/2018,US-Bi2,0,1,1,1,0,0,1,3.216486729,72.42583333,16.91583333,300.56,0.784,0.19,16.95791667,18.86333333,19.24725,17.119375,17.4706383,2.475397396,2.704905556,72.698125,61.98388889,65.14025,295.76,301.26,298.88,298.6,299.02,0.19,0.19,0.766,0.808,1,0,1,3.042639369,4.148087,4.184374809
6/18/2018,US-Bi2,0,1,0,1,0,0,1,5.183065167,61.68541667,19.404375,315.42,0.31,0.122,17.65695652,16.83361702,19.01452381,22.24974359,26.99,2.79177213,4.399573894,60.04826087,67.36042553,58.61571429,304.26,313.38,307.66,315.68,316.7,0.123,0.122,0.463,0.327,1,0,1,2.184322857,4.146198,1.03443265
2/1/2018,US-Bi2,0,0,0,1,0,0,1,1.311433826,73.22586957,12.40482609,287.12,0.215,0.046,4.570875,7.47185,9.115195652,11.27582609,7.723263158,3.665148729,3.191388875,60.18083333,61.20625,49.81978261,282.94,286.22,286.1,286.92,287.14,0.054,0.056,0.331,0.341,1,0,1,1.743125613,1.2210252,1.438070655
6/1/2018,US-Bi2,0,1,0,1,0,0,1,4.333523769,47.23641026,20.56076923,310.34,0.296,0.121,17.42729167,20.39171429,19.03510638,15.29270833,17.50276596,6.44756375,5.965555571,62.844375,50.87228571,53.37021277,304,307.9,304.52,303.98,309.16,0.143,0.143,0.333,0.282,1,0,1,1.713794113,4.011467,0
9/13/2018,US-Bi2,1,0,0,0,0,0,1,1.794714359,56.73461538,18.33435897,301.66,0.662,0.19,21.8002439,18.8674359,18.8674359,18.84305556,17.71,2.91092178,2.212317692,40.52829268,66.31076923,66.31076923,304.58,303.5,303.5,300.12,299.56,0.191,0.189,0.75,0.667,1,0,1,2.940997247,3.9776988,2.439720392
7/11/2018,US-Bi2,0,1,1,0,0,0,1,2.076183429,46.928,25.332,308.8,0.752,0.166,25.30568182,24.41375,24.52409091,24.58431818,24.44139535,3.314563955,3.75729925,39.38409091,35.8825,35.83818182,300.14,305.76,303.44,306.98,307.98,0.166,0.161,0.777,0.756,1,0,1,8.832449386,4.011467,0
3/29/2018,US-Bi2,0,0,1,0,0,0,1,1.838079184,58.45947368,18.03157895,298.82,0.39,0.118,16.59077778,13.65804444,10.38329167,10.38329167,8.451069767,1.629419361,2.711929556,60.92666667,54.46866667,55.35083333,301.68,292.6,292.78,292.78,290.7,0.118,0.119,0.341,0.367,1,0,1,3.529451295,2.5570624,1.735111952
9/6/2018,US-Bi2,1,0,0,0,0,0,1,2.212317692,66.31076923,18.8674359,303.5,0.667,0.189,18.8674359,18.84305556,17.71,16.91583333,16.95791667,2.212317692,1.888170222,66.31076923,64.3025,68.46708333,303.5,300.12,299.56,300.56,295.76,0.189,0.188,0.667,0.758,1,0,1,4.05822585,3.9881392,5.752086163
7/3/2018,US-Bi2,0,1,1,0,0,0,1,3.463381333,68.62375,18.83125,303.06,0.675,0.141,18.76541667,21.9025,27.21955556,23.55291667,20.22914286,4.876403708,5.679076687,70.795,59.05479167,38.77022222,306.16,307.7,310.88,309.98,312.16,0.139,0.139,0.665,0.645,1,0,1,4.749474821,4.1433854,3.591257215
5/8/2018,US-Bi2,0,1,0,0,0,0,1,5.965555571,50.87228571,20.39171429,307.9,0.282,0.143,19.03510638,15.29270833,17.50276596,14.01978261,15.04913636,3.306517936,5.431512604,53.37021277,63.656875,60.02957447,304.52,303.98,309.16,300.6,304.82,0.143,0.141,0.313,0.32,1,0,1,3.414516648,3.7824228,3.267516375
5/1/2018,US-Bi2,0,1,0,0,0,0,1,4.34851817,60.11042553,14.69212766,303.96,0.323,0.141,13.33041667,13.025625,13.025625,14.64270833,16.00375,4.173971146,6.833070146,64.29041667,68.42833333,68.42833333,302.76,299.18,299.18,302,304.02,0.142,0.142,0.311,0.348,1,0,1,2.547749957,3.882016,0