,RH,TA,Eeflux_LST,RH-1,RH-2,RH-3,TA-1,TA-2,TA-3,TA-4,TA-5,Eeflux_LST-1,Eeflux_LST-2,Eeflux_LST-3,Eeflux_LST-4,Eeflux_LST-5,LE_bowen_corr_mm
0,55.57809524,22.62219048,304.2,60.90084444,66.02039583,69.429125,21.8304,20.41179167,20.1418125,18.98054167,18.42861702,298.96,302.7,299.34,300.1,299.22,2.406730432
1,69.979875,17.51547917,295.74,69.979875,69.25795745,69.97782979,17.51547917,18.76695745,19.19357447,19.65238298,20.41014583,295.74,299.48,297.7,298.4,300.28,2.890298959
2,63.82134783,21.54365217,302.8,67.53430233,66.459375,69.76152083,21.03918605,20.16816667,20.09972917,20.96060417,19.61114583,300.8,301.8,299.84,302.16,298.56,3.0021471889999995
3,63.769625,23.81179167,303.6,64.15947727,55.57809524,60.90084444,23.97413636,22.62219048,21.8304,20.41179167,20.1418125,300.4,304.2,298.96,302.7,299.34,2.070807206
4,59.7773125,11.67689583,290.78,50.12477778,55.5516,70.57677143,11.29738889,15.15905,12.41277143,9.989125,12.38596154,291.26,289.9,288.02,287.32,286.38,1.118004161
5,55.68253191,19.79221277,297.98,59.93735417,64.28735417,66.478625,19.19852083,18.80754167,18.37241667,18.06425,20.09961702,295.12,297.58,297.46,300.38,298.98,2.095392082
6,68.9954375,19.4484375,295.16,64.45838298,64.630875,67.97158333,21.74859574,21.6226875,19.83539583,18.7783125,17.61472917,305.82,302.16,302.4,297.22,299.0,2.38332247
7,77.04391667,17.6525,299.96,74.38308333,77.23597917,76.46733333,19.274125,17.60189583,17.411625,18.5682766,19.44153333,299.32,298.42,294.2,300.36,298.08,4.075435335
8,69.159375,20.60952083,298.82,50.5954,63.82134783,67.53430233,22.70528889,21.54365217,21.03918605,20.16816667,20.09972917,302.82,302.8,300.8,301.8,299.84,2.414208143
9,61.41139394,6.320818182000001,283.16,66.79753846,40.455999999999996,71.08387234,9.189769231,8.097263157999999,15.63419149,15.386175,16.41525,282.74,284.48,288.42,294.26,297.88,1.56398428
10,68.82393333,20.23722222,302.96,71.29502083,58.417125,65.3456875,19.39991667,21.81308333,21.04266667,19.7137234,20.67097917,298.02,304.38,297.84,301.76,302.26,2.999206485
11,67.2776875,20.42727083,300.3,71.4083125,69.763375,72.80020833,19.03522917,19.72247917,20.13052083,20.13052083,18.72372917,295.3,299.48,299.78,299.78,295.54,3.686655028
12,72.1461875,20.33054167,298.34,69.87634043,46.278361700000005,66.78795652,20.8347234,24.71304255,21.91084783,20.42727083,19.03522917,300.8,302.52,299.74,300.3,295.3,3.251739627
13,67.69333333,20.38808333,302.28,69.159375,50.5954,63.82134783,20.60952083,22.70528889,21.54365217,21.03918605,20.16816667,298.82,302.82,302.8,300.8,301.8,2.443595798
14,31.21955263,16.28589474,292.28,24.06422222,36.08627273,54.11087179,20.30969444,18.30902273,18.89551282,18.197,16.90595556,294.86,294.32,297.74,298.34,297.14,1.1078593970000001
15,72.07897872,19.07585106,292.88,69.15097872,67.80710417,72.94914894,20.59604255,21.6071875,20.40642553,23.8029375,22.44963043,300.72,297.86,297.9,304.34,298.4,3.6554979739999998
16,71.21672917,19.57170833,303.5,63.05142857,64.89825,64.89825,20.83,19.2085,19.2085,22.95927083,20.61277083,302.24,301.94,301.94,306.2,299.56,2.816832274
17,64.93514583,21.03029167,305.0,64.93514583,71.51921622,75.0741,21.03029167,19.78791892,19.460825,20.68686486,20.68686486,305.0,302.86,301.16,302.2,302.2,4.579688674
18,66.91520833,19.49504167,299.5,73.70417391,68.63541667,61.66410870000001,19.03343478,19.93095833,20.62445652,20.29841667,21.11620833,298.52,301.48,299.58,302.0,300.12,2.166851007
19,68.33254167,17.5425625,301.78,70.178375,70.178375,41.86685417,16.64977083,16.64977083,20.8596875,23.17361702,23.17361702,297.4,297.4,300.26,302.78,302.78,2.730368369
20,73.73329167,20.0053125,286.88,68.2911875,53.01595833,59.55053191,17.80325,14.12483333,11.47217021,16.13514894,16.28095833,287.58,296.98,295.84,289.12,295.2,3.077580673
21,63.47616667,19.97916667,301.92,60.92333333,53.07095556,62.0778125,21.2024359,21.32584444,22.57147917,19.1028125,21.273000000000003,301.8,301.2,305.18,302.08,300.12,3.9169338519999997
22,72.816375,19.18766667,300.86,72.97256818,73.66979167,71.41038298,18.58263636,17.37877083,18.98653191,21.03029167,21.03029167,298.24,301.22,298.68,305.0,305.0,4.018496533
23,69.28027083,18.63714583,296.64,73.57278723,73.83592683,69.43268182,17.01285106,17.30558537,17.02629545,17.02629545,19.33908571,299.58,299.9,294.18,294.18,305.0,3.0187580030000003
24,69.43691667,19.68877083,300.56,71.89216667,76.03710417,76.03710417,18.87041667,18.3804375,18.3804375,18.88212766,21.55208511,300.2,296.84,296.84,301.42,303.54,3.180594343
25,66.4294375,20.68966667,302.6,68.16441667,71.72841667,72.21714583,19.77379167,17.44883333,17.34697917,19.86760417,21.27779167,301.38,298.02,301.48,298.42,305.04,2.371474073
26,70.08025,14.7533,292.18,68.6207234,74.01708333,69.246875,19.30946809,17.69175,18.59520833,18.82541667,18.51433333,297.96,296.32,299.94,296.66,298.36,2.971928404
27,70.42423404,20.60955319,297.78,70.42423404,70.376375,70.74246809,20.60955319,20.70133333,19.78687234,19.6681875,24.9527234,297.78,298.32,300.3,295.12,307.56,3.7033155730000002
28,48.55838095,21.04814286,298.76,56.87117857,27.31102632,40.98981081,14.62607143,13.53323684,12.30362162,16.28589474,20.30969444,295.92,287.38,286.22,292.28,294.86,2.403499034
29,76.18241304,17.8168913,299.2,67.69333333,67.69333333,69.159375,20.38808333,20.38808333,20.60952083,22.70528889,21.54365217,302.28,302.28,298.82,302.82,302.8,1.908302914
30,74.52783333,18.33989583,297.6,68.7260625,73.70308333,66.36455556,20.00222917,19.06877083,20.55680556,20.89284091,20.39902128,300.84,297.1,300.22,301.68,300.26,1.8735571
31,59.80165517,20.69106897,298.28,72.64115556,72.53066667,64.30370968,19.418,20.0798125,22.49622581,21.170756100000002,20.17547826,297.32,298.06,299.98,298.06,299.48,3.467952517
32,75.60248936,19.1562766,298.88,62.87814815,67.30960870000001,69.53238298,21.34755556,19.87463043,18.82614894,18.82614894,18.30760417,300.82,301.28,295.98,295.98,300.12,2.187559836
33,63.01489744,21.92853846,297.72,65.47397826,66.59804255,67.35219149,20.24582609,20.04151064,20.86887234,20.251375,22.51777419,301.62,297.42,299.42,299.02,300.56,1.9944484340000002
34,40.63125,16.00267857,291.36,68.39061905,43.96620513,43.96620513,14.31333333,18.51,18.51,9.186454545,9.975883721,294.04,294.38,294.38,287.84,286.24,5.055372226999999
35,61.48876744,18.24974419,295.04,73.7855625,66.91520833,73.70417391,17.26202083,19.49504167,19.03343478,19.93095833,20.62445652,297.78,299.5,298.52,301.48,299.58,2.506001337
36,61.5240625,24.99335417,302.2,58.25579167,55.7406875,50.67854167,25.2621875,26.459,27.0265,24.11529167,24.11529167,297.08,307.06,304.78,305.96,305.96,3.162088513
37,58.83214894,20.36189362,302.58,62.18595833,58.37547917,62.16495833,16.659875,16.113125,16.112625,15.70591667,16.9578125,297.08,300.82,295.74,298.76,298.02,3.3276117889999997
38,40.5837234,24.17997872,303.24,47.90148936,58.61802174,71.931375,22.65308511,18.54276087,18.073,20.604375,20.36791667,304.14,300.0,297.88,302.18,301.44,4.032537478
39,47.66370833,21.31672917,301.9,59.67264583,47.60795652,47.06985714,19.6470625,20.08217391,21.0902381,18.67640476,16.8275,300.0,305.74,298.88,303.32,299.0,3.445932758
40,43.19575,15.75002083,296.16,56.05868085,41.85055,59.22793617,17.44744681,19.2377,16.96123404,14.32168085,11.43341667,296.46,297.48,292.08,297.28,293.16,3.4368239689999998
41,67.69333333,20.38808333,302.28,67.69333333,69.159375,50.5954,20.38808333,20.60952083,22.70528889,21.54365217,21.03918605,302.28,298.82,302.82,302.8,300.8,2.443595798
42,73.01060417,18.4639375,299.74,64.83364,72.80091489,75.5238125,20.45416,17.73444681,16.87272917,19.07295833,19.07295833,297.9,299.1,296.12,301.48,301.48,3.218194291
43,28.7,16.55146154,296.18,43.19575,56.05868085,41.85055,15.75002083,17.44744681,19.2377,16.96123404,14.32168085,296.16,296.46,297.48,292.08,297.28,4.961468725
44,47.62355814,17.52381395,299.28,65.56444681,59.74597917,63.51667391,14.86282979,16.16579167,19.62667391,18.01210417,21.02071429,295.82,292.7,302.34,299.7,299.04,5.155402906
45,62.731875,23.8029375,304.34,67.07497826,67.1078125,61.26841304,22.44963043,22.87047917,23.40306522,21.80964583,21.89211364,298.4,301.6,301.28,294.56,302.3,4.556657432
46,31.18487179,21.79817949,296.22,47.62355814,47.62355814,65.56444681,17.52381395,17.52381395,14.86282979,16.16579167,19.62667391,299.28,299.28,295.82,292.7,302.34,6.373425612999999
47,43.96620513,18.51,294.38,67.99266667,70.08274419,58.81875,9.186454545,9.975883721,22.63958333,23.075,24.49791667,287.84,286.24,305.48,302.28,303.68,4.929483017
48,34.62577083,20.21577083,298.8,51.81991667,52.94865957,58.63989583,18.81729167,19.6097234,15.24227083,20.0565625,22.07861702,302.04,296.8,297.46,303.0,298.92,4.213165591
49,47.41344681,21.28808511,301.98,55.41982857,70.972175,66.72828571,21.99645714,19.592175,19.86708571,18.92322727,20.40508889,301.58,301.62,296.22,299.98,302.5,4.191510107
50,52.8623125,24.06270833,303.56,55.85214583,55.85214583,59.063125,24.20454167,24.20454167,22.079375,19.92127083,18.88522917,301.9,301.9,303.92,301.38,297.58,3.0400946010000003
51,61.80241667,17.51575,300.76,54.45193182,65.711125,69.8319375,19.46936364,20.21572917,21.70597917,21.74372917,20.0053125,298.46,301.58,302.74,303.24,286.88,3.583384407
52,70.08274419,9.975883721,286.24,58.81875,47.59791667,53.275,22.63958333,23.075,24.49791667,25.98333333,24.9125,305.48,302.28,303.68,301.98,305.84,1.908801886
53,48.56425,22.56829167,304.88,52.6455,58.109375,52.17285417,21.69927083,21.5891875,23.28239583,20.21577083,18.81729167,299.9,303.9,304.54,298.8,302.04,4.022666684
54,69.43268182,17.02629545,294.18,65.83797143,72.8067561,67.61625581,19.33908571,18.82929268,17.520209299999998,17.45225,17.9084375,305.0,300.22,300.12,303.26,300.42,3.794083548
55,59.4965,12.38596154,286.38,82.37315385,82.37315385,83.71032,12.01188462,12.01188462,13.675360000000001,13.675360000000001,15.74525,289.9,289.9,287.06,287.06,284.14,2.390263614
56,57.40828571,21.65161905,301.02,60.98929167,56.502625,69.44108333,21.9319375,23.21439583,19.496125,20.83404167,21.0638125,301.6,302.62,294.84,302.64,300.28,2.007394548
57,70.42423404,20.60955319,297.78,70.376375,70.74246809,71.24025,20.70133333,19.78687234,19.6681875,24.9527234,22.6586875,298.32,300.3,295.12,307.56,301.24,3.7033155730000002
58,62.46039583,15.116375,296.36,38.92806452,65.84244118,40.63125,15.02858065,14.58702941,16.00267857,14.31333333,18.51,295.52,290.92,291.36,294.04,294.38,3.454097151
59,70.376375,20.70133333,298.32,70.74246809,71.24025,55.79761702,19.78687234,19.6681875,24.9527234,22.6586875,22.6586875,300.3,295.12,307.56,301.24,301.24,3.540847447
60,69.15621277,18.57538298,302.1,58.21129167,60.45952083,64.15379167,21.400625,23.2473125,20.28014583,19.596375,19.82654167,301.68,306.26,300.0,301.84,304.64,1.9796638130000002
61,66.478625,18.37241667,297.46,70.54660417,63.54793617,57.36991304,18.06425,20.09961702,22.59073913,18.24974419,17.26202083,300.38,298.98,302.88,295.04,297.78,1.8208097140000001
62,64.93514583,21.03029167,305.0,71.51921622,75.0741,69.13467568,19.78791892,19.460825,20.68686486,20.68686486,20.90462069,302.86,301.16,302.2,302.2,300.74,4.579688674
63,46.38456667,11.32173333,285.46,27.43714706,68.86091667,65.03884444,24.78397059,18.98195833,20.4596,23.72790323,17.864,300.2,296.26,299.56,298.38,299.34,2.9791605469999998
64,55.92087805,17.31441463,287.8,58.6387,67.37460714,67.37460714,18.59483333,12.37389286,12.37389286,14.82085106,15.88172727,292.54,284.44,284.44,292.04,292.5,3.9411455039999996
65,65.42916667,11.43341667,293.16,55.92087805,55.92087805,58.6387,17.31441463,17.31441463,18.59483333,12.37389286,12.37389286,287.8,287.8,292.54,284.44,284.44,3.224120123
66,51.24405128,26.31384615,305.24,60.26412766,63.769625,64.15947727,22.50946809,23.81179167,23.97413636,22.62219048,21.8304,296.96,303.6,300.4,304.2,298.96,2.715582519
67,67.20961702,21.04602128,301.86,69.07210417,71.0824375,69.76889362,18.951,19.48460417,21.15614894,19.70010417,22.47870833,300.24,297.48,303.48,299.42,306.66,2.801919279
68,51.5764,23.386,303.2,59.9303125,67.44804167,65.56566667,21.15629167,20.1445625,19.89320833,19.89320833,24.06270833,298.42,299.56,299.72,299.72,303.56,3.040804244
69,60.22754167,19.4246875,297.72,61.15977083,56.12325,56.12325,18.72129167,18.342625,18.342625,17.4694,16.83929167,298.8,300.6,300.6,295.72,300.5,3.818846614
70,68.12495833,16.90625,297.34,71.97295833,71.21672917,63.05142857,17.44264583,19.57170833,20.83,19.2085,19.2085,300.04,303.5,302.24,301.94,301.94,2.215939139
71,72.61583333,18.75452083,295.64,74.34097917,74.258875,74.258875,18.17575,19.440375,19.440375,19.60661702,18.4639375,299.28,297.64,297.64,302.82,299.74,3.352597706
72,52.6455,21.69927083,299.9,58.109375,52.17285417,34.62577083,21.5891875,23.28239583,20.21577083,18.81729167,19.6097234,303.9,304.54,298.8,302.04,296.8,3.826255689
73,72.53066667,20.0798125,298.06,64.30370968,67.81826829,63.78793478,22.49622581,21.170756100000002,20.17547826,20.17547826,18.331,299.98,298.06,299.48,299.48,298.04,2.0683753559999998
74,65.83797143,19.33908571,305.0,72.8067561,67.61625581,72.468775,18.82929268,17.520209299999998,17.45225,17.9084375,17.9125,300.22,300.12,303.26,300.42,303.54,2.896545037
75,69.073625,18.08264583,295.96,52.1195625,48.24520833,53.7971875,22.398125,22.03158333,18.91970833,19.04589583,18.20273913,306.44,306.08,300.6,299.16,299.44,2.368763845
76,67.99266667,9.186454545,287.84,70.08274419,58.81875,47.59791667,9.975883721,22.63958333,23.075,24.49791667,25.98333333,286.24,305.48,302.28,303.68,301.98,3.6940787389999996
77,48.21636842,17.42436842,303.06,53.284625,46.43604167,46.87260417,15.20260417,14.50129167,18.26585417,20.59766667,18.4005625,297.26,298.36,299.22,302.88,297.36,3.3804363619999998
78,54.11087179,18.89551282,297.74,38.65809302,55.9838,55.9838,18.197,16.90595556,16.90595556,19.79259091,19.70734783,298.34,297.14,297.14,297.44,299.72,1.907407749
79,72.8067561,18.82929268,300.22,67.61625581,72.468775,75.7491875,17.520209299999998,17.45225,17.9084375,17.9125,17.95080435,300.12,303.26,300.42,303.54,299.94,3.924121431
80,56.12325,18.342625,300.6,59.74275556,72.67495833,66.69006383,17.4694,16.83929167,17.1697234,21.79817949,17.52381395,295.72,300.5,294.98,296.22,299.28,4.006866155
81,69.429125,20.1418125,299.34,73.241125,71.53057447,72.65422917,18.98054167,18.42861702,18.44420833,17.84133333,17.22654167,300.1,299.22,297.06,299.94,292.74,1.765363288
82,58.6387,18.59483333,292.54,67.37460714,67.37460714,73.16142553,12.37389286,12.37389286,14.82085106,15.88172727,15.116375,284.44,284.44,292.04,292.5,296.36,5.156220414
83,60.75560417,21.17520833,303.5,52.833125,63.18508333,71.7591875,23.20470833,20.69729167,19.63514583,21.12802083,19.74675,302.56,300.92,302.9,298.12,302.04,3.2524579719999998
84,63.78793478,20.17547826,299.48,63.78793478,71.5890625,74.52783333,20.17547826,18.331,18.33989583,20.00222917,19.06877083,299.48,298.04,297.6,300.84,297.1,2.293525149
85,69.0187619,20.21154762,302.42,69.28027083,73.57278723,73.83592683,18.63714583,17.01285106,17.30558537,17.02629545,17.02629545,296.64,299.58,299.9,294.18,294.18,3.013732521
86,69.75233333,16.49320833,293.7,70.93233333,64.61620833,66.22641667,17.02864583,18.7871875,19.12454167,19.23727083,19.383375,295.2,296.5,297.18,298.24,297.72,1.376624804
87,51.05608333,20.0565625,303.0,52.51929787,60.8445,62.46647826,22.07861702,22.860875,16.00908696,14.46102174,17.46914583,298.92,305.6,299.32,297.96,297.4,4.122580247
88,67.35219149,20.86887234,299.42,75.0949375,58.401612899999996,54.12293478,20.251375,22.51777419,21.74095652,24.66363636,24.66363636,299.02,300.56,301.32,304.5,304.5,1.69858968
89,70.19589362,20.29410638,299.48,70.85740426,71.94104348,54.55254762,20.92695745,21.515,24.04214286,19.5829,18.32151064,297.76,302.56,300.48,298.24,298.06,2.544212782
90,71.66331915,20.39902128,300.26,70.19589362,70.85740426,71.94104348,20.29410638,20.92695745,21.515,24.04214286,19.5829,299.48,297.76,302.56,300.48,298.24,2.497371874
91,69.76152083,20.09972917,299.84,66.29722917,71.09445833,72.16317778,20.96060417,19.61114583,19.40504444,19.1562766,21.34755556,302.16,298.56,299.46,298.88,300.82,2.379469622
92,68.12647917,18.51433333,298.36,62.9078125,65.69877273,69.75233333,18.37627083,17.85322727,16.49320833,16.49320833,17.02864583,295.14,298.68,293.7,293.7,295.2,1.4259266769999999
93,41.51917021,23.17361702,302.78,41.51917021,46.4498125,54.2270625,23.17361702,23.1326875,22.202125,20.18585417,20.18585417,302.78,305.18,291.68,299.84,299.84,4.133043365
94,75.98623404,18.12429787,299.66,79.03090244,74.6719375,73.8263617,17.963,18.581125,18.76444681,18.65820833,18.4041875,300.54,300.68,299.32,300.24,302.3,4.378840728
95,82.37315385,12.01188462,289.9,82.37315385,83.71032,83.71032,12.01188462,13.675360000000001,13.675360000000001,15.74525,15.38642105,289.9,287.06,287.06,284.14,291.8,1.4571133280000002
96,55.85214583,24.20454167,301.9,55.85214583,59.063125,66.2130625,24.20454167,22.079375,19.92127083,18.88522917,19.4484375,301.9,303.92,301.38,297.58,295.16,3.158284229
97,69.13467568,20.68686486,302.2,59.88165517,69.38191892,72.61583333,20.90462069,19.32210811,18.75452083,18.17575,19.440375,300.74,305.1,295.64,299.28,297.64,3.466747916
98,38.71183333,13.48541667,290.34,62.12725,53.66414583,53.66414583,11.923,14.71202083,14.71202083,16.892125,17.04454167,295.0,295.34,295.34,297.92,295.14,3.031236208
99,63.55185417,16.9578125,298.02,66.35164583,66.35164583,55.17893182,18.36839583,18.36839583,22.92995455,22.56829167,21.69927083,298.58,298.58,305.48,304.88,299.9,3.113649073
100,65.69877273,17.85322727,298.68,69.75233333,69.75233333,70.93233333,16.49320833,16.49320833,17.02864583,18.7871875,19.12454167,293.7,293.7,295.2,296.5,297.18,1.593121379
101,69.15097872,20.59604255,300.72,67.80710417,72.94914894,62.731875,21.6071875,20.40642553,23.8029375,22.44963043,22.87047917,297.86,297.9,304.34,298.4,301.6,4.181514575
102,59.4585625,15.4466875,293.24,48.02032558,28.7,28.7,16.93676744,16.55146154,16.55146154,15.75002083,17.44744681,297.52,296.18,296.18,296.16,296.46,2.805328585
103,63.18508333,20.69729167,300.92,71.7591875,67.15899999999999,64.74197917,19.63514583,21.12802083,19.74675,20.36189362,16.659875,302.9,298.12,302.04,302.58,297.08,2.9998452110000002
104,68.96072917,18.7783125,297.22,71.44733333,70.02054167,69.03539583,17.61472917,18.65883333,18.93970833,19.4466875,23.653125,299.0,297.12,301.34,301.18,305.86,2.489836475
105,74.61519565,17.95080435,299.94,77.04391667,74.38308333,77.23597917,17.6525,19.274125,17.60189583,17.411625,18.5682766,299.96,299.32,298.42,294.2,300.36,3.501238898
106,66.29722917,20.96060417,302.16,71.09445833,72.16317778,75.60248936,19.61114583,19.40504444,19.1562766,21.34755556,19.87463043,298.56,299.46,298.88,300.82,301.28,2.818355678
107,68.847,21.5279375,302.96,68.847,56.11575,67.21180435,21.5279375,23.051,19.97595652,18.94752083,19.412,302.96,300.38,301.1,297.68,300.76,1.8468516940000002
108,64.22395745,19.7137234,301.76,62.52877083,40.5837234,47.90148936,20.67097917,24.17997872,22.65308511,18.54276087,18.073,302.26,303.24,304.14,300.0,297.88,2.994107793
109,39.10924,14.70924,287.56,85.27541667,71.14153571,21.38431915,10.33766667,15.37735714,18.29795745,17.3825625,15.55168889,286.76,290.14,292.56,296.32,293.94,1.751320129
110,71.06710638,20.03931915,298.06,72.07897872,69.15097872,67.80710417,19.07585106,20.59604255,21.6071875,20.40642553,23.8029375,292.88,300.72,297.86,297.9,304.34,3.7094914660000002
111,65.54676316,17.52755263,296.08,77.65958696,69.0187619,69.28027083,19.34080435,20.21154762,18.63714583,17.01285106,17.30558537,299.66,302.42,296.64,299.58,299.9,3.7611347060000004
112,40.98981081,12.30362162,286.22,31.21955263,24.06422222,36.08627273,16.28589474,20.30969444,18.30902273,18.89551282,18.197,292.28,294.86,294.32,297.74,298.34,4.082378519
113,36.08627273,18.30902273,294.32,54.11087179,38.65809302,55.9838,18.89551282,18.197,16.90595556,16.90595556,19.79259091,297.74,298.34,297.14,297.14,297.44,2.1859028080000003
114,52.51929787,22.07861702,298.92,60.8445,62.46647826,53.62873913,22.860875,16.00908696,14.46102174,17.46914583,18.6708125,305.6,299.32,297.96,297.4,301.8,4.5676524810000005
115,61.26841304,23.40306522,301.28,62.6535625,66.61934091,70.42423404,21.80964583,21.89211364,20.60955319,20.60955319,20.70133333,294.56,302.3,297.78,297.78,298.32,4.665790865
116,58.88954545,24.66363636,304.5,70.86747826,66.23261702,59.04021277,22.01030435,22.26025532,21.97959574,21.97959574,20.20384091,298.0,303.04,302.04,302.04,300.78,2.4407651390000003
117,57.78538095,20.42907143,300.0,63.01489744,65.47397826,66.59804255,21.92853846,20.24582609,20.04151064,20.86887234,20.251375,297.72,301.62,297.42,299.42,299.02,1.956465523
118,79.03090244,17.963,300.54,74.6719375,73.8263617,72.95839583,18.581125,18.76444681,18.65820833,18.4041875,18.43237778,300.68,299.32,300.24,302.3,295.34,3.530339686
119,74.01708333,17.69175,296.32,69.246875,70.90639583,68.12647917,18.59520833,18.82541667,18.51433333,18.37627083,17.85322727,299.94,296.66,298.36,295.14,298.68,1.1271839609999998
120,69.48985417,19.23727083,298.24,69.93920833,55.68253191,59.93735417,19.383375,19.79221277,19.19852083,18.80754167,18.37241667,297.72,297.98,295.12,297.58,297.46,1.667445267
121,56.12325,18.342625,300.6,56.12325,59.74275556,72.67495833,18.342625,17.4694,16.83929167,17.1697234,21.79817949,300.6,295.72,300.5,294.98,296.22,4.006866155
122,59.74597917,16.16579167,292.7,63.51667391,62.76233333,65.62934286,19.62667391,18.01210417,21.02071429,18.34975,15.95047917,302.34,299.7,299.04,298.78,292.24,3.837183112
123,58.50465517,10.41958621,287.76,79.0325,72.5455,63.97492,12.02476923,12.10433333,11.744639999999999,13.21903448,12.16194286,290.98,288.28,283.18,288.88,290.46,3.624006358
124,60.90084444,21.8304,298.96,66.02039583,69.429125,73.241125,20.41179167,20.1418125,18.98054167,18.42861702,18.44420833,302.7,299.34,300.1,299.22,297.06,2.470653345
125,72.08322917,18.1020625,300.5,71.21477083,72.42266667,69.073625,16.9431875,16.53297917,18.08264583,22.398125,22.03158333,297.82,299.5,295.96,306.44,306.08,2.41699761
126,65.56566667,19.89320833,299.72,52.8623125,55.85214583,55.85214583,24.06270833,24.20454167,24.20454167,22.079375,19.92127083,303.56,301.9,301.9,303.92,301.38,2.210116066
127,77.966375,16.8275,299.0,57.45459574,63.88555319,72.08322917,24.15640426,22.44544681,18.1020625,16.9431875,16.53297917,304.98,303.24,300.5,297.82,299.5,2.132986467
128,64.15947727,23.97413636,300.4,55.57809524,60.90084444,66.02039583,22.62219048,21.8304,20.41179167,20.1418125,18.98054167,304.2,298.96,302.7,299.34,300.1,2.063192209
129,67.81826829,21.170756100000002,298.06,63.78793478,63.78793478,71.5890625,20.17547826,20.17547826,18.331,18.33989583,20.00222917,299.48,299.48,298.04,297.6,300.84,3.0035939480000002
130,53.66414583,14.71202083,295.34,61.10710417,60.0039375,43.07742105,16.892125,17.04454167,22.05344737,17.77116667,13.79623913,297.92,295.14,301.32,292.64,291.48,2.976107368
131,74.92870833,17.240375,298.1,75.98623404,79.03090244,74.6719375,18.12429787,17.963,18.581125,18.76444681,18.65820833,299.66,300.54,300.68,299.32,300.24,3.8235348869999997
132,72.37519565,20.4361087,298.54,74.36720833,74.4688913,66.91361702,19.7464375,20.43765217,21.27242553,21.07272917,21.07272917,297.82,299.06,297.58,298.72,298.72,2.9337045330000002
133,71.89216667,18.87041667,300.2,76.03710417,76.03710417,75.44,18.3804375,18.3804375,18.88212766,21.55208511,22.52164583,296.84,296.84,301.42,303.54,299.6,2.93653758
134,30.65047059,24.67314706,301.76,45.59784615,31.35115385,31.35115385,20.35592308,15.18689744,15.18689744,13.48541667,11.923,300.42,295.26,295.26,290.34,295.0,5.8608424910000005
135,31.46567442,7.533186047,282.98,42.37624242,48.76294444,46.38456667,7.528484848,9.724972222,11.32173333,24.78397059,18.98195833,282.26,285.76,285.46,300.2,296.26,2.7254359939999997
136,63.72458621,13.21903448,288.88,68.1122,75.82183333,68.03443243,12.16194286,14.15153333,11.15194595,10.49172222,9.969761905,290.46,287.56,281.34,284.0,287.26,3.605490567
137,73.70417391,19.03343478,298.52,68.63541667,61.66410870000001,64.84954167,19.93095833,20.62445652,20.29841667,21.11620833,23.386,301.48,299.58,302.0,300.12,303.2,1.7757165019999999
138,68.63541667,19.93095833,301.48,61.66410870000001,64.84954167,59.64622917,20.62445652,20.29841667,21.11620833,23.386,21.15629167,299.58,302.0,300.12,303.2,298.42,2.1420255569999997
139,54.55254762,24.04214286,300.48,71.923025,75.98406383,75.98406383,19.5829,18.32151064,18.32151064,17.8168913,20.38808333,298.24,298.06,298.06,299.2,302.28,3.384665374
140,66.35164583,18.36839583,298.58,66.35164583,55.17893182,48.56425,18.36839583,22.92995455,22.56829167,21.69927083,21.5891875,298.58,305.48,304.88,299.9,303.9,2.9429989589999996
141,70.0825,20.41014583,300.28,72.1461875,69.87634043,46.278361700000005,20.33054167,20.8347234,24.71304255,21.91084783,20.42727083,298.34,300.8,302.52,299.74,300.3,3.391357498
142,53.70215909,18.26522727,299.26,53.52441667,58.997375,58.997375,20.7266875,20.62666667,20.62666667,20.323125,17.86975,301.84,302.7,302.7,304.1,302.54,2.8896325189999996
143,59.93735417,19.19852083,295.12,64.28735417,66.478625,70.54660417,18.80754167,18.37241667,18.06425,20.09961702,22.59073913,297.58,297.46,300.38,298.98,302.88,1.734546966
144,58.997375,20.62666667,302.7,63.49195833,71.05697917,71.291375,20.323125,17.86975,16.56852083,17.87741667,22.99616667,304.1,302.54,294.9,296.34,303.68,3.047293653
145,52.1195625,22.398125,306.44,48.24520833,53.7971875,57.23797917,22.03158333,18.91970833,19.04589583,18.20273913,17.89197143,306.08,300.6,299.16,299.44,295.96,3.286795402
146,69.76889362,21.15614894,303.48,66.46804167,65.54322917,65.54322917,19.70010417,22.47870833,22.47870833,21.82993617,24.262625,299.42,306.66,306.66,298.56,305.38,2.847429637
147,76.03710417,18.3804375,296.84,76.03710417,75.44,65.95110638,18.3804375,18.88212766,21.55208511,22.52164583,21.07280851,296.84,301.42,303.54,299.6,303.96,2.75413903
148,49.34811364,20.86284091,308.4,47.41344681,55.41982857,70.972175,21.28808511,21.99645714,19.592175,19.86708571,18.92322727,301.98,301.58,301.62,296.22,299.98,4.154750718
149,72.95839583,18.65820833,300.24,74.790875,71.81213333,75.9645,18.4041875,18.43237778,16.17622917,18.33957447,19.43466667,302.3,295.34,296.8,298.58,298.6,3.930184207
150,72.16317778,19.40504444,299.46,75.60248936,62.87814815,67.30960870000001,19.1562766,21.34755556,19.87463043,18.82614894,18.82614894,298.88,300.82,301.28,295.98,295.98,2.480148689
151,47.06985714,21.0902381,298.88,67.65226190000001,77.966375,57.45459574,18.67640476,16.8275,24.15640426,22.44544681,18.1020625,303.32,299.0,304.98,303.24,300.5,3.73650056
152,69.8319375,21.70597917,302.74,69.57479167,73.73329167,68.2911875,21.74372917,20.0053125,17.80325,14.12483333,11.47217021,303.24,286.88,287.58,296.98,295.84,3.561250409
153,51.81991667,18.81729167,302.04,52.94865957,58.63989583,51.05608333,19.6097234,15.24227083,20.0565625,22.07861702,22.860875,296.8,297.46,303.0,298.92,305.6,3.9651537439999998
154,61.10710417,16.892125,297.92,60.0039375,43.07742105,31.0379375,17.04454167,22.05344737,17.77116667,13.79623913,14.7533,295.14,301.32,292.64,291.48,292.18,3.324482572
155,62.6535625,21.80964583,294.56,66.61934091,70.42423404,70.42423404,21.89211364,20.60955319,20.60955319,20.70133333,19.78687234,302.3,297.78,297.78,298.32,300.3,4.038952355
156,42.37624242,7.528484848,282.26,48.76294444,46.38456667,27.43714706,9.724972222,11.32173333,24.78397059,18.98195833,20.4596,285.76,285.46,300.2,296.26,299.56,2.723851293
157,53.5460625,21.273000000000003,300.12,65.94753659,73.94238298,58.34089583,21.17468293,17.92859574,14.44727083,13.89870968,13.89870968,302.1,299.12,291.16,297.66,297.66,4.845160623
158,59.008,16.81755263,299.98,57.0805,65.41034043,34.8085,18.6528913,20.60789362,22.95884615,21.57508696,17.51575,298.82,304.1,304.9,296.62,300.76,4.041721955
159,34.39047917,21.9288125,298.24,71.58539583,73.31293478,67.24733333,16.399,15.353,15.69641667,20.45206522,24.67314706,299.14,296.82,302.54,296.62,301.76,4.474700681
160,71.29502083,19.39991667,298.02,58.417125,65.3456875,64.22395745,21.81308333,21.04266667,19.7137234,20.67097917,24.17997872,304.38,297.84,301.76,302.26,303.24,2.678693768
161,49.254875,24.262625,305.38,63.47616667,60.92333333,53.07095556,19.97916667,21.2024359,21.32584444,22.57147917,19.1028125,301.92,301.8,301.2,305.18,302.08,4.826787316
162,59.64622917,21.11620833,300.12,51.5764,59.9303125,67.44804167,23.386,21.15629167,20.1445625,19.89320833,19.89320833,303.2,298.42,299.56,299.72,299.72,2.554087979
163,59.04021277,21.97959574,302.04,59.04021277,68.56038636,68.847,21.97959574,20.20384091,21.5279375,21.5279375,23.051,302.04,300.78,302.96,302.96,300.38,2.145525477
164,73.86399999999999,18.30760417,300.12,71.25247917,71.25247917,69.27539583,18.99616667,18.99616667,19.77608333,19.77608333,21.04602128,297.24,297.24,300.26,300.26,301.86,2.061671471
165,64.83364,20.45416,297.9,72.80091489,75.5238125,71.10125,17.73444681,16.87272917,19.07295833,19.07295833,21.179375,299.1,296.12,301.48,301.48,300.48,3.4674419789999997
166,62.18595833,16.659875,297.08,58.37547917,62.16495833,70.22002083,16.113125,16.112625,15.70591667,16.9578125,16.9578125,300.82,295.74,298.76,298.02,298.02,2.770838307
167,58.34089583,14.44727083,291.16,63.28625806,63.28625806,66.5972069,13.89870968,13.89870968,12.05410345,11.61236842,13.936320000000002,297.66,297.66,292.94,292.56,289.46,4.211132118
168,40.12969048,22.99616667,303.68,21.03216279,34.39047917,71.58539583,22.221418600000003,21.9288125,16.399,15.353,15.69641667,300.0,298.24,299.14,296.82,302.54,4.9425232910000005
169,74.4688913,20.43765217,299.06,66.91361702,61.296625,61.296625,21.27242553,21.07272917,21.07272917,21.70716667,22.51575,297.58,298.72,298.72,300.52,300.04,2.765920672
170,65.56566667,19.89320833,299.72,65.56566667,52.8623125,55.85214583,19.89320833,24.06270833,24.20454167,24.20454167,22.079375,299.72,303.56,301.9,301.9,303.92,2.210116066
171,75.62248936,16.13514894,289.12,72.38275,59.4585625,48.02032558,16.28095833,15.4466875,16.93676744,16.55146154,16.55146154,295.2,293.24,297.52,296.18,296.18,2.9583512080000003
172,63.51483333,13.10775,292.62,58.50465517,79.0325,72.5455,10.41958621,12.02476923,12.10433333,11.744639999999999,13.21903448,287.76,290.98,288.28,283.18,288.88,2.466685555
173,60.26412766,22.50946809,296.96,63.769625,64.15947727,55.57809524,23.81179167,23.97413636,22.62219048,21.8304,20.41179167,303.6,300.4,304.2,298.96,302.7,1.572519675
174,66.69006383,17.1697234,294.98,31.18487179,47.62355814,47.62355814,21.79817949,17.52381395,17.52381395,14.86282979,16.16579167,296.22,299.28,299.28,295.82,292.7,3.51212086
175,65.54676316,17.52755263,296.08,65.54676316,77.65958696,69.0187619,17.52755263,19.34080435,20.21154762,18.63714583,17.01285106,296.08,299.66,302.42,296.64,299.58,3.7611347060000004
176,69.13467568,20.68686486,302.2,69.13467568,59.88165517,69.38191892,20.68686486,20.90462069,19.32210811,18.75452083,18.17575,302.2,300.74,305.1,295.64,299.28,3.466747916
177,55.79761702,24.9527234,307.56,62.0803125,62.0803125,69.43691667,22.6586875,22.6586875,19.68877083,19.68877083,18.87041667,301.24,301.24,300.56,300.56,300.2,4.5124151889999995
178,32.397775,14.1165,298.18,35.87073171,62.10917021,53.39025532,13.08421951,11.35978723,14.14595745,14.14595745,17.19744186,294.58,299.44,301.02,301.02,305.38,4.665805436
179,44.70725,20.67361111,305.72,35.49891304,44.06,69.18566667,16.11673913,13.54621429,14.40720513,16.11336111,16.11336111,295.22,290.82,294.08,298.48,298.48,5.528582307000001
180,66.62027778,16.11336111,298.48,66.62027778,60.66545455,62.48820513,16.11336111,13.63431818,12.00661538,15.47957778,12.17073684,298.48,299.22,295.58,299.46,293.84,2.53635281
181,29.40965517,17.80931034,303.72,32.397775,35.87073171,62.10917021,14.1165,13.08421951,11.35978723,14.14595745,14.14595745,298.18,294.58,299.44,301.02,301.02,5.630252447
182,66.62027778,16.11336111,298.48,60.66545455,62.48820513,59.36488889,13.63431818,12.00661538,15.47957778,12.17073684,11.58932432,299.22,295.58,299.46,293.84,291.58,2.53635281
183,45.174,13.065,287.48,31.66166667,46.26615385,67.55378125,12.76166667,11.36423077,11.00746875,4.115607143,8.277333333,285.2,284.4,285.8,280.7,281.2,5.005920774
184,35.49891304,16.11673913,295.22,44.06,69.18566667,66.62027778,13.54621429,14.40720513,16.11336111,16.11336111,13.63431818,290.82,294.08,298.48,298.48,299.22,4.8883294919999996
185,59.05833333,16.40189583,300.74,53.70276596,59.34597872,59.34597872,16.20044681,15.8412766,15.8412766,16.21388889,25.09808333,302.08,301.9,301.9,302.38,314.74,2.052090726
186,57.41246667,18.77337778,305.8,41.19066667,37.69297297,37.24613636,25.0225,26.58945946,23.43479545,22.3266875,22.17020833,314.1,311.54,314.62,303.94,312.96,2.404495933
187,65.05208333,16.8954375,298.36,70.01479167,59.14608696,47.60675,16.83708333,19.1996087,21.86025,21.775,19.23590909,299.82,303.24,302.8,305.12,305.4,3.169557587
188,41.013999999999996,24.212,297.32,52.87238095,70.66958333,62.87775,22.50619048,18.90710417,19.055,17.62041667,19.0910625,301.06,299.62,300.18,298.94,299.7,7.042849567
189,64.86416667,18.9685625,300.84,65.05208333,70.01479167,59.14608696,16.8954375,16.83708333,19.1996087,21.86025,21.775,298.36,299.82,303.24,302.8,305.12,4.017663392
190,70.66958333,18.90710417,299.62,62.87775,67.0610625,64.55229167,19.055,17.62041667,19.0910625,19.0910625,19.51541667,300.18,298.94,299.7,299.7,301.62,4.642328109
191,70.01479167,16.83708333,299.82,59.14608696,47.60675,45.905,19.1996087,21.86025,21.775,19.23590909,23.98532353,303.24,302.8,305.12,305.4,307.14,3.515444726
192,53.70276596,16.20044681,302.08,59.34597872,59.34597872,61.26975,15.8412766,15.8412766,16.21388889,25.09808333,22.18236842,301.9,301.9,302.38,314.74,312.86,2.369107803
193,49.46895833,20.72375,307.72,49.46895833,59.05833333,53.70276596,20.72375,16.40189583,16.20044681,15.8412766,15.8412766,307.72,300.74,302.08,301.9,301.9,2.8209921139999996
194,54.66317073,16.82292683,298.42,44.70725,35.49891304,44.06,20.67361111,16.11673913,13.54621429,14.40720513,16.11336111,305.72,295.22,290.82,294.08,298.48,3.803666161
195,56.47710526,12.17073684,293.84,41.18675676,41.18675676,37.27605263,11.58932432,11.58932432,10.15734211,10.5955,11.3316087,291.58,291.58,289.94,288.34,288.46,3.242856665
196,69.18566667,14.40720513,294.08,66.62027778,66.62027778,60.66545455,16.11336111,16.11336111,13.63431818,12.00661538,15.47957778,298.48,298.48,299.22,295.58,299.46,3.6489043139999997
197,64.55229167,19.0910625,299.7,63.41835417,64.86416667,65.05208333,19.51541667,18.9685625,16.8954375,16.83708333,19.1996087,301.62,300.84,298.36,299.82,303.24,4.981701676
198,68.26208333,19.63085417,301.2,65.9375,65.9375,63.66458333,20.59608333,20.59608333,19.1519375,20.72375,20.72375,303.5,303.5,303.18,307.72,307.72,2.556186776
199,49.06229167,22.17020833,312.96,42.46106383,22.73911765,33.67435897,24.01489362,24.45823529,19.08028205,18.55744681,18.89777778,316.36,314.34,304.16,311.02,304.42,1.885642899
200,57.20431818,19.23590909,305.4,45.3665,56.49547619,56.49547619,23.98532353,22.21285714,22.21285714,19.63085417,20.59608333,307.14,302.94,302.94,301.2,303.5,3.5310477369999997
201,41.19066667,25.0225,314.1,37.69297297,37.24613636,43.56145833,26.58945946,23.43479545,22.3266875,22.17020833,24.01489362,311.54,314.62,303.94,312.96,316.36,2.536102241
202,54.33382979,21.05665957,303.64,60.14726087,65.78974468,66.18776596,18.69971739,17.11823404,15.4252766,14.71817021,14.57101277,302.5,306.18,303.2,300.98,305.22,3.9753841089999997
203,55.0843125,18.30483333,301.8,46.7316087,43.73289583,57.99858333,21.05895652,19.69322917,18.22195833,18.22195833,18.12875,310.18,306.96,301.74,301.74,306.48,1.39093527
204,71.80268085,17.82325532,306.14,69.49793478,55.40854348,72.12493478,19.24328261,23.96880435,19.2476087,19.2476087,20.32655319,301.02,308.86,300.68,300.68,302.5,6.814100241
205,66.54045652,19.75969565,304.26,66.54045652,57.80726087,64.14158696,19.75969565,17.89941304,17.44654348,20.9141087,18.85466667,304.26,303.82,304.62,309.8,307.18,6.751951588
206,68.59451064,19.66921277,305.4,68.59451064,71.80268085,69.49793478,19.66921277,17.82325532,19.24328261,23.96880435,19.2476087,305.4,306.14,301.02,308.86,300.68,7.476239217000001
207,67.3818125,14.079375,296.8,69.81670833,67.820375,63.73847917,18.27391667,18.787375,20.35608333,20.35608333,20.57191304,301.42,300.1,303.26,303.26,301.0,4.407763978999999
208,68.74064583,18.8295,302.62,76.93375,77.69989583,72.87026087,18.20408333,17.5214375,19.31663043,19.31663043,18.57914583,304.34,301.94,304.74,304.74,301.54,6.157186426
209,69.056625,19.61429167,302.68,71.86116667,70.48570833,72.49873913,18.5894375,19.10102083,17.95971739,17.95971739,17.491125,304.94,301.72,306.26,306.26,298.32,8.43814093
210,63.87395833,18.85466667,307.18,54.33382979,60.14726087,65.78974468,21.05665957,18.69971739,17.11823404,15.4252766,14.71817021,303.64,302.5,306.18,303.2,300.98,4.145586538
211,71.22441667,18.65670833,298.48,67.07891667,46.99939583,61.77352174,19.11229167,23.16858333,17.42558696,17.42683333,21.60757447,301.06,304.5,305.98,302.76,306.88,5.885090507999999
212,43.52591489,22.82934043,313.08,34.90810638,36.263875,37.92452083,21.67878723,24.130375,24.290375,23.07114583,20.89420833,310.16,309.3,310.12,299.58,306.48,2.429678751
213,73.01165957,20.18329787,302.04,57.03329787,67.06561702,68.74064583,20.4126383,16.1586383,18.8295,18.20408333,17.5214375,307.0,301.58,302.62,304.34,301.94,6.518812812
214,67.3818125,14.079375,296.8,67.3818125,69.81670833,67.820375,14.079375,18.27391667,18.787375,20.35608333,20.35608333,296.8,301.42,300.1,303.26,303.26,4.407763978999999
215,50.15954348,20.76995652,307.9,48.35293617,61.87114894,67.30425,23.73451064,22.29176596,24.5733125,11.93341667,16.275,307.12,311.92,304.76,293.9,298.54,7.276929514
216,61.87114894,22.29176596,311.92,67.30425,43.68239583,50.2402766,24.5733125,11.93341667,16.275,21.5645,24.20320833,304.76,293.9,298.54,298.96,309.62,7.019151186
217,69.66664583,16.248875,296.28,71.48315217,55.796276600000006,50.51525532,16.70391304,21.13931915,22.22780851,18.8538913,19.47697917,298.44,302.02,307.42,307.6,305.86,5.069171583999999
218,64.7333913,19.39132609,300.82,64.90280851,71.21730435,58.46173913,19.11653191,17.1595,21.45193478,19.75969565,19.75969565,300.04,300.56,305.16,304.26,304.26,5.953367237999999
219,59.81358696,21.1726087,294.26,64.7333913,64.90280851,71.21730435,19.39132609,19.11653191,17.1595,21.45193478,19.75969565,300.82,300.04,300.56,305.16,304.26,7.825825181
220,59.3819375,19.75764583,308.94,65.381875,62.60685417,62.67047917,18.68975,14.802025,14.73216667,10.91266087,20.7722766,302.44,302.78,304.22,286.6,303.7,7.332722122000001
221,71.45189583,11.2620125,293.74,84.13358333,73.0196087,56.03370213,10.75581458,18.7543913,21.388,17.07232609,19.61215217,289.14,300.76,303.5,299.56,302.84,3.186015132
222,65.381875,18.68975,302.44,62.60685417,62.67047917,37.53906522,14.802025,14.73216667,10.91266087,20.7722766,18.55367391,302.78,304.22,286.6,303.7,302.62,2.764210952
223,68.59451064,19.66921277,305.4,68.59451064,68.59451064,71.80268085,19.66921277,19.66921277,17.82325532,19.24328261,23.96880435,305.4,305.4,306.14,301.02,308.86,7.476239217000001
224,56.65612766,21.40591489,305.3,56.02974468,50.15954348,48.35293617,19.8402766,20.76995652,23.73451064,22.29176596,24.5733125,305.08,307.9,307.12,311.92,304.76,7.499315797
225,48.35293617,23.73451064,307.12,61.87114894,67.30425,43.68239583,22.29176596,24.5733125,11.93341667,16.275,21.5645,311.92,304.76,293.9,298.54,298.96,7.843107584
226,50.51525532,22.22780851,307.42,64.43554348,75.16825,75.16825,18.8538913,19.47697917,19.47697917,20.18329787,20.4126383,307.6,305.86,305.86,302.04,307.0,7.346924117
227,64.43554348,18.8538913,307.6,75.16825,75.16825,73.01165957,19.47697917,19.47697917,20.18329787,20.4126383,16.1586383,305.86,305.86,302.04,307.0,301.58,6.359285207999999
228,75.16825,19.47697917,305.86,73.01165957,57.03329787,67.06561702,20.18329787,20.4126383,16.1586383,18.8295,18.20408333,302.04,307.0,301.58,302.62,304.34,5.642083649
229,39.51536957,23.10565217,306.26,55.0843125,46.7316087,43.73289583,18.30483333,21.05895652,19.69322917,18.22195833,18.22195833,301.8,310.18,306.96,301.74,301.74,2.785716308
230,66.05316667,18.12875,306.48,66.1438125,57.18308511,57.18308511,13.10645208,10.36705957,10.36705957,14.079375,14.079375,298.6,291.6,291.6,296.8,296.8,1.006467814
231,55.80621739,16.32234783,308.28,48.15873913,31.03491667,51.91746809,21.06358696,21.97916667,10.59590426,7.588195745,16.896125,307.54,299.4,288.38,286.24,296.8,2.091356022
232,75.48959574,18.06357447,302.28,71.22441667,67.07891667,46.99939583,18.65670833,19.11229167,23.16858333,17.42558696,17.42683333,298.48,301.06,304.5,305.98,302.76,5.542137837
233,72.64506383,18.05402128,298.38,69.23008511,76.78589129999999,75.48959574,18.83985106,17.73626087,18.06357447,18.65670833,19.11229167,303.92,299.98,302.28,298.48,301.06,5.509815245
234,61.35584783,21.44569565,304.14,63.50306522,59.81358696,64.7333913,20.02826087,21.1726087,19.39132609,19.11653191,17.1595,299.58,294.26,300.82,300.04,300.56,7.37291984
235,61.75034783,20.57191304,301.0,65.2245625,66.88845833,64.15595745,19.27239583,19.76572917,20.36351064,23.29572917,21.44569565,299.76,301.0,299.36,302.8,304.14,7.550866932000001
236,45.5870625,23.07114583,299.58,54.16027083,74.07525,65.66387234,20.89420833,12.53774167,20.19912766,20.95704348,20.95704348,306.48,295.26,302.4,299.7,299.7,2.010586246
237,54.16027083,20.89420833,306.48,74.07525,65.66387234,61.851108700000005,12.53774167,20.19912766,20.95704348,20.95704348,14.16554348,295.26,302.4,299.7,299.7,303.54,1.660851532
238,72.49873913,17.95971739,306.26,72.49873913,78.25345833,50.794125,17.95971739,17.491125,21.38279167,21.38279167,19.75764583,306.26,298.32,306.7,306.7,308.94,7.160935677
239,67.07891667,19.11229167,301.06,46.99939583,61.77352174,70.50660417,23.16858333,17.42558696,17.42683333,21.60757447,22.09254167,304.5,305.98,302.76,306.88,311.2,6.170672347000001
240,65.78974468,17.11823404,306.18,66.18776596,66.93463829999999,69.48878723,15.4252766,14.71817021,14.57101277,14.57101277,16.19131915,303.2,300.98,305.22,305.22,300.68,2.783900923
241,36.263875,24.130375,309.3,37.92452083,45.5870625,54.16027083,24.290375,23.07114583,20.89420833,12.53774167,20.19912766,310.12,299.58,306.48,295.26,302.4,2.701999087
242,48.15873913,21.06358696,307.54,31.03491667,51.91746809,70.66282979,21.97916667,10.59590426,7.588195745,16.896125,16.248875,299.4,288.38,286.24,296.8,296.28,1.963732586
243,46.7316087,21.05895652,310.18,43.73289583,57.99858333,57.99858333,19.69322917,18.22195833,18.22195833,18.12875,13.10645208,306.96,301.74,301.74,306.48,298.6,1.58898266
244,56.343,12.6492,289.9,56.343,65.41631915,42.01506818,12.6492,15.35944681,21.81095455,25.29054348,22.2099375,289.9,296.38,301.06,302.84,303.48,1.1906672090000001
245,58.25125,33.37585417,314.06,61.83306522,63.03621277,71.50568182,34.04,33.95429787,33.76440909,33.0232,29.95772917,308.28,313.18,309.72,303.72,302.76,3.528522694
246,56.77723913,7.593152174,288.4,58.013000000000005,56.343,56.343,11.37455882,12.6492,12.6492,15.35944681,21.81095455,288.74,289.9,289.9,296.38,301.06,1.134538283
247,60.85804255,30.56606383,303.98,57.69476596,56.88191489,53.0454,29.11825532,24.10748936,28.73457778,30.17495,29.02959574,306.84,301.34,303.74,302.74,303.98,6.157285667999999
248,42.62380851,33.01676596,309.18,32.39490244,48.90621739,48.537075,35.91626829,35.064,34.9323,35.64844681,35.64844681,314.84,316.72,310.06,309.5,309.5,1.967276755
249,65.77213953,29.11730233,304.2,55.09065217,55.09065217,60.85804255,32.02863043,32.02863043,30.56606383,29.11825532,24.10748936,307.68,307.68,303.98,306.84,301.34,5.756444697999999
250,52.57672917,25.93504167,303.74,75.94946667,75.94946667,66.40513158,29.82306667,29.82306667,32.11147368,33.21051163,33.95240426,304.64,304.64,310.18,309.0,305.2,4.692134311
251,69.54935417,19.19747917,298.78,65.96,62.78178788,75.50508696,18.066625,16.69793939,23.04378261,27.3715,27.33295833,296.22,292.38,299.92,304.32,300.64,2.167473596
252,80.97928571,27.57275,303.22,65.97368889,67.52115385,60.02263636,30.39866667,29.94779487,30.17088636,29.57191489,27.60905128,307.96,304.02,309.06,303.94,303.84,3.6092614160000003
253,45.456,5.45184375,281.68,47.51848276,57.57330435,56.709025,7.7129310339999995,11.75715217,12.632525,13.37532143,13.10302381,281.36,292.14,295.28,283.9,292.16,1.172767342
254,75.94946667,29.82306667,304.64,75.94946667,66.40513158,62.82718605,29.82306667,32.11147368,33.21051163,33.95240426,33.85431111,304.64,310.18,309.0,305.2,308.8,4.553933095
255,64.44612903,21.20470968,295.1,66.976375,65.41245714,86.98335294,20.90709375,10.304,-8.516470587999999,16.61138889,28.64355556,297.86,284.46,265.1,299.22,304.22,1.3527791319999998
256,64.81337778,26.46844444,298.14,48.2242381,45.15860417,43.06558537,19.89890476,24.87789583,22.49902439,17.65070833,15.95047826,300.82,308.16,312.32,302.42,304.58,5.316999459
257,59.60693478,29.51536957,302.24,56.97906667,66.4003125,71.61135,26.46637778,29.2268125,25.3778,27.7412381,26.46844444,304.74,304.12,297.4,304.06,298.14,7.184247135
258,45.15860417,24.87789583,308.16,43.06558537,51.92572917,41.72634783,22.49902439,17.65070833,15.95047826,10.04743902,7.593152174,312.32,302.42,304.58,301.96,288.4,3.9245939410000004
259,70.09641304,28.98436957,302.72,45.43163158,50.65693478,72.72136111,33.38797368,32.6846087,28.06519444,30.752276600000002,28.74929167,308.16,307.66,298.78,306.34,304.04,5.50214204
260,52.43264706,21.26226471,299.66,68.476,73.40280488,57.45495349,25.88912766,24.54985366,25.67813953,29.11730233,32.02863043,303.24,299.46,304.68,304.2,307.68,4.188553817
261,72.21008889,30.3986,304.44,66.14097727,75.70391111,71.03164865,30.75470455,30.06217778,27.44048649,27.10965909,27.06695349,297.26,302.48,300.5,302.38,308.14,6.688108047999999
262,59.80417647,13.46811765,295.98,52.23337209,52.23337209,45.64263043,17.18060465,17.18060465,21.92073913,17.85906667,24.43643478,299.3,299.3,305.88,296.82,303.66,3.536305897
263,50.65693478,32.6846087,307.66,72.72136111,56.57329787,63.64870833,28.06519444,30.752276600000002,28.74929167,28.74929167,28.74929167,298.78,306.34,304.04,304.04,304.04,8.014902138
264,65.96,18.066625,296.22,62.78178788,75.50508696,69.537625,16.69793939,23.04378261,27.3715,27.33295833,27.8788125,292.38,299.92,304.32,300.64,302.68,2.27619014
265,66.4003125,29.2268125,304.12,71.61135,60.81352381,64.81337778,25.3778,27.7412381,26.46844444,19.89890476,24.87789583,297.4,304.06,298.14,300.82,308.16,7.056761347
266,61.83306522,34.04,308.28,63.03621277,71.50568182,73.3814,33.95429787,33.76440909,33.0232,29.95772917,32.78308889,313.18,309.72,303.72,302.76,313.94,4.168662599
267,65.47608696,29.76995652,303.64,74.36604167,59.60693478,56.97906667,26.94979167,29.51536957,26.46637778,29.2268125,25.3778,303.96,302.24,304.74,304.12,297.4,6.769057061
268,47.51848276,7.7129310339999995,281.36,57.57330435,56.709025,54.77203571,11.75715217,12.632525,13.37532143,13.10302381,16.8608,292.14,295.28,283.9,292.16,294.0,1.532444132
269,46.83915385,3.849307692,282.96,55.82952778,59.50075,59.50075,10.68897222,14.99278125,14.99278125,17.74976087,19.19747917,290.28,290.98,290.98,295.4,298.78,1.317698067
270,62.82718605,33.21051163,309.0,63.74672339999999,67.21942222,66.38878571,33.95240426,33.85431111,32.98878571,31.943243900000002,29.22511364,305.2,308.8,309.26,303.76,296.18,6.346537249
271,65.24422917,27.46527083,302.98,64.4444375,57.97408333,65.47608696,27.2020625,24.6684375,29.76995652,26.94979167,29.51536957,304.02,300.8,303.64,303.96,302.24,6.156765668999999
272,57.69476596,29.11825532,306.84,56.88191489,53.0454,67.4732,24.10748936,28.73457778,30.17495,29.02959574,26.82508889,301.34,303.74,302.74,303.98,300.0,5.547107523999999
273,48.2242381,19.89890476,300.82,45.15860417,43.06558537,51.92572917,24.87789583,22.49902439,17.65070833,15.95047826,10.04743902,308.16,312.32,302.42,304.58,301.96,3.597555957
274,51.92572917,17.65070833,302.42,41.72634783,52.44056098,56.77723913,15.95047826,10.04743902,7.593152174,11.37455882,12.6492,304.58,301.96,288.4,288.74,289.9,2.89574033
275,63.64870833,28.74929167,304.04,65.24422917,65.24422917,64.4444375,27.46527083,27.46527083,27.2020625,24.6684375,29.76995652,302.98,302.98,304.02,300.8,303.64,6.446965232999999
276,59.50075,14.99278125,290.98,59.50075,62.89886957,69.54935417,14.99278125,17.74976087,19.19747917,18.066625,16.69793939,290.98,295.4,298.78,296.22,292.38,1.97293904
277,71.45617391,29.74554348,302.16,72.87708333,78.58911364,72.91497917,31.61179167,28.419,31.14072917,29.7418913,29.78015217,304.28,300.84,302.5,304.76,304.94,6.673023903
278,63.46091667,27.51433333,303.54,52.78179167,55.70515217,64.44427083,30.36229167,31.03469565,28.7250625,30.51138298,33.2257907,309.94,307.48,304.52,302.94,314.2,3.506424758
279,55.09065217,32.02863043,307.68,60.85804255,57.69476596,56.88191489,30.56606383,29.11825532,24.10748936,28.73457778,30.17495,303.98,306.84,301.34,303.74,302.74,7.990891942999999
280,75.77664516,30.88345161,301.7,65.06448276,80.97928571,65.97368889,31.75448276,27.57275,30.39866667,29.94779487,30.17088636,307.2,303.22,307.96,304.02,309.06,8.931188021
281,78.58911364,28.419,300.84,72.91497917,74.47004348,66.60715217,31.14072917,29.7418913,29.78015217,26.15930435,27.62006383,302.5,304.76,304.94,307.08,302.58,5.801505855
282,47.56202174,17.11,298.08,55.52038462,41.7345,41.7345,12.72105128,17.9029,17.9029,8.958093023,5.45184375,297.04,295.12,295.12,288.62,281.68,2.079167037
283,60.9502093,13.21593023,293.74,66.34008889,47.58,46.83915385,11.62835556,19.97562791,3.849307692,10.68897222,14.99278125,290.8,301.86,282.96,290.28,290.98,1.79826056
284,68.1755,27.33295833,300.64,67.30364583,70.09641304,45.43163158,27.8788125,28.98436957,33.38797368,32.6846087,28.06519444,302.68,302.72,308.16,307.66,298.78,4.794735623999999
285,67.30364583,27.8788125,302.68,70.09641304,45.43163158,50.65693478,28.98436957,33.38797368,32.6846087,28.06519444,30.752276600000002,302.72,308.16,307.66,298.78,306.34,5.629498677000001
286,56.343,12.6492,289.9,65.41631915,42.01506818,68.76980435,15.35944681,21.81095455,25.29054348,22.2099375,27.453125,296.38,301.06,302.84,303.48,303.4,1.1906672090000001
287,58.61009524,24.31542857,306.48,49.788243900000005,76.49310526,62.82939583,26.1324878,29.33465789,28.14395833,25.93504167,29.82306667,306.4,302.96,307.22,303.74,304.64,3.350701859
288,51.80417021,27.58202128,308.52,57.00192683,57.00192683,42.62380851,20.91673171,20.91673171,33.01676596,35.91626829,35.064,303.86,303.86,309.18,314.84,316.72,1.352136407
289,54.86378261,29.90332609,308.96,58.04129787,55.58304167,56.40465854,29.27642553,28.14841667,25.88087805,7.533186047,7.528484848,308.16,304.8,295.02,282.98,282.26,6.092205382
290,60.02263636,30.17088636,309.06,56.46265957,72.5544359,58.06785417,29.57191489,27.60905128,10.26920833,15.03603704,23.44213793,303.94,303.84,291.2,296.58,301.68,5.198583181
291,80.90904545,26.12022727,302.08,75.62921212,76.67788235,75.77664516,21.80954545,28.07617647,30.88345161,31.75448276,27.57275,301.86,301.46,301.7,307.2,303.22,5.50903211
292,41.7345,17.9029,295.12,55.78565116,45.456,47.51848276,8.958093023,5.45184375,7.7129310339999995,11.75715217,12.632525,288.62,281.68,281.36,292.14,295.28,1.757841391
293,70.01687805,31.943243900000002,303.76,76.01297727,77.76457143,71.83407317,29.22511364,30.26814286,33.659,29.79671739,27.02356522,296.18,301.18,308.22,301.12,301.64,6.285798482000001
294,51.740425,21.1481,306.94,63.85839474,60.9502093,66.34008889,24.21615789,13.21593023,11.62835556,19.97562791,3.849307692,299.8,293.74,290.8,301.86,282.96,3.444290555
295,72.5544359,27.60905128,303.84,58.06785417,52.14337037,48.89424138,10.26920833,15.03603704,23.44213793,21.20470968,20.90709375,291.2,296.58,301.68,295.1,297.86,1.630794274
296,75.62921212,21.80954545,301.86,76.67788235,75.77664516,65.06448276,28.07617647,30.88345161,31.75448276,27.57275,30.39866667,301.46,301.7,307.2,303.22,307.96,2.031114517
297,65.97368889,30.39866667,307.96,67.52115385,60.02263636,56.46265957,29.94779487,30.17088636,29.57191489,27.60905128,10.26920833,304.02,309.06,303.94,303.84,291.2,5.0712664610000004
298,64.4444375,27.2020625,304.02,57.97408333,65.47608696,74.36604167,24.6684375,29.76995652,26.94979167,29.51536957,26.46637778,300.8,303.64,303.96,302.24,304.74,6.402745205
299,65.06448276,31.75448276,307.2,80.97928571,65.97368889,67.52115385,27.57275,30.39866667,29.94779487,30.17088636,29.57191489,303.22,307.96,304.02,309.06,303.94,8.726468335
300,52.44334043,34.33019149,310.3,58.25125,61.83306522,63.03621277,33.37585417,34.04,33.95429787,33.76440909,33.0232,314.06,308.28,313.18,309.72,303.72,3.561968273
301,63.912,28.451999999999998,305.02,43.19428571,42.54588235,44.56,28.75285714,29.34058824,26.495,32.88833333,30.80454545,308.36,304.64,304.24,318.02,310.08,2.96074621
302,70.8295,24.6685,300.32,63.4925,58.73,47.64529412,27.49875,25.63826087,24.14352941,20.59695652,25.33608696,303.44,303.52,300.14,298.38,303.12,6.838315325
303,51.17347826,32.47478261,311.4,49.40545455,49.40545455,48.44136364,25.09863636,25.09863636,22.29545455,31.48130435,28.94133333,300.62,300.62,300.02,308.68,316.22,7.74835127
304,55.32416667,10.52683333,281.54,43.59533333,67.96615385,62.71631579,-2.929933333,9.933538462000001,14.98578947,14.88421053,16.24125,275.82,283.96,285.5,291.32,290.54,2.093080042
305,46.42272727,18.65059091,293.44,50.28208333,50.28208333,52.82227273,14.46558333,14.46558333,26.49727273,19.44772727,21.94823529,290.92,290.92,304.04,298.04,294.16,6.317776413
306,46.98904762,26.30904762,302.96,46.98904762,42.57380952,42.57380952,26.30904762,24.50380952,24.50380952,30.59333333,30.59333333,302.96,301.3,301.3,309.6,309.6,5.660154438999999
307,30.09941176,23.89294118,302.48,31.3715,30.10176471,30.50272727,21.8245,18.10647059,27.79363636,26.79529412,25.805238100000004,300.44,299.76,309.94,308.7,306.88,1.373088267
308,42.57380952,24.50380952,301.3,50.80428571,50.80428571,44.18590909,30.59333333,30.59333333,31.34409091,32.47478261,25.09863636,309.6,309.6,304.24,311.4,300.62,5.996501785
309,44.73653846,34.89346154,307.74,48.217391299999996,48.217391299999996,46.05346154,33.55521739,33.55521739,34.15538462,34.15538462,34.27384615,314.48,314.48,311.14,311.14,312.56,7.3189193029999995
310,55.34235294,31.45882353,303.62,37.235,58.739,63.805,36.88142857,33.9835,31.46083333,31.46083333,29.77625,312.36,312.04,309.36,309.36,307.02,10.45299382
311,55.196999999999996,28.9695,302.24,68.15100000000001,50.8755,59.045238100000006,21.273000000000003,25.7005,14.52690476,26.30904762,26.30904762,298.12,299.12,292.94,302.96,302.96,6.8156613770000005
312,50.28208333,14.46558333,290.92,50.28208333,52.82227273,36.12818182,14.46558333,26.49727273,19.44772727,21.94823529,21.94823529,290.92,304.04,298.04,294.16,294.16,6.333635857999999
313,18.77533333,13.5208,295.58,18.77533333,32.48571429,24.67153846,13.5208,15.028761900000001,13.55115385,13.55115385,10.99855,295.58,292.88,290.78,290.78,290.16,2.8622684830000003
314,47.91,32.2,308.78,47.88958333,54.11600000000001,55.75153846,34.56291667,32.2476,30.85230769,30.63,36.38958333,306.92,312.02,314.2,311.98,318.5,8.674006362
315,25.94571429,8.758071429,285.44,43.90133333,55.32416667,43.59533333,7.770466667000001,10.52683333,-2.929933333,9.933538462000001,14.98578947,283.86,281.54,275.82,283.96,285.5,1.250586084
316,58.73,25.63826087,303.52,47.64529412,47.98173913,56.107391299999996,24.14352941,20.59695652,25.33608696,26.57863636,26.57863636,300.14,298.38,303.12,302.26,302.26,9.912379699
317,42.33833333,13.6685,287.94,67.73764706,30.09941176,31.3715,23.33529412,23.89294118,21.8245,18.10647059,27.79363636,300.3,302.48,300.44,299.76,309.94,1.722808636
318,51.6975,23.1825,300.26,52.66466667,53.53454545,63.912,21.38933333,30.92545455,28.451999999999998,28.75285714,29.34058824,295.32,311.04,305.02,308.36,304.64,2.282593806
319,30.50272727,27.79363636,309.94,29.52294118,21.49428571,45.42210526,26.79529412,25.805238100000004,29.67631579,23.1825,21.38933333,308.7,306.88,304.9,300.26,295.32,1.71625269
320,21.49428571,25.805238100000004,306.88,45.42210526,51.6975,52.66466667,29.67631579,23.1825,21.38933333,30.92545455,28.451999999999998,304.9,300.26,295.32,311.04,305.02,2.7742990919999997
321,30.70894737,15.96626316,296.46,30.70894737,32.78,57.665,15.96626316,10.26063636,3.238,7.9925625,2.1972,296.46,291.2,289.2,291.58,291.42,3.360411763
322,47.88958333,34.56291667,306.92,54.11600000000001,55.75153846,61.56142857,32.2476,30.85230769,30.63,36.38958333,34.73217391,312.02,314.2,311.98,318.5,312.88,7.029761477999999
323,50.16555556,1.780611111,281.1,45.52210526,33.64,42.40647059,8.025105263,14.2394375,8.540823528999999,5.790058824,3.619588235,284.54,286.76,282.34,280.62,279.54,1.164955859
324,59.045238100000006,14.52690476,292.94,46.98904762,46.98904762,42.57380952,26.30904762,26.30904762,24.50380952,24.50380952,30.59333333,302.96,302.96,301.3,301.3,309.6,4.599876939
325,48.16217391,29.44869565,310.9,44.58708333,39.22368421,43.9732,35.44916667,35.47684211,34.5572,36.61294118,37.31,313.48,312.8,309.9,314.8,320.2,10.67252267
326,38.69833333,36.38958333,318.5,49.58521739,55.25333333,74.035,34.73217391,30.27,27.745,32.008,30.4675,312.88,313.62,316.98,315.76,308.0,7.370383332
327,53.82647059,21.94823529,294.16,61.08636364,50.44894737,42.418,18.64540909,7.846842105,7.6285,13.5208,13.5208,295.04,285.8,287.78,295.58,295.58,2.255408994
328,47.4135,34.0565,298.8,49.90375,46.37,60.55888889,31.80125,32.74285714,30.3,11.97104167,-1.9672916669999998,310.28,315.48,310.26,288.7,271.48,13.81684295
329,39.22368421,35.47684211,312.8,43.9732,36.01176471,31.846,34.5572,36.61294118,37.31,37.1764,35.7556,309.9,314.8,320.2,312.9,321.96,10.44293143
330,62.73130435,30.30695652,306.26,51.7148,47.4135,49.90375,33.6216,34.0565,31.80125,32.74285714,30.3,309.94,298.8,310.28,315.48,310.26,9.525904826
331,39.28296296,31.14777778,311.66,34.25916667,51.39388889,62.85777778,29.1075,27.14722222,29.69962963,18.773,25.85409091,305.38,305.0,307.94,296.56,300.18,9.415731922
332,52.05473684,25.87421053,303.58,40.07625,43.16705882,54.74,23.4025,18.60529412,16.97894737,23.00947368,29.9525,299.2,296.82,297.02,301.42,297.98,3.748407846
333,30.70894737,15.96626316,296.46,32.78,57.665,39.69375,10.26063636,3.238,7.9925625,2.1972,6.5190555560000005,291.2,289.2,291.58,291.42,282.36,3.360411763
334,39.45434783,17.90521739,296.86,59.27791667,46.42272727,50.28208333,22.68,18.65059091,14.46558333,14.46558333,26.49727273,298.42,293.44,290.92,290.92,304.04,5.299572671
335,47.64529412,24.14352941,300.14,47.98173913,56.107391299999996,48.30772727,20.59695652,25.33608696,26.57863636,26.57863636,18.37761905,298.38,303.12,302.26,302.26,292.02,9.582663712999999
336,39.45434783,17.90521739,296.86,39.45434783,59.27791667,46.42272727,17.90521739,22.68,18.65059091,14.46558333,14.46558333,296.86,298.42,293.44,290.92,290.92,5.299572671
337,62.85777778,29.69962963,307.94,53.821000000000005,45.48363636,28.73375,18.773,25.85409091,19.99495833,18.39625,18.39625,296.56,300.18,302.4,295.48,295.48,8.637064871
338,50.80428571,30.59333333,309.6,44.18590909,51.17347826,49.40545455,31.34409091,32.47478261,25.09863636,25.09863636,22.29545455,304.24,311.4,300.62,300.62,300.02,5.505749282000001
339,46.243125,19.32125,296.16,58.6972,47.5452381,70.8295,16.1836,23.82904762,24.6685,27.49875,25.63826087,293.38,297.0,300.32,303.44,303.52,7.026508395
340,57.06,14.7635,299.5,30.70894737,30.70894737,32.78,15.96626316,15.96626316,10.26063636,3.238,7.9925625,296.46,296.46,291.2,289.2,291.58,1.911697521
341,62.71631579,14.98578947,285.5,58.24263158,69.55875,52.05473684,14.88421053,16.24125,25.87421053,23.4025,18.60529412,291.32,290.54,303.58,299.2,296.82,2.6193829180000003
342,51.39388889,27.14722222,305.0,62.85777778,53.821000000000005,45.48363636,29.69962963,18.773,25.85409091,19.99495833,18.39625,307.94,296.56,300.18,302.4,295.48,8.948390722000001
343,30.60086957,22.37,302.9,25.19166667,33.86222222,39.08052632,23.90166667,14.60055556,12.67247368,14.61022727,18.19444444,303.22,298.86,292.84,295.7,293.1,3.995720608
344,18.77533333,13.5208,295.58,32.48571429,24.67153846,24.67153846,15.028761900000001,13.55115385,13.55115385,10.99855,10.99855,292.88,290.78,290.78,290.16,290.16,2.8622684830000003
345,44.58708333,35.44916667,313.48,39.22368421,43.9732,36.01176471,35.47684211,34.5572,36.61294118,37.31,37.1764,312.8,309.9,314.8,320.2,312.9,11.50190217
346,49.90375,31.80125,310.28,46.37,60.55888889,54.55145833,32.74285714,30.3,11.97104167,-1.9672916669999998,7.804583332999999,315.48,310.26,288.7,271.48,281.86,2.346512856
347,54.11600000000001,32.2476,312.02,55.75153846,61.56142857,38.69833333,30.85230769,30.63,36.38958333,34.73217391,30.27,314.2,311.98,318.5,312.88,313.62,6.04291545
348,48.52259259,31.86481481,308.02,46.52666667,39.28296296,34.25916667,30.92958333,31.14777778,29.1075,27.14722222,29.69962963,301.08,311.66,305.38,305.0,307.94,7.77926465
349,28.73375,19.99495833,302.4,29.98666667,29.98666667,32.53375,18.39625,18.39625,25.05833333,22.37,23.90166667,295.48,295.48,304.16,302.9,303.22,3.98884009
350,42.54588235,29.34058824,304.64,44.56,47.34166667,56.21909091,26.495,32.88833333,30.80454545,30.80454545,30.35,304.24,318.02,310.08,310.08,308.38,7.022722207999999
351,47.677,32.008,315.76,62.44785714,48.97,50.06217391,30.4675,34.74346154,33.70130435,36.06083333,32.56,308.0,316.76,312.5,312.04,312.8,11.02531416
352,59.1725,29.77625,307.02,59.1725,62.73130435,51.7148,29.77625,30.30695652,33.6216,34.0565,31.80125,307.02,306.26,309.94,298.8,310.28,10.70157127
353,67.96615385,9.933538462000001,283.96,62.71631579,58.24263158,69.55875,14.98578947,14.88421053,16.24125,25.87421053,23.4025,285.5,291.32,290.54,303.58,299.2,3.0351732869999997
354,46.37,32.74285714,315.48,60.55888889,54.55145833,80.619375,30.3,11.97104167,-1.9672916669999998,7.804583332999999,13.53458333,310.26,288.7,271.48,281.86,292.6,3.66682279
355,45.04210526,31.67473684,314.1,48.16217391,44.58708333,39.22368421,29.44869565,35.44916667,35.47684211,34.5572,36.61294118,310.9,313.48,312.8,309.9,314.8,9.138089181
356,54.44111111,27.796296299999998,306.02,54.44111111,55.83846154,54.91583333,27.796296299999998,27.09153846,16.73583333,19.32125,19.32125,306.02,307.1,296.32,296.16,296.16,6.537577527000001
357,47.94875,36.06083333,312.04,44.4568,56.26178571,48.52259259,32.56,30.125,31.86481481,30.92958333,31.14777778,312.8,308.62,308.02,301.08,311.66,9.637051138
358,63.545,0.809854167,277.88,74.84729167,80.34395833,59.97593617,7.3688125,7.858541667000001,23.71157447,27.58202128,20.91673171,278.56,280.06,304.46,308.52,303.86,1.961184778
359,80.34395833,7.858541667000001,280.06,59.97593617,51.80417021,57.00192683,23.71157447,27.58202128,20.91673171,20.91673171,33.01676596,304.46,308.52,303.86,303.86,309.18,2.009880381
360,83.13229167,24.78083333,302.5,84.06208333,47.90219565,58.29191489,24.94708333,16.54673913,15.95597872,21.0042766,19.23297872,304.1,304.98,301.9,307.34,304.7,1.3177411829999999
361,79.93436170000001,20.25089362,302.78,79.93436170000001,85.227,50.55087234,20.25089362,19.85964583,6.817042552999999,14.307375,11.21895745,302.78,303.48,292.32,295.78,297.32,1.750527021
362,54.24889362,30.60595745,312.8,33.170125,80.69934043,42.81735417,32.14658333,23.75176596,28.5253125,28.11114583,21.0915,314.6,310.16,316.3,317.78,307.1,4.119309473
363,55.93729167,30.44397917,316.56,82.66458333,60.92625,61.41333333,29.20729167,29.97625,29.161875,28.869375,29.09020833,312.96,313.58,312.38,309.8,314.16,3.9868349860000003
364,78.54342553,27.65255319,308.84,76.70597872,69.89319149,80.20770833,27.47723404,28.61257447,23.31354167,25.38770833,24.78083333,310.58,309.46,308.82,307.3,302.5,3.6391725060000004
365,37.01042553,33.59831915,319.1,35.16166667,31.51291667,29.4623125,33.11689583,34.23958333,35.46125,29.15791667,31.13229167,319.72,320.64,319.1,307.72,317.94,1.594017765
366,37.405625,17.62122917,305.22,42.81034043,60.2431875,72.50778723,24.91229787,19.49502083,4.369957447,18.61965957,18.61965957,313.28,303.96,287.92,291.04,291.04,1.2184645490000001
367,42.95195745,15.11176596,302.48,65.76597872,61.74460417,69.6979375,8.589085106,10.80995833,6.79275,16.44458333,25.20191489,290.62,290.54,287.88,297.02,311.56,1.7847943990000001
368,50.2402766,16.275,298.54,70.87426087,54.25977083,62.27210638,21.5645,24.20320833,24.12189362,20.74340426,19.42334783,298.96,309.62,306.9,306.1,303.1,1.216963423
369,83.1205,19.42334783,303.1,87.52310417,79.93436170000001,79.93436170000001,20.31172917,20.25089362,20.25089362,19.85964583,6.817042552999999,300.42,302.78,302.78,303.48,292.32,2.991980088
370,58.8025,29.16791667,314.08,61.07770213,56.38186364,56.38186364,28.86,4.909090909,4.909090909,14.56190476,9.892000000000001,317.48,281.84,281.84,288.68,291.9,2.607469469
371,43.27416667,16.44458333,297.02,51.13170213,67.5487234,50.0404375,25.20191489,28.80191489,30.48895833,33.59831915,33.11689583,311.56,314.38,317.18,319.1,319.72,1.4124330369999998
372,35.153125,35.2449375,320.2,41.88510417,42.39452083,44.89525,30.88616667,31.78991667,31.90064583,31.767875,28.77104167,320.02,315.44,318.98,314.72,317.16,2.019271309
373,42.81735417,28.5253125,316.3,46.38266667,41.3615,33.9580625,28.11114583,21.0915,18.5750625,18.5750625,14.7485625,317.78,307.1,304.26,304.26,302.1,1.83088433
374,42.91808333,28.77104167,317.16,43.20802083,45.56,54.24889362,32.00545833,30.91008333,30.60595745,32.14658333,23.75176596,315.16,316.46,312.8,314.6,310.16,1.036003351
375,45.56,30.91008333,316.46,54.24889362,33.170125,80.69934043,30.60595745,32.14658333,23.75176596,28.5253125,28.11114583,312.8,314.6,310.16,316.3,317.78,3.501481948
376,68.7275,28.52460417,313.84,58.8025,61.07770213,56.38186364,29.16791667,28.86,4.909090909,4.909090909,14.56190476,314.08,317.48,281.84,281.84,288.68,3.360169953
377,64.10625,29.216875,310.38,65.57835417,55.93729167,82.66458333,29.851875,30.44397917,29.20729167,29.97625,29.161875,310.1,316.56,312.96,313.58,312.38,2.85214509
378,39.43897917,9.400708332999999,293.32,50.39475,52.38226087,35.153125,10.47502083,30.25721739,35.2449375,30.88616667,31.78991667,289.18,316.54,320.2,320.02,315.44,1.259057783
379,87.52310417,20.31172917,300.42,79.93436170000001,79.93436170000001,85.227,20.25089362,20.25089362,19.85964583,6.817042552999999,14.307375,302.78,302.78,303.48,292.32,295.78,1.307679682
380,41.76219149,18.61965957,291.04,41.76219149,77.718125,66.73151064,18.61965957,25.116875,25.63340426,27.054375,28.1785625,291.04,306.94,305.0,313.82,312.36,1.275646818
381,42.91808333,28.77104167,317.16,42.91808333,43.20802083,45.56,28.77104167,32.00545833,30.91008333,30.60595745,32.14658333,317.16,315.16,316.46,312.8,314.6,1.036003351
382,69.89319149,28.61257447,309.46,80.20770833,75.6260625,83.13229167,23.31354167,25.38770833,24.78083333,24.94708333,16.54673913,308.82,307.3,302.5,304.1,304.98,4.141158526
383,69.80814583,27.96397917,310.52,78.54342553,76.70597872,69.89319149,27.65255319,27.47723404,28.61257447,23.31354167,25.38770833,308.84,310.58,309.46,308.82,307.3,4.967390453999999
384,85.227,19.85964583,303.48,50.55087234,33.46466667,37.85859574,6.817042552999999,14.307375,11.21895745,9.400708332999999,10.47502083,292.32,295.78,297.32,293.32,289.18,1.386127748
385,42.81034043,24.91229787,313.28,60.2431875,72.50778723,41.76219149,19.49502083,4.369957447,18.61965957,18.61965957,25.116875,303.96,287.92,291.04,291.04,306.94,1.157801543
386,33.46466667,14.307375,295.78,37.85859574,39.43897917,50.39475,11.21895745,9.400708332999999,10.47502083,30.25721739,35.2449375,297.32,293.32,289.18,316.54,320.2,1.480421723
387,77.718125,25.116875,306.94,66.73151064,42.34541667,42.98416667,25.63340426,27.054375,28.1785625,26.11625,29.70041667,305.0,313.82,312.36,306.86,312.8,2.412129819
388,47.90219565,16.54673913,304.98,58.29191489,56.36468085,35.96746809,15.95597872,21.0042766,19.23297872,12.91682979,24.05127083,301.9,307.34,304.7,300.0,311.96,1.280228176
389,56.705,26.99,299.36,56.705,35.61,27.7,26.99,20.47,20.91,21.69,16.43,299.36,296.54,295.16,293.24,291.28,6.53395351
390,34.1775,30.6175,306.8,64.575,48.69909091,31.11,23.24125,23.59863636,27.355,19.39,22.99434783,298.3,299.54,303.02,301.32,298.34,1.811335935
391,35.06333333,14.91,296.42,35.06333333,34.1775,64.575,14.91,30.6175,23.24125,23.59863636,27.355,296.42,306.8,298.3,299.54,303.02,1.362742621
392,41.83111111,10.93033333,289.96,45.00823529,26.29153846,62.96,13.79152941,17.71384615,6.406000000000001,9.346454545,14.16657143,296.56,293.84,287.94,293.26,291.92,1.774428614
393,48.71052632,29.06368421,299.42,55.443000000000005,67.76,50.21368421,28.787,21.14611111,25.29157895,26.428,25.9385,302.92,298.04,300.28,297.4,301.1,6.582772632999999
394,48.508,25.9385,301.1,48.508,47.67842105,50.86571429,25.9385,23.65263158,29.93714286,30.8995,32.58315789,301.1,300.62,302.24,303.32,309.1,4.976261429
395,48.688,34.0216,315.32,53.11238095,44.998999999999995,57.72541667,34.69666667,32.5795,29.67375,14.91,14.91,315.42,315.76,316.44,296.42,296.42,11.22582567
396,32.89736842,18.91578947,297.04,26.88444444,38.53,56.206,19.67222222,3.63175,5.8728,5.329,2.409714286,293.14,281.84,285.38,281.16,279.1,1.9502358569999998
397,52.65944444,31.855,305.18,57.75176471,54.8375,38.48681818,29.62,31.44166667,34.835,34.64333333,29.99653846,300.26,304.68,316.86,321.08,312.36,5.3579159039999995
398,39.59,22.79,294.4,30.435,62.135,56.29,20.435,23.725,26.41,23.8875,26.99,293.46,298.74,300.64,295.7,299.36,14.82217494
399,59.46052632,27.72315789,302.32,55.801,44.7795,57.11190476,23.7285,24.131,27.0447619,23.07736842,29.64285714,299.2,298.54,299.78,298.48,303.9,5.303798561
400,43.24,27.69,303.04,36.2,41.16,39.59,29.3,19.5,22.79,20.435,23.725,303.0,292.4,294.4,293.46,298.74,9.209125151
401,36.67,17.69857143,295.48,40.9375,50.63416667,51.87333333,25.45083333,16.14583333,15.57733333,21.23666667,6.345272727,294.48,288.96,291.8,296.02,290.16,3.891369015
402,35.94545455,9.346454545,293.26,35.4547619,57.39,57.39,14.16657143,2.375571429,2.375571429,8.621076923,17.69857143,291.92,290.58,290.58,294.18,295.48,1.509367771
403,68.506,24.484,294.0,40.67473684,40.67473684,44.2545,22.57578947,22.57578947,19.9745,14.9635,29.15333333,294.06,294.06,297.18,293.26,302.64,4.582713467
404,53.11238095,34.69666667,315.42,44.998999999999995,57.72541667,35.06333333,32.5795,29.67375,14.91,14.91,30.6175,315.76,316.44,296.42,296.42,306.8,11.93214424
405,40.67473684,22.57578947,294.06,40.67473684,44.2545,49.578,22.57578947,19.9745,14.9635,29.15333333,27.72315789,294.06,297.18,293.26,302.64,302.32,4.519146222
406,48.508,25.9385,301.1,47.67842105,50.86571429,45.617,23.65263158,29.93714286,30.8995,32.58315789,34.89785714,300.62,302.24,303.32,309.1,306.54,4.976261429
407,50.571999999999996,34.1984,318.78,48.688,53.11238095,44.998999999999995,34.0216,34.69666667,32.5795,29.67375,14.91,315.32,315.42,315.76,316.44,296.42,11.50308902
408,53.57736842,16.92578947,297.5,34.42888889,34.42888889,48.71052632,22.88777778,22.88777778,29.06368421,28.787,21.14611111,301.46,301.46,299.42,302.92,298.04,3.741326982
409,48.34473684,19.39,301.32,58.34565217,47.061875,47.061875,22.99434783,23.54375,23.54375,10.226,24.28894737,298.34,300.4,300.4,297.2,305.22,5.983318315
410,51.87333333,15.57733333,291.8,16.985,47.77272727,36.3915,21.23666667,6.345272727,18.2241,18.91578947,19.67222222,296.02,290.16,296.52,297.04,293.14,4.309901699
411,41.404375,17.993125,297.16,53.57736842,34.42888889,34.42888889,16.92578947,22.88777778,22.88777778,29.06368421,28.787,297.5,301.46,301.46,299.42,302.92,3.106817298
412,26.88444444,19.67222222,293.14,38.53,56.206,42.65363636,3.63175,5.8728,5.329,2.409714286,3.631360833,281.84,285.38,281.16,279.1,280.64,2.1546407569999997
413,47.77272727,6.345272727,290.16,36.3915,32.89736842,26.88444444,18.2241,18.91578947,19.67222222,3.63175,5.8728,296.52,297.04,293.14,281.84,285.38,1.446869098
414,36.2,29.3,303.0,41.16,39.59,30.435,19.5,22.79,20.435,23.725,26.41,292.4,294.4,293.46,298.74,300.64,11.89806112
415,31.67076923,8.621076923,294.18,36.67,40.9375,50.63416667,17.69857143,25.45083333,16.14583333,15.57733333,21.23666667,295.48,294.48,288.96,291.8,296.02,1.83007482
416,45.617,30.8995,303.32,51.04473684,39.83642857,48.992,32.58315789,34.89785714,25.175,31.3852381,31.855,309.1,306.54,299.96,305.76,305.18,4.648168523
417,38.21,29.7,304.26,83.35,38.448,41.404375,7.699,23.331,17.993125,16.92578947,22.88777778,285.28,299.3,297.16,297.5,301.46,3.2688294069999997
418,62.135,23.725,298.74,56.29,62.5125,56.705,26.41,23.8875,26.99,26.99,20.47,300.64,295.7,299.36,299.36,296.54,8.697517813
419,54.8375,31.44166667,304.68,38.48681818,36.45238095,62.95115385,34.835,34.64333333,29.99653846,34.1984,34.1984,316.86,321.08,312.36,318.78,318.78,14.45886073
420,53.48526316,23.07736842,298.48,53.13857143,58.32047619,58.08142857,29.64285714,30.1047619,31.97,31.97,30.39954545,303.9,302.98,306.78,306.78,309.5,7.173321595
421,79.98916667,1.483541667,277.82,78.85958333,60.49333333,78.6825,-0.211875,7.971458332999999,10.29083333,12.960625,15.874375,270.0,281.26,285.84,282.54,292.62,3.5426989910000004
422,58.2435155,4.179854187,281.54,56.36050298,86.48021531,53.73281317,11.23319444,9.625326438,-4.942562562,17.42944448,10.74508348,290.74,286.0,268.96,292.6,284.32,2.010927056
423,70.64270833,3.019375,278.26,79.799375,81.120625,50.58104167,1.64125,4.013333333,7.071041667,7.071041667,5.2175,274.7,275.94,280.18,280.18,279.22,1.77300846
424,72.7575,1.1129166670000001,276.36,82.418125,68.48541667,60.60375,6.261458332999999,13.86166667,17.681875,14.24979167,15.90645833,284.26,291.96,300.58,293.1,296.92,1.3683625019999999
425,69.22645833,13.03791667,288.5,71.145,65.9125,65.9125,10.98125,17.32979167,17.32979167,13.00635417,10.94797917,285.28,292.62,292.62,290.16,291.46,1.429450251
426,67.874375,8.083333332999999,285.2,78.496875,52.90041667,67.220625,12.12666667,10.103125,9.310208333,1.9702083330000002,9.511041667,284.64,286.84,285.82,282.0,292.4,2.280227408
427,70.88166667,16.68416667,291.42,76.3975,45.628125,51.58354167,9.722708333,14.35645833,11.68770833,5.058125,5.105416667,287.08,292.14,290.48,281.6,281.36,1.967516983
428,71.145,10.98125,285.28,65.9125,65.9125,70.18,17.32979167,17.32979167,13.00635417,10.94797917,10.94797917,292.62,292.62,290.16,291.46,291.46,3.24183804
429,63.283125,4.847708333,278.4,60.710625,76.41104167,57.43583333,7.877083333,1.250625,17.285,7.273125,8.083333332999999,284.44,272.32,291.78,283.62,285.2,5.7629181460000005
430,60.60375,17.681875,300.58,59.66958333,51.780625,61.61625,14.24979167,15.90645833,7.300833333,5.625833332999999,12.12374996,293.1,296.92,283.56,280.28,284.22,4.684495706
431,62.48979167,13.53458333,292.6,85.72666667,65.02166667,54.43,14.23916667,11.97020833,9.078541667,4.847708333,7.877083333,290.76,293.94,286.44,278.4,284.44,2.261614625
432,50.58104167,7.071041667,280.18,50.58104167,85.97375,78.05125,7.071041667,5.2175,8.523541667,8.679375,5.395416667,280.18,279.22,284.82,285.16,286.04,3.895078683
433,65.23416667,4.7925,279.32,72.7575,82.418125,68.48541667,1.1129166670000001,6.261458332999999,13.86166667,17.681875,14.24979167,276.36,284.26,291.96,300.58,293.1,1.7453838640000001
434,80.619375,-1.9672916669999998,271.48,88.03083333,62.48979167,85.72666667,7.804583332999999,13.53458333,14.23916667,11.97020833,9.078541667,281.86,292.6,290.76,293.94,286.44,1.25494317
435,60.710625,7.877083333,284.44,76.41104167,57.43583333,57.63625,1.250625,17.285,7.273125,8.083333332999999,12.12666667,272.32,291.78,283.62,285.2,284.64,6.251850071000001
436,78.6825,10.29083333,285.84,77.548125,72.13395833,70.88166667,12.960625,15.874375,16.68416667,9.722708333,14.35645833,282.54,292.62,291.42,287.08,292.14,2.163820495
437,57.63625,7.273125,283.62,67.874375,78.496875,52.90041667,8.083333332999999,12.12666667,10.103125,9.310208333,1.9702083330000002,285.2,284.64,286.84,285.82,282.0,2.812096107
438,54.43,9.078541667,286.44,63.283125,60.710625,76.41104167,4.847708333,7.877083333,1.250625,17.285,7.273125,278.4,284.44,272.32,291.78,283.62,3.5287661210000003
439,48.44722221,16.73736108,292.88,48.44722221,58.2435155,56.36050298,16.73736108,4.179854187,11.23319444,9.625326438,-4.942562562,292.88,281.54,290.74,286.0,268.96,4.264884009
440,68.48541667,13.86166667,291.96,60.60375,59.66958333,51.780625,17.681875,14.24979167,15.90645833,7.300833333,5.625833332999999,300.58,293.1,296.92,283.56,280.28,1.667347036
441,65.13638044,3.2869167289999996,278.2,92.30306917,85.39543121,68.2255584,3.50877775,11.21951381,11.37673617,10.24920831,9.773055521,275.76,290.8,289.66,292.08,283.28,1.182765158
442,64.57625,1.375625,280.94,63.57833333,65.23416667,72.7575,9.086666667000001,4.7925,1.1129166670000001,6.261458332999999,13.86166667,290.3,279.32,276.36,284.26,291.96,2.332652186
443,71.92771543,15.98354167,295.88,72.81479775,76.41809985,74.82173816,14.52944445,12.56694445,15.06631946,7.651756957000001,5.760048599999999,291.42,289.58,288.52,287.28,279.04,5.368312138
444,54.55145833,11.97104167,288.7,80.619375,88.03083333,62.48979167,-1.9672916669999998,7.804583332999999,13.53458333,14.23916667,11.97020833,271.48,281.86,292.6,290.76,293.94,3.42968857
445,85.97375,5.2175,279.22,78.05125,85.65625,61.60854167,8.523541667,8.679375,5.395416667,11.986875,9.008125,284.82,285.16,286.04,283.04,273.74,1.407266124
446,83.62284433,2.3889513890000003,276.54,74.30879158,71.92771543,72.81479775,2.733034731,15.98354167,14.52944445,12.56694445,15.06631946,276.32,295.88,291.42,289.58,288.52,1.1262253979999999
447,50.58104167,7.071041667,280.18,85.97375,78.05125,85.65625,5.2175,8.523541667,8.679375,5.395416667,11.986875,279.22,284.82,285.16,286.04,283.04,3.895078683
448,78.496875,12.12666667,284.64,52.90041667,67.220625,70.313125,10.103125,9.310208333,1.9702083330000002,9.511041667,6.950416667000001,286.84,285.82,282.0,292.4,278.58,1.218231861
449,66.81104167,9.008125,273.74,74.353125,73.625625,57.16458333,6.959166667000001,12.01104167,16.60583333,16.60583333,20.38645833,281.06,289.82,294.24,294.24,300.5,3.291348855
450,68.42833333,13.025625,299.18,68.42833333,67.09729167,64.2006383,13.025625,14.64270833,12.216,13.16047619,9.922041667,299.18,302.0,296.12,297.14,292.68,2.8032983280000003
451,61.68541667,19.404375,315.42,67.36042553,39.02028571,45.63083333,16.83361702,26.99,21.66,17.75125,20.51319149,313.38,316.7,314.9,308.0,310.36,2.1843228569999997
452,65.27511111,19.50888889,313.08,56.39729167,33.29357143,54.09604167,21.309375,28.69952381,19.50229167,20.7423913,19.404375,304.72,315.0,311.9,305.48,315.42,3.7989064139999997
453,45.63083333,21.66,314.9,44.71145833,47.33680851,58.828,17.75125,20.51319149,18.32488889,19.42181818,22.14458333,308.0,310.36,314.26,312.02,314.74,1.446911518
454,63.87204545,15.04913636,304.82,60.11042553,64.29041667,68.42833333,14.69212766,13.33041667,13.025625,13.025625,14.64270833,303.96,302.76,299.18,299.18,302.0,2.648324331
455,56.15625,9.0005,288.68,64.20375,54.36777778,39.84152174,8.991270833,13.20844444,11.27582609,8.655782609,20.00113636,287.28,292.48,286.92,286.38,300.44,3.2302804860000003
456,56.59260870000001,21.435,303.48,52.88729167,52.88729167,70.795,22.89333333,22.89333333,18.76541667,21.9025,19.50888889,299.8,299.8,306.16,307.7,313.08,6.243894578
457,62.844375,17.42729167,304.0,50.87228571,63.656875,70.61847826,20.39171429,15.29270833,14.01978261,15.04913636,15.04913636,307.9,303.98,300.6,304.82,304.82,2.4771501330000003
458,60.11042553,14.69212766,303.96,64.29041667,68.42833333,68.42833333,13.33041667,13.025625,13.025625,14.64270833,12.216,302.76,299.18,299.18,302.0,296.12,2.5477499569999997
459,59.93729167,22.27458333,303.04,54.14041667,56.59260870000001,52.88729167,22.63979167,21.435,22.89333333,22.89333333,18.76541667,302.36,303.48,299.8,299.8,306.16,6.5462200489999995
460,44.56863636,6.842636364,287.54,54.35520833,70.07045455,67.55541667,4.468416667,5.987954545,9.4005625,9.0005,8.991270833,284.84,290.28,289.4,288.68,287.28,3.900194178
461,59.05479167,21.9025,307.7,65.27511111,56.39729167,33.29357143,19.50888889,21.309375,28.69952381,19.50229167,20.7423913,313.08,304.72,315.0,311.9,305.48,4.588281648
462,47.23641026,20.56076923,310.34,47.23641026,62.844375,50.87228571,20.56076923,17.42729167,20.39171429,15.29270833,14.01978261,310.34,304.0,307.9,303.98,300.6,1.713794113
463,54.35520833,4.468416667,284.84,70.07045455,67.55541667,56.15625,5.987954545,9.4005625,9.0005,8.991270833,13.20844444,290.28,289.4,288.68,287.28,292.48,2.893212908
464,55.35083333,10.38329167,292.78,55.35083333,44.56863636,54.35520833,10.38329167,6.842636364,4.468416667,5.987954545,9.4005625,292.78,287.54,284.84,290.28,289.4,4.627511487
465,58.828,18.32488889,314.26,47.42545455,40.935625,40.935625,19.42181818,22.14458333,22.14458333,20.56076923,20.56076923,312.02,314.74,314.74,310.34,310.34,1.238031626
466,68.47208333,17.89104167,299.26,26.78487179,59.93729167,54.14041667,18.54307692,22.27458333,22.63979167,21.435,22.89333333,299.8,303.04,302.36,303.48,299.8,1.129186419
467,63.998125,8.621875,289.42,63.4698125,69.28625,67.98520833,19.99770833,15.1906875,24.68416667,32.77979167,29.52916667,298.6,297.1,310.92,320.48,308.24,1.282881868
468,59.97770833,29.42833333,317.98,72.6148125,60.12397917,64.784375,30.630625,29.62,29.231875,29.53272917,29.16064583,316.46,318.38,307.78,312.88,310.28,1.3865415019999998
469,67.98520833,24.68416667,310.92,34.41541667,61.389375,62.88960417,32.77979167,29.52916667,26.73064583,30.64479167,30.284375,320.48,308.24,315.92,310.86,314.56,1.183793111
470,49.97489583,30.49160417,317.66,56.34933333,52.79383333,35.3031875,30.05958333,28.48325,34.73402083,28.91964583,17.90433333,308.46,313.86,322.9,314.18,307.32,2.976706954
471,65.491875,29.16064583,310.28,68.04354167,65.14354167,66.82645833,29.15583333,28.75833333,28.24691667,28.94041667,28.50170833,314.94,308.06,310.38,307.98,314.28,4.684942743
472,58.58416667,29.53272917,312.88,65.491875,68.04354167,65.14354167,29.16064583,29.15583333,28.75833333,28.24691667,28.94041667,310.28,314.94,308.06,310.38,307.98,4.316650074
473,69.44545833,20.30975,303.22,80.17291667,62.93220833,62.93220833,19.705625,17.32835417,17.32835417,7.1094166670000005,13.00420833,303.52,303.2,303.2,287.84,290.82,1.436616881
474,57.53770833,29.02395833,305.4,49.59520833,60.32479167,54.85875,27.874375,23.19270833,25.17375,21.3166875,20.97666667,310.12,311.82,309.14,305.2,306.6,1.5758753719999998
475,41.72666667,21.1366875,314.12,52.0285625,53.59420833,32.7123125,24.41416667,20.73375,14.10175,22.57479167,8.621875,307.02,306.96,301.72,311.18,289.42,1.9934122909999998
476,66.15583333,29.023125,316.84,77.76104167,73.70002083,73.70002083,23.04354167,25.44916667,25.44916667,25.393125,13.80022917,308.14,309.82,309.82,298.86,306.8,2.139160177
477,45.20166667,30.64479167,310.86,44.08645833,68.41272917,57.53770833,30.284375,28.13645833,29.02395833,27.874375,23.19270833,314.56,308.54,305.4,310.12,311.82,1.434331443
478,66.29829167,22.0960625,306.28,66.29829167,81.73525,69.44545833,22.0960625,20.1050625,20.30975,19.705625,17.32835417,306.28,304.82,303.22,303.52,303.2,2.61395965
479,72.718125,16.91229167,300.34,59.97770833,72.6148125,60.12397917,29.42833333,30.630625,29.62,29.231875,29.53272917,317.98,316.46,318.38,307.78,312.88,1.082093707
480,62.186875,28.94041667,307.98,70.215625,66.15583333,77.76104167,28.50170833,29.023125,23.04354167,25.44916667,25.44916667,314.28,316.84,308.14,309.82,309.82,1.912080491
481,65.05354167,14.49145833,296.1,68.506,40.67473684,40.67473684,24.484,22.57578947,22.57578947,19.9745,14.9635,294.0,294.06,294.06,297.18,293.26,2.321589495
482,62.88960417,26.73064583,315.92,45.20166667,44.08645833,68.41272917,30.64479167,30.284375,28.13645833,29.02395833,27.874375,310.86,314.56,308.54,305.4,310.12,1.276344767
483,38.60827083,14.25164583,303.48,37.91304167,36.464375,53.92689583,21.85652083,17.28141667,19.72670833,20.82295833,4.31275,304.72,305.12,300.54,300.26,287.18,1.744612122
484,62.93220833,17.32835417,303.2,77.610125,70.22233333,72.7384375,7.1094166670000005,13.00420833,5.8654375,33.11379167,30.49160417,287.84,290.82,285.8,322.02,317.66,1.5598347590000001
485,69.01041667,20.82295833,300.26,70.33122917,59.45379167,72.718125,4.31275,11.31058333,16.91229167,29.42833333,30.630625,287.18,289.54,300.34,317.98,316.46,2.1255002569999997
486,77.610125,7.1094166670000005,287.84,70.22233333,72.7384375,36.68054167,13.00420833,5.8654375,33.11379167,30.49160417,30.05958333,290.82,285.8,322.02,317.66,308.46,1.117062614
487,60.51958333,19.320625,307.42,65.05354167,68.506,40.67473684,14.49145833,24.484,22.57578947,22.57578947,19.9745,296.1,294.0,294.06,294.06,297.18,1.457152622
488,51.1375,21.28125,303.86,51.31458333,37.19791667,39.87291667,18.775,31.1,29.64166667,31.2676,31.67428571,304.84,308.26,318.82,309.86,306.0,2.1425537930000003
489,66.35208333,23.15416667,307.3,66.35208333,65.0125,50.40833333,23.15416667,20.68333333,15.73333333,7.402083332999999,15.73125,307.3,304.78,298.02,291.94,293.24,4.704665872
490,69.2625,22.82083333,307.7,66.35208333,66.35208333,65.0125,23.15416667,23.15416667,20.68333333,15.73333333,7.402083332999999,307.3,307.3,304.78,298.02,291.94,4.375811238
491,64.04166667,29.58541667,309.96,70.975,73.725,50.32916667,20.79166667,18.38125,22.54375,3.74375,20.74791667,304.18,299.28,304.16,290.28,301.9,6.615820904
492,54.86875,15.73125,293.24,52.74375,66.99791667,38.5875,9.535416667,6.091666667,6.202083332999999,29.63333333,27.84166667,290.7,282.44,280.44,307.28,311.54,1.946292895
493,45.47083333,10.68958333,295.14,46.08333333,68.925,71.06875,9.495833333,6.5875,19.82291667,12.05416667,17.30833333,286.68,284.84,301.7,294.76,293.44,1.467090135
494,73.725,18.38125,299.28,50.32916667,67.86875,49.6125,22.54375,3.74375,20.74791667,18.64166667,16.54375,304.16,290.28,301.9,299.74,299.1,3.296359173
495,76.44375,24.18541667,301.76,63.25208333,63.28125,67.21041667,25.92916667,25.83541667,12.97083333,16.12291667,14.22083333,304.22,307.54,296.22,291.28,298.0,4.99317693
496,58.81875,22.63958333,305.48,47.59791667,53.275,64.9625,23.075,24.49791667,25.98333333,24.9125,24.62083333,302.28,303.68,301.98,305.84,302.4,1.9117983809999999
497,49.6125,20.74791667,301.9,33.47291667,60.06041667,57.04375,18.64166667,16.54375,16.36458333,-4.220833333,5.764583332999999,299.74,299.1,298.94,277.92,292.46,1.865847425
498,33.47291667,18.64166667,299.74,60.06041667,57.04375,58.13125,16.54375,16.36458333,-4.220833333,5.764583332999999,24.225,299.1,298.94,277.92,292.46,303.76,2.21635126
499,67.86875,3.74375,290.28,49.6125,33.47291667,60.06041667,20.74791667,18.64166667,16.54375,16.36458333,-4.220833333,301.9,299.74,299.1,298.94,277.92,1.601112301
500,51.31458333,18.775,304.84,37.19791667,39.87291667,52.1688,31.1,29.64166667,31.2676,31.67428571,30.78851852,308.26,318.82,309.86,306.0,308.24,2.0945307619999998
501,52.74375,9.535416667,290.7,66.99791667,38.5875,55.05208333,6.091666667,6.202083332999999,29.63333333,27.84166667,29.58541667,282.44,280.44,307.28,311.54,309.96,1.289911789
502,58.15208333,24.9125,305.84,59.3625,67.71041667,67.71041667,24.62083333,28.60416667,28.60416667,24.7625,21.54583333,302.4,307.74,307.74,302.38,302.42,3.2341858439999998
503,64.9625,25.98333333,301.98,58.15208333,59.3625,67.71041667,24.9125,24.62083333,28.60416667,28.60416667,24.7625,305.84,302.4,307.74,307.74,302.38,2.706013342
504,47.59791667,23.075,302.28,53.275,64.9625,58.15208333,24.49791667,25.98333333,24.9125,24.62083333,28.60416667,303.68,301.98,305.84,302.4,307.74,2.576472595
505,44.05208333,7.402083332999999,291.94,54.86875,52.74375,66.99791667,15.73125,9.535416667,6.091666667,6.202083332999999,29.63333333,293.24,290.7,282.44,280.44,307.28,1.201775456
506,59.34645833,7.255875,289.5,68.47354167,83.93333333,78.15291667,0.5299166670000001,4.1308125,0.651979167,1.65825,1.8906041669999998,279.1,277.16,274.58,274.08,276.8,2.57063869
507,67.32791667,9.965416667000001,287.54,51.07541667,39.73891304,54.45291667,10.80416667,17.64567391,7.8125625,21.80308696,23.10565217,290.68,297.24,285.44,307.2,306.26,1.531909913
508,75.64229167,1.8906041669999998,276.8,83.93583333,83.93583333,67.32791667,13.15020833,13.15020833,9.965416667000001,10.80416667,17.64567391,290.22,290.22,287.54,290.68,297.24,1.9244256290000001
509,66.3173913,9.139130435,284.2,27.375,47.47586207,60.65769231,23.0,2.34137931,7.680769231,10.72314583,0.809854167,291.46,279.44,282.92,289.94,277.88,2.012739366
510,33.95833333,20.29583333,297.04,40.95608,44.21005,68.98,11.564,7.38,11.08,17.36875,12.62272727,286.88,283.84,287.84,293.38,292.08,3.236988408
511,60.65769231,7.680769231,282.92,67.76166667,63.545,74.84729167,10.72314583,0.809854167,7.3688125,7.858541667000001,23.71157447,289.94,277.88,278.56,280.06,304.46,2.50754035
512,56.38186364,4.909090909,281.84,56.38186364,57.65714286,43.372,4.909090909,14.56190476,9.892000000000001,20.29583333,11.564,281.84,288.68,291.9,297.04,286.88,2.819543482
513,80.9125,17.36875,293.38,46.55,66.3173913,27.375,12.62272727,9.139130435,23.0,2.34137931,7.680769231,292.08,284.2,291.46,279.44,282.92,2.736515915
514,53.43666667,7.998958332999999,291.78,43.71520833,41.18479167,45.57604167,16.475,10.39333333,9.758958332999999,10.07708333,7.1577083329999995,297.86,290.8,290.7,290.76,286.6,2.337635135
515,87.816875,17.98270833,291.68,53.43666667,43.71520833,41.18479167,7.998958332999999,16.475,10.39333333,9.758958332999999,10.07708333,291.78,297.86,290.8,290.7,290.76,3.28142354
516,54.66333333,7.1577083329999995,286.6,58.794375,63.64541667,71.23645833,9.147083333,7.94125,8.109166667,11.68541667,15.13427083,289.3,278.8,285.48,288.3,293.74,1.455042626
517,45.57604167,9.758958332999999,290.7,46.30645833,54.66333333,58.794375,10.07708333,7.1577083329999995,9.147083333,7.94125,8.109166667,290.76,286.6,289.3,278.8,285.48,1.8837202530000001
518,58.794375,9.147083333,289.3,63.64541667,71.23645833,73.61958333,7.94125,8.109166667,11.68541667,15.13427083,7.255875,278.8,285.48,288.3,293.74,289.5,1.897955181
519,61.85333333,18.8255,288.98,86.20363636,86.20363636,73.33081481,25.47409091,25.47409091,7.12662963,8.86156,9.285833333,291.5,291.5,288.36,293.34,286.4,5.5053962489999995
520,51.07541667,10.80416667,290.68,39.73891304,54.45291667,42.85467391,17.64567391,7.8125625,21.80308696,23.10565217,18.30483333,297.24,285.44,307.2,306.26,301.8,1.819504447
521,64.4328125,10.94797917,291.46,70.22672917,52.6573125,52.6573125,13.36170833,13.77441667,13.77441667,0.5440625,3.7595416669999997,294.06,291.1,291.1,278.8,280.74,2.279251855
522,64.4328125,10.94797917,291.46,64.4328125,70.22672917,52.6573125,10.94797917,13.36170833,13.77441667,13.77441667,0.5440625,291.46,294.06,291.1,291.1,278.8,2.279251855
523,70.22672917,13.36170833,294.06,52.6573125,52.6573125,55.50716667,13.77441667,13.77441667,0.5440625,3.7595416669999997,5.012729167,291.1,291.1,278.8,280.74,280.06,2.847928403
524,49.9,8.21,287.88,35.1,58.38416667,66.29829167,17.3,24.12733333,22.0960625,22.0960625,20.1050625,292.7,308.94,306.28,306.28,304.82,1.176754308
525,31.0,21.21,295.28,49.9,49.9,35.1,8.21,8.21,17.3,24.12733333,22.0960625,287.88,287.88,292.7,308.94,306.28,3.7968359169999997
526,77.1348,8.86156,293.34,15.8625,75.23875,30.9,9.285833333,3.35175,18.71,21.21,8.21,286.4,284.94,295.72,295.28,287.88,3.6086469610000003
527,15.8625,9.285833333,286.4,75.23875,30.9,31.0,3.35175,18.71,21.21,8.21,8.21,284.94,295.72,295.28,287.88,287.88,1.146666974
528,70.948029,3.631360833,280.64,55.98958333,74.51708333,74.51708333,2.857916667,11.44916667,11.44916667,17.98270833,7.998958332999999,277.92,287.58,287.58,291.68,291.78,1.923411945
529,70.2446875,15.13427083,293.74,59.34645833,68.47354167,83.93333333,7.255875,0.5299166670000001,4.1308125,0.651979167,1.65825,289.5,279.1,277.16,274.58,274.08,1.506894046
