For param {'n_trees': 100, 'max_depth': 7, 'learning_rate': 0.1}
 *************************FOLDS Average***************************** 

Utility Based Metrics Across All
F1:  0.7897089806889055
F2:  0.7854336620589679
F05: 0.7959183924249643
precision:  0.8011614648306248
recall: 0.7836492689017914

Regression Error Metrics Across All
R2: 0.536695002190107
Adj-R2: 0.5026015989347141
RMSE: 1.4884065483847766
MSE: 2.3076163058745873
MAE: 1.1003319117705308
MAPE: 35.70661351629252

Correlations Across All
Pearson: 0.7596397017328844
Spearman: 0.7255452334225506
Distance: 0.24036029826711572
************************REPETITIONS Average*******************************

Utility Based Metrics Across All
F1:  0.7897089806889055
F2:  0.7854336620589679
F05: 0.7959183924249643
precision:  0.8011614648306248
recall: 0.7836492689017914

Regression Error Metrics Across All
R2: 0.536695002190107
Adj-R2: 0.5026015989347141
RMSE: 1.4884065483847766
MSE: 2.3076163058745873
MAE: 1.1003319117705308
MAPE: 35.70661351629252

Correlations Across All
Pearson: 0.7596397017328844
Spearman: 0.7255452334225506
Distance: 0.24036029826711572
For param {'n_trees': 100, 'max_depth': 6, 'learning_rate': 0.1}
 *************************FOLDS Average***************************** 

Utility Based Metrics Across All
F1:  0.8152501598927955
F2:  0.7986644111982517
F05: 0.8329097463238032
precision:  0.8453425138296524
recall: 0.7881485602998255

Regression Error Metrics Across All
R2: 0.5985168679177685
Adj-R2: 0.5689727740983137
RMSE: 1.3856937964432223
MSE: 1.9828309428180966
MAE: 1.0360857992527825
MAPE: 33.767327761187765

Correlations Across All
Pearson: 0.7910240284851605
Spearman: 0.7523881266892463
Distance: 0.20897597151483954
************************REPETITIONS Average*******************************

Utility Based Metrics Across All
F1:  0.8152501598927955
F2:  0.7986644111982517
F05: 0.8329097463238032
precision:  0.8453425138296524
recall: 0.7881485602998255

Regression Error Metrics Across All
R2: 0.5985168679177685
Adj-R2: 0.5689727740983137
RMSE: 1.3856937964432223
MSE: 1.9828309428180966
MAE: 1.0360857992527825
MAPE: 33.767327761187765

Correlations Across All
Pearson: 0.7910240284851605
Spearman: 0.7523881266892463
Distance: 0.20897597151483954
