For param {'n_estimators': 10}
 *************************FOLDS Average***************************** 

Utility Based Metrics Across All
F1:  0.5726745976492698
F2:  0.5678736855602373
F05: 0.5803924235936087
precision:  0.5870775196486632
recall: 0.6356596652894296

Regression Error Metrics Across All
R2: 0.3985223747661169
Adj-R2: 0.3164265429096816
RMSE: 1.65119284761828
MSE: 2.8549510157433287
MAE: 1.2324956699427139
MAPE: 39.99881663619562
Accuracy: 60.00118336380437
AIC: 391.781648651519
BIC: 391.781648651519
NMI: 0.9931616308004243

Correlations Across All
Pearson: 0.6612887656387398
Spearman: 0.657585590495025
Distance: 0.33871123436126005
************************REPETITIONS Average*******************************

Utility Based Metrics Across All
F1:  0.5726745976492698
F2:  0.5678736855602373
F05: 0.5803924235936087
precision:  0.5870775196486632
recall: 0.6356596652894296

Regression Error Metrics Across All
R2: 0.3985223747661169
Adj-R2: 0.3164265429096816
RMSE: 1.65119284761828
MSE: 2.8549510157433287
MAE: 1.2324956699427139
MAPE: 39.99881663619562
Accuracy: 60.00118336380437
AIC: 391.781648651519
BIC: 391.781648651519
NMI: 0.9931616308004243

Correlations Across All
Pearson: 0.6612887656387398
Spearman: 0.657585590495025
Distance: 0.33871123436126005

Utility Based Metrics Across All
F1:  0.29756472871580725
F2:  0.2917831889583723
F05: 0.307731806877923
precision:  0.3167060108865737
recall: 0.22214012212963288

Regression Error Metrics Across All
R2: 0.11439618036899735
Adj-R2: 0.13001014370627
RMSE: 0.3584873717686085
MSE: 1.2658763676162685
MAE: 0.22002025310854378
MAPE: 7.1569150093598095
Accuracy: 7.1569150093598095
AIC: 171.92514682559448
BIC: 171.92514682559448
NMI: 0.001871527844541675

Correlations Across All
Pearson: 0.09150485318285183
Spearman: 0.08110241326062677
Distance: 0.09150485318285184
For param {'n_estimators': 40}
 *************************FOLDS Average***************************** 

Utility Based Metrics Across All
F1:  0.4940779488338757
F2:  0.48896446846133157
F05: 0.5012885510472804
precision:  0.5072967508679583
recall: 0.631221037203866

Regression Error Metrics Across All
R2: 0.42988936567507796
Adj-R2: 0.3520748222713978
RMSE: 1.6083785411942828
MSE: 2.712517709011927
MAE: 1.2104074208796332
MAPE: 39.703141500147275
Accuracy: 60.296858499852725
AIC: 369.92944388015235
BIC: 369.92944388015235
NMI: 0.9931616308004241

Correlations Across All
Pearson: 0.6923088223335254
Spearman: 0.6861305885979506
Distance: 0.3076911776664746
************************REPETITIONS Average*******************************

Utility Based Metrics Across All
F1:  0.4940779488338757
F2:  0.48896446846133157
F05: 0.5012885510472804
precision:  0.5072967508679583
recall: 0.631221037203866

Regression Error Metrics Across All
R2: 0.42988936567507796
Adj-R2: 0.3520748222713978
RMSE: 1.6083785411942828
MSE: 2.712517709011927
MAE: 1.2104074208796332
MAPE: 39.703141500147275
Accuracy: 60.296858499852725
AIC: 369.92944388015235
BIC: 369.92944388015235
NMI: 0.9931616308004241

Correlations Across All
Pearson: 0.6923088223335254
Spearman: 0.6861305885979506
Distance: 0.3076911776664746

Utility Based Metrics Across All
F1:  0.3293314348028833
F2:  0.32587135417197965
F05: 0.33610056540357236
precision:  0.34246005688534137
recall: 0.22136160918519276

Regression Error Metrics Across All
R2: 0.10954629250525731
Adj-R2: 0.12449829343215874
RMSE: 0.35445193924942414
MSE: 1.2312575559121082
MAE: 0.21715489842649185
MAPE: 7.99910072384104
Accuracy: 7.999100723841041
AIC: 173.18328113029455
BIC: 173.18328113029455
NMI: 0.0018715278445417041

Correlations Across All
Pearson: 0.09473512979219029
Spearman: 0.08446382834507977
Distance: 0.0947351297921903
For param {'n_estimators': 50}
 *************************FOLDS Average***************************** 

Utility Based Metrics Across All
F1:  0.5007039620077969
F2:  0.490493985897296
F05: 0.5121378132934695
precision:  0.5205307508748052
recall: 0.6321185803000596

Regression Error Metrics Across All
R2: 0.4350237418876284
Adj-R2: 0.35790999078036867
RMSE: 1.5955047295389508
MSE: 2.6612831024164336
MAE: 1.2031116455067385
MAPE: 39.56877639710576
Accuracy: 60.431223602894235
AIC: 364.5214149348227
BIC: 364.5214149348227
NMI: 0.9931616308004241

Correlations Across All
Pearson: 0.6979784913907239
Spearman: 0.6882331489867439
Distance: 0.30202150860927596
************************REPETITIONS Average*******************************

Utility Based Metrics Across All
F1:  0.5007039620077969
F2:  0.490493985897296
F05: 0.5121378132934695
precision:  0.5205307508748052
recall: 0.6321185803000596

Regression Error Metrics Across All
R2: 0.4350237418876284
Adj-R2: 0.35790999078036867
RMSE: 1.5955047295389508
MSE: 2.6612831024164336
MAE: 1.2031116455067385
MAPE: 39.56877639710576
Accuracy: 60.431223602894235
AIC: 364.5214149348227
BIC: 364.5214149348227
NMI: 0.9931616308004241

Correlations Across All
Pearson: 0.6979784913907239
Spearman: 0.6882331489867439
Distance: 0.30202150860927596

Utility Based Metrics Across All
F1:  0.33291272235875247
F2:  0.3270295795084206
F05: 0.34042706844833337
precision:  0.34648417846425006
recall: 0.22263621236866227

Regression Error Metrics Across All
R2: 0.11662004636573098
Adj-R2: 0.13253754573041288
RMSE: 0.34007022868118425
MSE: 1.1634009607432851
MAE: 0.20982372212004874
MAPE: 7.771325972098912
Accuracy: 7.771325972098911
AIC: 167.75829102746093
BIC: 167.75829102746093
NMI: 0.0018715278445416907

Correlations Across All
Pearson: 0.08651469773959267
Spearman: 0.08750645445511948
Distance: 0.08651469773959267
For param {'n_estimators': 100}
 *************************FOLDS Average***************************** 

Utility Based Metrics Across All
F1:  0.5042078789978122
F2:  0.4930357223848903
F05: 0.5171353797790775
precision:  0.5269238801249045
recall: 0.6333700511853498

Regression Error Metrics Across All
R2: 0.4453971482926101
Adj-R2: 0.3696992660261419
RMSE: 1.5821780769410476
MSE: 2.623247376350219
MAE: 1.1921312206015746
MAPE: 39.23834326459049
Accuracy: 60.76165673540951
AIC: 356.8137400234854
BIC: 356.8137400234854
NMI: 0.9931616308004243

Correlations Across All
Pearson: 0.70371203207183
Spearman: 0.6955348226870769
Distance: 0.2962879679281699
************************REPETITIONS Average*******************************

Utility Based Metrics Across All
F1:  0.5042078789978122
F2:  0.4930357223848903
F05: 0.5171353797790775
precision:  0.5269238801249045
recall: 0.6333700511853498

Regression Error Metrics Across All
R2: 0.4453971482926101
Adj-R2: 0.3696992660261419
RMSE: 1.5821780769410476
MSE: 2.623247376350219
MAE: 1.1921312206015746
MAPE: 39.23834326459049
Accuracy: 60.76165673540951
AIC: 356.8137400234854
BIC: 356.8137400234854
NMI: 0.9931616308004243

Correlations Across All
Pearson: 0.70371203207183
Spearman: 0.6955348226870769
Distance: 0.2962879679281699

Utility Based Metrics Across All
F1:  0.33327633557762043
F2:  0.3276337581770858
F05: 0.3411780336627239
precision:  0.3480405080824736
recall: 0.2220628088663438

Regression Error Metrics Across All
R2: 0.11663309804843391
Adj-R2: 0.13255237884055998
RMSE: 0.34635229059058764
MSE: 1.1856215154525727
MAE: 0.21713898862731879
MAPE: 8.059591914815883
Accuracy: 8.059591914815881
AIC: 171.51794229767725
BIC: 171.51794229767725
NMI: 0.0018715278445416584

Correlations Across All
Pearson: 0.09125055648398443
Spearman: 0.08606185948567589
Distance: 0.09125055648398439
For param {'n_estimators': 100}
 *************************FOLDS Average***************************** 

Utility Based Metrics Across All
F1:  0.5006169112548127
F2:  0.49124276499884223
F05: 0.5137007957873229
precision:  0.524678203688471
recall: 0.634056887711302

Regression Error Metrics Across All
R2: 0.4443468521230054
Adj-R2: 0.3685056146690423
RMSE: 1.582407699734611
MSE: 2.6209471265797806
MAE: 1.1930445245842127
MAPE: 39.28124853057871
Accuracy: 60.71875146942129
AIC: 357.37734713995883
BIC: 357.37734713995883
NMI: 0.9931616308004243

Correlations Across All
Pearson: 0.7019472364207043
Spearman: 0.6937005971952603
Distance: 0.29805276357929555
************************REPETITIONS Average*******************************

Utility Based Metrics Across All
F1:  0.5006169112548127
F2:  0.49124276499884223
F05: 0.5137007957873229
precision:  0.524678203688471
recall: 0.634056887711302

Regression Error Metrics Across All
R2: 0.4443468521230054
Adj-R2: 0.3685056146690423
RMSE: 1.582407699734611
MSE: 2.6209471265797806
MAE: 1.1930445245842127
MAPE: 39.28124853057871
Accuracy: 60.71875146942129
AIC: 357.37734713995883
BIC: 357.37734713995883
NMI: 0.9931616308004243

Correlations Across All
Pearson: 0.7019472364207043
Spearman: 0.6937005971952603
Distance: 0.29805276357929555

Utility Based Metrics Across All
F1:  0.3350918862207715
F2:  0.3272497469514995
F05: 0.3487527556762458
precision:  0.36134334342927243
recall: 0.22224245897229059

Regression Error Metrics Across All
R2: 0.11710091332583819
Adj-R2: 0.13308404634245674
RMSE: 0.3419546730202667
MSE: 1.1668913970808856
MAE: 0.21126483994550127
MAPE: 7.880279083676364
Accuracy: 7.880279083676364
AIC: 169.47434335489984
BIC: 169.47434335489984
NMI: 0.0018715278445416911

Correlations Across All
Pearson: 0.08837841192229733
Spearman: 0.08644302017454489
Distance: 0.08837841192229727
