Total Number of rare cases: 836 out of 5123
Percentage of Rare Cases: 16.32%

number of rare in train: 667/4090
==> 16.3080684596577%%
number of rare in test: 169/1033
==> 16.36011616650532%%
Total Number of rare cases: 836 out of 5123
Percentage of Rare Cases: 16.32%

number of rare in train: 667/4090
==> 16.3080684596577%%
number of rare in test: 169/1033
==> 16.36011616650532%%
