Total Number of rare cases: 256 out of 3504
Percentage of Rare Cases: 7.31%

number of rare in train: 205/2802
==> 7.316202712348323%%
number of rare in test: 51/702
==> 7.264957264957266%%
Total Number of rare cases: 256 out of 3504
Percentage of Rare Cases: 7.31%

number of rare in train: 205/2802
==> 7.316202712348323%%
number of rare in test: 51/702
==> 7.264957264957266%%
Total Number of rare cases: 256 out of 3504
Percentage of Rare Cases: 7.31%

number of rare in train: 205/2802
==> 7.316202712348323%%
number of rare in test: 51/702
==> 7.264957264957266%%
Total Number of rare cases: 256 out of 3504
Percentage of Rare Cases: 7.31%

number of rare in train: 205/2802
==> 7.316202712348323%%
number of rare in test: 51/702
==> 7.264957264957266%%
The size of the original data is (2802, 48)
The size of the oversampled data is (2848, 48)
Total Number of rare cases: 281 out of 2848
Percentage of Rare Cases: 9.87%

The percentage of rare values in dataset after smogn are 9.866573033707866
