Error Metrics,Testing Scores
mean target,3.6842810933102923
F1,0.7357447082353223
F2,0.7324981771499651
F05,0.7390201455676386
Precision,0.7412200206964928
Recall,0.7303496937088415
R2,0.5107142766306965
Adjusted R2,0.49061788061636635
RMSE,1.2596764724551588
MSE,1.5867848152570725
MAE,0.9417767946872664
MAPE,33.469381750544315
Accuracy,66.53061824945569
Pearson C.C.,0.7276411929782963
Spearman C.C.,0.7497651632030236
Spatial Distance,0.27235880702170345
NMI,0.9940836489815692
AIC,573.9053313689386
BIC,573.9053313689386
Data Size train,4904.0
Data Size test,1243.0
Training Time (seconds),37.543980836868286
Testing Time (seconds),0.6883740425109863
