
Utility Based Metrics
F1: 0.00001
F2: 0.00001
F05: 0.00001
precision: 0.00001
recall: 0.00001

Regression Error Metrics
R2: 0.42536
Adj-R2: 0.34200
RMSE: 1.90758
MSE: 3.63888
MAE: 1.50085
MAPE: 36.22372

Correlations
Pearson: 0.65742
Spearman: 0.64138
Distance: 0.34258

Utility Based Metrics
F1: 0.00001
F2: 0.00001
F05: 0.00001
precision: 0.00001
recall: 0.00001

Regression Error Metrics
R2: 0.42536
Adj-R2: 0.34200
RMSE: 1.90758
MSE: 3.63888
MAE: 1.50085
MAPE: 36.22372

Correlations
Pearson: 0.65742
Spearman: 0.64138
Distance: 0.34258

Utility Based Metrics
F1: 0.00001
F2: 0.00001
F05: 0.00001
precision: 0.00001
recall: 0.00001

Regression Error Metrics
R2: 0.42536
Adj-R2: 0.34200
RMSE: 1.90758
MSE: 3.63888
MAE: 1.50085
MAPE: 36.22372

Correlations
Pearson: 0.65742
Spearman: 0.64138
Distance: 0.34258
