For param {'n_estimators': 35, 'random_state': 10, 'min_samples_split': 90, 'min_samples_leaf': 60, 'max_features': 0.5, 'max_depth': 4, 'learning_rate': 0.1, 'subsample': 0.6}
 *************************FOLDS Average***************************** 

Utility Based Metrics Across All
F1:  0.9471098550555114
F2:  0.9233720812590496
F05: 0.9721869194430344
precision:  0.9897099666027881
recall: 0.9082359399663844

Regression Error Metrics Across All
R2: 0.53881984348567
Adj-R2: 0.10323509898730236
RMSE: 1.752055728650689
MSE: 3.09802844944961
MAE: 1.3444618791776057
MAPE: 33.295346156546465
Accuracy: 66.70465384345353
AIC: 117.95907028892695
BIC: 117.95907028892695
NMI: 0.9994419055758144

Correlations Across All
Pearson: 0.7426206208127472
Spearman: 0.7544418596288371
Distance: 0.25737937918725284
************************REPETITIONS Average*******************************

Utility Based Metrics Across All
F1:  0.9471098550555114
F2:  0.9233720812590496
F05: 0.9721869194430344
precision:  0.9897099666027881
recall: 0.9082359399663844

Regression Error Metrics Across All
R2: 0.53881984348567
Adj-R2: 0.10323509898730236
RMSE: 1.752055728650689
MSE: 3.09802844944961
MAE: 1.3444618791776057
MAPE: 33.295346156546465
Accuracy: 66.70465384345353
AIC: 117.95907028892695
BIC: 117.95907028892695
NMI: 0.9994419055758144

Correlations Across All
Pearson: 0.7426206208127472
Spearman: 0.7544418596288371
Distance: 0.25737937918725284

Utility Based Metrics Across All Std
F1:  0.009144629706635392
F2:  0.011989265128571609
F05: 0.009791505428747323
precision:  0.012571708918476317
recall: 0.014599973438716848

Regression Error Metrics Across All Std
R2: 0.054503799338608175
Adj-R2: 0.10569599260824927
RMSE: 0.16831272427215205
MSE: 0.6086655933672812
MAE: 0.137156856506571
MAPE: 4.710460258956111
Accuracy: 4.71046025895611
AIC: 19.983699536689564
BIC: 19.983699536689564
NMI: 0.0006835418192668157

Correlations Across All Std
Pearson: 0.039129920942370514
Spearman: 0.04435086640531969
Distance: 0.0391299209423705
For param {'n_estimators': 35, 'random_state': 10, 'min_samples_split': 90, 'min_samples_leaf': 60, 'max_features': 0.5, 'max_depth': 4, 'learning_rate': 0.1, 'subsample': 0.6}
 *************************FOLDS Average***************************** 

Utility Based Metrics Across All
F1:  0.9468236192809503
F2:  0.9251494858848013
F05: 0.9696089915758087
precision:  0.985461471796582
recall: 0.9112763855976249

Regression Error Metrics Across All
R2: 0.5420750811738116
Adj-R2: 0.10942221576947571
RMSE: 1.7783138719191225
MSE: 3.1925023589103008
MAE: 1.3438464593680168
MAPE: 34.47384905209114
Accuracy: 65.52615094790886
AIC: 121.05564913760358
BIC: 121.05564913760358
NMI: 0.9994352677716298

Correlations Across All
Pearson: 0.7444479482094774
Spearman: 0.7564217578352342
Distance: 0.25555205179052276
************************REPETITIONS Average*******************************

Utility Based Metrics Across All
F1:  0.9468236192809503
F2:  0.9251494858848013
F05: 0.9696089915758087
precision:  0.985461471796582
recall: 0.9112763855976249

Regression Error Metrics Across All
R2: 0.5420750811738116
Adj-R2: 0.10942221576947571
RMSE: 1.7783138719191225
MSE: 3.1925023589103008
MAE: 1.3438464593680168
MAPE: 34.47384905209114
Accuracy: 65.52615094790886
AIC: 121.05564913760358
BIC: 121.05564913760358
NMI: 0.9994352677716298

Correlations Across All
Pearson: 0.7444479482094774
Spearman: 0.7564217578352342
Distance: 0.25555205179052276

Utility Based Metrics Across All Std
F1:  0.0070260168294145175
F2:  0.009528219289233851
F05: 0.008352730832522453
precision:  0.011238072669169406
recall: 0.012068169154016517

Regression Error Metrics Across All Std
R2: 0.061486043884924575
Adj-R2: 0.12075367166702594
RMSE: 0.17349965951067356
MSE: 0.6448620847956641
MAE: 0.11743343040507265
MAPE: 4.534162172631955
Accuracy: 4.534162172631955
AIC: 19.896086051919003
BIC: 19.896086051919003
NMI: 0.0009391263253753881

Correlations Across All Std
Pearson: 0.04217048242060897
Spearman: 0.04369915246295759
Distance: 0.04217048242060902
For param {'n_estimators': 35, 'random_state': 10, 'min_samples_split': 90, 'min_samples_leaf': 60, 'max_features': 0.5, 'max_depth': 4, 'learning_rate': 0.1, 'subsample': 0.6}
 *************************FOLDS Average***************************** 

Utility Based Metrics Across All
F1:  0.9461087319373125
F2:  0.9232760423154952
F05: 0.9701646540105129
precision:  0.986933306472816
recall: 0.9086866752438321

Regression Error Metrics Across All
R2: 0.5154161235597866
Adj-R2: 0.0571267572380539
RMSE: 1.7856118881025527
MSE: 3.2093849173612425
MAE: 1.380673928011184
MAPE: 35.35145334720868
Accuracy: 64.64854665279132
AIC: 122.13809568563723
BIC: 122.13809568563723
NMI: 0.9994402795333024

Correlations Across All
Pearson: 0.7275449510513378
Spearman: 0.7287849065764419
Distance: 0.27245504894866224
************************REPETITIONS Average*******************************

Utility Based Metrics Across All
F1:  0.9461087319373125
F2:  0.9232760423154952
F05: 0.9701646540105129
precision:  0.986933306472816
recall: 0.9086866752438321

Regression Error Metrics Across All
R2: 0.5154161235597866
Adj-R2: 0.0571267572380539
RMSE: 1.7856118881025527
MSE: 3.2093849173612425
MAE: 1.380673928011184
MAPE: 35.35145334720868
Accuracy: 64.64854665279132
AIC: 122.13809568563723
BIC: 122.13809568563723
NMI: 0.9994402795333024

Correlations Across All
Pearson: 0.7275449510513378
Spearman: 0.7287849065764419
Distance: 0.27245504894866224

Utility Based Metrics Across All Std
F1:  0.01052625904378604
F2:  0.010974624610008019
F05: 0.01270593302458833
precision:  0.015432993421447704
recall: 0.012354871406923129

Regression Error Metrics Across All Std
R2: 0.08540337839036845
Adj-R2: 0.16996268475955614
RMSE: 0.14482783720017067
MSE: 0.5147033460072833
MAE: 0.10319387070045265
MAPE: 2.3972530966079892
Accuracy: 2.39725309660799
AIC: 16.96168250548496
BIC: 16.96168250548496
NMI: 0.0006855665937201013

Correlations Across All Std
Pearson: 0.06465441358392465
Spearman: 0.07328780805804913
Distance: 0.06465441358392454
