Error Metrics,Validation Scores standard deviation,Validation Scores,Testing Scores
mean target,3.9512480516698165,3.9512480516698165,3.9512480516698165
F1,0.010072967009207933,0.9376287606953033,0.927885198144884
F2,0.011911109386644633,0.8991096029523981,0.8926556369682866
F05,0.01362060209895559,0.9797353998918046,0.9660097540405295
Precision,0.018623130126673944,1.0100640004514376,0.9932156376784379
Recall,0.014579006436816108,0.875197180074251,0.8706187747586265
R2,0.042390917185118386,0.4031031082587001,0.42097184844037805
Adjusted R2,0.04623180445391368,0.3476091110943759,0.4094374231105051
RMSE,0.09337526791572108,1.7254556466773114,1.7843779960640087
MSE,0.3215703243538102,2.9859161293089507,3.1840048328374078
MAE,0.07563148016499674,1.3195758759515255,1.3287475030409925
MAPE,2.079728426007,44.149049308687495,45.90648506605932
Accuracy,2.079728426007,55.850950691312505,54.09351493394068
Pearson C.C.,0.028431357862684394,0.6451586334279135,0.6488823375892585
Spearman C.C.,0.020203673620261476,0.635240136307158,0.6534308136354084
Spatial Distance,0.028431357862684407,0.35484136657208654,0.3511176624107414
NMI,0.0006858891110681294,0.9992487872077576,0.9988287472147095
AIC,26.003639524581466,256.9192689636223,1187.0932804777276
BIC,26.003639524581466,256.9192689636223,1187.0932804777276
Data Size train,-,-,2361.0
Data Size test,-,-,1025.0
Training Time (seconds),-,-,0.11430835723876953
Testing Time (seconds),-,-,0.0012350082397460938
