
Total Number of rare cases: 572 out of 5772
Percentage of Rare Cases: 9.91%

number of rare in train: 457/4607
==> 9.91968743216844%%
number of rare in test: 115/1165
==> 9.871244635193133%%
The size of the original data is (4607, 49)
The size of the oversampled data is (4701, 49)
Total Number of rare cases: 565 out of 4701
Percentage of Rare Cases: 12.02%

The percentage of rare values in dataset after smogn are 12.018719421399702
