Error Metrics,Testing Scores
mean target,3.8237390439622785
F1,0.7809750986774464
F2,0.7582684981513189
F05,0.8050835926652058
Precision,0.822000211553337
Recall,0.743850357757831
R2,0.46685013023401944
Adjusted R2,0.4426609231798222
RMSE,1.4682104184801903
MSE,2.1556418329337754
MAE,1.0964115573152342
MAPE,40.272290961962455
Accuracy,59.727709038037545
Pearson C.C.,0.7025207845506365
Spearman C.C.,0.735668527888687
Spatial Distance,0.29747921544936373
NMI,0.9935962035573126
AIC,867.9400202774809
BIC,867.9400202774809
Data Size train,4467.0
Data Size test,1130.0
Training Time (seconds),35.96531105041504
Testing Time (seconds),0.6405019760131836
