Error Metrics,Testing Scores
mean target,3.7404444610050445
F1,0.7248821654683157
F2,0.7129793861424761
F05,0.7371891121969815
Precision,0.7456285629479352
Recall,0.7052590119113376
R2,0.31012447566699275
Adjusted R2,0.2451169743356132
RMSE,1.4752193343605025
MSE,2.176272084471044
MAE,1.0999252797619452
MAPE,39.82953257069184
Accuracy,60.17046742930816
Pearson C.C.,0.5876781817991283
Spearman C.C.,0.6292286013551038
Spatial Distance,0.4123218182008721
NMI,0.9937212349761283
AIC,443.2396151979526
BIC,443.2396151979526
Data Size train,2215.0
Data Size test,570.0
Training Time (seconds),19.045695781707764
Testing Time (seconds),0.6667559146881104
