Error Metrics,Testing Scores
mean target,4.104471831196201
F1,0.7310516322264797
F2,0.7166609227461793
F05,0.7460321218667082
Precision,0.7563649231777805
Recall,0.7073777951762936
R2,0.47873380925997955
Adjusted R2,0.45615021655771515
RMSE,1.4343894121851213
MSE,2.0574729857887775
MAE,1.0873192263233717
MAPE,37.6637207059053
Accuracy,62.3362792940947
Pearson C.C.,0.7090866265864997
Spearman C.C.,0.7542327062461482
Spatial Distance,0.29091337341349977
NMI,0.9940480538524263
AIC,852.0661366717036
BIC,852.0661366717036
Data Size train,4664.0
Data Size test,1181.0
Training Time (seconds),24.289430141448975
Testing Time (seconds),0.6981427669525146
