Site,Date,Month_1,Month_2,Month_3,Month_4,Vegetation_1,Vegetation_2,Vegetation_3,WS,RH,TA,Eeflux_LST,Eeflux_LST-1,Eeflux_LST-2,Eeflux_LST-3,Eeflux_LST-4,Eeflux_LST-5,Eeflux_NDVI,Eeflux_NDVI-1,Eeflux_NDVI-2,Eeflux_NDVI-3,Eeflux_NDVI-4,Eeflux_NDVI-5,Eeflux_Albedo,Eeflux_Albedo-1,Eeflux_Albedo-2,Eeflux_Albedo-3,Eeflux_Albedo-4,Eeflux_Albedo-5,RH-1,RH-2,RH-3,RH-4,RH-5,TA-1,TA-2,TA-3,TA-4,TA-5,WS-1,WS-2,WS-3,WS-4,WS-5,Site_0,Site_1,Site_2,Site_3,Site_4,Site_5,LE_bowen_corr_m,LE_bowen_corr_pred,Eeflux_ET
FI-Jok,7/17/2003,0,1,1,1,0,0,1,1.188875,59.99054167,22.51952083,303.92,286.16,291.3,292.74,288.38,299.54,0.82,0.242,0.767,0.475,0.657,0.608,0.152,0.146,0.146,0.151,0.151,0.121,69.50664583,69.4666875,78.62675,62.95389583,75.2318125,9.439854167,10.62745833,11.53029167,9.3898125,18.1299375,2.0851875,3.141666667,1.3834375,1.306395833,3.455125,0,0,0,0,0,1,5.862500511,5.726549623,2.783199787
DE-Kli,9/25/2015,1,0,0,1,0,0,1,2.157916667,80.52583333,11.62916667,284.36,290.24,290.44,290.3,296.42,303.12,0.296,0.606,0.453,0.461,0.3,0.524,0.168,0.186,0.182,0.198,0.152,0.144,67.6875,65.56208333,58.13958333,75.95333333,64.65375,12.250625,13.83333333,14.29375,18.18104167,22.80625,1.4875,3.284166667,3.149791667,2.4475,2.176458333,0,0,0,0,1,0,1.787594885,1.670357802,2.516218424
DE-Kli,10/12/2015,1,0,1,0,0,0,1,3.041875,81.57520833,0.812083333,281.74,283.16,288.74,284.36,290.24,290.44,0.607,0.357,0.603,0.296,0.606,0.453,0.127,0.146,0.177,0.168,0.186,0.182,82.00145833,75.25416667,80.52583333,67.6875,65.56208333,5.561458333,9.364166667,11.62916667,12.250625,13.83333333,3.257291667,1.914166667,2.157916667,1.4875,3.284166667,0,0,0,0,1,0,1.162048493,1.608124294,0
DE-Kli,4/5/2016,0,1,0,0,0,0,1,1.63625,75.444375,13.675,285.74,283.28,285.88,279.72,281.74,283.16,0.69,0.649,0.618,0.063,0.607,0.357,0.135,0.13,0.13,0.13,0.127,0.146,83.00666667,72.363125,82.63354167,81.57520833,82.00145833,2.512916667,3.536875,1.54625,0.812083333,5.561458333,3.041041667,1.822083333,3.402708333,3.041875,3.257291667,0,0,0,0,1,0,2.256727015,3.170774905,1.992715359
DE-Kli,4/20/2016,0,1,0,0,0,0,1,3.242291667,72.10604167,4.669375,284.14,283.32,285.74,283.28,285.88,279.72,0.864,0.86,0.69,0.649,0.618,0.063,0.162,0.163,0.135,0.13,0.13,0.13,72.99,75.444375,83.00666667,72.363125,82.63354167,5.679166667,13.675,2.512916667,3.536875,1.54625,1.747916667,1.63625,3.041041667,1.822083333,3.402708333,0,0,0,0,1,0,2.235509455,3.332653807,0
DE-Kli,4/21/2016,0,1,0,0,0,0,1,1.161458333,66.10333333,7.186666667,290.98,284.14,283.32,285.74,283.28,285.88,0.855,0.864,0.86,0.69,0.649,0.618,0.16,0.162,0.163,0.135,0.13,0.13,72.10604167,72.99,75.444375,83.00666667,72.363125,4.669375,5.679166667,13.675,2.512916667,3.536875,3.242291667,1.747916667,1.63625,3.041041667,1.822083333,0,0,0,0,1,0,3.03305783,3.297689936,2.71982193
DE-Kli,4/29/2016,0,1,0,0,0,0,1,2.795416667,58.524375,5.832083333,289.84,277.06,287.54,290.98,284.14,283.32,0.805,0.472,0.744,0.855,0.864,0.86,0.172,0.161,0.16,0.16,0.162,0.163,84.08541667,68.185,66.10333333,72.10604167,72.99,0.953125,5.959166667,7.186666667,4.669375,5.679166667,3.20875,1.994791667,1.161458333,3.242291667,1.747916667,0,0,0,0,1,0,3.163462413,3.492772645,2.799290419
DE-Kli,5/6/2016,0,1,0,1,0,0,1,2.925416667,60.64229167,13.66604167,295.78,289.28,289.84,277.06,287.54,290.98,0.843,0.819,0.805,0.472,0.744,0.855,0.189,0.189,0.172,0.161,0.16,0.16,80.78666667,58.524375,84.08541667,68.185,66.10333333,9.223541667,5.832083333,0.953125,5.959166667,7.186666667,1.770416667,2.795416667,3.20875,1.994791667,1.161458333,0,0,0,0,1,0,4.574989093,3.901406146,0
DE-Kli,5/14/2016,0,1,0,1,0,0,1,3.271875,77.17291667,7.267083333,284.06,293.1,293.1,293.72,294.82,294.08,0.734,0.403,0.403,0.853,0.525,0.903,0.191,0.194,0.194,0.194,0.194,0.194,68.80458333,68.80458333,68.803125,64.05125,66.82229167,14.39083333,14.39083333,13.850625,14.65916667,14.24666667,3.084375,3.084375,3.521666667,3.141875,3.104791667,0,0,0,0,1,0,2.483727479,3.078520154,4.191156864
DE-Kli,5/22/2016,0,1,0,1,0,0,1,3.057083333,54.74875,18.711875,300,289.38,293.9,284.06,293.1,293.1,0.884,0.663,0.902,0.734,0.403,0.403,0.207,0.208,0.208,0.191,0.194,0.194,64.95208333,69.98104167,77.17291667,68.80458333,68.80458333,14.96270833,13.33458333,7.267083333,14.39083333,14.39083333,1.777708333,2.464166667,3.271875,3.084375,3.084375,0,0,0,0,1,0,6.062439106,4.858303525,0
DE-Kli,7/10/2016,0,1,1,1,0,0,1,2.243958333,67.705625,19.98208333,296.42,300,289.38,293.9,284.06,293.1,0.697,0.884,0.663,0.902,0.734,0.403,0.155,0.207,0.208,0.208,0.191,0.194,54.74875,64.95208333,69.98104167,77.17291667,68.80458333,18.711875,14.96270833,13.33458333,7.267083333,14.39083333,3.057083333,1.777708333,2.464166667,3.271875,3.084375,0,0,0,0,1,0,5.248066244,4.577398968,5.57045269
DE-Kli,9/11/2016,1,0,0,1,0,0,1,1.578125,61.08083333,21.51625,301.8,298.7,296.86,298.82,291.66,296.42,0.343,0.44,0.295,0.461,0.11,0.697,0.184,0.185,0.185,0.184,0.155,0.155,71.95,75.86333333,65.92645833,75.79479167,67.705625,20.11375,18.72083333,19.80395833,17.96458333,19.98208333,2.351875,1.71375,3.076458333,1.642916667,2.243958333,0,0,0,0,1,0,1.275053232,2.419238053,1.079455376
DE-Kli,9/12/2016,1,0,0,1,0,0,1,1.602291667,59.08166667,21.89020833,302.74,301.8,298.7,296.86,298.82,291.66,0.514,0.343,0.44,0.295,0.461,0.11,0.184,0.184,0.185,0.185,0.184,0.155,61.08083333,71.95,75.86333333,65.92645833,75.79479167,21.51625,20.11375,18.72083333,19.80395833,17.96458333,1.578125,2.351875,1.71375,3.076458333,1.642916667,0,0,0,0,1,0,1.464343346,2.564104897,1.640466809
DE-Kli,5/9/2017,0,1,0,1,0,0,1,1.875208333,74.22,2.760416667,275.9,284.36,292,284.34,283.14,276.06,0.041,0.514,0.225,0.821,0.379,0.529,0.189,0.148,0.151,0.164,0.164,0.154,72.24770833,76.68854167,87.37,85.12145833,82.62333333,6.213333333,11.28645833,5.971666667,7.498541667,9.602708333,3.531041667,1.580833333,2.374791667,3.745416667,3.145833333,0,0,0,0,1,0,1.258389049,2.329867424,0
DE-Kli,5/10/2017,0,1,0,1,0,0,1,2.762291667,59.65208333,6.775416667,281.16,275.9,284.36,292,284.34,283.14,0.304,0.041,0.514,0.225,0.821,0.379,0.19,0.189,0.148,0.151,0.164,0.164,74.22,72.24770833,76.68854167,87.37,85.12145833,2.760416667,6.213333333,11.28645833,5.971666667,7.498541667,1.875208333,3.531041667,1.580833333,2.374791667,3.745416667,0,0,0,0,1,0,1.342467384,2.342251938,1.218460798
DE-Kli,6/3/2017,0,1,1,0,0,0,1,2.73,62.031875,18.53208333,297.06,292.9,281.16,275.9,284.36,292,0.667,0.253,0.304,0.041,0.514,0.225,0.174,0.178,0.19,0.189,0.148,0.151,78.415,59.65208333,74.22,72.24770833,76.68854167,14.39041667,6.775416667,2.760416667,6.213333333,11.28645833,2.034791667,2.762291667,1.875208333,3.531041667,1.580833333,0,0,0,0,1,0,3.02019821,3.589914213,3.206347704
DE-Kli,7/4/2017,0,1,1,1,0,0,1,2.353958333,70.7375,15.73541667,292.24,293.12,290.76,297.06,292.9,281.16,0.69,0.811,0.717,0.667,0.253,0.304,0.227,0.191,0.185,0.174,0.178,0.19,72.15645833,85.72666667,62.031875,78.415,59.65208333,14.94375,14.23916667,18.53208333,14.39041667,6.775416667,2.187708333,3.868541667,2.73,2.034791667,2.762291667,0,0,0,0,1,0,3.284229328,3.767942715,1.360261083
DE-Kli,8/5/2017,1,0,0,0,0,0,1,2.266458333,68.62604167,18.95979167,298.76,301.14,302,295.62,291.92,302.58,0.588,0.558,0.467,0.191,0.226,0.564,0.171,0.172,0.174,0.174,0.175,0.17,61.25416667,58.66291667,72.29083333,86.721875,63.51145833,21.97395833,22.82458333,16.39041667,15.58666667,21.54729167,2.17875,3.161041667,3.040625,2.954166667,1.674791667,0,0,0,0,1,0,2.213202062,2.454596269,3.719380617
DE-Kli,10/16/2017,1,0,1,0,0,0,1,2.648958333,64.621875,15.35375,292.78,292.1,290.36,292.74,284.96,298.1,0.749,0.706,0.696,0.622,0.532,0.544,0.157,0.157,0.157,0.15,0.148,0.169,79.471875,83.92833333,68.83583333,75.96708333,72.064375,14.50770833,13.2675,14.735625,15.06291667,19.37125,1.843541667,2.886041667,3.0625,2.7775,2.062708333,0,0,0,0,1,0,3.720660969,3.304951058,1.99990201
DE-Kli,6/6/2018,0,1,1,0,0,0,1,2.920833333,67.63083333,17.12041667,300.92,281.32,292.78,292.1,290.36,292.74,0.44,0.247,0.749,0.706,0.696,0.622,0.183,0.151,0.157,0.157,0.157,0.15,67.26020833,64.621875,79.471875,83.92833333,68.83583333,4.741666667,15.35375,14.50770833,13.2675,14.735625,3.205416667,2.648958333,1.843541667,2.886041667,3.0625,0,0,0,0,1,0,2.044303122,3.072530774,2.426237822
DE-Kli,6/29/2018,0,1,1,0,0,0,1,2.142083333,57.52520833,19.956875,301.06,291.42,300.92,281.32,292.78,292.1,0.701,0.702,0.44,0.247,0.749,0.706,0.171,0.176,0.183,0.151,0.157,0.157,66.02270833,67.63083333,67.26020833,64.621875,79.471875,15.32416667,17.12041667,4.741666667,15.35375,14.50770833,2.139583333,2.920833333,3.205416667,2.648958333,1.843541667,0,0,0,0,1,0,4.060438054,4.598998149,0
DE-Kli,7/15/2018,0,1,1,1,0,0,1,1.351666667,68.974375,17.50020833,300.84,295.96,295.86,301.06,291.42,300.92,0.68,0.697,0.481,0.701,0.702,0.44,0.168,0.168,0.174,0.171,0.176,0.183,69.04833333,57.35979167,57.52520833,66.02270833,67.63083333,17.97625,11.76041667,19.956875,15.32416667,17.12041667,1.970833333,1.649583333,2.142083333,2.139583333,2.920833333,0,0,0,0,1,0,3.791835165,3.687467631,4.106770754
DE-Kli,7/23/2018,0,1,1,1,0,0,1,1.452291667,64.065,19.61083333,302.94,298,300.84,295.96,295.86,301.06,0.655,0.353,0.68,0.697,0.481,0.701,0.193,0.177,0.168,0.168,0.174,0.171,68.80270833,68.974375,69.04833333,57.35979167,57.52520833,17.36416667,17.50020833,17.97625,11.76041667,19.956875,1.665833333,1.351666667,1.970833333,1.649583333,2.142083333,0,0,0,0,1,0,3.34674357,3.346455459,4.818380356
US-A32,5/5/2017,0,1,0,1,0,1,0,2.156075,72.045,14.14,299.6,294.48,300.98,294.08,294.08,288.24,0.787,0.764,0.744,0.662,0.662,0.558,0.166,0.171,0.192,0.186,0.186,0.182,63.73055556,58.13071429,70.56285714,70.56285714,56.73875,18.18,20.74928571,10.98585714,10.98585714,6.436625,3.536122222,3.484342857,2.812242857,2.812242857,2.6840375,0,0,0,0,1,1,3.673246837,4.088910549,1.415090442
US-Wlr,8/14/2004,1,0,0,0,0,1,0,1.705833333,67.22291667,18.4375,303.98,300.54,306.42,304.4,300.04,311.8,0.69,0.677,0.722,0.666,0.766,0.667,0.184,0.174,0.17,0.171,0.171,0.182,74.42291667,75.7375,68.64791667,73.90625,62.10625,28.12083333,26.70625,20.425,18.61875,28.43125,3.594791667,3.750833333,2.767291667,3.21875,3.191458333,0,0,0,1,0,0,5.341447001,4.086014428,2.492971659
US-Kon,9/24/2010,1,0,0,1,0,1,0,1.875586207,67.98051724,21.05903448,298.54,297.3,305.32,303.24,292.84,302.1,0.627,0.598,0.539,0.625,0.51,0.582,0.181,0.177,0.176,0.176,0.175,0.175,80.80538889,77.57879167,78.85138462,77.61735714,80.32565517,23.1755,29.22941667,28.0365,24.79557143,25.68862069,1.503944444,3.191333333,3.758423077,4.252428571,3.557827586,0,0,0,1,1,0,3.946659159,3.144038477,0
US-Kon,10/2/2010,1,0,1,0,0,1,0,3.3324,68.60488,14.89648,295.22,299.74,300.82,297.22,290.74,295,0.517,0.519,0.549,0.405,0.488,0.603,0.183,0.18,0.18,0.182,0.179,0.181,60.06269231,68.20911111,73.68257143,73.02607143,72.03705263,19.53671795,22.14825,20.47792857,18.38032143,16.06936842,2.415692308,2.341166667,2.424357143,2.778,2.122631579,0,0,0,1,1,0,2.302052364,2.048856439,0
US-Kon,7/8/2011,0,1,1,1,0,1,0,2.835818182,71.84466667,29.15084848,306.66,306.96,309.38,303.56,300.92,302.34,0.749,0.719,0.78,0.783,0.832,0.843,0.197,0.196,0.196,0.191,0.192,0.193,75.45279487,77.38061538,73.77995652,71.45241463,86.20465,31.36553846,29.66476923,23.73015217,24.04504878,25.717025,3.390128205,3.230717949,2.827804348,2.568707317,2.50925,0,0,0,1,1,0,7.931033442,6.058551553,6.079884052
US-Kon,7/25/2011,0,1,1,1,0,1,0,2.513581395,71.62783721,30.11169767,303.56,314.42,307.54,308.38,307.92,306.66,0.753,0.641,0.79,0.734,0.788,0.749,0.189,0.194,0.195,0.197,0.2,0.197,58.17880556,82.05575,65.66918605,62.21066667,71.84466667,34.27105556,30.064125,31.31130233,33.4222381,29.15084848,3.725666667,3.9734,3.630465116,3.319547619,2.835818182,0,0,0,1,1,0,5.42283362,5.939106256,0
US-Kon,9/10/2011,1,0,0,1,0,1,0,2.550666667,67.07153333,24.6814,302.4,305.94,306.56,304.42,306.06,311.74,0.571,0.557,0.6,0.575,0.675,0.609,0.184,0.185,0.188,0.187,0.188,0.187,62.20111905,60.73032609,63.25760976,65.325025,69.35676087,20.01802381,18.24747826,18.058,30.252975,28.62213043,2.497595238,2.5775,2.429341463,3.522225,3.61076087,0,0,0,1,1,0,3.680803732,2.948177539,42.63781738
US-Kon,9/11/2011,1,0,0,1,0,1,0,1.814148936,68.05019149,24.36574468,305.04,302.4,305.94,306.56,304.42,306.06,0.621,0.571,0.557,0.6,0.575,0.675,0.182,0.184,0.185,0.188,0.187,0.188,67.07153333,62.20111905,60.73032609,63.25760976,65.325025,24.6814,20.01802381,18.24747826,18.058,30.252975,2.550666667,2.497595238,2.5775,2.429341463,3.522225,0,0,0,1,1,0,1.831351065,3.500115873,0
DE-Seh,6/28/2010,0,1,1,0,0,0,1,1.108931721,63.49354167,22.25916667,305.26,301.88,302.82,302.82,297.76,303.38,0.665,0.682,0.675,0.675,0.628,0.712,0.215,0.215,0.215,0.215,0.215,0.212,63.42854167,63.5375,63.5375,66.16916667,61.88041667,21.12479167,19.569375,19.569375,19.669375,20.07916667,1.014226185,1.01998756,1.01998756,1.408803354,0.761904546,0,0,0,1,1,1,2.093895625,4.285829111,1.615260005
DE-Seh,7/21/2010,0,1,1,1,0,0,1,1.58982086,63.63125,22.33583333,305.74,300.26,305.08,305.26,301.88,302.82,0.415,0.234,0.432,0.665,0.682,0.675,0.219,0.216,0.207,0.215,0.215,0.215,60.49520833,60.07708333,63.49354167,63.42854167,63.5375,17.69104167,21.83979167,22.25916667,21.12479167,19.569375,0.7512346,2.54103909,1.108931721,1.014226185,1.01998756,0,0,0,1,1,1,1.336386735,2.833670951,1.826241851
DE-Seh,7/30/2010,0,1,1,1,0,0,1,1.209574098,74.00895833,17.39354167,300.52,305.74,300.26,305.08,305.26,301.88,0.365,0.415,0.234,0.432,0.665,0.682,0.22,0.219,0.216,0.207,0.215,0.215,63.63125,60.49520833,60.07708333,63.49354167,63.42854167,22.33583333,17.69104167,21.83979167,22.25916667,21.12479167,1.58982086,0.7512346,2.54103909,1.108931721,1.014226185,0,0,0,1,1,1,2.497144868,2.400444079,1.712411523
DE-Seh,10/9/2010,1,0,1,0,0,0,1,2.260291867,79.10354167,13.50541667,291.6,293.76,296.82,278.56,293.52,302.66,0.535,0.615,0.551,0.495,0.513,0.468,0.146,0.143,0.163,0.163,0.199,0.193,79.561875,76.91479167,67.63708333,67.796875,72.593125,17.70895833,14.84085417,15.11041667,13.896,22.204375,2.643705465,0.776255056,1.994988496,2.709322913,1.290319808,0,0,0,1,1,1,1.601292086,2.117423007,0
DE-Seh,10/10/2010,1,0,1,0,0,0,1,1.867455442,69.17125,12.3840625,291.08,291.6,293.76,296.82,278.56,293.52,0.522,0.535,0.615,0.551,0.495,0.513,0.152,0.146,0.143,0.163,0.163,0.199,79.10354167,79.561875,76.91479167,67.63708333,67.796875,13.50541667,17.70895833,14.84085417,15.11041667,13.896,2.260291867,2.643705465,0.776255056,1.994988496,2.709322913,0,0,0,1,1,1,1.934324913,2.024312532,0.481508523
US-Twt,8/12/2015,1,0,0,0,0,0,1,2.769317813,60.62241667,20.13320833,301.14,304.18,306.84,304.02,304.94,305.9,0.694,0.709,0.786,0.741,0.684,0.642,0.196,0.193,0.194,0.173,0.157,0.134,60.88308333,59.16928261,62.42219565,54.72123913,61.54004348,20.13552083,21.70404348,21.16954348,20.63217391,22.73026087,3.605929667,2.638813478,3.424606435,2.83664587,3.890379652,0,0,1,0,1,1,6.835347031,5.091922076,8.228583336
US-Ced,4/26/2014,0,1,0,0,1,0,0,2.52076087,75.34217391,11.78586957,292.64,279.32,289.42,299.7,297.32,299.46,0.497,0.624,0.712,0.775,0.748,0.793,0.126,0.111,0.109,0.107,0.108,0.116,53.28130435,53.6125,72.58125,76.57708333,68.78043478,1.396304348,8.9724375,20.398125,17.71604167,21.15717391,2.931456522,2.9163125,1.8245,1.594416667,2.023347826,0,0,1,1,0,0,2.75343213,2.942222088,3.884228468
US-Ced,10/18/2014,1,0,1,0,1,0,0,2.13475,70.10625,15.643125,293.88,291.74,303.68,294.28,299.12,292.64,0.732,0.698,0.773,0.811,0.748,0.497,0.111,0.111,0.113,0.114,0.109,0.126,81.08806522,64.91891304,62.97166667,56.24729167,75.34217391,15.5776087,25.27173913,21.475,18.09502083,11.78586957,1.69923913,2.597673913,2.137958333,1.985395833,2.52076087,0,0,1,1,0,0,2.035301393,3.227893159,2.951735258
DK-Ris,5/22/2008,0,1,0,1,0,0,1,1.351666667,71.92020833,9.840395833,293.96,301.54,300.72,301.66,295.72,292.32,0.778,0.746,0.619,0.529,0.583,0.567,0.191,0.178,0.179,0.179,0.176,0.175,62.31208333,68.02083333,67.23104167,72.10645833,71.79208333,15.91839583,14.99760417,14.02452083,11.89064583,12.11239583,2.013333333,0.908958333,1.085833333,1.95875,2.939166667,0,0,1,1,0,1,2.806143214,3.347476518,2.898472548
DK-Ris,5/23/2008,0,1,0,1,0,0,1,1.486666667,69.74458333,11.327625,297.9,293.96,301.54,300.72,301.66,295.72,0.668,0.778,0.746,0.619,0.529,0.583,0.192,0.191,0.178,0.179,0.179,0.176,71.92020833,62.31208333,68.02083333,67.23104167,72.10645833,9.840395833,15.91839583,14.99760417,14.02452083,11.89064583,1.351666667,2.013333333,0.908958333,1.085833333,1.95875,0,0,1,1,0,1,3.557805798,3.239308155,2.805195332
DK-Ris,5/31/2008,0,1,0,1,0,0,1,2.300833333,70.82625,15.22,295.1,291.6,286.32,290.84,287.4,296.22,0.732,0.766,0.697,0.76,0.747,0.757,0.195,0.192,0.19,0.188,0.187,0.187,70.86479167,71.67625,66.37645833,75.67041667,59.593125,14.8325,12.67708333,11.91164583,10.54164583,11.279125,2.789166667,3.328125,3.820833333,1.3275,2.638125,0,0,1,1,0,1,4.530451531,4.196811385,6.287763596
FR-Gri,6/6/2015,0,1,1,0,0,0,1,2.21453425,63.88291667,14.87635417,300.78,301.98,297,285.66,291.2,292.8,0.538,0.67,0.613,0.66,0.58,0.556,0.192,0.189,0.201,0.188,0.187,0.19,62.6,68.56770833,74.90395833,70.62416667,57.9084375,17.63427083,14.03691667,8.705447917,11.40516667,10.027875,1.981796304,1.211558464,2.721666625,2.025812516,1.703209481,0,0,1,1,1,0,1.107340779,2.871076334,0.787284791
DE-RuS,3/30/2018,0,0,1,1,0,0,1,2.501234417,72.5605968,8.362234375,280.38,276.72,275.74,277.44,280.78,284.76,0.494,0.639,0.537,0.565,0.709,0.584,0.149,0.164,0.164,0.162,0.147,0.145,53.16415193,61.13566989,70.49029587,82.29124762,78.29364795,-0.562637276,-0.246480645,0.56002173,6.510540833,10.65638427,3.33983125,3.201744167,3.565990625,1.474786421,1.162177242,0,1,0,0,0,0,2.980444922,2.052027532,0.88712126
DE-RuS,4/6/2018,0,1,0,0,0,0,1,2.493253875,69.51692405,7.382752674,289,280.38,276.72,275.74,277.44,280.78,0.725,0.494,0.639,0.537,0.565,0.709,0.164,0.149,0.164,0.164,0.162,0.147,72.5605968,53.16415193,61.13566989,70.49029587,82.29124762,8.362234375,-0.562637276,-0.246480645,0.56002173,6.510540833,2.501234417,3.33983125,3.201744167,3.565990625,1.474786421,0,1,0,0,0,0,3.559653478,3.329441728,3.025732756
DE-RuS,4/7/2018,0,1,0,0,0,0,1,2.300339729,57.03487371,14.08159896,288.9,289,280.38,276.72,275.74,277.44,0.57,0.725,0.494,0.639,0.537,0.565,0.164,0.164,0.149,0.164,0.164,0.162,69.51692405,72.5605968,53.16415193,61.13566989,70.49029587,7.382752674,8.362234375,-0.562637276,-0.246480645,0.56002173,2.493253875,2.501234417,3.33983125,3.201744167,3.565990625,0,1,0,0,0,0,3.474724102,3.320251905,3.255389929
US-A74,9/18/2017,1,0,0,1,0,0,1,2.280413333,63.396,26.60866667,300.78,297.94,301.66,301.6,301.86,293.88,0.656,0.447,0.4,0.433,0.476,0.61,0.186,0.184,0.189,0.161,0.16,0.164,71.21666667,56.22166667,59.61,66.89333333,62.28285714,23.07555556,21.94083333,25.80625,19.00333333,17.43071429,3.171822222,3.561975,3.6447375,2.279633333,3.523378571,0,1,0,0,0,1,9.77138787,4.62778623,4.164859772
US-Tw2,2/3/2013,0,0,1,0,0,0,1,3.334782609,66.36052174,12.42417391,288.16,290.52,289.66,287.48,285.1,281.94,0.377,0.381,0.37,0.368,0.361,0.281,0.115,0.112,0.112,0.113,0.113,0.104,65.312,55.57769231,67.75684091,66.16586957,59.25375,13.666,13.86469231,8.560954545,7.803065217,12.22375,1.0556,1.590307692,2.884227273,3.694173913,0.98625,0,1,0,1,1,0,2.755772455,2.247263819,1.856529236
US-Bi2,8/28/2018,0,1,1,1,0,0,1,3.216486729,72.42583333,16.91583333,300.56,295.76,301.26,298.88,298.6,299.02,0.784,0.766,0.808,0.698,0.758,0.749,0.19,0.19,0.19,0.19,0.19,0.191,72.698125,61.98388889,65.14025,72.10479167,68.79212766,16.95791667,18.86333333,19.24725,17.119375,17.4706383,2.475397396,2.704905556,1.786146275,2.409185604,3.597426553,0,1,0,1,1,1,3.042639369,4.114864748,4.184374809
US-Bi2,9/6/2018,1,0,0,0,0,0,1,2.212317692,66.31076923,18.8674359,303.5,303.5,300.12,299.56,300.56,295.76,0.667,0.667,0.758,0.798,0.784,0.766,0.189,0.189,0.188,0.189,0.19,0.19,66.31076923,64.3025,68.46708333,72.42583333,72.698125,18.8674359,18.84305556,17.71,16.91583333,16.95791667,2.212317692,1.888170222,2.896682917,3.216486729,2.475397396,0,1,0,1,1,1,4.05822585,3.433173177,5.752086163
US-Bi2,12/2/2018,1,0,1,1,0,0,1,1.873067674,78.92023256,8.049162791,286.32,284.98,303.5,303.5,300.12,299.56,0.263,0.226,0.667,0.667,0.758,0.798,0.051,0.052,0.189,0.189,0.188,0.189,74.84,66.31076923,66.31076923,64.3025,68.46708333,11.15227273,18.8674359,18.8674359,18.84305556,17.71,2.798082045,2.212317692,2.212317692,1.888170222,2.896682917,0,1,0,1,1,1,1.11357537,1.619044157,1.048386216