Site,Date,Month_1,Month_2,Month_3,Month_4,Vegetation_1,Vegetation_2,Vegetation_3,WS,RH,TA,Eeflux_LST,Eeflux_NDVI,Eeflux_Albedo,TA-1,TA-2,TA-3,TA-4,TA-5,WS-1,WS-2,RH-1,RH-2,RH-3,Eeflux_LST-1,Eeflux_LST-2,Eeflux_LST-3,Eeflux_LST-4,Eeflux_LST-5,Eeflux_Albedo-1,Eeflux_Albedo-2,Eeflux_NDVI-1,Eeflux_NDVI-2,Site_1,Site_2,Site_3,Site_4,Site_5,LE_bowen_corr_mm,LE_bowen_corr_pred,Eeflux_ET
Site,Date,Month_1,Month_2,Month_3,Month_4,Vegetation_1,Vegetation_2,Vegetation_3,WS,RH,TA,Eeflux_LST,Eeflux_NDVI,Eeflux_Albedo,TA-1,TA-2,TA-3,TA-4,TA-5,WS-1,WS-2,RH-1,RH-2,RH-3,Eeflux_LST-1,Eeflux_LST-2,Eeflux_LST-3,Eeflux_LST-4,Eeflux_LST-5,Eeflux_Albedo-1,Eeflux_Albedo-2,Eeflux_NDVI-1,Eeflux_NDVI-2,Site_1,Site_2,Site_3,Site_4,Site_5,LE_bowen_corr_mm,LE_bowen_corr_pred,Eeflux_ET
US-Kon,9/11/2011,1,0,0,1,0,1,0,1.814148936,68.05019149,24.36574468,305.04,0.621,0.182,24.6814,20.01802381,18.24747826,18.058,32.50093182,2.550666667,2.497595238,67.07153333,62.20111905,60.73032609,302.4,305.94,306.56,304.42,311.26,0.184,0.185,0.571,0.557,0,0,1,1,0,1.831351065,2.938212002,0
US-Kon,6/29/2008,0,1,1,0,0,1,0,3.444311111,61.80731111,22.0884,302.82,0.759,0.184,26.41519048,24.40408333,23.89613043,25.46236364,25.78339583,3.600880952,2.134666667,67.97847619,64.81660417,61.93021739,301.04,305.66,301.6,302.68,305.68,0.184,0.182,0.727,0.73,0,0,1,1,0,5.944439483,4.856454522,0.051376794
US-Kon,8/4/2009,1,0,0,0,0,1,0,3.08855,64.41075,27.75805,302.36,0.817,0.197,21.80941304,22.73157447,21.25221277,25.80917778,25.58877778,2.913673913,3.514595745,54.03871739,58.12365957,63.87914894,298.62,302.04,299.54,306.18,299.98,0.197,0.197,0.795,0.798,0,0,1,1,0,6.313314999,7.051623688,0
US-Kon,9/26/2008,1,0,0,1,0,1,0,3.260869565,66.74797826,23.3698913,303.48,0.595,0.174,23.23416667,21.52993617,19.95242553,19.74565957,18.70989362,3.083895833,1.887340426,71.85941667,69.19376596,73.94559574,300.96,300.74,297.62,301.6,298.52,0.175,0.18,0.651,0.558,0,0,1,1,0,3.512655257,3.771397738,0
US-Kon,10/20/2008,1,0,1,0,0,1,0,3.22887234,77.99351064,14.28959574,290.04,0.377,0.166,14.39425714,12.65040426,10.21631818,16.14379167,17.19647917,3.706714286,3.335468085,71.43211429,67.6246383,56.09372727,291.68,295.18,291.34,298.98,300.2,0.17,0.172,0.492,0.502,0,0,1,1,0,1.042400985,1.571093791,3.694603205
US-Kon,8/25/2008,1,0,0,0,0,1,0,2.0415625,71.92410417,20.75620833,299.96,0.725,0.186,26.34005714,23.34260417,23.4465625,22.38073913,25.59133333,2.487342857,2.167291667,71.47688571,61.3665625,61.17902083,296.66,301.62,299.2,300.82,303.24,0.186,0.199,0.717,0.646,0,0,1,1,0,4.324280139,4.556276291,0
US-Kon,9/10/2011,1,0,0,1,0,1,0,2.550666667,67.07153333,24.6814,302.4,0.571,0.184,20.01802381,18.24747826,18.058,32.50093182,30.252975,2.497595238,2.5775,62.20111905,60.73032609,63.25760976,305.94,306.56,304.42,311.26,306.06,0.185,0.188,0.557,0.6,0,0,1,1,0,3.680803732,3.013027695,42.63781738
US-Kon,8/12/2009,1,0,0,0,0,1,0,2.765787234,58.76129787,26.87102128,307.16,0.774,0.198,25.92388636,25.92388636,27.75805,21.80941304,22.73157447,1.54,1.54,68.44568182,68.44568182,64.41075,301.68,301.68,302.36,298.62,302.04,0.198,0.198,0.794,0.794,0,0,1,1,0,5.167539324,6.413395383,0
US-Kon,9/29/2009,1,0,0,1,0,1,0,1.269731707,45.33868293,14.94117073,296.98,0.637,0.185,19.51848387,16.92853488,16.26593617,22.31806383,22.31806383,2.813548387,2.206697674,56.21216129,64.1992093,63.33170213,294.76,293.82,295.8,302.14,302.14,0.184,0.183,0.652,0.586,0,0,1,1,0,2.772878584,2.609641667,0
US-Kon,5/2/2010,0,1,0,1,0,1,0,2.617659091,51.46731818,18.29725,306.14,0.453,0.157,15.25441304,15.05134146,12.74044444,11.2095122,8.408904762,1.567630435,1.625463415,56.35221739,39.30114634,42.31658333,296.62,300.26,296.02,295.64,289.74,0.157,0.168,0.509,0.339,0,0,1,1,0,2.833365132,2.081837635,0.499347329
US-Kon,8/11/2009,1,0,0,0,0,1,0,1.54,68.44568182,25.92388636,301.68,0.794,0.198,27.75805,21.80941304,22.73157447,21.25221277,25.80917778,3.08855,2.913673913,64.41075,54.03871739,58.12365957,302.36,298.62,302.04,299.54,306.18,0.197,0.197,0.817,0.795,0,0,1,1,0,4.885686319,6.678434082,0
US-Kon,10/1/2007,1,0,1,0,0,1,0,2.863541667,54.19022917,19.9459375,305.1,0.527,0.179,21.35322917,17.7871875,22.93922917,23.50082609,21.77787234,2.2995625,1.765604167,50.22252083,60.766375,60.1035,305.14,301.76,303.98,300.5,303.72,0.18,0.179,0.593,0.557,0,0,1,1,0,2.496970581,2.227922949,2.450853348
US-Kon,9/20/2009,1,0,0,1,0,1,0,3.111893617,63.66474468,22.31806383,302.14,0.681,0.183,18.58606522,17.58402703,22.54,22.01661702,20.26732609,1.752869565,1.93027027,64.46506522,62.53910811,68.08288235,299.62,297.9,300.02,300.8,299.6,0.179,0.194,0.695,0.753,0,0,1,1,0,2.892920228,3.867348254,2.379404068
US-Kon,8/26/2011,1,0,0,0,0,1,0,2.8815,39.93920833,32.37916667,309.92,0.7,0.188,35.26758333,33.16778723,32.22820833,30.11169767,34.27105556,3.908354167,3.046617021,49.8745625,73.78002128,65.1839375,309.34,313.74,308.7,303.56,314.42,0.181,0.188,0.691,0.732,0,0,1,1,0,4.638103884,6.53341836,0
US-Kon,9/7/2010,1,0,0,1,0,1,0,1.371289474,56.32647368,22.455,304.28,0.566,0.177,21.476275,19.423475,24.38464583,23.66775,24.1275641,3.24,2.9809,55.81265,60.950025,59.17627083,301.56,299.26,304.9,303.36,302.34,0.18,0.185,0.642,0.673,0,0,1,1,0,2.865908967,2.721208367,3.633714437
US-Kon,9/8/2007,1,0,0,1,0,1,0,2.126583333,69.60566667,23.48422917,304.04,0.624,0.179,25.06476087,27.23914583,26.6540625,25.64804255,24.58470833,2.687478261,3.0415625,52.00019565,55.40239583,42.152,301.04,306.8,308.86,308.76,308.78,0.179,0.182,0.646,0.581,0,0,1,1,0,3.115633645,3.519819079,0
US-Kon,6/25/2009,0,1,1,0,0,1,0,2.424954545,76.7595,29.50206818,305.3,0.828,0.199,32.00557447,25.6796,27.19396552,23.02111905,18.32269565,3.450787234,2.6668,66.66685106,72.6889,69.71158621,308.8,301.22,299.72,301.16,295.94,0.196,0.184,0.837,0.21,0,0,1,1,0,5.874549695,7.073801295,0
DE-Kli,3/30/2011,0,0,1,1,0,0,1,2.441666667,49.12583333,9.072291667,291.08,0.356,0.155,4.9,3.670833333,5.74375,5.298958333,5.2975,1.988333333,2.42875,62.614375,65.000625,65.79583333,289.02,285.92,286.6,283.9,287.94,0.138,0.138,0.298,0.348,0,0,0,1,0,1.174076235,2.048880129,0
DE-Kli,10/13/2013,1,0,1,0,0,0,1,2.153333333,84.33541667,7.000625,282.3,0.27,0.146,8.445625,7.734375,15.665625,13.955,9.535833333,3.514166667,3.65375,64.3575,68.23375,64.63833333,274.58,283.36,282.68,291.58,284.2,0.17,0.171,0.189,0.416,0,0,0,1,0,1.647677223,0.807439529,3.185420275
DE-Kli,7/10/2010,0,1,1,1,0,0,1,1.868697083,54.64312496,24.24569446,303.6,0.751,0.186,21.91708325,17.74986117,14.00416663,19.90638896,21.54409725,1.135788333,1.031634167,57.57951396,63.28034698,72.89944446,302.84,298.4,291.66,297.88,297.52,0.186,0.185,0.742,0.75,0,0,0,1,0,8.326913636,5.678838675,1.178292155
DE-Kli,9/16/2012,1,0,0,1,0,0,1,1.953541667,66.27541667,12.69541667,292.5,0.759,0.158,11.04770833,18.98291667,20.144375,16.72020833,13.24104167,2.893125,2.008333333,63.318125,65.61770833,54.96291667,290.9,301.3,300.34,294.14,294.3,0.158,0.158,0.814,0.733,0,0,0,1,0,1.937072987,3.44828472,0
DE-Kli,5/28/2015,0,1,0,1,0,0,1,2.0525,62.94895833,11.54291667,289.7,0.684,0.188,9.533541667,12.63375,12.63375,8.795833333,10.40020833,2.4875,2.27375,78.38125,59.48020833,59.48020833,285.74,292.98,292.98,287.34,279.82,0.225,0.167,0.621,0.583,0,0,0,1,0,3.547390076,3.435452824,1.064328194
DE-Kli,8/8/2012,1,0,0,0,0,0,1,2.163541667,66.10541667,14.14875,294.64,0.89,0.182,17.525625,14.746875,21.26916667,14.35104167,11.57104167,1.022291667,1.722083333,60.81916667,62.44458333,68.55916667,300.06,290.36,300.9,291.6,288.9,0.182,0.182,0.754,0.706,0,0,0,1,0,2.77156945,3.405726035,1.260068536
DE-Kli,5/9/2011,0,1,0,1,0,0,1,2.964166667,48.81166667,13.36395833,296.96,0.726,0.182,11.33833333,13.22645833,10.423125,8.011458333,11.020625,3.166666667,2.957708333,55.530625,40.22833333,45.574375,292.5,296.08,293.38,289.06,292.62,0.182,0.182,0.778,0.703,0,0,0,1,0,4.058251766,5.007440741,4.668118
DE-Kli,5/10/2017,0,1,0,1,0,0,1,2.762291667,59.65208333,6.775416667,281.16,0.304,0.19,2.760416667,6.213333333,11.28645833,5.971666667,7.498541667,1.875208333,3.531041667,74.22,72.24770833,76.68854167,275.9,284.36,292,284.34,283.14,0.189,0.148,0.041,0.514,0,0,0,1,0,1.342467384,1.868083625,1.218460798
DE-Kli,5/6/2016,0,1,0,1,0,0,1,2.925416667,60.64229167,13.66604167,295.78,0.843,0.189,9.223541667,5.832083333,0.953125,5.959166667,7.186666667,1.770416667,2.795416667,80.78666667,58.524375,84.08541667,289.28,289.84,277.06,287.54,290.98,0.189,0.172,0.819,0.805,0,0,0,1,0,4.574989093,4.363222885,0
DE-Kli,7/26/2007,0,1,1,1,0,0,1,1.616419792,58.87402882,17.6947222,298.68,0.755,0.183,19.04902779,19.17597222,23.41756944,21.08215278,18.08333331,1.1959975,1.263888333,79.68777344,69.2537241,54.66712239,301.4,301.62,301.76,294.96,293.42,0.184,0.183,0.754,0.72,0,0,0,1,0,5.136966694,4.242631144,0
DE-Kli,7/15/2018,0,1,1,1,0,0,1,1.351666667,68.974375,17.50020833,300.84,0.68,0.168,17.97625,21.69395833,19.806875,15.78729167,13.01875,1.970833333,1.928541667,69.04833333,47.18541667,41.40125,295.96,303.98,307.18,303.48,300.1,0.168,0.174,0.697,0.68,0,0,0,1,0,3.791835165,3.919762127,4.106770754
DE-Kli,4/19/2015,0,1,0,0,0,0,1,1.849583333,62.7725,5.462708333,290.82,0.801,0.163,9.636666667,7.298333333,10.27979167,9.011875,5.577708333,2.108541667,3.28875,72.9725,63.70291667,70.07854167,285.06,286.54,293.04,285.7,288.54,0.161,0.161,0.577,0.736,0,0,0,1,0,2.96141708,2.949499337,3.693672895
DE-Kli,8/1/2018,1,0,0,0,0,0,1,1.482916667,51.47479167,25.65145833,307.92,0.582,0.188,26.47041667,24.84875,21.09854167,21.024375,20.4525,1.430416667,1.074166667,42.39604167,52.35833333,63.87041667,311.92,307.88,305.34,309.16,298.66,0.187,0.186,0.748,0.751,0,0,0,1,0,4.377967114,5.045246019,4.784526348
DE-Kli,5/1/2011,0,1,0,1,0,0,1,3.160208333,52.74729167,8.011458333,289.06,0.76,0.178,11.020625,15.29979167,11.45125,8.712083333,12.86520833,3.291875,2.349583333,68.6,44.24583333,49.77270833,292.62,295.98,294.04,293.42,292.1,0.178,0.179,0.709,0.589,0,0,0,1,0,3.132082047,3.395163817,4.481790066
DE-Kli,9/8/2009,1,0,0,1,0,0,1,2.343221667,58.12159729,16.23534727,296.82,0.293,0.175,16.1598611,12.78360421,13.62909723,19.14458325,11.74895838,2.587485417,2.785105625,54.1766889,63.49719479,65.28446988,294.42,291.62,292.32,299.16,292.8,0.169,0.169,0.43,0.378,0,0,0,1,0,1.884215018,1.69795979,2.481332541
DE-Kli,9/12/2010,1,0,0,1,0,0,1,2.256043542,59.16484567,15.81798608,296.16,0.589,0.176,13.95930554,13.13034721,9.358590229,8.795354187,21.81680558,1.770355625,2.858515417,72.29922758,82.01272929,71.260428,294.84,288.88,290.14,288.98,301.34,0.176,0.176,0.22,0.392,0,0,0,1,0,1.439390168,2.178265469,0
DE-Kli,6/9/2008,0,1,1,0,0,0,1,1.30307875,57.14444448,18.63534722,301.2,0.732,0.198,16.94055554,16.94055554,16.89868053,15.28020837,15.16805548,2.439619375,2.439619375,58.22875015,58.22875015,62.62361095,302.76,302.76,296.84,299.3,300.46,0.195,0.195,0.71,0.71,0,0,0,1,0,2.560457428,4.057982565,3.237899065
DE-Kli,9/25/2015,1,0,0,1,0,0,1,2.157916667,80.52583333,11.62916667,284.36,0.296,0.168,21.46041667,19.82,12.250625,13.83333333,14.29375,1.410833333,1.20125,56.07833333,56.61041667,67.6875,302.18,299.92,290.24,290.44,290.3,0.184,0.179,0.363,0.518,0,0,0,1,0,1.787594885,0.852645503,2.516218424
DE-Kli,11/2/2014,1,0,1,1,0,0,1,2.502916667,70.90875,12.49395833,283.14,0.635,0.175,3.869791667,6.429375,6.203333333,7.036875,12.53583333,2.88375,3.183541667,83.45333333,85.081875,86.55041667,282.14,280.42,278.32,286.26,287.14,0.167,0.162,0.799,0.418,0,0,0,1,0,1.12285123,2.771399917,3.723470449
DE-Kli,5/22/2016,0,1,0,1,0,0,1,3.057083333,54.74875,18.711875,300,0.884,0.207,14.96270833,13.33458333,7.267083333,14.39083333,14.39083333,1.777708333,2.464166667,64.95208333,69.98104167,77.17291667,289.38,293.9,284.06,293.1,293.1,0.208,0.208,0.663,0.902,0,0,0,1,0,6.062439106,4.964231221,0
DE-Kli,5/7/2016,0,1,0,1,0,0,1,3.789375,49.16666667,15.13416667,292.34,0.838,0.191,13.66604167,9.223541667,5.832083333,0.953125,5.959166667,2.925416667,1.770416667,60.64229167,80.78666667,58.524375,295.78,289.28,289.84,277.06,287.54,0.189,0.189,0.843,0.819,0,0,0,1,0,5.298737773,5.000818807,5.818086147
DE-Kli,8/31/2009,1,0,0,0,0,0,1,2.587485417,54.1766889,16.1598611,294.42,0.43,0.169,12.78360421,13.62909723,19.14458325,11.74895838,16.62576396,2.785105625,3.791996458,63.49719479,65.28446988,75.39963477,291.62,292.32,299.16,292.8,298.1,0.169,0.169,0.378,0.469,0,0,0,1,0,1.707903419,2.177232996,0
DE-Kli,8/19/2007,1,0,0,0,0,0,1,1.303326875,63.71202649,17.26013888,295.6,0.743,0.151,16.45486111,18.65986105,16.20756945,18.68930557,17.6947222,1.17715,1.482714375,74.91955977,57.29123802,64.04675741,299.2,298.92,299,294.22,298.68,0.162,0.165,0.765,0.695,0,0,0,1,0,3.543213325,3.591411923,2.828510523
DE-Kli,9/15/2014,1,0,0,1,0,0,1,2.325416667,92.43104167,16.39395833,295.56,0.42,0.129,19.135,19.520625,15.56208333,21.14104167,16.46875,1.387916667,1.755833333,74.32416667,72.911875,74.66583333,287.26,297.98,296.18,302.62,298.8,0.224,0.168,0.184,0.497,0,0,0,1,0,2.216969027,1.192996567,1.686466575
DE-Kli,6/3/2017,0,1,1,0,0,0,1,2.73,62.031875,18.53208333,297.06,0.667,0.174,16.15854167,14.39041667,6.775416667,2.760416667,6.213333333,1.543125,2.034791667,54.06083333,78.415,59.65208333,300.96,292.9,281.16,275.9,284.36,0.174,0.178,0.75,0.253,0,0,0,1,0,3.02019821,3.654927381,3.206347704
DE-Kli,9/11/2016,1,0,0,1,0,0,1,1.578125,61.08083333,21.51625,301.8,0.343,0.184,20.11375,18.72083333,19.80395833,17.96458333,19.98208333,2.351875,1.71375,71.95,75.86333333,65.92645833,298.7,296.86,298.82,291.66,296.42,0.185,0.185,0.44,0.295,0,0,0,1,0,1.275053232,2.836804251,1.079455376
DE-Kli,10/25/2014,1,0,1,0,0,0,1,3.271875,86.55041667,6.203333333,278.32,0.775,0.165,7.036875,12.53583333,11.98395833,12.6,11.20333333,1.712291667,2.91625,94.80104167,86.59291667,88.935,286.26,287.14,282.9,285.62,287.82,0.168,0.151,0.768,0.457,0,0,0,1,0,1.670721316,2.241635512,0
DE-Kli,7/13/2014,0,1,1,1,0,0,1,2.198125,74.66583333,15.56208333,296.18,0.509,0.159,21.14104167,16.46875,13.88625,16.86916667,16.86916667,2.771041667,1.796666667,45.98895833,58.658125,65.35770833,302.62,298.8,290.94,296.38,296.38,0.151,0.151,0.6,0.682,0,0,0,1,0,2.804172043,2.791149195,0
US-SO2,5/19/2006,0,1,0,1,1,0,0,2.7615,29,23.10933333,308.3,0.487,0.152,26.53241379,25.68172414,24.61965517,22.30703704,23.1175,2.01137931,2.275517241,29.21034483,22.78551724,29.26896552,301.66,312.76,311.02,314.26,307.62,0.151,0.151,0.02,0.386,1,0,1,0,0,4.262713025,3.418273703,0.008706351
US-SO2,1/28/2006,0,0,0,1,1,0,0,2.446136364,32.64009091,9.646954545,284.9,0.322,0.152,9.886590909,12.28868182,7.3356875,14.13418182,13.914,1.889545455,1.825227273,11.90272727,28.84181818,61.35,287.9,290.1,287.08,290.68,289.18,0.149,0.15,0.358,0.367,1,0,1,0,0,1.265537258,2.087004212,0
US-SO2,3/8/2006,0,0,1,1,1,0,0,3.1464,72.51,5.59928,288.48,0.326,0.151,5.54516,7.509833333,13.02952174,12.2645,10.78157895,1.46,2.958333333,61.5588,55.99,19.46869565,284.84,288.86,294.56,292.02,289.56,0.152,0.151,0.374,0.368,1,0,1,0,0,2.613221472,1.945285674,2.516620636
US-Goo,4/28/2004,0,1,0,0,0,1,0,2.422413793,49.5,19.96206897,300.92,0.702,0.163,19.552,18.35172414,22.88148148,21.56428571,19.62857143,2.7624,2.608275862,43.644,67.61724138,57.87407407,296.88,298.64,300.24,298.44,298.6,0.163,0.163,0.705,0.704,0,1,0,0,0,6.327715961,6.051921644,0
US-Goo,8/21/2002,1,0,0,0,0,1,0,1.558076923,70.96153846,28.58465385,300.06,0.808,0.148,30.49175,28.57142857,25.59375,27.79310345,28.62857143,0.928333333,1.480357143,73.483375,80.03571429,86.28440625,303.7,302.64,294.7,303.46,302.7,0.152,0.154,0.911,0.717,0,1,0,0,0,8.492655084,7.832157002,4.294603825
US-Goo,7/24/2003,0,1,1,1,0,1,0,1.509090909,57.67272727,26.24090909,301.76,0.834,0.158,25.09310345,29.76129032,29.76129032,31.01831818,29.72857143,2.223448276,2.147096774,71.1137931,78.21612903,78.21612903,297.84,300.94,300.94,306.06,297.98,0.159,0.16,0.758,0.792,0,1,0,0,0,10.05311161,8.508176774,4.152947426
US-Goo,8/11/2004,1,0,0,0,0,1,0,1.350833333,91.4125,23.69166667,302.8,0.736,0.159,28.41363636,26.16666667,23.50384615,24.43214286,29.82777778,1.180909091,1.712592593,70.99090909,68.64448148,61.35773077,299.36,299.7,300.98,301.24,297.62,0.155,0.148,0.751,0.814,0,1,0,0,0,3.724563222,4.853587,2.620092392
US-Goo,12/20/2002,1,1,0,0,0,1,0,3.705,49.845,9.84,284.14,0.446,0.151,12.40005,8.22,6.6,4.78,7.452380952,2.7335,1.9785,70.46,77.07,84.24,287.4,284.42,284.98,279.7,285.94,0.154,0.153,0.443,0.455,0,1,0,0,0,3.347738861,2.254981692,1.05458653
US-Goo,10/8/2005,1,0,1,0,0,1,0,2.51,67.976,15.716,295.02,0.693,0.149,24.66086957,26.38,26.3375,27.37083333,27.55,3.291304348,2.0984,73.75217391,69.388,70.31254167,302.36,302.32,301.98,302.52,299.82,0.147,0.148,0.733,0.727,0,1,0,0,0,2.494799462,3.830784736,1.200462937
US-Goo,8/18/2004,1,0,0,0,0,1,0,1.521923077,65.35,28.35,304.44,0.796,0.166,24.00714286,25.16,23.64,22.116,22.116,0.957142857,1.588,65.35714286,52.89,58.556,300.14,300.88,300.48,299.06,299.06,0.166,0.166,0.789,0.825,0,1,0,0,0,8.344594835,7.237524636,5.175475121
US-Goo,8/5/2002,1,0,0,0,0,1,0,1.69,68.48518519,30.04448148,300.16,0.84,0.163,30.26161538,30.26161538,30.24619231,30.29619231,27.83666667,1.368076923,1.368076923,66.41923077,66.41923077,75.51153846,305.82,305.82,302.66,301.76,301.94,0.16,0.16,0.827,0.827,0,1,0,0,0,9.066151446,8.894125789,5.354084492
US-Goo,5/18/2002,0,1,0,1,0,1,0,3.844375,68.278125,13.834375,294.58,0.741,0.165,23.92592593,22.2037037,18.9862069,9.684791667,12.3840625,2.381851852,2.303333333,83.4037037,72.42222222,74.22413793,296.08,299.56,298.6,288.78,291.08,0.165,0.168,0.455,0.744,0,1,0,0,0,6.150681534,5.284768123,2.215865374
US-Goo,7/5/2002,0,1,1,1,0,1,0,1.338148148,65.75925926,30.47777778,308.1,0.747,0.163,30.47777778,29.78804,30.02596296,25.46551724,27.23333333,1.338148148,1.4048,65.75925926,66.848,63.87037037,308.1,302.98,304,303.62,304.2,0.163,0.164,0.747,0.751,0,1,0,0,0,4.910525081,7.07606701,4.052684784
US-Goo,6/3/2002,0,1,1,0,0,1,0,1.512666667,68.38333333,29.56,307.08,0.744,0.17,29.50773077,28.384,25.89230769,26.32916667,23.33793103,1.525384615,1.1524,63.83080769,66.712,72.77692308,301.12,303.42,300.54,302.56,297.88,0.17,0.17,0.776,0.607,0,1,0,0,0,7.798956337,6.56922773,5.057304382
US-Goo,8/6/2002,1,0,0,0,0,1,0,1.406538462,74.7385,29.38076923,305.08,0.831,0.164,30.04448148,30.04448148,30.26161538,30.26161538,30.24619231,1.69,1.69,68.48518519,68.48518519,66.41923077,300.16,300.16,305.82,305.82,302.66,0.163,0.163,0.84,0.84,0,1,0,0,0,8.166965583,8.035683464,4.405718803
US-SP2,11/12/2004,1,0,1,1,0,1,1,1.576058824,76.98535294,20.99294118,295.62,0.765,0.11,24.51166667,21.30454545,19.182,15.76954545,26.855,1.308166667,0.632181818,42.535,36.45181818,54.761,298.42,295.8,295.4,293.96,301.3,0.111,0.11,0.797,0.775,0,1,0,0,1,4.952688821,4.32165807,0
US-SP2,10/27/2004,1,0,1,0,0,1,1,1.3474375,60.38375,23.72875,298.78,0.804,0.123,25.24307692,24.15222222,22.1845,27.51333333,23.45363636,1.197,1.260444444,60.52769231,58.90555556,63.301,300,296.98,296.26,299.06,298.66,0.124,0.125,0.821,0.781,0,1,0,0,1,9.867431509,6.91207267,3.909767628
US-SP2,5/7/2005,0,1,0,1,0,1,1,1.1723,37.6111,25.029,301.22,0.749,0.12,23.1475,22.89294118,16.95169231,16.95169231,25.03647059,1.73575,1.481588235,45.705,62.94235294,30.24923077,303,297.9,293.86,293.86,300,0.126,0.127,0.779,0.958,0,1,0,0,1,11.02542083,9.075516311,0
US-SP2,5/20/2004,0,1,0,1,0,1,1,1.767826087,47.94913043,28.43,304.22,0.774,0.134,26.54913043,29.49916667,28.88818182,23.9,18.75441176,1.964521739,1.391833333,56.18221739,40.93916667,39.97,300.54,305.58,306.32,300.22,301.96,0.136,0.123,0.284,0.82,0,1,0,0,1,4.070425616,8.302729467,0
US-SP2,8/8/2001,1,0,0,0,0,1,1,0.676,64.6596,31.08564,299.86,0.786,0.122,17.215,13.13214286,12.85005,9.480952381,8.565217391,1.456,2.0825,73.105,62.4,41.15505,293.12,290.12,290.8,288.24,284.8,0.144,0.146,0.608,0.501,0,1,0,0,1,6.282023727,8.336884001,3.63203311
US-SP2,11/20/2001,1,0,1,1,0,1,1,1.16,66.23,21.574,296.28,0.641,0.124,19.19833333,21.23,21.04166667,22.665,23.72133333,1.778571429,2.079166667,78.42095238,71.09458333,61.25666667,298.02,296.94,297.44,297.92,297.04,0.124,0.123,0.688,0.734,0,1,0,0,1,3.347377075,4.389924455,2.748636723
US-Wlr,9/1/2002,1,0,0,1,0,1,0,3.516458333,62.52916667,26.02708333,309.72,0.577,0.186,27.91875,28.57083333,26.96458333,28.65416667,27.51875,2.997291667,3.434791667,65.7,61.475,67.56458333,305.64,310.74,306.76,307.88,311.02,0.189,0.178,0.636,0.576,0,0,1,0,0,3.282704928,3.717496858,4.258979797
US-Wlr,6/29/2002,0,1,1,0,0,1,0,3.414583333,69.39583333,26.11666667,309.68,0.666,0.18,24.55208333,25.64583333,16.41666667,18.10416667,17.8375,2.80375,3.574791667,66.71666667,71.65,58.74166667,308.66,301.2,300.84,304.72,301.1,0.174,0.174,0.732,0.733,0,0,1,0,0,5.0692518,5.638059931,5.24316597
US-Wlr,9/22/2001,1,0,0,1,0,1,0,3.441666667,75.42083333,21.6125,299.7,0.6,0.177,21.84375,25.35,25.51777778,25.51777778,30.62357143,2.871041667,2.553333333,63.84166667,60.07916667,45.33222222,309.12,307.84,303.88,303.88,308.36,0.178,0.181,0.53,0.275,0,0,1,0,0,2.827384065,2.725319469,0.306898773
US-Wlr,6/21/2002,0,1,1,0,0,1,0,3.574791667,71.65,25.64583333,301.2,0.733,0.174,16.41666667,18.10416667,17.8375,13.4875,21.6125,2.96625,2.558958333,58.74166667,57.75208333,58.95833333,300.84,304.72,301.1,297.78,299.7,0.179,0.179,0.571,0.597,0,0,1,0,0,6.021713122,5.059384631,4.960549831
US-Skr,4/23/2008,0,0,1,1,1,0,1,3.857416667,54.84433333,28.54083333,296.6,0.851,0.113,28.60116667,26.42526923,24.82913636,22.62763889,22.99569231,3.663055556,2.634192308,65.10044444,74.46984615,70.59790909,299.12,297.48,297.94,298.86,295.38,0.106,0.106,0.702,0.741,1,0,1,0,1,10.62643997,7.21029273,8.032111168
US-Skr,2/11/2008,0,0,0,1,1,0,1,3.062166667,62.028375,18.71185417,295.94,0.85,0.103,24.165,25.3075,22.35378723,22.67781818,23.11605882,1.448769231,2.066230769,80.24126923,77.63084615,84.3006383,297.66,297.78,296.92,296.9,292.6,0.104,0.107,0.376,0.86,1,0,1,0,1,3.105436938,4.294376413,10.70536375
US-Skr,9/12/2007,1,0,0,0,1,0,1,1.523322581,83.68183871,27.59483871,292.76,0.487,0.096,28.35529032,25.20454054,25.96308696,27.953,29.51966667,1.855,1.857027027,81.63183871,86.34572973,90.79726087,301.74,299.54,300.28,301.48,298.14,0.091,0.083,0.749,0.856,1,0,1,0,1,5.452549017,6.16647619,0.60109669
US-Skr,9/3/2007,1,0,0,0,1,0,1,1.71030303,77.64978788,28.47136364,295.44,0.573,0.092,28.15883333,28.53025,28.53025,28.9618,29.18474286,1.437966667,1.516472222,80.72213333,78.72375,78.72375,302.98,299.82,299.82,301.4,299.62,0.092,0.09,0.864,0.86,1,0,1,0,1,7.397434207,5.808063085,0
US-Skr,5/1/2008,0,1,0,0,1,0,1,3.005486486,62.23340541,23.4102973,301.06,0.727,0.114,24.76330233,24.85002941,25.53019048,28.54083333,28.60116667,2.391255814,3.120676471,77.37323256,66.96808824,59.07233333,296.78,295.2,299.82,296.6,299.12,0.114,0.114,0.522,0.399,1,0,1,0,1,6.821244475,6.191625588,0
US-Skr,4/7/2008,0,0,1,1,1,0,1,2.915939394,84.34669697,24.10290909,296.74,0.829,0.111,25.308275,24.81670732,24.75622222,25.24116129,24.22934615,2.860075,3.098682927,83.000025,77.98021951,80.65016667,299.4,298.56,298.24,294.38,294.72,0.11,0.102,0.844,0.538,1,0,1,0,1,6.969082303,4.666768548,5.794416428
US-Skr,9/4/2007,1,0,0,0,1,0,1,2.087433333,73.86226667,29.51966667,298.14,0.316,0.091,28.47136364,28.15883333,28.53025,28.53025,28.9618,1.71030303,1.437966667,77.64978788,80.72213333,78.72375,295.44,302.98,299.82,299.82,301.4,0.092,0.092,0.573,0.864,1,0,1,0,1,8.329496054,7.211072356,5.912825584
IT-CA2,4/27/2012,0,1,0,0,0,0,1,2.093286817,69.710625,16.98458333,304.2,0.611,0.188,13.65395833,12.16666667,14.27333333,11.12020833,11.12020833,2.349256713,2.48826011,72.37479167,75.92354167,73.67416667,297.36,296.68,288.76,294.42,294.42,0.189,0.188,0.765,0.591,0,1,1,1,1,4.15664261,3.068663995,2.03045702
IT-CA2,7/16/2012,0,1,1,1,0,0,1,3.940714835,41.2925,25.160625,317.48,0.398,0.208,26.89645833,26.89645833,24.51708333,25.85354167,25.85354167,3.405030345,3.405030345,52.04,52.04,60.09125,313.58,313.58,314.74,318.06,318.06,0.208,0.208,0.426,0.426,0,1,1,1,1,1.860322495,2.07831812,0.104192622
DE-Seh,6/28/2010,0,1,1,0,0,0,1,1.108931721,63.49354167,22.25916667,305.26,0.665,0.215,21.12479167,19.569375,19.569375,19.669375,20.07916667,1.014226185,1.01998756,63.42854167,63.5375,63.5375,301.88,302.82,302.82,297.76,303.38,0.215,0.215,0.682,0.675,0,0,1,1,1,2.093895625,2.929758228,1.615260005
US-Tw2,10/14/2012,1,0,1,0,0,0,1,1.118125,66.61253125,19.58534375,297.02,0.579,0.207,18.28928571,17.16723404,16.76729167,16.76729167,16.78234043,1.27625,2.327106383,59.92964286,63.69489362,65.92166667,294.18,297.46,297.52,297.52,296.14,0.208,0.206,0.53,0.507,1,0,1,1,0,1.428967784,2.114224789,2.291054726
US-Ced,5/1/2010,0,1,0,1,1,0,0,2.166979167,50.6875,23.01064583,298.8,0.68,0.111,8.343916667,7.006042553,-3.323104167,7.486875,23.71276596,2.4045,2.329957447,39.85291667,33.41276596,71.7975,287.22,285.76,266.04,286.2,302.92,0.114,0.115,0.621,0.628,0,1,1,0,0,3.839912164,3.299061074,0
US-Ced,10/23/2010,1,0,1,0,1,0,0,2.047958333,57.44104167,10.739125,290.12,0.695,0.11,15.41387234,27.2012766,26.2985625,23.00361702,23.00361702,2.053148936,2.104319149,59.79661702,76.22470213,46.983125,294.04,301.42,307.44,304.78,304.78,0.111,0.122,0.804,0.604,0,1,1,0,0,1.818136679,2.302312311,4.665928841
US-Ced,4/26/2014,0,1,0,0,1,0,0,2.52076087,75.34217391,11.78586957,292.64,0.497,0.126,9.135869565,5.276041667,1.396304348,6.600625,8.9724375,3.209630435,1.946875,31.90369565,53.88814583,53.28130435,289.22,288.42,279.32,285.38,289.42,0.129,0.106,0.637,0.615,0,1,1,0,0,2.75343213,1.784529454,3.884228468
US-Ced,11/4/2014,1,0,1,1,1,0,0,1.8223125,43.63770833,13.75104167,289.38,0.65,0.116,15.643125,15.5776087,25.27173913,21.475,18.09502083,2.13475,1.69923913,70.10625,81.08806522,64.91891304,293.88,291.74,303.68,294.28,299.12,0.111,0.111,0.732,0.698,0,1,1,0,0,1.895061122,2.29689803,0
DK-Ris,7/4/2006,0,1,1,1,0,0,1,1.582291667,76.67958333,17.52479167,299.5,0.761,0.198,16.78958333,16.10125,17.36833333,14.62770833,16.74458333,1.99875,2.018125,82.13916667,82.035625,78.97104167,298.78,298.06,296.5,288.5,292.64,0.2,0.2,0.788,0.739,0,1,1,0,1,3.315630316,4.169787626,6.154396057
DK-Ris,6/18/2006,0,1,1,0,0,0,1,1.46,80.46979167,16.74458333,292.64,0.803,0.201,19.10291667,16.43764583,13.421625,12.17202083,10.62875,1.888541667,1.392916667,74.55083333,73.64333333,88.86395833,301.38,299.36,297.22,292.5,290.9,0.201,0.201,0.866,0.878,0,1,1,0,1,3.593272778,4.442282956,3.88342762
DK-Ris,8/5/2006,1,0,0,0,0,0,1,2.558125,71.65020833,19.65020833,293.46,0.335,0.162,19.65020833,16.95916667,16.12604167,20.74083333,20.37979167,2.558125,0.996666667,71.65020833,77.67145833,79.01541667,293.46,300.12,297.56,301.24,305.86,0.162,0.159,0.335,0.34,0,1,1,0,1,2.192313957,1.900980511,5.605783939
DK-Ris,4/21/2008,0,1,0,0,0,0,1,2.670208333,73.31,5.344458333,289.32,0.346,0.161,4.338104167,4.459979167,5.732895833,5.210791667,-0.908645833,1.688333333,2.101875,77.995,76.90375,69.02604167,290.96,289.88,287.6,280.6,280.92,0.16,0.16,0.635,0.339,0,1,1,0,1,3.472264081,2.625478397,0
US-Bi2,2/17/2018,0,0,0,1,0,0,1,0.899526628,63.07418605,11.20748837,294.16,0.34,0.076,10.28655263,9.053630435,13.46134783,14.83680851,14.81088235,2.003493263,2.644010391,57.90026316,52.65086957,76.47869565,289.28,290.34,290.08,291.72,282.64,0.075,0.065,0.405,0.357,1,0,1,1,1,1.677887264,2.667786668,2.697110176
US-Bi2,7/20/2018,0,1,1,0,0,0,1,2.974237784,55.46648649,24.29216216,307.42,0.775,0.186,24.3975,22.276,23.53585366,25.332,25.30568182,3.055106525,3.604231822,51.38575,54.806,48.94341463,301.08,305.4,297.22,308.8,300.14,0.183,0.179,0.824,0.826,1,0,1,1,1,8.193785238,6.95667697,0
US-Bi2,7/4/2018,0,1,1,0,0,0,1,3.742365479,69.66395833,17.348125,307.08,0.56,0.143,18.83125,27.21955556,23.55291667,20.22914286,23.4472973,3.463381333,3.802316089,68.62375,38.77022222,48.70333333,303.06,310.88,309.98,312.16,308.36,0.141,0.134,0.675,0.623,1,0,1,1,1,4.232056136,3.347679587,2.655340195
US-Bi2,7/27/2018,0,1,1,0,0,0,1,2.9847315,55.62645833,21.93791667,305.62,0.817,0.193,24.66666667,23.70291667,24.29216216,24.3975,22.276,3.277084292,3.848161667,46.22208333,50.69229167,55.46648649,305.26,303.56,307.42,301.08,305.4,0.19,0.191,0.847,0.843,1,0,1,1,1,6.983292748,6.369200923,5.47671175
US-Bi2,12/2/2018,1,0,1,1,0,0,1,1.873067674,78.92023256,8.049162791,286.32,0.263,0.051,11.15227273,18.33435897,21.8002439,18.8674359,18.8674359,2.798082045,1.794714359,74.84,56.73461538,40.52829268,284.98,301.66,304.58,303.5,303.5,0.052,0.19,0.226,0.662,1,0,1,1,1,1.11357537,1.259503707,1.048386216
US-Bi2,8/21/2018,0,1,1,1,0,0,1,3.773145167,76.56958333,16.11145833,300.5,0.776,0.194,16.11145833,23.88846154,21.68068182,18.81577778,19.832,3.773145167,1.67944859,76.56958333,48.47538462,58.62977273,300.5,306.62,302.36,301.8,301.88,0.194,0.195,0.776,0.826,1,0,1,1,1,2.994916207,3.893819216,4.14589119
US-Bi2,7/11/2018,0,1,1,0,0,0,1,2.076183429,46.928,25.332,308.8,0.752,0.166,25.30568182,24.41375,24.52409091,24.58431818,24.44139535,3.314563955,3.75729925,39.38409091,35.8825,35.83818182,300.14,305.76,303.44,306.98,307.98,0.166,0.161,0.777,0.756,1,0,1,1,1,8.832449386,7.704178102,0
FI-Jok,8/5/2001,1,0,0,0,0,0,1,2.5193125,82.975625,17.72541667,292.56,0.154,0.173,15.60825,18.82995833,19.34729167,6.363458333,8.609145833,1.653770833,1.96775,68.76233333,68.34825,78.80989583,295.16,294.46,294.82,283.66,295.3,0.175,0.174,0.839,0.502,0,0,0,0,1,4.173367304,2.24802966,1.877559006
FI-Jok,5/11/2002,0,1,0,1,0,0,1,2.419229167,52.80664583,9.588229167,285.7,0.462,0.125,8.640541667,10.7288125,9.95275,8.887604167,-0.651958333,1.414625,2.098979167,49.41166667,55.90783333,58.17260417,294,296.34,295.28,291.54,276.52,0.125,0.128,0.538,0.536,0,0,0,0,1,1.739486824,2.67401038,1.750502229
US-A32,11/10/2016,1,0,1,1,0,1,0,3.38028125,56.176875,18.2525,294.04,0.527,0.19,8.402,20.09294118,25.75666667,23.03666667,22.89071429,3.28115,2.9931,81.1275,61.20941176,48.23333333,290.12,295.86,300.82,299.22,298.84,0.19,0.19,0.71,0.592,0,0,0,1,1,3.251030417,3.44703208,0.84443757
US-A32,6/3/2016,0,1,1,0,0,1,0,3.119877778,57.42555556,27.91,302.6,0.433,0.173,20.96181818,14.00777778,14.00777778,18.84666667,18.84666667,3.780281818,3.1518,64.96818182,44.01333333,44.01333333,302.68,298.86,298.86,293.98,293.98,0.143,0.221,0.537,0.766,0,0,0,1,1,5.996947247,6.939303774,4.727902889
US-A32,6/6/2017,0,1,1,0,0,1,0,3.32305,43.97642857,30.62357143,308.36,0.432,0.179,23.73285714,28.16333333,23.814375,23.01,22.786,3.095442857,2.866141667,57.78857143,35.09166667,49.44625,306.24,306.48,305.74,300.98,302.04,0.174,0.174,0.387,0.5,0,0,0,1,1,8.177079128,6.471928448,8.636237621
DE-RuS,3/16/2016,0,0,1,1,0,0,1,3.534823688,66.43389609,4.890670625,282.98,0.158,0.159,4.094889579,2.87866924,5.78375,2.790416667,3.92,2.619872208,2.466954292,67.77320387,79.51891726,74.79520833,284.36,278.54,282.66,279.32,279.84,0.159,0.123,0.558,0.535,1,0,0,0,0,1.385444483,1.830720805,0
DE-RuS,2/12/2016,0,0,1,0,0,0,1,2.466954292,79.51891726,2.87866924,278.54,0.535,0.123,5.78375,2.790416667,3.92,7.937395833,17.30604167,3.133060929,3.052152125,74.79520833,66.47229167,67.96104167,282.66,279.32,279.84,288.22,297.14,0.155,0.154,0.583,0.607,1,0,0,0,0,1.189705678,1.879371526,0.670813978
US-AR1,7/1/2009,0,1,1,1,0,1,0,2.396478261,59.05630435,27.41195652,311.5,0.498,0.18,27.87439583,31.25645833,30.38189583,30.38189583,30.57354167,2.173145833,3.989541667,55.025625,50.7429375,51.633125,314.68,318.58,306.18,306.18,317.24,0.18,0.188,0.48,0.427,0,1,0,1,0,2.986986256,3.442563818,2.118258476
US-AR1,2/24/2012,0,0,1,0,0,1,0,3.411152174,51.09667391,4.666456522,288.78,0.242,0.174,12.38483333,19.78502083,18.04576087,31.91982609,28.37440426,3.71275,3.904958333,45.12889583,57.0234375,55.32654348,292.04,301.82,302.22,318.88,318.04,0.171,0.173,0.253,0.348,0,1,0,1,0,1.073792155,1.907673379,1.283011913
US-AR1,7/25/2009,0,1,1,1,0,1,0,3.155916667,53.23395833,29.60895833,319.4,0.357,0.178,28.53625,25.24875,33.02238298,26.72917021,28.36021739,4.119875,3.092645833,55.77895833,54.5704375,41.3806383,311.68,316.28,318.58,314.36,317.08,0.179,0.18,0.464,0.378,0,1,0,1,0,1.515558199,1.937278053,2.357088327
FR-Gri,5/19/2014,0,1,0,1,0,0,1,2.209645833,61.071875,17.428125,298.2,0.741,0.2,17.428125,11.76635417,10.49091667,8.7005,10.03329167,2.209645833,2.2979375,61.071875,68.84833333,69.31645833,298.2,294.4,292.7,290.06,291.4,0.2,0.199,0.741,0.623,0,1,1,1,0,6.203705558,4.203718407,3.867381811
FR-Gri,4/17/2014,0,1,0,0,0,0,1,1.5969375,52.78125,11.20214583,295.8,0.659,0.17,8.650854167,7.78125,11.02166667,8.999125,5.0993125,2.139583333,2.695916667,59.51416667,65.04604167,68.406875,293,289.92,294.7,283.34,285.82,0.171,0.171,0.536,0.521,0,1,1,1,0,4.21934262,3.570310357,0.80862999