Site,Date,Month_2,Month_3,Month_4,Vegetation_1,Vegetation_2,Vegetation_3,WS,RH,TA,Eeflux_LST,Eeflux_NDVI,Eeflux_Albedo,Cluster,TA-1,TA-2,TA-3,TA-4,TA-5,WS-1,WS-2,RH-1,RH-2,RH-3,Eeflux_LST-1,Eeflux_LST-2,Eeflux_LST-3,Eeflux_LST-4,Eeflux_LST-5,Eeflux_Albedo-1,Eeflux_Albedo-2,Eeflux_NDVI-1,Eeflux_NDVI-2,Site_1,Site_2,Site_3,Site_4,Site_5,LE_bowen_corr_mm,LE_bowen_corr_pred,Eeflux_ET
US-SP2,4/18/2004,1,0,0,0,1,1,2.487,35.40930769,24.95307692,303.56,0.7,0.128,1,13.055,10.22285714,25.938,25.938,15.86545455,1.5225,2.455,54.94,59.79,48.9374,296.88,293.56,305.56,305.56,297.68,0.125,0.123,0.727,0.734,0,1,0,0,1,5.214566051,7.863574,6.545739651
US-SP2,12/28/2003,1,0,0,0,1,1,1.4553125,65.565625,18.23125,292.64,0.781,0.123,1,18.23636364,17.61333333,8.43572,15.44615385,16.7975,2.007636364,1.129166667,46.31090909,54.53333333,68.854,288.86,288.9,284.36,293,289.98,0.121,0.12,0.746,0.792,0,1,0,0,1,3.654221291,5.3248243,2.466374636
US-SP2,2/11/2003,0,1,0,0,1,1,1.583888889,33.07,15.77788889,287.92,0.693,0.116,1,21.34888889,22.8225,12.47133333,11.98166667,17.32133333,1.852444444,1.848333333,26.24777778,44.97166667,30.138,291.98,294.72,287.04,280.88,290.84,0.122,0.122,0.724,0.7,0,1,0,0,1,5.768561031,5.3898473,3.487245321
US-SP2,10/27/2004,0,1,0,0,1,1,1.3474375,60.38375,23.72875,298.78,0.804,0.123,1,25.24307692,24.15222222,22.1845,27.51333333,23.45363636,1.197,1.260444444,60.52769231,58.90555556,63.301,300,296.98,296.26,299.06,298.66,0.124,0.125,0.821,0.781,0,1,0,0,1,9.867431509,7.0234475,3.909767628
US-SP2,5/23/2005,1,0,1,0,1,1,2.618947368,55.34157895,28.39263158,305.96,0.725,0.115,1,26.31666667,25.505,23.71,25.752,25.029,1.853666667,0.7835,65.83666667,52.71,69.285,301.68,303.04,303.3,305.28,301.22,0.115,0.113,0.781,0.768,0,1,0,0,1,8.164054396,8.3799925,6.36339283
DE-Kli,9/12/2016,0,0,1,0,0,1,1.602291667,59.08166667,21.89020833,302.74,0.514,0.184,1,21.51625,20.11375,18.72083333,19.80395833,17.96458333,1.578125,2.351875,61.08083333,71.95,75.86333333,301.8,298.7,296.86,298.82,291.66,0.184,0.185,0.343,0.44,0,0,0,1,0,1.464343346,2.3671525,1.640466809
DE-Kli,5/10/2014,1,0,1,0,0,1,3.770833333,76.69375,10.495,277.12,0.23,0.208,1,10.865,13.21125,12.8325,11.880625,12.43479167,3.605833333,2.313125,75.35916667,84.57166667,82.3275,289.9,286.28,295.44,293.2,292.14,0.207,0.211,0.877,0.512,0,0,0,1,0,4.854260871,2.5319555,4.126743317
DE-Kli,8/8/2018,0,0,0,0,0,1,1.75125,47.64458333,24.38208333,309.04,0.59,0.188,1,25.05708333,22.45,22.01458333,25.65145833,26.47041667,2.147291667,1.119583333,30.75791667,75.99208333,74.41041667,310.4,303.9,305.42,307.92,311.92,0.187,0.184,0.73,0.705,0,0,0,1,0,4.157318229,4.3463764,3.779826403
DE-Kli,8/16/2018,0,0,0,0,0,1,1.254583333,53.70958333,19.753125,307.64,0.689,0.188,1,21.77,24.38208333,25.05708333,22.45,22.01458333,1.944375,1.75125,44.61583333,47.64458333,30.75791667,309.72,309.04,310.4,303.9,305.42,0.197,0.188,0.597,0.59,0,0,0,1,0,3.073630502,3.2019858,2.976030588
DE-Kli,7/10/2016,1,1,1,0,0,1,2.243958333,67.705625,19.98208333,296.42,0.697,0.155,1,18.711875,14.96270833,13.33458333,7.267083333,14.39083333,3.057083333,1.777708333,54.74875,64.95208333,69.98104167,300,289.38,293.9,284.06,293.1,0.207,0.208,0.884,0.663,0,0,0,1,0,5.248066244,3.7692633,5.57045269
DE-Kli,10/24/2014,0,1,0,0,0,1,1.712291667,94.80104167,7.036875,286.26,0.768,0.168,1,12.53583333,11.98395833,12.6,11.20333333,10.403125,2.91625,3.249166667,86.59291667,88.935,85.45854167,287.14,282.9,285.62,287.82,289.8,0.151,0.151,0.457,0.335,0,0,0,1,0,1.492690299,1.7621458,0
DE-Kli,5/1/2011,1,0,1,0,0,1,3.160208333,52.74729167,8.011458333,289.06,0.76,0.178,1,11.020625,15.29979167,11.45125,8.712083333,12.86520833,3.291875,2.349583333,68.6,44.24583333,49.77270833,292.62,295.98,294.04,293.42,292.1,0.178,0.179,0.709,0.589,0,0,0,1,0,3.132082047,3.0770543,4.481790066
DE-Kli,7/27/2008,1,1,1,0,0,1,2.199037292,53.26562524,21.18965279,297.72,0.596,0.175,1,21.52756943,17.9804167,22.62930548,22.46722221,18.59631942,2.031513542,1.475857708,65.65770806,85.02784737,53.47743056,301.1,292.36,300.64,305.12,301.04,0.175,0.175,0.486,0.008,0,0,0,1,0,3.926522954,3.1741412,4.684606552
DE-Kli,6/5/2015,1,1,0,0,0,1,2.271666667,52.94020833,18.80354167,302.58,0.849,0.169,1,13.90083333,19.1175,10.615625,11.54291667,9.533541667,1.379166667,3.271041667,63.479375,54.72729167,70.23166667,298.04,295.5,282.88,289.7,285.74,0.169,0.178,0.854,0.796,0,0,0,1,0,5.43534748,6.384968,5.969644547
DE-Kli,5/26/2014,1,0,1,0,0,1,2.402083333,74.07375,15.87791667,296.66,0.161,0.189,1,14.546875,17.03291667,19.949375,18.93125,18.93125,1.442083333,1.849166667,73.50583333,82.96270833,67.68854167,290.14,297.16,300.66,299.26,299.26,0.184,0.184,0.818,0.773,0,0,0,1,0,5.046043898,3.2560952,1.327189684
DE-Kli,4/7/2014,1,0,0,0,0,1,2.201041667,69.46916667,13.336875,289.78,0.742,0.163,1,11.28854167,14.06,12.50291667,11.01916667,9.218333333,2.589166667,1.947083333,82.346875,59.05083333,58.97916667,290.94,295.6,282.84,292.7,290.06,0.165,0.166,0.658,0.677,0,0,0,1,0,2.520710513,3.184224,2.579414129
DE-Kli,9/15/2014,0,0,1,0,0,1,2.325416667,92.43104167,16.39395833,295.56,0.42,0.129,1,19.135,19.520625,15.56208333,21.14104167,16.46875,1.387916667,1.755833333,74.32416667,72.911875,74.66583333,287.26,297.98,296.18,302.62,298.8,0.224,0.168,0.184,0.497,0,0,0,1,0,2.216969027,1.8786922,1.686466575
DE-Kli,5/25/2014,1,0,1,0,0,1,1.442083333,73.50583333,14.546875,290.14,0.818,0.184,1,17.03291667,19.949375,18.93125,18.93125,17.50270833,1.849166667,3.317291667,82.96270833,67.68854167,57.88458333,297.16,300.66,299.26,299.26,296.3,0.184,0.184,0.773,0.908,0,0,0,1,0,5.501312905,4.542108,4.360504627
DE-Kli,7/31/2018,1,1,1,0,0,1,1.430416667,42.39604167,26.47041667,311.92,0.748,0.187,1,24.84875,21.09854167,21.024375,20.4525,19.61083333,1.074166667,1,52.35833333,63.87041667,59.27604167,307.88,305.34,309.16,298.66,302.94,0.186,0.187,0.751,0.769,0,0,0,1,0,5.187148694,5.7583246,0
DE-Kli,6/11/2011,1,1,0,0,0,1,1.846458333,67.22458333,15.043125,293.58,0.592,0.179,1,18.87791667,20.373125,18.584375,15.15083333,19.40333333,2.53,3.395625,73.96895833,61.954375,62.7025,295.86,300.36,293.44,296.92,303.3,0.175,0.175,0.745,0.833,0,0,0,1,0,3.619090203,3.5470703,0
DE-Kli,4/28/2010,1,0,0,0,0,1,1.470706458,63.90097219,10.43116669,292.44,0.732,0.18,1,12.28249304,8.683687521,5.583645833,8.283444437,9.477965271,1.900900833,1.761336042,48.36854163,49.5270834,52.03229169,296.98,292.18,292.14,290.78,293.4,0.179,0.179,0.775,0.746,0,0,0,1,0,2.708882366,3.0161343,4.52268362
DE-Kli,3/18/2015,0,1,1,0,0,1,2.576875,63.10291667,6.711875,288.56,0.619,0.156,1,1.060625,0.095416667,9.661666667,7.057083333,12.49395833,1.658333333,2.20375,70.90666667,87.21854167,86.13395833,279.76,274.44,284.22,283.22,283.14,0.164,0.156,0.636,0.721,0,0,0,1,0,1.535905173,2.5616953,0
DE-Kli,3/30/2011,0,1,1,0,0,1,2.441666667,49.12583333,9.072291667,291.08,0.356,0.155,1,4.9,3.670833333,5.74375,5.298958333,5.2975,1.988333333,2.42875,62.614375,65.000625,65.79583333,289.02,285.92,286.6,283.9,287.94,0.138,0.138,0.298,0.348,0,0,0,1,0,1.174076235,1.5001457,0
DE-Kli,7/4/2017,1,1,1,0,0,1,2.353958333,70.7375,15.73541667,292.24,0.69,0.227,1,14.94375,18.53208333,16.15854167,14.39041667,6.775416667,2.187708333,2.73,72.15645833,62.031875,54.06083333,293.12,297.06,300.96,292.9,281.16,0.191,0.174,0.811,0.667,0,0,0,1,0,3.284229328,3.2560952,1.360261083
DE-Kli,11/2/2014,0,1,1,0,0,1,2.502916667,70.90875,12.49395833,283.14,0.635,0.175,1,3.869791667,6.429375,6.203333333,7.036875,12.53583333,2.88375,3.183541667,83.45333333,85.081875,86.55041667,282.14,280.42,278.32,286.26,287.14,0.167,0.162,0.799,0.418,0,0,0,1,0,1.12285123,1.9034171,3.723470449
DE-Kli,3/27/2007,0,1,1,0,0,1,3.052722292,49.18032879,7.400479163,287.76,0.543,0.152,1,6.528916693,10.60084029,8.288763868,4.866041667,2.899791667,3.51909,1.975651042,59.19512004,63.2085869,66.60384456,286.3,282.54,289.42,272.4,282.68,0.151,0.145,0.432,0.37,0,0,0,1,0,1.46565979,1.9478343,1.719044805
DE-Kli,3/23/2011,0,1,1,0,0,1,2.712291667,68.568125,5.298958333,283.9,0.329,0.139,1,5.2975,7.152291667,7.996875,-1.337916667,-1.355833333,2.049166667,3.657916667,59.09479167,87.97479167,54.87541667,287.94,287.46,288.58,276.76,276.34,0.138,0.14,0.277,0.272,0,0,0,1,0,1.583630751,0.991122,2.865376472
DE-Kli,9/25/2015,0,0,1,0,0,1,2.157916667,80.52583333,11.62916667,284.36,0.296,0.168,1,21.46041667,19.82,12.250625,13.83333333,14.29375,1.410833333,1.20125,56.07833333,56.61041667,67.6875,302.18,299.92,290.24,290.44,290.3,0.184,0.179,0.363,0.518,0,0,0,1,0,1.787594885,1.9987161,2.516218424
DE-Kli,5/9/2017,1,0,1,0,0,1,1.875208333,74.22,2.760416667,275.9,0.041,0.189,1,6.213333333,11.28645833,5.971666667,7.498541667,9.602708333,3.531041667,1.580833333,72.24770833,76.68854167,87.37,284.36,292,284.34,283.14,276.06,0.148,0.151,0.514,0.225,0,0,0,1,0,1.258389049,1.8831694,0
DE-Kli,9/8/2009,0,0,1,0,0,1,2.343221667,58.12159729,16.23534727,296.82,0.293,0.175,1,16.1598611,12.78360421,13.62909723,19.14458325,11.74895838,2.587485417,2.785105625,54.1766889,63.49719479,65.28446988,294.42,291.62,292.32,299.16,292.8,0.169,0.169,0.43,0.378,0,0,0,1,0,1.884215018,1.5345345,2.481332541
US-Goo,7/24/2003,1,1,1,0,1,0,1.509090909,57.67272727,26.24090909,301.76,0.834,0.158,1,25.09310345,29.76129032,29.76129032,31.01831818,29.72857143,2.223448276,2.147096774,71.1137931,78.21612903,78.21612903,297.84,300.94,300.94,306.06,297.98,0.159,0.16,0.758,0.792,0,1,0,0,0,10.05311161,8.615984,4.152947426
US-Goo,11/2/2005,0,1,1,0,1,0,0.895,40.68,19.04,295.74,0.634,0.164,1,18.948,17.27272727,15.55,14.49,13.99,2.7936,1.862727273,53.416,45.31818182,44.925125,297.5,295.12,294.78,293.72,288.68,0.164,0.165,0.566,0.583,0,1,0,0,0,1.872472326,2.334867,1.308443546
US-Goo,8/5/2002,0,0,0,0,1,0,1.69,68.48518519,30.04448148,300.16,0.84,0.163,1,30.04448148,30.26161538,30.26161538,30.24619231,30.29619231,1.69,1.368076923,68.48518519,66.41923077,66.41923077,300.16,305.82,305.82,302.66,301.76,0.163,0.16,0.84,0.827,0,1,0,0,0,9.066151446,8.55452,5.354084492
US-Goo,3/27/2004,0,1,1,0,1,0,3.125925926,55.8592963,22.51481481,296.26,0.458,0.15,1,19.08404,13.51935484,11.55714286,14.60952381,8.377777778,3.6696,3.523225806,40.684,70.99032258,39.66428571,296.06,291.92,290.7,295.5,288.32,0.149,0.151,0.478,0.458,0,1,0,0,0,3.657723929,2.1209466,4.276696205
US-Goo,4/28/2004,1,0,0,0,1,0,2.422413793,49.5,19.96206897,300.92,0.702,0.163,1,19.552,18.35172414,22.88148148,21.56428571,19.62857143,2.7624,2.608275862,43.644,67.61724138,57.87407407,296.88,298.64,300.24,298.44,298.6,0.163,0.163,0.705,0.704,0,1,0,0,0,6.327715961,7.2112255,0
US-Goo,3/11/2004,0,1,1,0,1,0,2.931428571,49.26190476,14.60952381,295.5,0.434,0.15,1,8.377777778,14.10526316,16.12861905,14.81505,8.706666667,1.855555556,3.264736842,48.61666667,30.74210526,46.06190476,288.32,292.16,294.86,292.62,289.54,0.151,0.151,0.449,0.422,0,1,0,0,0,2.714906971,3.22793,0
US-Goo,7/10/2004,1,1,1,0,1,0,1.538888889,75.02962963,28.14814815,301.48,0.766,0.192,1,29.30357143,26.46,29.14519355,29.67857143,28.64333333,1.935,1.9336,75.53571429,87.552,72.62258065,303.02,299.04,305.66,301.9,302.2,0.158,0.167,0.805,0.431,0,1,0,0,0,8.849762014,7.666676,0
US-Goo,7/15/2003,1,1,1,0,1,0,1.756,71.29666667,28.73,304.86,0.78,0.169,1,31.1,30.93076923,28.13333333,21.99615385,26.336,2.23,2.59,56.75,62.65392308,63.78666667,304.5,302.28,306.5,302.12,301.56,0.164,0.165,0.625,0.766,0,1,0,0,0,8.711348796,7.597328,4.810279369
US-Goo,10/16/2002,0,1,0,0,1,0,2.207272727,58.44095455,14.63640909,293.14,0.677,0.15,1,21.91818182,18.33793103,22.02608696,27.72916667,23.89666667,1.359090909,1.135862069,80.43640909,74.7862069,69.71304348,297.64,294.14,298.7,303.22,298.02,0.151,0.151,0.644,0.666,0,1,0,0,0,4.378063474,2.820469,0.83439362
US-Goo,9/22/2005,0,0,1,0,1,0,2.014074074,67.05555556,29.02596296,306.62,0.707,0.143,1,32.26666667,27.24545455,23.44782609,28.93917391,28.83043478,1.351111111,1.428181818,59.45555556,70.69090909,82.82173913,307.8,304.24,301.26,304.44,303.88,0.137,0.139,0.758,0.759,0,1,0,0,0,3.972600076,6.5052147,0
US-Goo,8/6/2002,0,0,0,0,1,0,1.406538462,74.7385,29.38076923,305.08,0.831,0.164,1,30.04448148,30.04448148,30.26161538,30.26161538,30.24619231,1.69,1.69,68.48518519,68.48518519,66.41923077,300.16,300.16,305.82,305.82,302.66,0.163,0.163,0.84,0.84,0,1,0,0,0,8.166965583,9.172728,4.405718803
US-Goo,5/29/2003,1,0,1,0,1,0,2.3312,51.056,26.336,301.56,0.737,0.161,1,24.52592593,21.86923077,20.32592593,21.38148148,20.27586207,2.583333333,1.932307692,50.21481481,58.98846154,68.12966667,303.76,298.16,298.94,301.34,296.44,0.17,0.17,0.755,0.762,0,1,0,0,0,8.494320699,8.414211,4.030873299
US-Goo,2/13/2006,0,1,0,0,1,0,2.467142857,55.1762381,4.242857143,282.5,0.46,0.135,1,3.795238095,9.025,5.713636364,10.93684211,11.44230769,2.08,2.4205,50,55.76,49.81363636,282.74,280.04,283.68,289.18,285.14,0.132,0.133,0.43,0.318,0,1,0,0,0,2.227353367,2.0697951,0
US-Goo,12/20/2002,1,0,0,0,1,0,3.705,49.845,9.84,284.14,0.446,0.151,1,12.40005,8.22,6.6,4.78,7.452380952,2.7335,1.9785,70.46,77.07,84.24,287.4,284.42,284.98,279.7,285.94,0.154,0.153,0.443,0.455,0,1,0,0,0,3.347738861,1.7404292,1.05458653
US-Goo,10/17/2005,0,1,0,0,1,0,1.241111111,39.75,22.38888889,300.6,0.687,0.152,1,22.51818182,23.00454545,23.75714286,20.06086957,17.87894737,0.975909091,2.252727273,58.25,58.34545455,66.73333333,301.96,299.64,300.46,298.12,295.76,0.151,0.151,0.702,0.697,0,1,0,0,0,3.283516204,5.0498643,2.073215961
US-AR1,7/12/2010,1,1,1,0,1,0,3.0420625,79.375,25.9829375,313.2,0.604,0.175,1,28.30086957,24.33717391,23.94959574,24.83941667,26.01608696,3.310543478,1.630978261,74.5776087,85.19108696,75.88978723,305.24,307.12,308.96,311.46,315.4,0.174,0.173,0.603,0.566,0,1,0,1,0,4.344748701,3.183169,2.871659756
US-Skr,4/7/2008,0,1,1,1,0,1,2.915939394,84.34669697,24.10290909,296.74,0.829,0.111,1,25.308275,24.81670732,24.75622222,25.24116129,24.22934615,2.860075,3.098682927,83.000025,77.98021951,80.65016667,299.4,298.56,298.24,294.38,294.72,0.11,0.102,0.844,0.538,1,0,1,0,1,6.969082303,3.2560952,5.794416428
US-Skr,9/3/2007,0,0,0,1,0,1,1.71030303,77.64978788,28.47136364,295.44,0.573,0.092,1,28.15883333,28.53025,28.53025,28.9618,29.18474286,1.437966667,1.516472222,80.72213333,78.72375,78.72375,302.98,299.82,299.82,301.4,299.62,0.092,0.09,0.864,0.86,1,0,1,0,1,7.397434207,5.6694746,0
US-Skr,3/14/2008,0,1,0,1,0,1,2.468047619,73.93604762,23.90461905,292.28,0.62,0.106,1,24.8998125,25.63408333,24.50588889,23.00891892,22.48556522,2.62625,3.472125,66.2294375,81.47897917,88.891,293.82,298.1,297.56,297.9,290.14,0.106,0.105,0.836,0.828,1,0,1,0,1,5.698322704,5.4382687,0
US-Skr,9/12/2007,0,0,0,1,0,1,1.523322581,83.68183871,27.59483871,292.76,0.487,0.096,1,28.35529032,25.20454054,25.96308696,27.953,29.51966667,1.855,1.857027027,81.63183871,86.34572973,90.79726087,301.74,299.54,300.28,301.48,298.14,0.091,0.083,0.749,0.856,1,0,1,0,1,5.452549017,4.698457,0.60109669
US-Skr,5/1/2008,1,0,0,1,0,1,3.005486486,62.23340541,23.4102973,301.06,0.727,0.114,1,24.76330233,24.85002941,25.53019048,28.54083333,28.60116667,2.391255814,3.120676471,77.37323256,66.96808824,59.07233333,296.78,295.2,299.82,296.6,299.12,0.114,0.114,0.522,0.399,1,0,1,0,1,6.821244475,5.3497796,0
US-SO2,5/11/2006,1,0,1,1,0,0,2.224482759,22.50793103,24.66206897,312.88,0.343,0.147,1,23.75586207,18.89137931,19.8837931,19.8837931,20.09586207,2.552068966,1.992931034,25.06896552,48.24413793,38.3762069,305.66,308.76,307.94,307.94,306.3,0.148,0.149,0.433,0.368,1,0,1,0,0,3.914180073,2.8888125,0
US-SO2,1/28/2006,0,0,1,1,0,0,2.446136364,32.64009091,9.646954545,284.9,0.322,0.152,1,9.886590909,12.28868182,7.3356875,14.13418182,13.914,1.889545455,1.825227273,11.90272727,28.84181818,61.35,287.9,290.1,287.08,290.68,289.18,0.149,0.15,0.358,0.367,1,0,1,0,0,1.265537258,2.2672117,0
US-SO2,4/25/2006,1,0,0,1,0,0,2.406923077,62.67807692,11.73830769,302.48,0.32,0.15,1,11.73830769,11.52229167,14.68037037,17.7275,15.89814815,2.406923077,2.260625,62.67807692,66.80083333,43.11148148,302.48,294.82,299.5,300.14,299.24,0.15,0.149,0.32,0.38,1,0,1,0,0,2.246105346,2.7565694,0.821206152
US-SO2,1/12/2006,0,0,1,1,0,0,2.771333333,29.732,13.914,289.18,0.356,0.148,1,13.91375,14.10555556,10.99590909,15.67045455,12.36681818,3.2425,1.573333333,19.5075,21.01055556,31.36913636,287.14,288.86,286.5,290.54,288.24,0.148,0.148,0.389,0.352,1,0,1,0,0,1.371662528,2.2805774,0
US-SO2,3/1/2006,0,1,1,1,0,0,2.958333333,55.99,7.509833333,288.86,0.368,0.151,1,13.02952174,12.2645,10.78157895,3.39625,12.61708333,2.577173913,2.42,19.46869565,18.191,17.31210526,294.56,292.02,289.56,283.52,293.18,0.15,0.15,0.358,0.385,1,0,1,0,0,3.912868564,1.7549925,0
IT-CA2,8/1/2012,0,0,0,0,0,1,2.66572429,41.1625,28.034375,321.04,0.392,0.212,1,26.84145833,26.52520833,27.466875,27.31270833,24.51916667,3.01923524,2.298959218,40.80270833,50.23416667,38.75270833,314.78,320.46,315.82,319.64,312.9,0.212,0.211,0.389,0.35,0,1,1,1,1,1.980723848,2.1883483,0.650696754
IT-CA2,8/17/2012,0,0,0,0,0,1,2.144286471,60.55645833,26.33375,320.04,0.304,0.213,1,24.615625,25.23458333,25.23458333,28.67479167,28.50375,2.328218089,2.268064006,71.25020833,69.49854167,69.49854167,311.3,319.62,319.62,318.46,312.2,0.213,0.214,0.336,0.308,0,1,1,1,1,1.798028713,3.1002939,0.568725228
IT-CA2,7/16/2012,1,1,1,0,0,1,3.940714835,41.2925,25.160625,317.48,0.398,0.208,1,26.89645833,26.89645833,24.51708333,25.85354167,25.85354167,3.405030345,3.405030345,52.04,52.04,60.09125,313.58,313.58,314.74,318.06,318.06,0.208,0.208,0.426,0.426,0,1,1,1,1,1.860322495,2.0569263,0.104192622
US-Kon,9/24/2010,0,0,1,0,1,0,1.875586207,67.98051724,21.05903448,298.54,0.627,0.181,1,23.1755,29.22941667,28.0365,25.68862069,26.64361111,1.503944444,3.191333333,80.80538889,77.57879167,78.85138462,297.3,305.32,303.24,302.1,304.66,0.177,0.176,0.598,0.539,0,0,1,1,0,3.946659159,3.0294375,0
US-Kon,9/8/2007,0,0,1,0,1,0,2.126583333,69.60566667,23.48422917,304.04,0.624,0.179,1,25.06476087,27.23914583,26.6540625,25.64804255,24.58470833,2.687478261,3.0415625,52.00019565,55.40239583,42.152,301.04,306.8,308.86,308.76,308.78,0.179,0.182,0.646,0.581,0,0,1,1,0,3.115633645,3.1026976,0
US-Kon,10/3/2008,0,1,0,0,1,0,3.188729167,60.38560417,17.19647917,300.2,0.557,0.174,1,15.65759524,16.54917073,18.91778378,24.42027083,24.14657447,1.373547619,2.577268293,55.72859524,54.22221951,45.28097297,296.12,298.24,298.44,303.66,303.02,0.173,0.174,0.607,0.605,0,0,1,1,0,2.675399159,2.934163,3.088123798
US-Kon,8/11/2009,0,0,0,0,1,0,1.54,68.44568182,25.92388636,301.68,0.794,0.198,1,27.75805,21.80941304,22.73157447,21.25221277,25.80917778,3.08855,2.913673913,64.41075,54.03871739,58.12365957,302.36,298.62,302.04,299.54,306.18,0.197,0.197,0.817,0.795,0,0,1,1,0,4.885686319,5.0765405,0
US-Kon,5/2/2010,1,0,1,0,1,0,2.617659091,51.46731818,18.29725,306.14,0.453,0.157,1,18.29725,15.25441304,15.05134146,12.74044444,11.2095122,2.617659091,1.567630435,51.46731818,56.35221739,39.30114634,306.14,296.62,300.26,296.02,295.64,0.157,0.157,0.453,0.509,0,0,1,1,0,2.833365132,3.1152587,0.499347329
US-Kon,9/20/2009,0,0,1,0,1,0,3.111893617,63.66474468,22.31806383,302.14,0.681,0.183,1,22.31806383,18.58606522,17.58402703,22.54,22.01661702,3.111893617,1.752869565,63.66474468,64.46506522,62.53910811,302.14,299.62,297.9,300.02,300.8,0.183,0.179,0.681,0.695,0,0,1,1,0,2.892920228,3.6321664,2.379404068
US-Kon,9/26/2008,0,0,1,0,1,0,3.260869565,66.74797826,23.3698913,303.48,0.595,0.174,1,23.23416667,21.52993617,19.95242553,19.74565957,18.70989362,3.083895833,1.887340426,71.85941667,69.19376596,73.94559574,300.96,300.74,297.62,301.6,298.52,0.175,0.18,0.651,0.558,0,0,1,1,0,3.512655257,2.787807,0
US-Kon,6/8/2009,1,1,0,0,1,0,3.961543478,82.58341304,18.32269565,295.94,0.71,0.185,1,23.04432609,25.64584783,23.93815217,23.1407907,23.16682979,3.826152174,3.679586957,60.6595,45.72336957,48.21123913,303.98,307.44,310.52,308.22,307.18,0.177,0.173,0.784,0.769,0,0,1,1,0,4.702953048,3.2056413,4.770293236
US-Kon,7/22/2007,1,1,1,0,1,0,3.183934783,72.31193478,28.12393478,306.42,0.675,0.183,1,27.10726087,27.37870833,26.06025,25.98275,21.93065217,2.586586957,2.022354167,72.22867391,62.09891667,65.87658333,295.68,301.34,304.4,302.28,304.42,0.189,0.199,0.656,0.699,0,0,1,1,0,3.610136577,4.557183,0
US-Kon,6/22/2008,1,1,0,0,1,0,2.134666667,64.81660417,24.40408333,305.66,0.73,0.182,1,23.89613043,25.46236364,25.78339583,26.30522917,22.70387179,1.889913043,1.537090909,61.93021739,56.99090909,60.03522917,301.6,302.68,305.68,305.6,303.02,0.182,0.183,0.788,0.755,0,0,1,1,0,5.667026362,4.7026005,0
US-Kon,10/20/2008,0,1,0,0,1,0,3.22887234,77.99351064,14.28959574,290.04,0.377,0.166,1,14.39425714,12.65040426,10.21631818,16.14379167,17.19647917,3.706714286,3.335468085,71.43211429,67.6246383,56.09372727,291.68,295.18,291.34,298.98,300.2,0.17,0.172,0.492,0.502,0,0,1,1,0,1.042400985,1.6647756,3.694603205
US-Kon,7/5/2007,1,1,1,0,1,0,2.022354167,62.09891667,27.37870833,301.34,0.699,0.199,1,26.06025,25.98275,21.93065217,16.57328571,16.57328571,2.494729167,3.271818182,65.87658333,73.75931818,58.04084783,304.4,302.28,304.42,299.66,299.66,0.186,0.186,0.834,0.814,0,0,1,1,0,5.614607522,5.4666643,58.01512527
US-Kon,5/3/2010,1,0,1,0,1,0,2.915914894,50.33119149,17.24170213,301.98,0.514,0.157,1,18.29725,18.29725,15.25441304,15.05134146,12.74044444,2.617659091,2.617659091,51.46731818,51.46731818,56.35221739,306.14,306.14,296.62,300.26,296.02,0.157,0.157,0.453,0.453,0,0,1,1,0,2.759277467,3.0792527,0
US-Kon,8/31/2007,0,0,0,0,1,0,2.133916667,57.4035625,24.16802083,304.88,0.684,0.181,1,23.83727907,30.99748837,28.43995745,30.99183333,31.70885417,2.147,3.787860465,68.32451163,62.44790698,70.43782979,303.24,308.74,306.28,310.66,314.1,0.182,0.182,0.504,0.596,0,0,1,1,0,3.837530531,3.7544923,0
US-Kon,6/30/2008,1,1,0,0,1,0,1.60835,58.473175,22.511875,299.72,0.751,0.191,1,22.0884,26.41519048,24.40408333,23.89613043,25.46236364,3.444311111,3.600880952,61.80731111,67.97847619,64.81660417,302.82,301.04,305.66,301.6,302.68,0.184,0.184,0.759,0.727,0,0,1,1,0,5.285094348,5.182105,0
US-Kon,6/21/2008,1,1,0,0,1,0,1.889913043,61.93021739,23.89613043,301.6,0.788,0.182,1,25.46236364,25.78339583,26.30522917,22.70387179,18.6172,1.537090909,2.427645833,56.99090909,60.03522917,48.60008333,302.68,305.68,305.6,303.02,309,0.183,0.164,0.755,0.713,0,0,1,1,0,5.992955081,4.6864834,5.801305294
US-Kon,8/16/2008,0,0,0,0,1,0,2.4675,69.98884783,22.38073913,300.82,0.834,0.199,1,25.59133333,24.10381395,25.87291304,32.61909524,32.61909524,1.8645,1.879627907,65.59633333,66.53251163,54.60752174,303.24,301.34,302,307.78,307.78,0.203,0.202,0.775,0.799,0,0,1,1,0,4.691970065,4.3691792,0
US-A32,11/10/2016,0,1,1,0,1,0,3.38028125,56.176875,18.2525,294.04,0.527,0.19,1,8.402,20.09294118,25.75666667,23.03666667,22.89071429,3.28115,2.9931,81.1275,61.20941176,48.23333333,290.12,295.86,300.82,299.22,298.84,0.19,0.19,0.71,0.592,0,0,0,1,1,3.251030417,3.071056,0.84443757
US-A32,5/21/2017,1,0,1,0,1,0,1.94095,44.27,23.01,300.98,0.632,0.167,1,22.786,14.14,19.156,17.08571429,14.91,3.05878,2.156075,47.998,72.045,39.714,302.04,299.6,296.34,296.16,294.32,0.166,0.166,0.764,0.787,0,0,0,1,1,7.135255216,6.109701,4.462000847
US-A32,12/20/2016,1,0,0,0,1,0,1.7718,53.88,-1.795,284.32,0.628,0.183,1,15.8925,18.37533333,3.9885,18.2525,8.402,2.18875,3.23946,59.745,55.14933333,86.15,298.18,291.32,292.8,294.04,290.12,0.192,0.192,0.669,0.624,0,0,0,1,1,1.00838469,3.9123447,0.532512247
US-Wlr,7/24/2002,1,1,1,0,1,0,2.470625,61.2375,25.1,309.8,0.53,0.181,1,29.44791667,26.11666667,24.55208333,25.64583333,16.41666667,3.92625,3.414583333,58.54375,69.39583333,66.71666667,313.74,309.68,308.66,301.2,300.84,0.183,0.18,0.63,0.666,0,0,1,0,0,5.197513564,3.9378784,5.442691803
US-Wlr,8/14/2004,0,0,0,0,1,0,1.705833333,67.22291667,18.4375,303.98,0.69,0.184,1,28.8125,28.12083333,26.70625,20.425,18.61875,3.960416667,3.594791667,68.06458333,74.42291667,75.7375,308.92,300.54,306.42,304.4,300.04,0.174,0.174,0.729,0.677,0,0,1,0,0,5.341447001,3.526574,2.492971659
US-Tw2,10/14/2012,0,1,0,0,0,1,1.118125,66.61253125,19.58534375,297.02,0.579,0.207,1,18.28928571,17.16723404,16.76729167,16.76729167,16.78234043,1.27625,2.327106383,59.92964286,63.69489362,65.92166667,294.18,297.46,297.52,297.52,296.14,0.208,0.206,0.53,0.507,1,0,1,1,0,1.428967784,2.1819117,2.291054726
US-Tw2,7/10/2012,1,1,1,0,0,1,2.167820513,45.83153846,24.65846154,311.84,0.534,0.152,1,23.01236667,22.47833333,22.22125,21.13734146,17.79159091,3.414933333,3.860041667,40.82033333,47.49129167,48.859775,308.36,305.76,305.18,307.74,303.6,0.148,0.143,0.502,0.603,1,0,1,1,0,5.686684651,4.7667894,3.057384014
US-Bi2,4/14/2018,0,1,1,0,0,1,1.894364286,50.47314286,17.28105714,301.92,0.524,0.128,1,12.59008333,16.28769231,12.87354167,15.52309524,14.99697917,3.740849729,1.175453154,60.09270833,66.95512821,72.49229167,297.66,301.02,297.9,299.44,299.64,0.127,0.124,0.422,0.418,1,0,1,1,1,4.415554069,2.8277307,2.211139679
US-Bi2,9/13/2018,0,0,0,0,0,1,1.794714359,56.73461538,18.33435897,301.66,0.662,0.19,1,21.8002439,18.8674359,18.8674359,18.84305556,17.71,2.91092178,2.212317692,40.52829268,66.31076923,66.31076923,304.58,303.5,303.5,300.12,299.56,0.191,0.189,0.75,0.667,1,0,1,1,1,2.940997247,4.455928,2.439720392
US-Bi2,7/4/2018,1,1,0,0,0,1,3.742365479,69.66395833,17.348125,307.08,0.56,0.143,1,18.83125,27.21955556,23.55291667,20.22914286,23.4472973,3.463381333,3.802316089,68.62375,38.77022222,48.70333333,303.06,310.88,309.98,312.16,308.36,0.141,0.134,0.675,0.623,1,0,1,1,1,4.232056136,3.972666,2.655340195
US-Bi2,7/27/2018,1,1,0,0,0,1,2.9847315,55.62645833,21.93791667,305.62,0.817,0.193,1,24.66666667,23.70291667,24.29216216,24.3975,22.276,3.277084292,3.848161667,46.22208333,50.69229167,55.46648649,305.26,303.56,307.42,301.08,305.4,0.19,0.191,0.847,0.843,1,0,1,1,1,6.983292748,7.6158705,5.47671175
US-Bi2,8/21/2018,1,1,1,0,0,1,3.773145167,76.56958333,16.11145833,300.5,0.776,0.194,1,23.88846154,21.68068182,18.81577778,19.832,23.08682927,1.67944859,1.995170205,48.47538462,58.62977273,68.616,306.62,302.36,301.8,301.88,301.24,0.195,0.195,0.826,0.805,1,0,1,1,1,2.994916207,4.2881393,4.14589119
US-Ced,7/24/2012,1,1,1,1,0,0,2.541934783,62.62830435,27.54632609,305.96,0.808,0.105,1,29.09625,25.454625,21.82369565,15.536875,19.51456522,1.766145833,1.8225,58.13541667,68.76666667,79.16086957,304.78,303.14,302.26,294.3,298.22,0.109,0.133,0.787,0.757,0,1,1,0,0,5.37019727,5.5569906,9.705223083
US-Ced,11/4/2014,0,1,1,1,0,0,1.8223125,43.63770833,13.75104167,289.38,0.65,0.116,1,15.643125,15.5776087,25.27173913,21.475,18.09502083,2.13475,1.69923913,70.10625,81.08806522,64.91891304,293.88,291.74,303.68,294.28,299.12,0.111,0.111,0.732,0.698,0,1,1,0,0,1.895061122,2.1307669,0
US-Ced,5/1/2010,1,0,1,1,0,0,2.166979167,50.6875,23.01064583,298.8,0.68,0.111,1,8.343916667,7.006042553,-3.323104167,7.486875,23.71276596,2.4045,2.329957447,39.85291667,33.41276596,71.7975,287.22,285.76,266.04,286.2,302.92,0.114,0.115,0.621,0.628,0,1,1,0,0,3.839912164,3.3420417,0
DE-Seh,10/9/2010,0,1,0,0,0,1,2.260291867,79.10354167,13.50541667,291.6,0.535,0.146,1,17.70895833,14.84085417,15.11041667,13.896,22.204375,2.643705465,0.776255056,79.561875,76.91479167,67.63708333,293.76,296.82,278.56,293.52,302.66,0.143,0.163,0.615,0.551,0,0,1,1,1,1.601292086,2.8072004,0
DE-Seh,7/2/2009,1,1,1,0,0,1,0.901641529,72.30125,23.476875,302.76,0.721,0.185,1,16.26854167,15.40645833,15.40645833,19.156875,15.43339583,2.263921513,1.721557454,65.17875,61.60583333,61.60583333,298.7,297.28,297.28,299.5,297.72,0.201,0.202,0.72,0.764,0,0,1,1,1,3.089109321,4.0102277,0
DE-Seh,10/10/2010,0,1,0,0,0,1,1.867455442,69.17125,12.3840625,291.08,0.522,0.152,1,13.50541667,17.70895833,14.84085417,15.11041667,13.896,2.260291867,2.643705465,79.10354167,79.561875,76.91479167,291.6,293.76,296.82,278.56,293.52,0.146,0.143,0.535,0.615,0,0,1,1,1,1.934324913,2.9384027,0.481508523
DK-Ris,3/20/2008,0,1,1,0,0,1,2.910208333,79.17395833,0.369270833,279.32,0.424,0.153,1,-0.734208333,1.9628125,5.153979167,4.9060625,11.41166667,2.819791667,1.01,85.41770833,95.70208333,82.90729167,274.58,283.42,275.56,280.7,288.76,0.162,0.144,0.344,0.434,0,1,1,0,1,1.449326986,1.6771922,1.483781815
DK-Ris,7/12/2006,1,1,1,0,0,1,1.006458333,75.970625,15.32270833,298.68,0.718,0.197,1,19.104375,21.96541667,18.16541667,17.52479167,16.78958333,2.44,1.632708333,82.10645833,77.62395833,84.95791667,297.1,302.24,301.48,299.5,298.78,0.196,0.197,0.732,0.795,0,1,1,0,1,2.897421489,3.216718,4.117475986
DK-Ris,7/5/2006,1,1,1,0,0,1,1.97,84.95791667,18.16541667,301.48,0.785,0.197,1,17.52479167,16.78958333,16.10125,17.36833333,14.62770833,1.582291667,1.99875,76.67958333,82.13916667,82.035625,299.5,298.78,298.06,296.5,288.5,0.198,0.2,0.761,0.788,0,1,1,0,1,2.768282681,3.2560952,6.102202892
DK-Ris,5/31/2008,1,0,1,0,0,1,2.300833333,70.82625,15.22,295.1,0.732,0.195,1,14.8325,12.67708333,11.91164583,10.54164583,11.279125,2.789166667,3.328125,70.86479167,71.67625,66.37645833,291.6,286.32,290.84,287.4,296.22,0.192,0.19,0.766,0.697,0,1,1,0,1,4.530451531,4.341165,6.287763596
US-A74,10/1/2016,0,1,0,0,0,1,2.279633333,66.89333333,19.00333333,301.86,0.476,0.16,1,17.43071429,28.57,30.72,26.79666667,23.8525,3.523378571,2.02855,62.28285714,35.895,61.00307692,293.88,299.28,309.22,302.74,301.58,0.164,0.167,0.61,0.505,1,0,0,0,1,2.321160636,3.4524353,3.282812834
FI-Jok,7/17/2003,1,1,1,0,0,1,1.188875,59.99054167,22.51952083,303.92,0.82,0.152,1,9.439854167,10.62745833,11.53029167,9.3898125,8.8108125,2.0851875,3.141666667,69.50664583,69.4666875,78.62675,286.16,291.3,292.74,288.38,287.4,0.146,0.146,0.242,0.767,0,0,0,0,1,5.862500511,5.2637196,2.783199787
FI-Jok,8/5/2001,0,0,0,0,0,1,2.5193125,82.975625,17.72541667,292.56,0.154,0.173,1,15.60825,18.82995833,19.34729167,6.363458333,8.609145833,1.653770833,1.96775,68.76233333,68.34825,78.80989583,295.16,294.46,294.82,283.66,295.3,0.175,0.174,0.839,0.502,0,0,0,0,1,4.173367304,2.653441,1.877559006
FI-Jok,5/11/2002,1,0,1,0,0,1,2.419229167,52.80664583,9.588229167,285.7,0.462,0.125,1,8.640541667,10.7288125,9.95275,8.887604167,-0.651958333,1.414625,2.098979167,49.41166667,55.90783333,58.17260417,294,296.34,295.28,291.54,276.52,0.125,0.128,0.538,0.536,0,0,0,0,1,1.739486824,2.5718958,1.750502229
FI-Jok,5/9/2001,1,0,1,0,0,1,3.157583333,56.98414583,12.6815625,296,0.558,0.11,1,12.9351875,-0.223708333,2.555125,3.667416667,5.002895833,1.988520833,3.188458333,85.80164583,49.6013125,61.50116667,290.72,276.46,273.02,278.86,282.3,0.1,0.09,0.272,0.363,0,0,0,0,1,3.584143788,2.6995637,1.044512749
DE-RuS,3/16/2016,0,1,1,0,0,1,3.534823688,66.43389609,4.890670625,282.98,0.158,0.159,1,4.094889579,2.87866924,5.78375,2.790416667,3.92,2.619872208,2.466954292,67.77320387,79.51891726,74.79520833,284.36,278.54,282.66,279.32,279.84,0.159,0.123,0.558,0.535,1,0,0,0,0,1.385444483,0.96658254,0
DE-RuS,4/7/2018,1,0,0,0,0,1,2.300339729,57.03487371,14.08159896,288.9,0.57,0.164,1,7.382752674,8.362234375,-0.562637276,-0.246480645,0.56002173,2.493253875,2.501234417,69.51692405,72.5605968,53.16415193,289,280.38,276.72,275.74,277.44,0.164,0.149,0.725,0.494,1,0,0,0,0,3.474724102,3.2560952,3.255389929
DE-RuS,1/5/2017,0,0,1,0,0,1,1.897145854,85.70632671,0.038167354,274.2,0.516,0.126,1,0.226791444,5.135722604,8.782731979,18.36037813,17.46214281,0.928869417,2.060688958,94.02919674,88.54317987,92.22551487,275.06,277.8,285.82,291.64,301.88,0.12,0.11,0.71,0.524,1,0,0,0,0,3.531745346,2.5486007,0.072278612
DE-RuS,2/12/2016,0,1,0,0,0,1,2.466954292,79.51891726,2.87866924,278.54,0.535,0.123,1,5.78375,2.790416667,3.92,7.937395833,17.30604167,3.133060929,3.052152125,74.79520833,66.47229167,67.96104167,282.66,279.32,279.84,288.22,297.14,0.155,0.154,0.583,0.607,1,0,0,0,0,1.189705678,1.834918,0.670813978
FR-Gri,7/1/2015,1,1,1,0,0,1,2.304791136,43.40729167,28.36197917,313.5,0.527,0.195,1,20.59395833,18.8228125,14.84489583,21.2484375,14.87635417,1.765810204,2.31383623,53.50635417,61.96083333,70.62458333,304.48,302.44,295.3,303.42,300.78,0.195,0.195,0.565,0.68,0,1,1,1,0,5.280913019,4.6423883,0
